4,0.7217232098477409
6,0.7217232098477409
7,0.8440536570310287
8,0.8440536570310287
9,0.8440536570310287
10,0.8440536570310287
11,0.8440536570310287
12,0.8440536570310287
12,0.8440536570310287
13,0.8440536570310287
14,0.8440536570310287
14,0.8440536570310287
15,0.8440536570310287
16,0.8440536570310287
17,0.8440536570310287
17,0.8440536570310287
18,0.8440536570310287
19,0.8440536570310287
19,0.8440536570310287
20,0.8440536570310287
21,0.8440536570310287
21,0.8440536570310287
22,0.8440536570310287
23,0.8440536570310287
24,0.8440536570310287
24,0.8440536570310287
25,0.8440536570310287
26,0.8440536570310287
26,0.8440536570310287
27,0.8440536570310287
28,0.8440536570310287
29,0.8440536570310287
29,0.8440536570310287
30,0.8440536570310287
31,0.8440536570310287
32,0.8440536570310287
32,0.8440536570310287
33,0.8440536570310287
34,0.8440536570310287
35,0.8440536570310287
35,0.8440536570310287
36,0.8440536570310287
37,0.8440536570310287
37,0.8440536570310287
38,0.8440536570310287
39,0.8440536570310287
40,0.8440536570310287
40,0.8440536570310287
41,0.8440536570310287
42,0.8440536570310287
42,0.8440536570310287
43,0.8440536570310287
44,0.8440536570310287
44,0.8440536570310287
45,0.8440536570310287
46,0.8440536570310287
47,0.8440536570310287
47,0.8440536570310287
48,0.8440536570310287
49,0.8440536570310287
49,0.8440536570310287
50,0.8440536570310287
51,0.8440536570310287
52,0.8440536570310287
52,0.8440536570310287
53,0.8440536570310287
54,0.8440536570310287
54,0.8440536570310287
55,0.8440536570310287
56,0.8440536570310287
57,0.8440536570310287
57,0.8440536570310287
58,0.8440536570310287
59,0.8440536570310287
59,0.8440536570310287
60,0.8440536570310287
61,0.8440536570310287
62,0.8440536570310287
62,0.8440536570310287
63,0.8440536570310287
64,0.8440536570310287
64,0.8440536570310287
65,0.8440536570310287
66,0.8440536570310287
67,0.8440536570310287
67,0.8440536570310287
68,0.8440536570310287
69,0.8440536570310287
69,0.8440536570310287
70,0.8440536570310287
71,0.8440536570310287
72,0.8440536570310287
72,0.8440536570310287
73,0.8440536570310287
74,0.8440536570310287
75,0.8440536570310287
75,0.8440536570310287
76,0.8440536570310287
77,0.8440536570310287
78,0.8440536570310287
78,0.8440536570310287
79,0.8440536570310287
80,0.8440536570310287
81,0.8440536570310287
81,0.8440536570310287
82,0.8440536570310287
83,0.8440536570310287
84,0.8440536570310287
84,0.8440536570310287
85,0.8440536570310287
86,0.8440536570310287
87,0.8440536570310287
87,0.8440536570310287
88,0.8440536570310287
89,0.8440536570310287
90,0.8440536570310287
90,0.8440536570310287
91,0.8440536570310287
92,0.8440536570310287
93,0.8440536570310287
93,0.8440536570310287
94,0.8440536570310287
95,0.8440536570310287
96,0.8440536570310287
96,0.8440536570310287
97,0.8440536570310287
98,0.8440536570310287
99,0.8440536570310287
99,0.8440536570310287
100,0.8440536570310287
101,0.8440536570310287
101,0.8440536570310287
102,0.8440536570310287
103,0.8440536570310287
104,0.8440536570310287
104,0.8440536570310287
105,0.8440536570310287
106,0.8440536570310287
107,0.8440536570310287
109,0.8440536570310287
110,0.8440536570310287
111,0.8440536570310287
112,0.8440536570310287
113,0.8440536570310287
115,0.8440536570310287
115,0.8440536570310287
116,0.8440536570310287
118,0.8440536570310287
118,0.8440536570310287
119,0.8440536570310287
120,0.8440536570310287
121,0.8440536570310287
121,0.8440536570310287
122,0.8440536570310287
123,0.8440536570310287
124,0.8440536570310287
124,0.8440536570310287
125,0.8440536570310287
126,0.8440536570310287
127,0.8440536570310287
128,0.8440536570310287
128,0.8440536570310287
129,0.8440536570310287
130,0.8440536570310287
131,0.8440536570310287
131,0.8440536570310287
132,0.8440536570310287
133,0.8440536570310287
134,0.8440536570310287
135,0.8440536570310287
135,0.8440536570310287
136,0.8440536570310287
137,0.8440536570310287
138,0.8440536570310287
139,0.8440536570310287
139,0.8440536570310287
140,0.8440536570310287
141,0.8440536570310287
142,0.8440536570310287
143,0.8440536570310287
143,0.8440536570310287
144,0.8440536570310287
145,0.8440536570310287
146,0.8440536570310287
147,0.8440536570310287
147,0.8440536570310287
148,0.8440536570310287
149,0.8440536570310287
150,0.8440536570310287
151,0.8440536570310287
151,0.8440536570310287
152,0.8440536570310287
153,0.8440536570310287
154,0.8440536570310287
154,0.8440536570310287
155,0.8440536570310287
156,0.8440536570310287
157,0.8440536570310287
158,0.8440536570310287
159,0.8440536570310287
159,0.8440536570310287
160,0.8440536570310287
161,0.8440536570310287
162,0.8440536570310287
162,0.8440536570310287
163,0.8440536570310287
164,0.8440536570310287
165,0.8440536570310287
165,0.8440536570310287
166,0.8440536570310287
167,0.8440536570310287
168,0.8440536570310287
169,0.8440536570310287
169,0.8440536570310287
170,0.8440536570310287
171,0.8440536570310287
172,0.8440536570310287
173,0.8440536570310287
173,0.8440536570310287
174,0.8440536570310287
175,0.8440536570310287
176,0.8440536570310287
176,0.8440536570310287
177,0.8440536570310287
178,0.8440536570310287
179,0.8440536570310287
180,0.8440536570310287
181,0.8440536570310287
181,0.8440536570310287
182,0.8440536570310287
183,0.8440536570310287
184,0.8440536570310287
184,0.8440536570310287
185,0.8440536570310287
186,0.8440536570310287
187,0.8440536570310287
187,0.8440536570310287
188,0.8440536570310287
189,0.8440536570310287
190,0.8440536570310287
191,0.8440536570310287
191,0.8440536570310287
192,0.8440536570310287
193,0.8440536570310287
194,0.8440536570310287
194,0.8440536570310287
195,0.8440536570310287
196,0.8440536570310287
197,0.8440536570310287
197,0.8440536570310287
198,0.8440536570310287
199,0.8440536570310287
200,0.8440536570310287
201,0.8440536570310287
201,0.8440536570310287
202,0.8440536570310287
203,0.8440536570310287
204,0.8440536570310287
204,0.8440536570310287
205,0.8440536570310287
206,0.8440536570310287
207,0.8440536570310287
208,0.8440536570310287
208,0.8440536570310287
209,0.8440536570310287
210,0.8440536570310287
211,0.8440536570310287
212,0.8440536570310287
212,0.8440536570310287
213,0.8440536570310287
214,0.8440536570310287
215,0.8440536570310287
215,0.8440536570310287
216,0.8440536570310287
217,0.8440536570310287
218,0.8440536570310287
218,0.8440536570310287
219,0.8440536570310287
220,0.8440536570310287
221,0.8440536570310287
221,0.8440536570310287
222,0.8440536570310287
223,0.8440536570310287
224,0.8440536570310287
224,0.8440536570310287
225,0.8440536570310287
226,0.8440536570310287
227,0.8440536570310287
227,0.8440536570310287
228,0.8440536570310287
229,0.8440536570310287
230,0.8440536570310287
230,0.8440536570310287
231,0.8440536570310287
232,0.8440536570310287
233,0.8440536570310287
233,0.8440536570310287
234,0.8440536570310287
235,0.8440536570310287
236,0.8440536570310287
237,0.8440536570310287
237,0.8440536570310287
238,0.8440536570310287
239,0.8440536570310287
240,0.8440536570310287
241,0.8440536570310287
241,0.8440536570310287
242,0.8440536570310287
243,0.8440536570310287
244,0.8440536570310287
244,0.8440536570310287
245,0.8440536570310287
246,0.8440536570310287
247,0.8440536570310287
247,0.8440536570310287
248,0.8440536570310287
249,0.8440536570310287
250,0.8440536570310287
250,0.8440536570310287
251,0.8440536570310287
252,0.8440536570310287
253,0.8440536570310287
253,0.8440536570310287
254,0.8440536570310287
255,0.8440536570310287
256,0.8440536570310287
257,0.8440536570310287
257,0.8440536570310287
258,0.8440536570310287
259,0.8440536570310287
260,0.8440536570310287
260,0.8440536570310287
261,0.8440536570310287
262,0.8440536570310287
263,0.8440536570310287
263,0.8440536570310287
264,0.8440536570310287
265,0.8440536570310287
266,0.8440536570310287
266,0.8440536570310287
267,0.8440536570310287
268,0.8440536570310287
269,0.8440536570310287
269,0.8440536570310287
270,0.8440536570310287
271,0.8440536570310287
272,0.8440536570310287
272,0.8440536570310287
273,0.8440536570310287
274,0.8440536570310287
275,0.8440536570310287
275,0.8440536570310287
276,0.8440536570310287
277,0.8440536570310287
278,0.8440536570310287
278,0.8440536570310287
279,0.8440536570310287
280,0.8440536570310287
281,0.8440536570310287
281,0.8440536570310287
282,0.8440536570310287
283,0.8440536570310287
284,0.8440536570310287
285,0.8440536570310287
286,0.8440536570310287
286,0.8440536570310287
287,0.8440536570310287
288,0.8440536570310287
289,0.8440536570310287
289,0.8440536570310287
290,0.8440536570310287
291,0.8440536570310287
291,0.8440536570310287
292,0.8440536570310287
293,0.8440536570310287
294,0.8440536570310287
295,0.8440536570310287
295,0.8440536570310287
296,0.8440536570310287
297,0.8440536570310287
298,0.8440536570310287
298,0.8440536570310287
299,0.8440536570310287
300,0.8440536570310287
301,0.8440536570310287
301,0.8440536570310287
302,0.8440536570310287
303,0.8440536570310287
304,0.8440536570310287
304,0.8440536570310287
305,0.8440536570310287
306,0.8440536570310287
306,0.8440536570310287
307,0.8440536570310287
308,0.8440536570310287
309,0.8440536570310287
310,0.8440536570310287
310,0.8440536570310287
311,0.8440536570310287
312,0.8440536570310287
313,0.8440536570310287
313,0.8440536570310287
314,0.8440536570310287
315,0.8440536570310287
316,0.8440536570310287
316,0.8440536570310287
317,0.8440536570310287
318,0.8440536570310287
319,0.8440536570310287
319,0.8440536570310287
320,0.8440536570310287
321,0.8440536570310287
322,0.8440536570310287
323,0.8440536570310287
323,0.8440536570310287
324,0.8440536570310287
325,0.8440536570310287
325,0.8440536570310287
326,0.8440536570310287
327,0.8440536570310287
328,0.8440536570310287
328,0.8440536570310287
329,0.8440536570310287
330,0.8440536570310287
331,0.8440536570310287
331,0.8440536570310287
332,0.8440536570310287
333,0.8440536570310287
334,0.8440536570310287
336,0.8440536570310287
337,0.8440536570310287
338,0.8440536570310287
339,0.8440536570310287
339,0.8440536570310287
340,0.8440536570310287
341,0.8440536570310287
342,0.8440536570310287
343,0.8440536570310287
344,0.8440536570310287
344,0.8440536570310287
345,0.8440536570310287
346,0.8440536570310287
347,0.8440536570310287
348,0.8440536570310287
348,0.8440536570310287
349,0.8440536570310287
350,0.8440536570310287
351,0.8440536570310287
352,0.8440536570310287
353,0.8440536570310287
354,0.8440536570310287
355,0.8440536570310287
356,0.8440536570310287
357,0.8440536570310287
358,0.8440536570310287
359,0.8440536570310287
360,0.8440536570310287
361,0.8440536570310287
361,0.8440536570310287
362,0.8440536570310287
364,0.8440536570310287
364,0.8440536570310287
365,0.8440536570310287
366,0.8440536570310287
367,0.8440536570310287
368,0.8440536570310287
368,0.8440536570310287
369,0.8440536570310287
370,0.8440536570310287
371,0.8440536570310287
372,0.8440536570310287
373,0.8440536570310287
374,0.8440536570310287
375,0.8440536570310287
376,0.8440536570310287
377,0.8440536570310287
378,0.8440536570310287
379,0.8440536570310287
380,0.8440536570310287
381,0.8440536570310287
382,0.8440536570310287
383,0.8440536570310287
384,0.8440536570310287
385,0.8440536570310287
386,0.8440536570310287
387,0.8440536570310287
388,0.8440536570310287
389,0.8440536570310287
390,0.8440536570310287
391,0.8440536570310287
392,0.8440536570310287
392,0.8440536570310287
393,0.8440536570310287
394,0.8440536570310287
395,0.8440536570310287
396,0.8440536570310287
397,0.8440536570310287
398,0.8440536570310287
399,0.8440536570310287
399,0.8440536570310287
