1,0.6496080257210843
2,0.7386049944572015
3,0.7386049944572015
3,0.7386049944572015
4,0.7386049944572015
5,0.7386049944572015
6,0.7386049944572015
7,0.7386049944572015
7,0.7386049944572015
8,0.7386049944572015
9,0.7386049944572015
10,0.7386049944572015
10,0.7386049944572015
11,0.7386049944572015
12,0.7386049944572015
13,0.7386049944572015
13,0.7386049944572015
14,0.7386049944572015
15,0.7386049944572015
16,0.7386049944572015
16,0.7386049944572015
17,0.7386049944572015
18,0.7386049944572015
18,0.7386049944572015
19,0.7386049944572015
20,0.7386049944572015
21,0.7386049944572015
21,0.7386049944572015
22,0.7386049944572015
23,0.7386049944572015
23,0.7386049944572015
24,0.7386049944572015
25,0.7386049944572015
25,0.7386049944572015
26,0.7386049944572015
27,0.7386049944572015
28,0.7386049944572015
28,0.7386049944572015
29,0.7386049944572015
30,0.7386049944572015
30,0.7386049944572015
31,0.7386049944572015
32,0.7386049944572015
32,0.7386049944572015
33,0.7386049944572015
34,0.7386049944572015
35,0.7386049944572015
35,0.7386049944572015
36,0.7386049944572015
37,0.7386049944572015
38,0.7386049944572015
38,0.7386049944572015
39,0.7386049944572015
40,0.7386049944572015
41,0.7386049944572015
41,0.7386049944572015
42,0.7386049944572015
43,0.7386049944572015
43,0.7386049944572015
44,0.7386049944572015
45,0.7386049944572015
45,0.7386049944572015
46,0.7386049944572015
47,0.7386049944572015
48,0.7386049944572015
48,0.7386049944572015
49,0.7386049944572015
50,0.7386049944572015
51,0.7386049944572015
51,0.7386049944572015
52,0.7386049944572015
53,0.7386049944572015
54,0.7386049944572015
55,0.7386049944572015
55,0.7386049944572015
56,0.7386049944572015
57,0.7386049944572015
57,0.7386049944572015
58,0.7386049944572015
59,0.7386049944572015
60,0.7386049944572015
60,0.7386049944572015
61,0.7386049944572015
62,0.7386049944572015
63,0.7386049944572015
63,0.7386049944572015
64,0.7386049944572015
65,0.7386049944572015
65,0.7386049944572015
66,0.7386049944572015
67,0.7386049944572015
68,0.7386049944572015
68,0.7386049944572015
69,0.7386049944572015
70,0.7386049944572015
71,0.7386049944572015
71,0.7386049944572015
72,0.7386049944572015
73,0.7386049944572015
74,0.7386049944572015
74,0.7386049944572015
75,0.7386049944572015
76,0.7386049944572015
77,0.7386049944572015
78,0.7386049944572015
78,0.7386049944572015
79,0.7386049944572015
80,0.7386049944572015
81,0.7386049944572015
82,0.7386049944572015
82,0.7386049944572015
83,0.7386049944572015
84,0.7386049944572015
85,0.7386049944572015
86,0.7386049944572015
86,0.7386049944572015
87,0.7386049944572015
88,0.7386049944572015
88,0.7386049944572015
89,0.7386049944572015
90,0.7386049944572015
91,0.7386049944572015
91,0.7386049944572015
92,0.7386049944572015
93,0.7386049944572015
94,0.7386049944572015
95,0.7386049944572015
96,0.7386049944572015
96,0.7386049944572015
97,0.7386049944572015
98,0.7386049944572015
99,0.7386049944572015
99,0.7386049944572015
100,0.7386049944572015
101,0.7386049944572015
102,0.7386049944572015
102,0.7386049944572015
103,0.7386049944572015
104,0.7386049944572015
105,0.7386049944572015
106,0.7386049944572015
107,0.7386049944572015
108,0.7386049944572015
109,0.7386049944572015
110,0.7386049944572015
111,0.7386049944572015
112,0.7386049944572015
112,0.7386049944572015
113,0.7386049944572015
115,0.7386049944572015
115,0.7386049944572015
116,0.7386049944572015
117,0.7386049944572015
118,0.7386049944572015
119,0.7386049944572015
120,0.7386049944572015
121,0.7386049944572015
121,0.7386049944572015
122,0.7386049944572015
123,0.7386049944572015
124,0.7386049944572015
125,0.7386049944572015
126,0.7386049944572015
127,0.7386049944572015
128,0.7386049944572015
128,0.7386049944572015
129,0.7386049944572015
130,0.7386049944572015
131,0.7386049944572015
132,0.7386049944572015
132,0.7386049944572015
133,0.7386049944572015
134,0.7386049944572015
136,0.7386049944572015
136,0.7386049944572015
137,0.7386049944572015
139,0.7386049944572015
140,0.7386049944572015
141,0.7386049944572015
142,0.7386049944572015
143,0.7386049944572015
143,0.7386049944572015
144,0.7386049944572015
145,0.7386049944572015
146,0.7386049944572015
147,0.7386049944572015
148,0.7386049944572015
148,0.7386049944572015
149,0.7386049944572015
150,0.7386049944572015
151,0.7386049944572015
152,0.7386049944572015
153,0.7386049944572015
153,0.7386049944572015
154,0.7386049944572015
155,0.7386049944572015
156,0.7386049944572015
157,0.7386049944572015
158,0.7386049944572015
159,0.7386049944572015
160,0.7386049944572015
162,0.7386049944572015
163,0.7386049944572015
164,0.7386049944572015
165,0.7386049944572015
166,0.7386049944572015
167,0.7386049944572015
168,0.7386049944572015
169,0.7386049944572015
170,0.7386049944572015
171,0.7386049944572015
171,0.7386049944572015
172,0.7386049944572015
173,0.7386049944572015
174,0.7386049944572015
175,0.7386049944572015
175,0.7386049944572015
176,0.7386049944572015
177,0.7386049944572015
179,0.7386049944572015
179,0.7386049944572015
180,0.7386049944572015
181,0.7386049944572015
182,0.7386049944572015
183,0.7386049944572015
184,0.7386049944572015
185,0.7386049944572015
186,0.7386049944572015
187,0.7386049944572015
187,0.7386049944572015
188,0.7386049944572015
189,0.7386049944572015
190,0.7386049944572015
191,0.7386049944572015
192,0.7386049944572015
193,0.7386049944572015
194,0.7386049944572015
194,0.7386049944572015
195,0.7386049944572015
196,0.7386049944572015
197,0.7386049944572015
198,0.7386049944572015
199,0.7386049944572015
200,0.7386049944572015
201,0.7386049944572015
201,0.7386049944572015
202,0.7386049944572015
203,0.7386049944572015
204,0.7386049944572015
205,0.7386049944572015
206,0.7386049944572015
207,0.7386049944572015
208,0.7386049944572015
208,0.7386049944572015
209,0.7386049944572015
210,0.7386049944572015
211,0.7386049944572015
212,0.7386049944572015
213,0.7386049944572015
213,0.7386049944572015
214,0.7386049944572015
215,0.7386049944572015
216,0.7386049944572015
217,0.7386049944572015
218,0.7386049944572015
219,0.7386049944572015
219,0.7386049944572015
220,0.7386049944572015
221,0.7386049944572015
222,0.7386049944572015
223,0.7386049944572015
223,0.7386049944572015
224,0.7386049944572015
225,0.7386049944572015
226,0.7386049944572015
227,0.7386049944572015
228,0.7386049944572015
228,0.7386049944572015
229,0.7386049944572015
230,0.7386049944572015
231,0.7386049944572015
232,0.7386049944572015
233,0.7386049944572015
234,0.7386049944572015
235,0.7386049944572015
236,0.7386049944572015
237,0.7386049944572015
237,0.7386049944572015
238,0.7386049944572015
239,0.7386049944572015
240,0.7386049944572015
241,0.7386049944572015
242,0.7386049944572015
242,0.7386049944572015
243,0.7386049944572015
244,0.7386049944572015
245,0.7386049944572015
245,0.7386049944572015
246,0.7386049944572015
247,0.7386049944572015
248,0.7386049944572015
248,0.7386049944572015
249,0.7386049944572015
251,0.7386049944572015
252,0.7386049944572015
253,0.7386049944572015
254,0.7386049944572015
255,0.7386049944572015
256,0.7386049944572015
256,0.7386049944572015
257,0.7386049944572015
258,0.7386049944572015
259,0.7386049944572015
260,0.7386049944572015
261,0.7386049944572015
262,0.7386049944572015
264,0.7386049944572015
265,0.7386049944572015
266,0.7386049944572015
267,0.7386049944572015
268,0.7386049944572015
269,0.7386049944572015
270,0.7386049944572015
271,0.7386049944572015
272,0.7386049944572015
273,0.7386049944572015
274,0.7386049944572015
275,0.7386049944572015
276,0.7386049944572015
277,0.7386049944572015
278,0.7386049944572015
279,0.7386049944572015
280,0.7386049944572015
281,0.7386049944572015
281,0.7386049944572015
282,0.7386049944572015
283,0.7386049944572015
284,0.7386049944572015
285,0.7386049944572015
286,0.7386049944572015
287,0.7386049944572015
288,0.7386049944572015
288,0.7386049944572015
290,0.7386049944572015
291,0.7386049944572015
292,0.7386049944572015
292,0.7386049944572015
293,0.7386049944572015
294,0.7386049944572015
295,0.7386049944572015
296,0.7386049944572015
297,0.7386049944572015
298,0.7386049944572015
299,0.7386049944572015
299,0.7386049944572015
300,0.7386049944572015
301,0.7386049944572015
302,0.7386049944572015
303,0.7386049944572015
304,0.7386049944572015
304,0.7386049944572015
305,0.7386049944572015
306,0.7386049944572015
307,0.7386049944572015
307,0.7386049944572015
308,0.7386049944572015
309,0.7386049944572015
310,0.7386049944572015
311,0.7386049944572015
312,0.7386049944572015
312,0.7386049944572015
313,0.7386049944572015
314,0.7386049944572015
315,0.7386049944572015
316,0.7386049944572015
317,0.7386049944572015
317,0.7386049944572015
318,0.7386049944572015
319,0.7386049944572015
320,0.7386049944572015
321,0.7386049944572015
321,0.7386049944572015
323,0.7386049944572015
325,0.7386049944572015
326,0.7386049944572015
327,0.7386049944572015
328,0.7386049944572015
329,0.7386049944572015
329,0.7386049944572015
330,0.7386049944572015
331,0.7386049944572015
332,0.7386049944572015
333,0.7386049944572015
333,0.7386049944572015
334,0.7386049944572015
335,0.7386049944572015
336,0.7386049944572015
337,0.7386049944572015
338,0.7386049944572015
339,0.7386049944572015
339,0.7386049944572015
340,0.7386049944572015
341,0.7386049944572015
342,0.7386049944572015
343,0.7386049944572015
343,0.7386049944572015
344,0.7386049944572015
345,0.7386049944572015
346,0.7386049944572015
347,0.7386049944572015
347,0.7386049944572015
348,0.7386049944572015
349,0.7386049944572015
350,0.7386049944572015
351,0.7386049944572015
351,0.7386049944572015
352,0.7386049944572015
353,0.7386049944572015
354,0.7386049944572015
355,0.7386049944572015
355,0.7386049944572015
356,0.7386049944572015
357,0.7386049944572015
358,0.7386049944572015
358,0.7386049944572015
359,0.7386049944572015
360,0.7386049944572015
361,0.7386049944572015
361,0.7386049944572015
362,0.7386049944572015
363,0.7386049944572015
363,0.7386049944572015
364,0.7386049944572015
365,0.7386049944572015
366,0.7386049944572015
366,0.7386049944572015
367,0.7386049944572015
368,0.7386049944572015
369,0.7386049944572015
370,0.7386049944572015
370,0.7386049944572015
371,0.7386049944572015
372,0.7386049944572015
373,0.7386049944572015
374,0.7386049944572015
374,0.7386049944572015
375,0.7386049944572015
376,0.7386049944572015
377,0.7386049944572015
377,0.7386049944572015
378,0.7386049944572015
379,0.7386049944572015
380,0.7386049944572015
381,0.7386049944572015
381,0.7386049944572015
382,0.7386049944572015
383,0.7386049944572015
384,0.7386049944572015
385,0.7386049944572015
385,0.7386049944572015
386,0.7386049944572015
387,0.7386049944572015
388,0.7386049944572015
388,0.7386049944572015
389,0.7386049944572015
390,0.7386049944572015
391,0.7386049944572015
392,0.7386049944572015
392,0.7386049944572015
393,0.7386049944572015
394,0.7386049944572015
395,0.7386049944572015
395,0.7386049944572015
396,0.7386049944572015
397,0.7386049944572015
398,0.7386049944572015
399,0.7386049944572015
399,0.7386049944572015
400,0.7386049944572015
401,0.7386049944572015
402,0.7386049944572015
402,0.7386049944572015
403,0.7386049944572015
404,0.7386049944572015
405,0.7386049944572015
406,0.7386049944572015
406,0.7386049944572015
407,0.7386049944572015
408,0.7386049944572015
409,0.7386049944572015
409,0.7386049944572015
410,0.7386049944572015
411,0.7386049944572015
412,0.7386049944572015
412,0.7386049944572015
413,0.7386049944572015
414,0.7386049944572015
415,0.7386049944572015
415,0.7386049944572015
416,0.7386049944572015
