7,0.725284497345515
11,0.725284497345515
15,0.7608111245628187
18,0.7608111245628187
22,0.7608111245628187
26,0.7608111245628187
30,0.7608111245628187
33,0.7608111245628187
37,0.7608111245628187
40,0.7608111245628187
44,0.7608111245628187
48,0.7608111245628187
51,0.7608111245628187
55,0.7608111245628187
58,0.7608111245628187
61,0.7608111245628187
65,0.7608111245628187
68,0.7608111245628187
72,0.7608111245628187
75,0.7608111245628187
78,0.7608111245628187
82,0.7608111245628187
86,0.7608111245628187
91,0.7608111245628187
94,0.7608111245628187
98,0.7608111245628187
102,0.7608111245628187
106,0.7608111245628187
110,0.7608111245628187
114,0.7608111245628187
118,0.7608111245628187
122,0.7608111245628187
126,0.7608111245628187
130,0.7608111245628187
134,0.7608111245628187
138,0.7608111245628187
142,0.7608111245628187
146,0.7608111245628187
151,0.7608111245628187
155,0.7608111245628187
159,0.7608111245628187
163,0.7608111245628187
167,0.7608111245628187
171,0.7608111245628187
175,0.7608111245628187
179,0.7608111245628187
183,0.7608111245628187
188,0.7608111245628187
192,0.7608111245628187
197,0.7608111245628187
201,0.7608111245628187
204,0.7608111245628187
208,0.7608111245628187
212,0.7608111245628187
216,0.7608111245628187
220,0.7608111245628187
224,0.7608111245628187
228,0.7608111245628187
232,0.7608111245628187
235,0.7608111245628187
239,0.7608111245628187
243,0.7608111245628187
247,0.7608111245628187
251,0.7608111245628187
255,0.7608111245628187
259,0.7608111245628187
263,0.7608111245628187
267,0.7608111245628187
271,0.7608111245628187
274,0.7608111245628187
278,0.7608111245628187
282,0.7608111245628187
286,0.7608111245628187
291,0.7608111245628187
295,0.7608111245628187
299,0.7608111245628187
303,0.7608111245628187
307,0.7608111245628187
311,0.7608111245628187
316,0.7608111245628187
320,0.7608111245628187
325,0.7608111245628187
329,0.7608111245628187
333,0.7608111245628187
338,0.7608111245628187
343,0.7608111245628187
347,0.7608111245628187
351,0.7608111245628187
355,0.7608111245628187
359,0.7608111245628187
363,0.7608111245628187
368,0.7608111245628187
372,0.7608111245628187
377,0.7608111245628187
381,0.7608111245628187
386,0.7608111245628187
390,0.7608111245628187
394,0.7608111245628187
398,0.7608111245628187
403,0.7608111245628187
407,0.7608111245628187
412,0.7608111245628187
416,0.7608111245628187
421,0.7608111245628187
425,0.7608111245628187
430,0.7608111245628187
435,0.7608111245628187
439,0.7608111245628187
444,0.7608111245628187
449,0.7608111245628187
453,0.7608111245628187
458,0.7608111245628187
463,0.7608111245628187
467,0.7608111245628187
472,0.7608111245628187
476,0.7608111245628187
481,0.7608111245628187
485,0.7608111245628187
489,0.7608111245628187
494,0.7608111245628187
498,0.7608111245628187
502,0.7608111245628187
507,0.7608111245628187
511,0.7608111245628187
516,0.7608111245628187
521,0.7608111245628187
526,0.7608111245628187
530,0.7608111245628187
535,0.7608111245628187
540,0.7608111245628187
544,0.7608111245628187
549,0.7608111245628187
553,0.7608111245628187
558,0.7608111245628187
563,0.7608111245628187
568,0.7608111245628187
572,0.7608111245628187
577,0.7608111245628187
582,0.7608111245628187
586,0.7608111245628187
591,0.7608111245628187
596,0.7608111245628187
601,0.7608111245628187
605,0.7608111245628187
610,0.7608111245628187
615,0.7608111245628187
619,0.7608111245628187
624,0.7608111245628187
628,0.7608111245628187
633,0.7608111245628187
