0,0.24665250629398935
0,0.24665250629398935
0,0.24665250629398935
0,0.24665250629398935
0,0.24665250629398935
0,0.24665250629398935
0,0.24665250629398935
0,0.24665250629398935
0,0.24665250629398935
0,0.24665250629398935
0,0.24665250629398935
0,0.24665250629398935
0,0.24665250629398935
0,0.24665250629398935
0,0.24665250629398935
0,0.24665250629398935
0,0.24665250629398935
0,0.24665250629398935
0,0.24665250629398935
0,0.24665250629398935
0,0.24665250629398935
0,0.24665250629398935
0,0.24665250629398935
0,0.24665250629398935
0,0.4506738532397956
0,0.4506738532397956
1,0.4506738532397956
1,0.4506738532397956
1,0.4506738532397956
1,0.4506738532397956
1,0.4506738532397956
1,0.4506738532397956
1,0.4506738532397956
1,0.4506738532397956
1,0.4506738532397956
1,0.4506738532397956
1,0.4506738532397956
1,0.4506738532397956
1,0.4506738532397956
1,0.4506738532397956
1,0.4506738532397956
1,0.4506738532397956
1,0.4506738532397956
1,0.4506738532397956
1,0.4506738532397956
1,0.4506738532397956
1,0.4506738532397956
1,0.4506738532397956
1,0.4506738532397956
1,0.5573593234048494
1,0.5573593234048494
1,0.5573593234048494
2,0.5573593234048494
2,0.5573593234048494
2,0.5573593234048494
2,0.5573593234048494
2,0.5573593234048494
2,0.5573593234048494
2,0.5573593234048494
2,0.5573593234048494
2,0.5573593234048494
2,0.5573593234048494
2,0.5573593234048494
2,0.5573593234048494
2,0.5573593234048494
2,0.5573593234048494
2,0.5573593234048494
2,0.5573593234048494
2,0.5573593234048494
2,0.5573593234048494
2,0.5573593234048494
2,0.5573593234048494
2,0.5573593234048494
2,0.5573593234048494
2,0.5611028022170877
2,0.5611028022170877
2,0.5611028022170877
3,0.5611028022170877
3,0.5611028022170877
3,0.5611028022170877
3,0.5611028022170877
3,0.5611028022170877
3,0.5611028022170877
3,0.5611028022170877
3,0.5611028022170877
3,0.5611028022170877
3,0.5611028022170877
3,0.5611028022170877
3,0.5611028022170877
3,0.5611028022170877
3,0.5611028022170877
3,0.5611028022170877
3,0.5611028022170877
3,0.5611028022170877
3,0.5611028022170877
3,0.5611028022170877
3,0.5611028022170877
3,0.5611028022170877
3,0.5611028022170877
4,0.5945482161272723
4,0.5945482161272723
4,0.5945482161272723
4,0.5945482161272723
4,0.5945482161272723
4,0.5945482161272723
4,0.5945482161272723
4,0.5945482161272723
4,0.5945482161272723
4,0.5945482161272723
4,0.5945482161272723
4,0.5945482161272723
4,0.5945482161272723
4,0.5945482161272723
4,0.5945482161272723
4,0.5945482161272723
4,0.5945482161272723
4,0.5945482161272723
4,0.5945482161272723
4,0.5945482161272723
4,0.5945482161272723
5,0.5945482161272723
5,0.5945482161272723
5,0.5945482161272723
5,0.5945482161272723
5,0.616582074452193
5,0.616582074452193
5,0.616582074452193
5,0.616582074452193
5,0.616582074452193
5,0.616582074452193
5,0.616582074452193
5,0.616582074452193
5,0.616582074452193
5,0.616582074452193
5,0.616582074452193
5,0.616582074452193
5,0.616582074452193
5,0.616582074452193
5,0.616582074452193
6,0.616582074452193
6,0.616582074452193
6,0.616582074452193
6,0.616582074452193
6,0.616582074452193
6,0.616582074452193
6,0.616582074452193
6,0.616582074452193
6,0.616582074452193
6,0.616582074452193
6,0.6286280895255211
6,0.6286280895255211
6,0.6286280895255211
6,0.6286280895255211
6,0.6286280895255211
6,0.6286280895255211
6,0.6286280895255211
6,0.6286280895255211
6,0.6286280895255211
7,0.6286280895255211
7,0.6286280895255211
7,0.6286280895255211
7,0.6286280895255211
7,0.6286280895255211
7,0.6286280895255211
7,0.6286280895255211
7,0.6286280895255211
7,0.6286280895255211
7,0.6286280895255211
7,0.6286280895255211
7,0.6286280895255211
7,0.6286280895255211
7,0.6286280895255211
7,0.6286280895255211
7,0.6286280895255211
7,0.6585415482334258
7,0.6585415482334258
8,0.6585415482334258
8,0.6585415482334258
8,0.6585415482334258
8,0.6585415482334258
8,0.6585415482334258
8,0.6585415482334258
8,0.6585415482334258
8,0.6585415482334258
8,0.6585415482334258
8,0.6585415482334258
8,0.6585415482334258
8,0.6585415482334258
8,0.6585415482334258
8,0.6585415482334258
8,0.6585415482334258
8,0.6585415482334258
8,0.6585415482334258
8,0.6585415482334258
9,0.6585415482334258
9,0.6585415482334258
9,0.6585415482334258
9,0.6585415482334258
9,0.6585415482334258
9,0.6611360919348255
9,0.6611360919348255
9,0.6611360919348255
9,0.6611360919348255
9,0.6611360919348255
9,0.6611360919348255
9,0.6611360919348255
9,0.6611360919348255
9,0.6611360919348255
9,0.6611360919348255
9,0.6611360919348255
9,0.6611360919348255
9,0.6611360919348255
10,0.6611360919348255
10,0.6611360919348255
10,0.6611360919348255
10,0.6611360919348255
10,0.6611360919348255
10,0.6611360919348255
10,0.6611360919348255
10,0.6611360919348255
10,0.6611360919348255
10,0.6611360919348255
10,0.6611360919348255
10,0.6611360919348255
10,0.6611360919348255
10,0.6611360919348255
10,0.6611360919348255
10,0.6611360919348255
10,0.6611360919348255
10,0.6611360919348255
11,0.6611360919348255
11,0.6611360919348255
11,0.6611360919348255
11,0.6611360919348255
11,0.6611360919348255
11,0.6611360919348255
11,0.6611360919348255
11,0.6611360919348255
11,0.6611360919348255
11,0.6611360919348255
11,0.6611360919348255
11,0.6611360919348255
11,0.6611360919348255
11,0.6611360919348255
11,0.6611360919348255
11,0.6611360919348255
11,0.6611360919348255
11,0.6611360919348255
12,0.6611360919348255
12,0.6617434150177326
12,0.6617434150177326
12,0.6617434150177326
12,0.6617434150177326
12,0.6617434150177326
12,0.6617434150177326
12,0.6617434150177326
12,0.6617434150177326
12,0.6617434150177326
12,0.6617434150177326
12,0.6617434150177326
12,0.6617434150177326
12,0.6617434150177326
12,0.6617434150177326
12,0.6617434150177326
12,0.6617434150177326
12,0.6617434150177326
13,0.6617434150177326
13,0.6617434150177326
13,0.6617434150177326
13,0.6617434150177326
13,0.6617434150177326
13,0.6617434150177326
13,0.6617434150177326
13,0.6617434150177326
13,0.6869898128930039
13,0.6869898128930039
13,0.6869898128930039
13,0.6869898128930039
13,0.6869898128930039
13,0.6869898128930039
13,0.6869898128930039
13,0.6869898128930039
13,0.6869898128930039
13,0.6869898128930039
14,0.6869898128930039
14,0.6869898128930039
14,0.6869898128930039
14,0.6869898128930039
14,0.6869898128930039
14,0.6869898128930039
14,0.6869898128930039
14,0.6869898128930039
14,0.6869898128930039
14,0.6869898128930039
14,0.6869898128930039
14,0.6869898128930039
14,0.6869898128930039
14,0.6869898128930039
14,0.6869898128930039
14,0.6989647198985922
14,0.6989647198985922
14,0.6989647198985922
14,0.6989647198985922
15,0.6989647198985922
15,0.6989647198985922
15,0.6989647198985922
15,0.6989647198985922
15,0.6989647198985922
15,0.6989647198985922
15,0.6989647198985922
15,0.6989647198985922
15,0.6989647198985922
15,0.6989647198985922
15,0.6989647198985922
15,0.6989647198985922
15,0.6989647198985922
15,0.6989647198985922
15,0.6989647198985922
15,0.6989647198985922
15,0.6989647198985922
15,0.6989647198985922
16,0.6989647198985922
16,0.6989647198985922
16,0.6989647198985922
16,0.7065121433785714
16,0.7065121433785714
16,0.7065121433785714
16,0.7065121433785714
16,0.7065121433785714
16,0.7065121433785714
16,0.7065121433785714
16,0.7065121433785714
16,0.7065121433785714
16,0.7065121433785714
16,0.7065121433785714
16,0.7065121433785714
16,0.7065121433785714
16,0.7065121433785714
16,0.7065121433785714
17,0.7065121433785714
17,0.7065121433785714
17,0.7065121433785714
17,0.7065121433785714
17,0.7065121433785714
17,0.7065121433785714
17,0.7065121433785714
17,0.7065121433785714
17,0.7065121433785714
17,0.7065121433785714
17,0.7065121433785714
17,0.7065121433785714
17,0.7065121433785714
17,0.7065121433785714
17,0.7065121433785714
17,0.7065121433785714
17,0.7065121433785714
17,0.7065121433785714
18,0.7065121433785714
18,0.7065121433785714
18,0.7065121433785714
18,0.7065121433785714
18,0.7065121433785714
18,0.7065121433785714
18,0.7065121433785714
18,0.7065121433785714
18,0.7065121433785714
18,0.7065121433785714
18,0.7065121433785714
18,0.7065121433785714
18,0.7065121433785714
18,0.7065121433785714
18,0.7065121433785714
18,0.7065121433785714
18,0.7065121433785714
18,0.7097297732768238
19,0.7097297732768238
19,0.7097297732768238
19,0.7097297732768238
19,0.7097297732768238
19,0.7097297732768238
19,0.7097297732768238
19,0.7097297732768238
19,0.7097297732768238
19,0.7097297732768238
19,0.7097297732768238
19,0.7097297732768238
19,0.7097297732768238
19,0.7097297732768238
19,0.7097297732768238
19,0.7097297732768238
19,0.7097297732768238
19,0.7097297732768238
20,0.7097297732768238
20,0.7097297732768238
20,0.7097297732768238
20,0.7097297732768238
20,0.7097297732768238
20,0.7097297732768238
20,0.7097297732768238
20,0.7145080155637767
20,0.7145080155637767
20,0.7145080155637767
20,0.7145080155637767
20,0.7145080155637767
20,0.7145080155637767
20,0.7145080155637767
20,0.7145080155637767
20,0.7145080155637767
20,0.7145080155637767
21,0.7145080155637767
21,0.7145080155637767
21,0.7145080155637767
21,0.7145080155637767
21,0.7145080155637767
21,0.7145080155637767
21,0.7145080155637767
21,0.7145080155637767
21,0.7145080155637767
21,0.7145080155637767
21,0.7145080155637767
21,0.7145080155637767
21,0.7145080155637767
21,0.7145080155637767
21,0.7145080155637767
21,0.7145080155637767
21,0.7145080155637767
22,0.7145080155637767
22,0.7145080155637767
22,0.7145080155637767
22,0.7145080155637767
22,0.7145080155637767
22,0.7145080155637767
22,0.7145080155637767
22,0.7145080155637767
22,0.7145080155637767
22,0.7145080155637767
22,0.7145080155637767
22,0.7145080155637767
22,0.7145080155637767
22,0.7145080155637767
22,0.7145080155637767
22,0.7145080155637767
22,0.7145080155637767
23,0.7145080155637767
23,0.7145080155637767
23,0.7145080155637767
23,0.7145080155637767
23,0.7145080155637767
23,0.7145080155637767
23,0.7172277470149955
23,0.7172277470149955
23,0.7172277470149955
23,0.7172277470149955
23,0.7172277470149955
23,0.7172277470149955
23,0.7172277470149955
23,0.7172277470149955
23,0.7172277470149955
23,0.7172277470149955
24,0.7172277470149955
24,0.7172277470149955
24,0.7172277470149955
24,0.7172277470149955
24,0.7172277470149955
24,0.7172277470149955
24,0.7172277470149955
24,0.7172277470149955
24,0.7172277470149955
24,0.7172277470149955
24,0.7172277470149955
24,0.7172277470149955
24,0.7172277470149955
24,0.7172277470149955
24,0.7172277470149955
24,0.7172277470149955
24,0.7172277470149955
25,0.7172277470149955
25,0.7172277470149955
25,0.7172277470149955
25,0.7172277470149955
25,0.7172277470149955
25,0.7172277470149955
25,0.7172277470149955
25,0.7172277470149955
25,0.7172277470149955
25,0.7172277470149955
25,0.7172277470149955
25,0.7172277470149955
25,0.7172277470149955
25,0.7172277470149955
25,0.7172277470149955
25,0.7172277470149955
26,0.7172277470149955
26,0.7172277470149955
26,0.7172277470149955
26,0.7172277470149955
26,0.7172277470149955
26,0.7172277470149955
26,0.7172277470149955
26,0.7172277470149955
26,0.7172277470149955
26,0.7172277470149955
26,0.7172277470149955
26,0.7172277470149955
26,0.7172277470149955
26,0.7172277470149955
26,0.7172277470149955
26,0.7172277470149955
26,0.7172277470149955
27,0.7172277470149955
27,0.7172277470149955
27,0.7172277470149955
27,0.7172277470149955
27,0.7172277470149955
27,0.7172277470149955
27,0.7172277470149955
27,0.7172277470149955
27,0.7172277470149955
27,0.7172277470149955
27,0.7172277470149955
27,0.7172277470149955
27,0.7172277470149955
27,0.7172277470149955
27,0.7172277470149955
27,0.7233453591277532
27,0.7233453591277532
28,0.7233453591277532
28,0.7233453591277532
28,0.7233453591277532
28,0.7233453591277532
28,0.7233453591277532
28,0.7233453591277532
28,0.7233453591277532
28,0.7233453591277532
28,0.7233453591277532
28,0.7233453591277532
28,0.7233453591277532
28,0.7233453591277532
28,0.7233453591277532
28,0.7233453591277532
28,0.7233453591277532
28,0.7233453591277532
29,0.7233453591277532
29,0.7233453591277532
29,0.7233453591277532
29,0.7233453591277532
29,0.7233453591277532
29,0.7233453591277532
29,0.7233453591277532
29,0.7260757726721306
29,0.7260757726721306
29,0.7260757726721306
29,0.7260757726721306
29,0.7260757726721306
29,0.7260757726721306
29,0.7260757726721306
29,0.7260757726721306
29,0.7260757726721306
29,0.7260757726721306
30,0.7260757726721306
30,0.7260757726721306
30,0.7260757726721306
30,0.7260757726721306
30,0.7260757726721306
30,0.7260757726721306
30,0.7260757726721306
30,0.7260757726721306
30,0.7260757726721306
30,0.7260757726721306
30,0.7260757726721306
30,0.7260757726721306
30,0.7260757726721306
30,0.7260757726721306
30,0.7260757726721306
30,0.7280383514422756
30,0.7280383514422756
31,0.7280383514422756
31,0.7280383514422756
31,0.7280383514422756
31,0.7280383514422756
31,0.7280383514422756
31,0.7280383514422756
31,0.7280383514422756
31,0.7280383514422756
31,0.7280383514422756
31,0.7280383514422756
31,0.7280383514422756
31,0.7280383514422756
31,0.7280383514422756
31,0.7280383514422756
31,0.7280383514422756
31,0.7280383514422756
31,0.7280383514422756
31,0.7280383514422756
32,0.7280383514422756
32,0.7280383514422756
32,0.7280383514422756
32,0.7280383514422756
32,0.7280383514422756
32,0.7280383514422756
32,0.7280383514422756
32,0.7280383514422756
32,0.7280383514422756
32,0.7280383514422756
32,0.7280383514422756
32,0.7280383514422756
32,0.7280383514422756
32,0.7280383514422756
32,0.7280383514422756
32,0.7280383514422756
32,0.7280383514422756
32,0.7280383514422756
33,0.7280383514422756
33,0.7280383514422756
33,0.7280383514422756
33,0.7280383514422756
33,0.7280383514422756
33,0.7280383514422756
33,0.7280383514422756
33,0.7280383514422756
33,0.7280383514422756
33,0.7280383514422756
33,0.7280383514422756
33,0.7280383514422756
33,0.7280383514422756
33,0.7280383514422756
33,0.7280383514422756
33,0.7280383514422756
33,0.7280383514422756
34,0.7280383514422756
34,0.7280383514422756
34,0.7280383514422756
34,0.7280383514422756
34,0.7280383514422756
34,0.7280383514422756
34,0.7280383514422756
34,0.7280383514422756
34,0.7280383514422756
34,0.7280383514422756
34,0.7280383514422756
34,0.7280383514422756
34,0.7280383514422756
34,0.7280383514422756
34,0.7280383514422756
34,0.7280383514422756
34,0.7280383514422756
34,0.7280383514422756
35,0.7280383514422756
35,0.7280383514422756
35,0.7302812112647857
35,0.7302812112647857
35,0.7302812112647857
35,0.7302812112647857
35,0.7302812112647857
35,0.7302812112647857
35,0.7302812112647857
35,0.7302812112647857
35,0.7302812112647857
35,0.7302812112647857
35,0.7302812112647857
35,0.7302812112647857
35,0.7302812112647857
35,0.7302812112647857
35,0.7302812112647857
36,0.7302812112647857
36,0.7302812112647857
36,0.7302812112647857
36,0.7302812112647857
36,0.7302812112647857
36,0.7302812112647857
36,0.7302812112647857
36,0.7302812112647857
36,0.7302812112647857
36,0.7302812112647857
36,0.7302812112647857
36,0.7302812112647857
36,0.7302812112647857
36,0.7302812112647857
36,0.7302812112647857
36,0.7302812112647857
36,0.7302812112647857
36,0.7302812112647857
37,0.7302812112647857
37,0.7302812112647857
37,0.7302812112647857
37,0.7302812112647857
37,0.7302812112647857
37,0.7302812112647857
37,0.7302812112647857
37,0.7302812112647857
37,0.7302812112647857
37,0.7302812112647857
37,0.7302812112647857
37,0.7302812112647857
37,0.7302812112647857
37,0.7302812112647857
37,0.7302812112647857
37,0.7302812112647857
37,0.7302812112647857
38,0.7302812112647857
38,0.7302812112647857
38,0.7302812112647857
38,0.7302812112647857
38,0.7302812112647857
38,0.7302812112647857
38,0.7302812112647857
38,0.7302812112647857
38,0.7302812112647857
38,0.7302812112647857
38,0.7302812112647857
38,0.7302812112647857
38,0.7302812112647857
38,0.7302812112647857
38,0.7302812112647857
38,0.7302812112647857
38,0.7302812112647857
39,0.7302812112647857
39,0.7302812112647857
39,0.7302812112647857
39,0.7302812112647857
39,0.7302812112647857
39,0.7302812112647857
39,0.7302812112647857
39,0.7302812112647857
39,0.7302812112647857
39,0.7302812112647857
39,0.7302812112647857
39,0.7302812112647857
39,0.7302812112647857
39,0.7302812112647857
39,0.7302812112647857
39,0.7302812112647857
39,0.7302812112647857
39,0.7302812112647857
40,0.7302812112647857
40,0.7302812112647857
40,0.7302812112647857
40,0.7302812112647857
40,0.7302812112647857
40,0.7302812112647857
40,0.7302812112647857
40,0.7302812112647857
40,0.7302812112647857
40,0.7302812112647857
40,0.7302812112647857
40,0.7302812112647857
40,0.7302812112647857
40,0.7302812112647857
40,0.7302812112647857
40,0.7302812112647857
40,0.7302812112647857
41,0.7302812112647857
41,0.7302812112647857
41,0.7302812112647857
41,0.7302812112647857
41,0.7302812112647857
41,0.7302812112647857
41,0.7302812112647857
41,0.7302812112647857
41,0.7302812112647857
41,0.7302812112647857
41,0.7302812112647857
41,0.7302812112647857
41,0.7302812112647857
41,0.7302812112647857
41,0.7302812112647857
41,0.7302812112647857
41,0.7302812112647857
42,0.7302812112647857
42,0.7302812112647857
42,0.7302812112647857
42,0.7302812112647857
42,0.7302812112647857
42,0.7302812112647857
42,0.7338548137011752
42,0.7338548137011752
42,0.7338548137011752
42,0.7338548137011752
42,0.7338548137011752
42,0.7338548137011752
42,0.7338548137011752
42,0.7338548137011752
42,0.7338548137011752
42,0.7338548137011752
42,0.7338548137011752
43,0.7338548137011752
43,0.7338548137011752
43,0.7338548137011752
43,0.7338548137011752
43,0.7338548137011752
43,0.7338548137011752
43,0.7338548137011752
43,0.7338548137011752
43,0.7338548137011752
43,0.7338548137011752
43,0.7338548137011752
43,0.7338548137011752
43,0.7338548137011752
43,0.7338548137011752
43,0.7369598195679967
43,0.7369598195679967
43,0.7369598195679967
44,0.7369598195679967
44,0.7369598195679967
44,0.7369598195679967
44,0.7369598195679967
44,0.7369598195679967
44,0.7369598195679967
44,0.7369598195679967
44,0.7369598195679967
44,0.7369598195679967
44,0.7369598195679967
44,0.7369598195679967
44,0.7369598195679967
44,0.7369598195679967
44,0.7369598195679967
44,0.7369598195679967
44,0.7369598195679967
44,0.7369598195679967
44,0.7369598195679967
45,0.7369598195679967
45,0.7369598195679967
45,0.7369598195679967
45,0.7369598195679967
45,0.7378749879023307
45,0.7378749879023307
45,0.7378749879023307
45,0.7378749879023307
45,0.7378749879023307
45,0.7378749879023307
45,0.7378749879023307
45,0.7378749879023307
45,0.7378749879023307
45,0.7378749879023307
45,0.7378749879023307
45,0.7378749879023307
45,0.7378749879023307
46,0.7378749879023307
46,0.7378749879023307
46,0.7378749879023307
46,0.7378749879023307
46,0.7378749879023307
46,0.7378749879023307
46,0.7378749879023307
46,0.7378749879023307
46,0.7378749879023307
46,0.7378749879023307
46,0.7378749879023307
46,0.7378749879023307
46,0.7465535495965555
46,0.7465535495965555
46,0.7465535495965555
46,0.7465535495965555
46,0.7465535495965555
47,0.7465535495965555
47,0.7465535495965555
47,0.7465535495965555
47,0.7465535495965555
47,0.7465535495965555
47,0.7465535495965555
47,0.7465535495965555
47,0.7465535495965555
47,0.7465535495965555
47,0.7465535495965555
47,0.7465535495965555
47,0.7465535495965555
47,0.7465535495965555
47,0.7465535495965555
47,0.7465535495965555
47,0.7465535495965555
47,0.7465535495965555
48,0.7465535495965555
48,0.7465535495965555
48,0.7465535495965555
48,0.7465535495965555
48,0.7465535495965555
48,0.7465535495965555
48,0.7465535495965555
48,0.7465535495965555
48,0.7465535495965555
48,0.7465535495965555
48,0.7465535495965555
48,0.7465535495965555
48,0.7465535495965555
48,0.7465535495965555
48,0.7465535495965555
48,0.7465535495965555
48,0.7465535495965555
49,0.7465535495965555
49,0.7465535495965555
49,0.7465535495965555
49,0.7465535495965555
49,0.7465535495965555
49,0.7465535495965555
49,0.7465535495965555
49,0.7465535495965555
49,0.7465535495965555
49,0.7465535495965555
49,0.7465535495965555
49,0.7465535495965555
49,0.7465535495965555
49,0.7465535495965555
49,0.7465535495965555
49,0.7465535495965555
49,0.7465535495965555
50,0.7465535495965555
50,0.7465535495965555
50,0.7465535495965555
50,0.7465535495965555
50,0.7465535495965555
50,0.7465535495965555
50,0.7465535495965555
50,0.7465535495965555
50,0.7465535495965555
50,0.7465535495965555
50,0.7465535495965555
50,0.7465535495965555
50,0.7465535495965555
50,0.7465535495965555
50,0.7465535495965555
50,0.7465535495965555
51,0.7465535495965555
51,0.7465535495965555
51,0.7465535495965555
51,0.7475060806265659
51,0.7475060806265659
51,0.7475060806265659
51,0.7475060806265659
51,0.7475060806265659
51,0.7475060806265659
51,0.7475060806265659
51,0.7475060806265659
51,0.7475060806265659
51,0.7475060806265659
51,0.7475060806265659
51,0.7475060806265659
51,0.7475060806265659
51,0.7475060806265659
52,0.7475060806265659
52,0.7475060806265659
52,0.7475060806265659
52,0.7475060806265659
52,0.7475060806265659
52,0.7475060806265659
52,0.7475060806265659
52,0.7475060806265659
52,0.7475060806265659
52,0.7475060806265659
52,0.7475060806265659
52,0.7475060806265659
52,0.7475060806265659
52,0.7475060806265659
52,0.7475060806265659
52,0.7475060806265659
52,0.7475060806265659
53,0.7475060806265659
53,0.7475060806265659
53,0.7475060806265659
53,0.7475060806265659
53,0.7475060806265659
53,0.7475060806265659
53,0.7475060806265659
53,0.7475060806265659
53,0.7475060806265659
53,0.7475060806265659
53,0.7475060806265659
53,0.7475060806265659
53,0.7475060806265659
53,0.7475060806265659
53,0.7475060806265659
53,0.7475060806265659
53,0.7475060806265659
54,0.7475060806265659
54,0.7475060806265659
54,0.747638980319939
54,0.747638980319939
54,0.747638980319939
54,0.747638980319939
54,0.747638980319939
54,0.747638980319939
54,0.747638980319939
54,0.747638980319939
54,0.747638980319939
54,0.747638980319939
54,0.747638980319939
54,0.747638980319939
54,0.747638980319939
54,0.747638980319939
54,0.747638980319939
55,0.747638980319939
55,0.747638980319939
55,0.747638980319939
55,0.747638980319939
55,0.747638980319939
55,0.747638980319939
55,0.747638980319939
55,0.747638980319939
55,0.747638980319939
55,0.747638980319939
55,0.747638980319939
55,0.747638980319939
55,0.747638980319939
55,0.747638980319939
55,0.747638980319939
55,0.747638980319939
55,0.747638980319939
56,0.747638980319939
56,0.747638980319939
56,0.747638980319939
56,0.747638980319939
56,0.747638980319939
56,0.747638980319939
56,0.747638980319939
56,0.747638980319939
56,0.747638980319939
56,0.747638980319939
56,0.747638980319939
56,0.747638980319939
56,0.747638980319939
56,0.747638980319939
56,0.747638980319939
56,0.747638980319939
56,0.747638980319939
56,0.747638980319939
57,0.747638980319939
57,0.747638980319939
57,0.747638980319939
57,0.747638980319939
57,0.747638980319939
57,0.747638980319939
57,0.747638980319939
57,0.747638980319939
57,0.747638980319939
57,0.747638980319939
57,0.747638980319939
57,0.747638980319939
57,0.747638980319939
57,0.747638980319939
57,0.747638980319939
57,0.747638980319939
57,0.747638980319939
58,0.747638980319939
58,0.747638980319939
58,0.747638980319939
58,0.747638980319939
58,0.747638980319939
58,0.747638980319939
58,0.747638980319939
58,0.747638980319939
58,0.747638980319939
58,0.747638980319939
58,0.747638980319939
58,0.747638980319939
58,0.747638980319939
58,0.747638980319939
58,0.747638980319939
58,0.747638980319939
58,0.747638980319939
59,0.747638980319939
59,0.747638980319939
59,0.747638980319939
59,0.747638980319939
59,0.747638980319939
59,0.747638980319939
59,0.747638980319939
59,0.747638980319939
59,0.747638980319939
59,0.747638980319939
59,0.747638980319939
59,0.747638980319939
59,0.747638980319939
59,0.747638980319939
59,0.747638980319939
59,0.747638980319939
59,0.7484682704605176
60,0.7484682704605176
60,0.7484682704605176
60,0.7484682704605176
60,0.7484682704605176
60,0.7484682704605176
60,0.7484682704605176
60,0.7484682704605176
60,0.7484682704605176
60,0.7484682704605176
60,0.7484682704605176
60,0.7484682704605176
60,0.7484682704605176
60,0.7484682704605176
60,0.7484682704605176
60,0.7484682704605176
60,0.7484682704605176
60,0.7484682704605176
61,0.7484682704605176
61,0.7484682704605176
61,0.7484682704605176
61,0.7484682704605176
61,0.7484682704605176
61,0.7484682704605176
61,0.7484682704605176
61,0.7484682704605176
61,0.7484682704605176
61,0.7484682704605176
61,0.7484682704605176
61,0.7484682704605176
61,0.7484682704605176
61,0.7484682704605176
61,0.7484682704605176
61,0.7484682704605176
61,0.7484682704605176
62,0.7484682704605176
62,0.7484682704605176
62,0.7484682704605176
62,0.7484682704605176
62,0.7484682704605176
62,0.7484682704605176
62,0.7484682704605176
62,0.7484682704605176
62,0.7484682704605176
62,0.7484682704605176
62,0.7484682704605176
62,0.7484682704605176
62,0.7484682704605176
62,0.7484682704605176
62,0.7484682704605176
62,0.7486074207338546
62,0.7486074207338546
63,0.7486074207338546
63,0.7486074207338546
63,0.7486074207338546
63,0.7486074207338546
63,0.7486074207338546
63,0.7486074207338546
63,0.7486074207338546
63,0.7486074207338546
63,0.7486074207338546
63,0.7486074207338546
63,0.7486074207338546
63,0.7486074207338546
63,0.7486074207338546
63,0.7486074207338546
63,0.7486074207338546
63,0.7486074207338546
63,0.7486074207338546
64,0.7486074207338546
64,0.7486074207338546
64,0.7486074207338546
64,0.7486074207338546
64,0.7486074207338546
64,0.7486074207338546
64,0.7490997524290044
64,0.7490997524290044
64,0.7490997524290044
64,0.7490997524290044
64,0.7490997524290044
64,0.7490997524290044
64,0.7490997524290044
64,0.7490997524290044
64,0.7490997524290044
64,0.7490997524290044
64,0.7490997524290044
65,0.7490997524290044
65,0.7490997524290044
65,0.7490997524290044
65,0.7490997524290044
65,0.7490997524290044
65,0.7490997524290044
65,0.7490997524290044
65,0.7490997524290044
65,0.7490997524290044
65,0.7490997524290044
65,0.7490997524290044
65,0.7490997524290044
65,0.7490997524290044
65,0.7490997524290044
65,0.7490997524290044
65,0.7490997524290044
66,0.7490997524290044
66,0.7490997524290044
66,0.7490997524290044
66,0.7490997524290044
66,0.7490997524290044
66,0.7490997524290044
66,0.7490997524290044
66,0.7490997524290044
66,0.7490997524290044
66,0.7490997524290044
66,0.7490997524290044
66,0.7490997524290044
66,0.7490997524290044
66,0.7490997524290044
66,0.7490997524290044
66,0.7490997524290044
66,0.7490997524290044
67,0.7490997524290044
67,0.7490997524290044
67,0.7490997524290044
67,0.7490997524290044
67,0.7490997524290044
67,0.7490997524290044
67,0.7501107129958855
67,0.7501107129958855
67,0.7501107129958855
67,0.7501107129958855
67,0.7501107129958855
67,0.7501107129958855
67,0.7501107129958855
67,0.7501107129958855
67,0.7501107129958855
67,0.7501107129958855
67,0.7501107129958855
68,0.7501107129958855
68,0.7501107129958855
68,0.7501107129958855
68,0.7501107129958855
68,0.7501107129958855
68,0.7501107129958855
68,0.7501107129958855
68,0.7501107129958855
68,0.7501107129958855
68,0.7501107129958855
68,0.7501107129958855
68,0.7501107129958855
68,0.7501107129958855
68,0.7501107129958855
68,0.7501107129958855
68,0.7501107129958855
68,0.7501107129958855
69,0.7501107129958855
69,0.7501107129958855
69,0.7501107129958855
69,0.7501107129958855
69,0.7501107129958855
69,0.7501107129958855
69,0.7501107129958855
69,0.7501107129958855
69,0.7501107129958855
69,0.7501107129958855
69,0.7501107129958855
69,0.7501107129958855
69,0.7501107129958855
69,0.7501107129958855
69,0.7501107129958855
69,0.7501107129958855
70,0.7501107129958855
70,0.7501107129958855
70,0.7501107129958855
70,0.7501107129958855
70,0.7501107129958855
70,0.7501107129958855
70,0.7511752979948115
70,0.7511752979948115
70,0.7511752979948115
70,0.7511752979948115
70,0.7511752979948115
70,0.7511752979948115
70,0.7511752979948115
70,0.7511752979948115
70,0.7511752979948115
70,0.7511752979948115
70,0.7511752979948115
71,0.7511752979948115
71,0.7511752979948115
71,0.7511752979948115
71,0.7511752979948115
71,0.7511752979948115
71,0.7511752979948115
71,0.7511752979948115
71,0.7511752979948115
71,0.7511752979948115
71,0.7511752979948115
71,0.7511752979948115
71,0.7511752979948115
71,0.7511752979948115
71,0.7511752979948115
71,0.7511752979948115
71,0.7511752979948115
71,0.7511752979948115
72,0.7511752979948115
72,0.7511752979948115
72,0.7511752979948115
72,0.7511752979948115
72,0.7511752979948115
72,0.7511752979948115
72,0.7511752979948115
72,0.7511752979948115
72,0.7511752979948115
72,0.7511752979948115
72,0.7511752979948115
72,0.7511752979948115
72,0.7511752979948115
72,0.7511752979948115
72,0.7511752979948115
72,0.7511752979948115
72,0.7511752979948115
73,0.7511752979948115
73,0.7511752979948115
73,0.7511752979948115
73,0.7511752979948115
73,0.7511752979948115
73,0.7524844598190867
73,0.7524844598190867
73,0.7524844598190867
73,0.7524844598190867
73,0.7524844598190867
73,0.7524844598190867
73,0.7524844598190867
73,0.7524844598190867
73,0.7524844598190867
73,0.7524844598190867
73,0.7524844598190867
73,0.7524844598190867
74,0.7524844598190867
74,0.7524844598190867
74,0.7524844598190867
74,0.7524844598190867
74,0.7524844598190867
74,0.7524844598190867
74,0.7524844598190867
74,0.7524844598190867
74,0.7524844598190867
74,0.7524844598190867
74,0.7524844598190867
74,0.7524844598190867
74,0.7524844598190867
74,0.7524844598190867
74,0.7524844598190867
74,0.7524844598190867
74,0.7524844598190867
75,0.7524844598190867
75,0.7524844598190867
75,0.7524844598190867
75,0.7524844598190867
75,0.7524844598190867
75,0.7524844598190867
75,0.7524844598190867
75,0.7524844598190867
75,0.7524844598190867
75,0.7524844598190867
75,0.7524844598190867
75,0.7524844598190867
75,0.7524844598190867
75,0.7524844598190867
75,0.7524844598190867
75,0.7524844598190867
75,0.7524844598190867
76,0.7524844598190867
76,0.7524844598190867
76,0.7524844598190867
76,0.7524844598190867
76,0.7529578316775747
76,0.7529578316775747
76,0.7529578316775747
76,0.7529578316775747
76,0.7529578316775747
76,0.7529578316775747
76,0.7529578316775747
76,0.7529578316775747
76,0.7529578316775747
76,0.7529578316775747
76,0.7529578316775747
76,0.7529578316775747
76,0.7529578316775747
77,0.7529578316775747
77,0.7529578316775747
77,0.7529578316775747
77,0.7529578316775747
77,0.7529578316775747
77,0.7529578316775747
77,0.7529578316775747
77,0.7529578316775747
77,0.7529578316775747
77,0.7529578316775747
77,0.7529578316775747
77,0.7529578316775747
77,0.7529578316775747
77,0.7529578316775747
77,0.7529578316775747
77,0.7529578316775747
77,0.7529578316775747
77,0.7529578316775747
78,0.7529578316775747
78,0.7529578316775747
78,0.7529578316775747
78,0.7529578316775747
78,0.7529578316775747
78,0.7529578316775747
78,0.7529578316775747
78,0.7529578316775747
78,0.7529578316775747
78,0.7529578316775747
78,0.7529578316775747
78,0.7529578316775747
78,0.7529578316775747
78,0.7529578316775747
78,0.7529578316775747
78,0.7529578316775747
78,0.7529578316775747
79,0.7529578316775747
79,0.7529578316775747
79,0.7529578316775747
79,0.7529578316775747
79,0.7529578316775747
79,0.7529578316775747
79,0.7529578316775747
79,0.7529578316775747
79,0.7529578316775747
79,0.7529578316775747
79,0.7529578316775747
79,0.7529578316775747
79,0.7529578316775747
79,0.7529578316775747
79,0.7529578316775747
79,0.7529578316775747
79,0.7529578316775747
80,0.7529578316775747
80,0.7529578316775747
80,0.7529578316775747
80,0.7529578316775747
80,0.7529578316775747
80,0.7529578316775747
80,0.7529578316775747
80,0.7529578316775747
80,0.7529578316775747
80,0.7529578316775747
80,0.7529578316775747
80,0.7529578316775747
80,0.7529578316775747
80,0.7529578316775747
80,0.7529578316775747
80,0.7529578316775747
80,0.7529578316775747
81,0.7529578316775747
81,0.7529578316775747
81,0.7529578316775747
81,0.7529578316775747
81,0.7529578316775747
81,0.7529578316775747
81,0.7529578316775747
81,0.7529578316775747
81,0.7529578316775747
81,0.7529578316775747
81,0.7529578316775747
81,0.7529578316775747
81,0.7529578316775747
81,0.7529578316775747
81,0.7529578316775747
81,0.7529578316775747
81,0.7529578316775747
81,0.7529578316775747
82,0.7529578316775747
82,0.7529578316775747
82,0.7529578316775747
82,0.7529578316775747
82,0.7529578316775747
82,0.7529578316775747
82,0.7529578316775747
82,0.7529578316775747
82,0.7529578316775747
82,0.7529578316775747
82,0.7529578316775747
82,0.7529578316775747
82,0.7529578316775747
82,0.7529578316775747
82,0.7529578316775747
82,0.7529578316775747
82,0.7529578316775747
83,0.7529578316775747
83,0.7529578316775747
83,0.7529578316775747
83,0.7529578316775747
83,0.7529578316775747
83,0.7529578316775747
83,0.7529578316775747
83,0.7529578316775747
83,0.7529578316775747
83,0.7529578316775747
83,0.7529578316775747
83,0.7529578316775747
83,0.7529578316775747
83,0.7529578316775747
83,0.7529578316775747
83,0.7529578316775747
83,0.7529578316775747
83,0.7529578316775747
84,0.7529578316775747
84,0.7529578316775747
84,0.7529578316775747
84,0.7529578316775747
84,0.7529578316775747
84,0.7529578316775747
84,0.7529578316775747
84,0.7529578316775747
84,0.7529578316775747
84,0.7529578316775747
84,0.7529578316775747
84,0.7529578316775747
84,0.7529578316775747
84,0.7529578316775747
84,0.7529578316775747
84,0.7532089837746476
84,0.7532089837746476
85,0.7532089837746476
85,0.7532089837746476
85,0.7532089837746476
85,0.7532089837746476
85,0.7532089837746476
85,0.7532089837746476
85,0.7532089837746476
85,0.7532089837746476
85,0.7532089837746476
85,0.7532089837746476
85,0.7532089837746476
85,0.7532089837746476
85,0.7532089837746476
85,0.7532089837746476
85,0.7532089837746476
85,0.7532089837746476
85,0.7532089837746476
86,0.7532089837746476
86,0.7532089837746476
86,0.7532089837746476
86,0.7532089837746476
86,0.7532089837746476
86,0.7532089837746476
86,0.7532089837746476
86,0.7532089837746476
86,0.7532089837746476
86,0.7532089837746476
86,0.7532089837746476
86,0.7532089837746476
86,0.7532089837746476
86,0.7532089837746476
86,0.7532089837746476
86,0.7532089837746476
86,0.7532089837746476
86,0.7532089837746476
87,0.7532089837746476
87,0.7532089837746476
87,0.7532089837746476
87,0.7532089837746476
87,0.7532089837746476
87,0.7532089837746476
87,0.7532089837746476
87,0.7532089837746476
87,0.7532089837746476
87,0.7532089837746476
87,0.7532089837746476
87,0.7532089837746476
87,0.7532089837746476
87,0.7553004895843115
87,0.7553004895843115
87,0.7553004895843115
87,0.7553004895843115
88,0.7553004895843115
88,0.7553004895843115
88,0.7553004895843115
88,0.7553004895843115
88,0.7553004895843115
88,0.7553004895843115
88,0.7553004895843115
88,0.7553004895843115
88,0.7553004895843115
88,0.7553004895843115
88,0.7553004895843115
88,0.7553004895843115
88,0.7553004895843115
88,0.7553004895843115
88,0.7553004895843115
88,0.7553004895843115
88,0.7553004895843115
89,0.7553004895843115
89,0.7553004895843115
89,0.7553004895843115
89,0.7553004895843115
89,0.75655680524611
89,0.75655680524611
89,0.75655680524611
89,0.75655680524611
89,0.75655680524611
89,0.75655680524611
89,0.75655680524611
89,0.75655680524611
89,0.75655680524611
89,0.75655680524611
89,0.75655680524611
89,0.75655680524611
89,0.75655680524611
90,0.75655680524611
90,0.75655680524611
90,0.75655680524611
90,0.75655680524611
90,0.75655680524611
90,0.75655680524611
90,0.75655680524611
90,0.75655680524611
90,0.75655680524611
90,0.75655680524611
90,0.75655680524611
90,0.75655680524611
90,0.75655680524611
90,0.75655680524611
90,0.75655680524611
90,0.75655680524611
90,0.75655680524611
91,0.75655680524611
91,0.75655680524611
91,0.75655680524611
91,0.75655680524611
91,0.75655680524611
91,0.75655680524611
91,0.75655680524611
91,0.75655680524611
91,0.75655680524611
91,0.75655680524611
91,0.75655680524611
91,0.75655680524611
91,0.75655680524611
91,0.75655680524611
91,0.75655680524611
91,0.75655680524611
91,0.75655680524611
92,0.75655680524611
92,0.75655680524611
92,0.75655680524611
92,0.75655680524611
92,0.75655680524611
92,0.75655680524611
92,0.75655680524611
92,0.75655680524611
92,0.75655680524611
92,0.75655680524611
92,0.75655680524611
92,0.75655680524611
92,0.75655680524611
92,0.75655680524611
92,0.75655680524611
92,0.75655680524611
92,0.75655680524611
92,0.75655680524611
93,0.75655680524611
93,0.75655680524611
93,0.75655680524611
93,0.75655680524611
93,0.75655680524611
93,0.75655680524611
93,0.75655680524611
93,0.75655680524611
93,0.75655680524611
93,0.75655680524611
93,0.75655680524611
93,0.75655680524611
93,0.75655680524611
93,0.75655680524611
93,0.75655680524611
93,0.75655680524611
93,0.75655680524611
94,0.75655680524611
94,0.75655680524611
94,0.75655680524611
94,0.75655680524611
94,0.75655680524611
94,0.75655680524611
94,0.75655680524611
94,0.75655680524611
94,0.75655680524611
94,0.75655680524611
94,0.75655680524611
94,0.75655680524611
94,0.75655680524611
94,0.75655680524611
94,0.75655680524611
94,0.75655680524611
94,0.75655680524611
95,0.75655680524611
95,0.7567210864112214
95,0.7567210864112214
95,0.7567210864112214
95,0.7567210864112214
95,0.7567210864112214
95,0.7567210864112214
95,0.7567210864112214
95,0.7567210864112214
95,0.7567210864112214
95,0.7567210864112214
95,0.7567210864112214
95,0.7567210864112214
95,0.7567210864112214
95,0.7567210864112214
95,0.7567210864112214
95,0.7567210864112214
96,0.7567210864112214
96,0.7567210864112214
96,0.7567210864112214
96,0.7567210864112214
96,0.7567210864112214
96,0.7567210864112214
96,0.7567210864112214
96,0.7567210864112214
96,0.7567210864112214
96,0.7567210864112214
96,0.7567210864112214
96,0.7567210864112214
96,0.7567210864112214
96,0.7567210864112214
96,0.7567210864112214
96,0.7567210864112214
96,0.7567210864112214
97,0.7567210864112214
97,0.7567210864112214
97,0.7567210864112214
97,0.7567210864112214
97,0.7567210864112214
97,0.7567210864112214
97,0.7567210864112214
97,0.7567210864112214
97,0.7567210864112214
97,0.7567210864112214
97,0.7567210864112214
97,0.7567210864112214
97,0.7567210864112214
97,0.7567210864112214
97,0.7567210864112214
97,0.7567210864112214
97,0.7567210864112214
98,0.7567210864112214
98,0.7567210864112214
98,0.7567210864112214
98,0.7567210864112214
98,0.7567210864112214
98,0.7567210864112214
98,0.7567210864112214
98,0.7567210864112214
98,0.7567210864112214
98,0.7567210864112214
98,0.7567210864112214
98,0.7567210864112214
98,0.7567210864112214
98,0.7567210864112214
98,0.7567210864112214
98,0.7567210864112214
98,0.7567210864112214
98,0.7567210864112214
99,0.7567210864112214
99,0.7567210864112214
99,0.7567210864112214
99,0.7567210864112214
99,0.7567210864112214
99,0.7567210864112214
99,0.7567210864112214
99,0.7567210864112214
99,0.7567210864112214
99,0.7567210864112214
99,0.7567210864112214
99,0.7567210864112214
99,0.7567210864112214
99,0.7567210864112214
99,0.7567210864112214
99,0.7567210864112214
100,0.7567210864112214
100,0.7567210864112214
100,0.7567210864112214
100,0.7567210864112214
100,0.7567210864112214
100,0.7567210864112214
100,0.7567210864112214
100,0.7567210864112214
100,0.7567210864112214
100,0.7567210864112214
100,0.7567210864112214
100,0.7567210864112214
100,0.7567210864112214
100,0.7567210864112214
100,0.7567210864112214
100,0.7567210864112214
100,0.7567210864112214
101,0.7567210864112214
101,0.7567210864112214
101,0.7567210864112214
101,0.7567210864112214
101,0.7567210864112214
101,0.7567210864112214
101,0.7567210864112214
101,0.7567210864112214
101,0.7567210864112214
101,0.7567210864112214
101,0.7567210864112214
101,0.7567210864112214
101,0.7567210864112214
101,0.7567210864112214
101,0.7567210864112214
101,0.7567210864112214
101,0.7567210864112214
102,0.7567210864112214
102,0.7567210864112214
102,0.7567210864112214
102,0.7567210864112214
102,0.7567210864112214
102,0.7567210864112214
102,0.7567210864112214
102,0.7571577523298506
102,0.7571577523298506
102,0.7571577523298506
102,0.7571577523298506
102,0.7571577523298506
102,0.7571577523298506
102,0.7571577523298506
102,0.7571577523298506
102,0.7571577523298506
102,0.7571577523298506
102,0.7571577523298506
103,0.7571577523298506
103,0.7571577523298506
103,0.7571577523298506
103,0.7571577523298506
103,0.7571577523298506
103,0.7571577523298506
103,0.7571577523298506
103,0.7571577523298506
103,0.7571577523298506
103,0.7571577523298506
103,0.7571577523298506
103,0.7571577523298506
103,0.7571577523298506
103,0.7571577523298506
103,0.7571577523298506
103,0.7571577523298506
103,0.7571577523298506
103,0.7571577523298506
104,0.7571577523298506
104,0.7571577523298506
104,0.7571577523298506
104,0.7571577523298506
104,0.7571577523298506
104,0.7571577523298506
104,0.7571577523298506
104,0.7571577523298506
104,0.7571577523298506
104,0.7571577523298506
104,0.7571577523298506
104,0.7571577523298506
104,0.7571577523298506
104,0.7571577523298506
104,0.7571577523298506
104,0.7571577523298506
104,0.7571577523298506
105,0.7571577523298506
105,0.7571577523298506
105,0.7571577523298506
105,0.7571577523298506
105,0.7571577523298506
105,0.7571577523298506
105,0.7571577523298506
105,0.7571577523298506
105,0.7571577523298506
105,0.7571577523298506
105,0.7571577523298506
105,0.7571577523298506
105,0.7571577523298506
105,0.7571577523298506
105,0.7571577523298506
105,0.7571577523298506
105,0.7571577523298506
106,0.7571577523298506
106,0.7571577523298506
106,0.7571577523298506
106,0.7571577523298506
106,0.7571577523298506
106,0.7571577523298506
106,0.7571577523298506
106,0.7571577523298506
106,0.7571577523298506
106,0.7571577523298506
106,0.7571577523298506
106,0.7571577523298506
106,0.7572874781920372
106,0.7572874781920372
106,0.7572874781920372
106,0.7572874781920372
106,0.7572874781920372
106,0.7572874781920372
107,0.7572874781920372
107,0.7572874781920372
107,0.7572874781920372
107,0.7572874781920372
107,0.7572874781920372
107,0.7572874781920372
107,0.7572874781920372
107,0.7572874781920372
107,0.7572874781920372
107,0.7572874781920372
107,0.7572874781920372
107,0.7572874781920372
107,0.7572874781920372
107,0.7572874781920372
107,0.7572874781920372
107,0.7572874781920372
107,0.7572874781920372
108,0.7572874781920372
108,0.7572874781920372
108,0.7572874781920372
108,0.7572874781920372
108,0.7572874781920372
108,0.7572874781920372
108,0.7572874781920372
108,0.7572874781920372
108,0.7572874781920372
108,0.7572874781920372
108,0.7572874781920372
108,0.7572874781920372
108,0.7572874781920372
108,0.7572874781920372
108,0.7572874781920372
108,0.7572874781920372
108,0.7572874781920372
109,0.7572874781920372
109,0.7572874781920372
109,0.7572874781920372
109,0.7572874781920372
109,0.7572874781920372
109,0.7572874781920372
109,0.7572874781920372
109,0.7572874781920372
109,0.7572874781920372
109,0.7572874781920372
109,0.7575078984566406
109,0.7575078984566406
109,0.7575078984566406
109,0.7575078984566406
109,0.7575078984566406
109,0.7575078984566406
109,0.7575078984566406
110,0.7575078984566406
110,0.7575078984566406
110,0.7575078984566406
110,0.7575078984566406
110,0.7575078984566406
110,0.7575078984566406
110,0.7575078984566406
110,0.7575078984566406
110,0.7575078984566406
110,0.7575078984566406
110,0.7575078984566406
110,0.7575078984566406
110,0.7575078984566406
110,0.7575078984566406
110,0.7575078984566406
110,0.7575078984566406
110,0.7575078984566406
110,0.7575078984566406
111,0.7575078984566406
111,0.7575078984566406
111,0.7575078984566406
111,0.7575078984566406
111,0.7575078984566406
111,0.7575078984566406
111,0.7575078984566406
111,0.7575078984566406
111,0.7575078984566406
111,0.7575078984566406
111,0.7575078984566406
111,0.7575078984566406
111,0.7575078984566406
111,0.7575078984566406
111,0.7575078984566406
111,0.7575078984566406
111,0.7575078984566406
111,0.7575078984566406
112,0.7575078984566406
112,0.7575078984566406
112,0.7575078984566406
112,0.7575078984566406
112,0.7575078984566406
112,0.7575078984566406
112,0.7575078984566406
112,0.7575078984566406
112,0.7575078984566406
112,0.7575078984566406
112,0.7575078984566406
112,0.7575078984566406
112,0.7575078984566406
112,0.7575078984566406
112,0.7575078984566406
112,0.7575078984566406
112,0.7575078984566406
112,0.7575078984566406
113,0.7575078984566406
113,0.7575078984566406
113,0.7575078984566406
113,0.7575078984566406
113,0.7575078984566406
113,0.7575078984566406
113,0.7575078984566406
113,0.7575078984566406
113,0.7575078984566406
113,0.7575078984566406
113,0.7575078984566406
113,0.7575078984566406
113,0.7575078984566406
113,0.7575078984566406
113,0.7575078984566406
113,0.7575078984566406
113,0.7575078984566406
114,0.7575078984566406
114,0.7575078984566406
114,0.7575078984566406
114,0.7575078984566406
114,0.7575078984566406
114,0.7575078984566406
114,0.7575078984566406
114,0.7575078984566406
114,0.7575078984566406
114,0.7575078984566406
114,0.7575078984566406
114,0.7575078984566406
114,0.7575078984566406
114,0.7575078984566406
114,0.7575078984566406
114,0.7575078984566406
114,0.7575078984566406
114,0.7575078984566406
115,0.7575078984566406
115,0.7575078984566406
115,0.7575078984566406
115,0.7575078984566406
115,0.7584734972661468
115,0.7584734972661468
115,0.7584734972661468
115,0.7584734972661468
115,0.7584734972661468
115,0.7584734972661468
115,0.7584734972661468
115,0.7584734972661468
115,0.7584734972661468
115,0.7584734972661468
115,0.7584734972661468
115,0.7584734972661468
115,0.7584734972661468
115,0.7584734972661468
116,0.7584734972661468
116,0.7584734972661468
116,0.7584734972661468
116,0.7584734972661468
116,0.7584734972661468
116,0.7584734972661468
116,0.7584734972661468
116,0.7584734972661468
116,0.7584734972661468
116,0.7584734972661468
116,0.7584734972661468
116,0.7584734972661468
116,0.7584734972661468
116,0.7584734972661468
116,0.7584734972661468
116,0.7584734972661468
116,0.7584734972661468
117,0.7584734972661468
117,0.7584734972661468
117,0.7584734972661468
117,0.7584734972661468
117,0.7584734972661468
117,0.7584734972661468
117,0.7584734972661468
117,0.7584734972661468
117,0.7584734972661468
117,0.7584734972661468
117,0.7584734972661468
117,0.7584734972661468
117,0.7584734972661468
117,0.7584734972661468
117,0.7584734972661468
117,0.7584734972661468
117,0.7584734972661468
117,0.7584734972661468
118,0.7584734972661468
118,0.7588949685137643
118,0.7588949685137643
118,0.7588949685137643
118,0.7588949685137643
118,0.7588949685137643
118,0.7588949685137643
118,0.7588949685137643
118,0.7588949685137643
118,0.7588949685137643
118,0.7588949685137643
118,0.7588949685137643
118,0.7588949685137643
118,0.7588949685137643
118,0.7588949685137643
118,0.7588949685137643
118,0.7588949685137643
119,0.7588949685137643
119,0.7588949685137643
119,0.7588949685137643
119,0.7588949685137643
119,0.7588949685137643
119,0.7588949685137643
119,0.7588949685137643
119,0.7588949685137643
119,0.7588949685137643
119,0.7588949685137643
119,0.7588949685137643
119,0.7588949685137643
119,0.7588949685137643
119,0.7588949685137643
119,0.7588949685137643
119,0.7588949685137643
119,0.7588949685137643
119,0.7588949685137643
120,0.7588949685137643
120,0.7588949685137643
120,0.7588949685137643
120,0.7588949685137643
120,0.7588949685137643
120,0.7588949685137643
120,0.7588949685137643
120,0.7588949685137643
120,0.7588949685137643
120,0.7588949685137643
120,0.7588949685137643
120,0.7588949685137643
120,0.7588949685137643
120,0.7588949685137643
120,0.7588949685137643
120,0.7588949685137643
120,0.7588949685137643
121,0.7588949685137643
121,0.7588949685137643
121,0.7588949685137643
121,0.7588949685137643
121,0.7588949685137643
121,0.7588949685137643
121,0.7588949685137643
121,0.7588949685137643
121,0.7588949685137643
121,0.7588949685137643
121,0.7588949685137643
121,0.7588949685137643
121,0.7588949685137643
121,0.7588949685137643
121,0.7588949685137643
121,0.7588949685137643
121,0.7588949685137643
121,0.7588949685137643
122,0.7588949685137643
122,0.7588949685137643
122,0.7588949685137643
122,0.7588949685137643
122,0.7588949685137643
122,0.7588949685137643
122,0.7588949685137643
122,0.7588949685137643
122,0.7588949685137643
122,0.7588949685137643
122,0.7588949685137643
122,0.7588949685137643
122,0.7588949685137643
122,0.7588949685137643
122,0.7588949685137643
122,0.7588949685137643
122,0.7588949685137643
123,0.7588949685137643
123,0.7588949685137643
123,0.7588949685137643
123,0.7588949685137643
123,0.7588949685137643
123,0.7588949685137643
123,0.7588949685137643
123,0.7588949685137643
123,0.7588949685137643
123,0.7588949685137643
123,0.7588949685137643
123,0.7588949685137643
123,0.7588949685137643
123,0.7588949685137643
123,0.7588949685137643
123,0.7588949685137643
123,0.7588949685137643
123,0.7588949685137643
124,0.7588949685137643
124,0.7588949685137643
124,0.7588949685137643
124,0.7588949685137643
124,0.7588949685137643
124,0.7588949685137643
124,0.7588949685137643
124,0.7588949685137643
124,0.7588949685137643
124,0.7588949685137643
124,0.7588949685137643
124,0.7588949685137643
124,0.7588949685137643
124,0.7588949685137643
124,0.7588949685137643
124,0.7588949685137643
124,0.7588949685137643
125,0.7588949685137643
125,0.7588949685137643
125,0.7588949685137643
125,0.7588949685137643
125,0.7588949685137643
125,0.7588949685137643
125,0.7588949685137643
125,0.7588949685137643
125,0.7588949685137643
125,0.7588949685137643
125,0.7588949685137643
125,0.7588949685137643
125,0.7588949685137643
125,0.7588949685137643
125,0.7588949685137643
125,0.7588949685137643
125,0.7588949685137643
126,0.7588949685137643
126,0.7588949685137643
126,0.7588949685137643
126,0.7588949685137643
126,0.7588949685137643
126,0.7588949685137643
126,0.7588949685137643
126,0.7588949685137643
126,0.7588949685137643
126,0.7588949685137643
126,0.7588949685137643
126,0.7588949685137643
126,0.7588949685137643
126,0.7588949685137643
126,0.7588949685137643
126,0.7588949685137643
126,0.7588949685137643
126,0.7588949685137643
127,0.7588949685137643
127,0.7588949685137643
127,0.7588949685137643
127,0.7588949685137643
127,0.7588949685137643
127,0.7588949685137643
127,0.7588949685137643
127,0.7588949685137643
127,0.7588949685137643
127,0.7588949685137643
127,0.7588949685137643
127,0.7588949685137643
127,0.7588949685137643
127,0.7588949685137643
127,0.7588949685137643
127,0.7588949685137643
127,0.7588949685137643
128,0.7588949685137643
128,0.7588949685137643
128,0.7588949685137643
128,0.7588949685137643
128,0.7588949685137643
128,0.7588949685137643
128,0.7588949685137643
128,0.7588949685137643
128,0.7588949685137643
128,0.7588949685137643
128,0.7588949685137643
128,0.7588949685137643
128,0.7588949685137643
128,0.7588949685137643
128,0.7588949685137643
128,0.7588949685137643
128,0.7588949685137643
129,0.7588949685137643
129,0.7588949685137643
129,0.7588949685137643
129,0.7588949685137643
129,0.7588949685137643
129,0.7588949685137643
129,0.7588949685137643
129,0.7588949685137643
129,0.7588949685137643
129,0.7588949685137643
129,0.7588949685137643
129,0.7588949685137643
129,0.7588949685137643
129,0.7588949685137643
129,0.7588949685137643
129,0.7588949685137643
129,0.7588949685137643
129,0.7588949685137643
130,0.7588949685137643
130,0.7588949685137643
130,0.7588949685137643
130,0.7588949685137643
130,0.7588949685137643
130,0.7588949685137643
130,0.7588949685137643
130,0.7588949685137643
130,0.7588949685137643
130,0.7588949685137643
130,0.7588949685137643
130,0.7588949685137643
130,0.7588949685137643
130,0.7588949685137643
130,0.7588949685137643
130,0.7588949685137643
130,0.7588949685137643
131,0.7595026670362609
131,0.7595026670362609
131,0.7595026670362609
131,0.7595026670362609
131,0.7595026670362609
131,0.7595026670362609
131,0.7595026670362609
131,0.7595026670362609
131,0.7595026670362609
131,0.7595026670362609
131,0.7595026670362609
131,0.7595026670362609
131,0.7595026670362609
131,0.7595026670362609
131,0.7595026670362609
131,0.7595026670362609
131,0.7595026670362609
131,0.7595026670362609
132,0.7595026670362609
132,0.7595026670362609
132,0.7595026670362609
132,0.7595026670362609
132,0.7595026670362609
132,0.7595026670362609
132,0.7595026670362609
132,0.7595026670362609
132,0.7595026670362609
132,0.7595026670362609
132,0.7595026670362609
132,0.7595026670362609
132,0.7595026670362609
132,0.7595026670362609
132,0.7595026670362609
132,0.7595026670362609
132,0.7595026670362609
133,0.7595026670362609
133,0.7595026670362609
133,0.7595026670362609
133,0.7595026670362609
133,0.7595026670362609
133,0.7595026670362609
133,0.7595026670362609
133,0.7595026670362609
133,0.7595026670362609
133,0.7595026670362609
133,0.7595026670362609
133,0.7595026670362609
133,0.7595026670362609
133,0.7595026670362609
133,0.7595026670362609
133,0.7595026670362609
133,0.7595026670362609
134,0.7595026670362609
134,0.7595026670362609
134,0.7595026670362609
134,0.7595026670362609
134,0.7595026670362609
134,0.7595026670362609
134,0.7595026670362609
134,0.7595026670362609
134,0.7595026670362609
134,0.7595026670362609
134,0.7595026670362609
134,0.7595026670362609
134,0.7595026670362609
134,0.7595026670362609
134,0.7595026670362609
134,0.7595026670362609
134,0.7595026670362609
135,0.7595026670362609
135,0.7595026670362609
135,0.7595026670362609
135,0.7595026670362609
135,0.7595026670362609
135,0.7595026670362609
135,0.7595026670362609
135,0.7595026670362609
135,0.7595026670362609
135,0.7595026670362609
135,0.7595026670362609
135,0.7595026670362609
135,0.7595026670362609
135,0.7595026670362609
135,0.7595026670362609
135,0.7595026670362609
135,0.7595026670362609
135,0.7595026670362609
136,0.7595026670362609
136,0.7595026670362609
136,0.7595026670362609
136,0.7595026670362609
136,0.7595026670362609
136,0.7595026670362609
136,0.7595026670362609
136,0.7595026670362609
136,0.7595026670362609
136,0.7595026670362609
136,0.7595026670362609
136,0.7595026670362609
136,0.7595026670362609
136,0.7595026670362609
136,0.7595026670362609
136,0.7595026670362609
136,0.7595026670362609
137,0.7595026670362609
137,0.7595026670362609
137,0.7595026670362609
137,0.7595026670362609
137,0.7595026670362609
137,0.7595026670362609
137,0.7595026670362609
137,0.7595026670362609
137,0.7595026670362609
137,0.7595026670362609
137,0.7595026670362609
137,0.7595026670362609
137,0.7595026670362609
137,0.7595026670362609
137,0.7595026670362609
137,0.7595026670362609
137,0.7595026670362609
138,0.7595026670362609
138,0.7595026670362609
138,0.7595026670362609
138,0.7595026670362609
138,0.7595026670362609
138,0.7595026670362609
138,0.7595026670362609
138,0.7595026670362609
138,0.7595026670362609
138,0.7595026670362609
138,0.7595026670362609
138,0.7595026670362609
138,0.7595026670362609
138,0.7595026670362609
138,0.7595026670362609
138,0.7595026670362609
138,0.7595026670362609
139,0.7595026670362609
139,0.7595026670362609
139,0.7595026670362609
139,0.7595026670362609
139,0.7595026670362609
139,0.7595026670362609
139,0.7595026670362609
139,0.7595026670362609
139,0.7595026670362609
139,0.7595026670362609
139,0.7595026670362609
139,0.7595026670362609
139,0.7595026670362609
139,0.7595026670362609
139,0.7595026670362609
139,0.7595026670362609
139,0.7595026670362609
139,0.7595026670362609
140,0.7595026670362609
140,0.7595026670362609
140,0.7595026670362609
140,0.7595026670362609
140,0.7595026670362609
140,0.7595026670362609
140,0.7595026670362609
140,0.7595026670362609
140,0.7595026670362609
140,0.7595026670362609
140,0.7595026670362609
140,0.7595026670362609
140,0.7595026670362609
140,0.7595026670362609
140,0.7595026670362609
140,0.7595026670362609
140,0.7595026670362609
141,0.7595026670362609
141,0.7595026670362609
141,0.7614753188165401
141,0.7614753188165401
141,0.7614753188165401
141,0.7614753188165401
141,0.7614753188165401
141,0.7614753188165401
141,0.7614753188165401
141,0.7614753188165401
141,0.7614753188165401
141,0.7614753188165401
141,0.7614753188165401
141,0.7614753188165401
141,0.7614753188165401
141,0.7614753188165401
141,0.7614753188165401
142,0.7614753188165401
142,0.7614753188165401
142,0.7614753188165401
142,0.7614753188165401
142,0.7614753188165401
142,0.7614753188165401
142,0.7614753188165401
142,0.7614753188165401
142,0.7614753188165401
142,0.7614753188165401
142,0.7614753188165401
142,0.7614753188165401
142,0.7614753188165401
142,0.7614753188165401
142,0.7614753188165401
142,0.7614753188165401
142,0.7614753188165401
143,0.7614753188165401
143,0.7614753188165401
143,0.7614753188165401
143,0.7614753188165401
143,0.7614753188165401
143,0.7614753188165401
143,0.7614753188165401
143,0.7614753188165401
143,0.7614753188165401
143,0.7614753188165401
143,0.7614753188165401
143,0.7614753188165401
143,0.7614753188165401
143,0.7614753188165401
143,0.7614753188165401
143,0.7614753188165401
143,0.7614753188165401
144,0.7614753188165401
144,0.7614886479367351
144,0.7614886479367351
144,0.7614886479367351
144,0.7614886479367351
144,0.7614886479367351
144,0.7614886479367351
144,0.7614886479367351
144,0.7614886479367351
144,0.7614886479367351
144,0.7614886479367351
144,0.7614886479367351
144,0.7614886479367351
144,0.7614886479367351
144,0.7614886479367351
144,0.7614886479367351
144,0.7614886479367351
144,0.7614886479367351
145,0.7614886479367351
145,0.7614886479367351
145,0.7614886479367351
145,0.7614886479367351
145,0.7614886479367351
145,0.7614886479367351
145,0.7614886479367351
145,0.7614886479367351
145,0.7614886479367351
145,0.7614886479367351
145,0.7614886479367351
145,0.7614886479367351
145,0.7614886479367351
145,0.7614886479367351
145,0.7614886479367351
145,0.7614886479367351
145,0.7614886479367351
146,0.7614886479367351
146,0.7614886479367351
146,0.7614886479367351
146,0.7614886479367351
146,0.7614886479367351
146,0.7614886479367351
146,0.7614886479367351
146,0.7614886479367351
146,0.7614886479367351
146,0.7614886479367351
146,0.7614886479367351
146,0.7614886479367351
146,0.7614886479367351
146,0.7614886479367351
146,0.7614886479367351
146,0.7614886479367351
146,0.7614886479367351
147,0.7614886479367351
147,0.7614886479367351
147,0.7614886479367351
147,0.7614886479367351
147,0.7614886479367351
147,0.7614886479367351
147,0.7614886479367351
147,0.7614886479367351
147,0.7614886479367351
147,0.7614886479367351
147,0.7614886479367351
147,0.7614886479367351
147,0.7614886479367351
147,0.7614886479367351
147,0.7614886479367351
147,0.7614886479367351
147,0.7614886479367351
147,0.7614886479367351
148,0.7614886479367351
148,0.7614886479367351
148,0.7614886479367351
148,0.7614886479367351
148,0.7614886479367351
148,0.7614886479367351
148,0.7616023377919064
148,0.7616023377919064
148,0.7616023377919064
148,0.7616023377919064
148,0.7616023377919064
148,0.7616023377919064
148,0.7616023377919064
148,0.7616023377919064
148,0.7616023377919064
148,0.7616023377919064
148,0.7616023377919064
149,0.7616023377919064
149,0.7616023377919064
149,0.7616023377919064
149,0.7616023377919064
149,0.7616023377919064
149,0.7616023377919064
149,0.7616023377919064
149,0.7616023377919064
149,0.7616023377919064
149,0.7616023377919064
149,0.7616023377919064
149,0.7616023377919064
149,0.7616023377919064
149,0.7616023377919064
149,0.7616023377919064
149,0.7616023377919064
149,0.7616023377919064
149,0.7616023377919064
150,0.7616023377919064
