0,0.38276916717063386
0,0.38276916717063386
0,0.38276916717063386
0,0.38276916717063386
0,0.38276916717063386
0,0.38276916717063386
0,0.38276916717063386
0,0.38276916717063386
1,0.38276916717063386
1,0.38276916717063386
1,0.38276916717063386
1,0.38276916717063386
1,0.38276916717063386
1,0.38276916717063386
1,0.38276916717063386
1,0.38276916717063386
2,0.38276916717063386
2,0.38276916717063386
2,0.38276916717063386
2,0.38276916717063386
2,0.38276916717063386
2,0.38276916717063386
2,0.38276916717063386
2,0.38276916717063386
2,0.5649401957132549
2,0.5649401957132549
3,0.5649401957132549
3,0.5649401957132549
3,0.5649401957132549
3,0.5649401957132549
3,0.5649401957132549
3,0.5649401957132549
3,0.5649401957132549
3,0.5649401957132549
3,0.5649401957132549
3,0.5649401957132549
4,0.5649401957132549
4,0.5649401957132549
4,0.5649401957132549
4,0.5649401957132549
4,0.5649401957132549
4,0.5649401957132549
4,0.5649401957132549
4,0.5649401957132549
4,0.5649401957132549
5,0.5649401957132549
5,0.5649401957132549
5,0.5649401957132549
5,0.5649401957132549
5,0.6293178777515357
5,0.6293178777515357
5,0.6293178777515357
5,0.6293178777515357
5,0.6293178777515357
6,0.6293178777515357
6,0.6293178777515357
6,0.6293178777515357
6,0.6293178777515357
6,0.6293178777515357
6,0.6293178777515357
6,0.6293178777515357
6,0.6293178777515357
6,0.6293178777515357
6,0.6293178777515357
7,0.6293178777515357
7,0.6293178777515357
7,0.6293178777515357
7,0.6293178777515357
7,0.6293178777515357
7,0.6293178777515357
7,0.6293178777515357
7,0.6293178777515357
7,0.6293178777515357
7,0.6293178777515357
8,0.6366560121171382
8,0.6366560121171382
8,0.6366560121171382
8,0.6366560121171382
8,0.6366560121171382
8,0.6366560121171382
8,0.6366560121171382
8,0.6366560121171382
8,0.6366560121171382
9,0.6366560121171382
9,0.6366560121171382
9,0.6366560121171382
9,0.6366560121171382
9,0.6366560121171382
9,0.6366560121171382
9,0.6366560121171382
9,0.6366560121171382
9,0.6366560121171382
10,0.6366560121171382
10,0.6366560121171382
10,0.6366560121171382
10,0.6366560121171382
10,0.6366560121171382
10,0.6366560121171382
10,0.6366560121171382
10,0.6402801796875982
10,0.6402801796875982
10,0.6402801796875982
11,0.6402801796875982
11,0.6402801796875982
11,0.6402801796875982
11,0.6402801796875982
11,0.6402801796875982
11,0.6402801796875982
11,0.6402801796875982
11,0.6402801796875982
11,0.6402801796875982
12,0.6402801796875982
12,0.6402801796875982
12,0.6402801796875982
12,0.6402801796875982
12,0.6402801796875982
12,0.6402801796875982
12,0.6402801796875982
12,0.6402801796875982
12,0.6402801796875982
13,0.6402801796875982
13,0.6402801796875982
13,0.6402801796875982
13,0.6402801796875982
13,0.6679491268222353
13,0.6679491268222353
13,0.6679491268222353
13,0.6679491268222353
13,0.6679491268222353
13,0.6679491268222353
14,0.6679491268222353
14,0.6679491268222353
14,0.6679491268222353
14,0.6679491268222353
14,0.6679491268222353
14,0.6679491268222353
14,0.6679491268222353
14,0.6679491268222353
14,0.6679491268222353
15,0.6679491268222353
15,0.6679491268222353
15,0.6679491268222353
15,0.6679491268222353
15,0.6679491268222353
15,0.6679491268222353
15,0.6679491268222353
15,0.6679491268222353
15,0.6679491268222353
15,0.6679491268222353
16,0.6780383224018761
16,0.6780383224018761
16,0.6780383224018761
16,0.6780383224018761
16,0.6780383224018761
16,0.6780383224018761
16,0.6780383224018761
16,0.6780383224018761
16,0.6780383224018761
17,0.6780383224018761
17,0.6780383224018761
17,0.6780383224018761
17,0.6780383224018761
17,0.6780383224018761
17,0.6780383224018761
17,0.6780383224018761
17,0.6780383224018761
17,0.6780383224018761
17,0.6780383224018761
18,0.6780383224018761
18,0.6780383224018761
18,0.6780383224018761
18,0.6780383224018761
18,0.6780383224018761
18,0.6780383224018761
18,0.6780383224018761
18,0.6780383224018761
18,0.6780383224018761
18,0.6780383224018761
19,0.6780383224018761
19,0.6780383224018761
19,0.6780383224018761
19,0.6780383224018761
19,0.6780383224018761
19,0.6780383224018761
19,0.6780383224018761
19,0.6780383224018761
19,0.6780383224018761
20,0.6780383224018761
20,0.6780383224018761
20,0.6780383224018761
20,0.6780383224018761
20,0.6780383224018761
20,0.6780383224018761
20,0.6780383224018761
20,0.6780383224018761
20,0.6780383224018761
20,0.6780383224018761
21,0.6780383224018761
21,0.6780383224018761
21,0.6780383224018761
21,0.6780383224018761
21,0.6780383224018761
21,0.6780383224018761
21,0.6780383224018761
21,0.6780383224018761
21,0.6780383224018761
22,0.6780383224018761
22,0.6780383224018761
22,0.6780383224018761
22,0.6780383224018761
22,0.6780383224018761
22,0.6780383224018761
22,0.6780383224018761
22,0.6780383224018761
22,0.6780383224018761
23,0.6780383224018761
23,0.6780383224018761
23,0.6780383224018761
23,0.6780383224018761
23,0.6780383224018761
23,0.6780383224018761
23,0.6780383224018761
23,0.6780383224018761
23,0.6780383224018761
24,0.6780383224018761
24,0.6780383224018761
24,0.6780383224018761
24,0.6780383224018761
24,0.6780383224018761
24,0.6780383224018761
24,0.6780383224018761
24,0.6780383224018761
24,0.6780383224018761
25,0.6780383224018761
25,0.6780383224018761
25,0.6780383224018761
25,0.6780383224018761
25,0.6780383224018761
25,0.6780383224018761
25,0.6780383224018761
25,0.6780383224018761
25,0.6780383224018761
26,0.6780383224018761
26,0.6780383224018761
26,0.6780383224018761
26,0.6780383224018761
26,0.6780383224018761
26,0.6780383224018761
26,0.6780383224018761
26,0.6821080426518874
26,0.6821080426518874
26,0.6821080426518874
27,0.6821080426518874
27,0.6821080426518874
27,0.6821080426518874
27,0.6821080426518874
27,0.6821080426518874
27,0.6821080426518874
27,0.6821080426518874
27,0.6821080426518874
27,0.6821080426518874
28,0.6821080426518874
28,0.6821080426518874
28,0.6821080426518874
28,0.6821080426518874
28,0.6821080426518874
28,0.6821080426518874
28,0.6821080426518874
28,0.6821080426518874
28,0.6821080426518874
29,0.6821080426518874
29,0.6821080426518874
29,0.6821080426518874
29,0.6821080426518874
29,0.6921584728002191
29,0.6921584728002191
29,0.6921584728002191
29,0.6921584728002191
29,0.6921584728002191
30,0.6921584728002191
30,0.6921584728002191
30,0.6921584728002191
30,0.6921584728002191
30,0.6921584728002191
30,0.6921584728002191
30,0.6921584728002191
30,0.6921584728002191
30,0.6921584728002191
31,0.6921584728002191
31,0.6921584728002191
31,0.6921584728002191
31,0.6921584728002191
31,0.6921584728002191
31,0.6921584728002191
31,0.6921584728002191
31,0.6921584728002191
31,0.6921584728002191
32,0.6921584728002191
32,0.6921584728002191
32,0.6940173551557312
32,0.6940173551557312
32,0.6940173551557312
32,0.6940173551557312
32,0.6940173551557312
32,0.6940173551557312
32,0.6940173551557312
33,0.6940173551557312
33,0.6940173551557312
33,0.6940173551557312
33,0.6940173551557312
33,0.6940173551557312
33,0.6940173551557312
33,0.6940173551557312
33,0.6940173551557312
33,0.6940173551557312
34,0.6940173551557312
34,0.6940173551557312
34,0.6940173551557312
34,0.6940173551557312
34,0.6940173551557312
34,0.6940173551557312
34,0.6940173551557312
34,0.6940173551557312
34,0.6940173551557312
34,0.6940173551557312
35,0.6940173551557312
35,0.6940173551557312
35,0.6940173551557312
35,0.6940173551557312
35,0.6940173551557312
35,0.6940173551557312
35,0.6940173551557312
35,0.6940173551557312
35,0.6940173551557312
36,0.6940173551557312
36,0.6940173551557312
36,0.6940173551557312
36,0.6940173551557312
36,0.6940173551557312
36,0.6940173551557312
36,0.6940173551557312
36,0.6940173551557312
36,0.6940173551557312
37,0.6940173551557312
37,0.6940173551557312
37,0.6940173551557312
37,0.6940173551557312
37,0.6940173551557312
37,0.6940173551557312
37,0.6963228068612841
37,0.6963228068612841
37,0.6963228068612841
37,0.6963228068612841
38,0.6963228068612841
38,0.6963228068612841
38,0.6963228068612841
38,0.6963228068612841
38,0.6963228068612841
38,0.6963228068612841
38,0.6963228068612841
38,0.6963228068612841
38,0.6963228068612841
39,0.6963228068612841
39,0.6963228068612841
39,0.6963228068612841
39,0.6963228068612841
39,0.6963228068612841
39,0.6963228068612841
39,0.6963228068612841
39,0.6963228068612841
39,0.6963228068612841
40,0.6963228068612841
40,0.6963228068612841
40,0.6963228068612841
40,0.6963490535677622
40,0.6963490535677622
40,0.6963490535677622
40,0.6963490535677622
40,0.6963490535677622
40,0.6963490535677622
41,0.6963490535677622
41,0.6963490535677622
41,0.6963490535677622
41,0.6963490535677622
41,0.6963490535677622
41,0.6963490535677622
41,0.6963490535677622
41,0.6963490535677622
41,0.6963490535677622
41,0.6963490535677622
42,0.6963490535677622
42,0.6963490535677622
42,0.6963490535677622
42,0.6963490535677622
42,0.6963490535677622
42,0.6963490535677622
42,0.6963490535677622
42,0.6963490535677622
42,0.6963490535677622
43,0.7028577823608085
43,0.7028577823608085
43,0.7028577823608085
43,0.7028577823608085
43,0.7028577823608085
43,0.7028577823608085
43,0.7028577823608085
43,0.7028577823608085
43,0.7028577823608085
44,0.7028577823608085
44,0.7028577823608085
44,0.7028577823608085
44,0.7028577823608085
44,0.7028577823608085
44,0.7028577823608085
44,0.7028577823608085
44,0.7028577823608085
44,0.7028577823608085
44,0.7028577823608085
45,0.7028577823608085
45,0.7028577823608085
45,0.7028577823608085
45,0.7028577823608085
45,0.7028577823608085
45,0.7028577823608085
45,0.7028660433039587
45,0.7028660433039587
45,0.7028660433039587
46,0.7028660433039587
46,0.7028660433039587
46,0.7028660433039587
46,0.7028660433039587
46,0.7028660433039587
46,0.7028660433039587
46,0.7028660433039587
46,0.7028660433039587
46,0.7028660433039587
47,0.7028660433039587
47,0.7028660433039587
47,0.7028660433039587
47,0.7028660433039587
47,0.7028660433039587
47,0.7028660433039587
47,0.7028660433039587
47,0.7028660433039587
47,0.7028660433039587
48,0.7028660433039587
48,0.7028660433039587
48,0.7028660433039587
48,0.7028660433039587
48,0.7028660433039587
48,0.7028660433039587
48,0.7028660433039587
48,0.7028660433039587
49,0.7028660433039587
49,0.7028660433039587
49,0.7028660433039587
49,0.7028660433039587
49,0.7028660433039587
49,0.7028660433039587
49,0.7028660433039587
49,0.7028660433039587
49,0.7028660433039587
50,0.7028660433039587
50,0.7028660433039587
50,0.7028660433039587
50,0.7028660433039587
50,0.7028660433039587
50,0.7028660433039587
50,0.7028660433039587
50,0.7028660433039587
50,0.7028660433039587
51,0.7028660433039587
51,0.7028660433039587
51,0.7028660433039587
51,0.7035658160507554
51,0.7035658160507554
51,0.7035658160507554
51,0.7035658160507554
51,0.7035658160507554
51,0.7035658160507554
52,0.7035658160507554
52,0.7035658160507554
52,0.7035658160507554
52,0.7035658160507554
52,0.7035658160507554
52,0.7035658160507554
52,0.7035658160507554
52,0.7035658160507554
52,0.7035658160507554
52,0.7035658160507554
53,0.7035658160507554
53,0.7035658160507554
53,0.7035658160507554
53,0.7035658160507554
53,0.7035658160507554
53,0.7035658160507554
53,0.7035658160507554
53,0.7035658160507554
53,0.7035658160507554
53,0.7035658160507554
54,0.7035658160507554
54,0.7035658160507554
54,0.7035658160507554
54,0.7035658160507554
54,0.7035658160507554
54,0.7035658160507554
54,0.7035658160507554
54,0.7035658160507554
54,0.7035658160507554
54,0.7035658160507554
55,0.7035658160507554
55,0.7035658160507554
55,0.7035658160507554
55,0.7035658160507554
55,0.7035658160507554
55,0.7035658160507554
55,0.7035658160507554
55,0.7035658160507554
55,0.7035658160507554
56,0.7035658160507554
56,0.7035658160507554
56,0.7035658160507554
56,0.7035658160507554
56,0.7035658160507554
56,0.7035658160507554
56,0.7035658160507554
56,0.7035658160507554
56,0.7035658160507554
57,0.7035658160507554
57,0.7035658160507554
57,0.7035658160507554
57,0.7035658160507554
57,0.7035658160507554
57,0.7035658160507554
57,0.7035658160507554
57,0.7035658160507554
57,0.7035658160507554
58,0.7035658160507554
58,0.7035658160507554
58,0.7035658160507554
58,0.7035658160507554
58,0.7035658160507554
58,0.7035658160507554
58,0.7035658160507554
58,0.7035658160507554
58,0.7035658160507554
59,0.7035658160507554
59,0.7035658160507554
59,0.7035658160507554
59,0.7043775991025003
59,0.7043775991025003
59,0.7043775991025003
59,0.7043775991025003
59,0.7043775991025003
59,0.7043775991025003
60,0.7043775991025003
60,0.7043775991025003
60,0.7043775991025003
60,0.7043775991025003
60,0.7043775991025003
60,0.7043775991025003
60,0.7043775991025003
60,0.7043775991025003
60,0.7043775991025003
60,0.7043775991025003
61,0.7043775991025003
61,0.7043775991025003
61,0.7043775991025003
61,0.7043775991025003
61,0.7043775991025003
61,0.7043775991025003
61,0.7043775991025003
61,0.7043775991025003
61,0.7043775991025003
62,0.7043775991025003
62,0.7043775991025003
62,0.7043775991025003
62,0.7043775991025003
62,0.7043775991025003
62,0.7043775991025003
62,0.7043775991025003
62,0.7043775991025003
62,0.7043775991025003
63,0.7043775991025003
63,0.7043775991025003
63,0.7043775991025003
63,0.7043775991025003
63,0.7043775991025003
63,0.7043775991025003
63,0.7043775991025003
63,0.7043775991025003
63,0.7043775991025003
63,0.7043775991025003
64,0.7043775991025003
64,0.7043775991025003
64,0.7043775991025003
64,0.7043775991025003
64,0.7043775991025003
64,0.7043775991025003
64,0.7043775991025003
64,0.7043775991025003
64,0.7043775991025003
65,0.7043775991025003
65,0.7043775991025003
65,0.7043775991025003
65,0.7043775991025003
65,0.7043775991025003
65,0.7043775991025003
65,0.7043775991025003
65,0.7043775991025003
65,0.7043775991025003
65,0.7043775991025003
66,0.7043775991025003
66,0.7043775991025003
66,0.7043775991025003
66,0.7043775991025003
66,0.7043775991025003
66,0.7043775991025003
66,0.7043775991025003
66,0.7043775991025003
66,0.7043775991025003
66,0.7043775991025003
67,0.7043775991025003
67,0.7043775991025003
67,0.7123103014148866
67,0.7123103014148866
67,0.7123103014148866
67,0.7123103014148866
67,0.7123103014148866
67,0.7123103014148866
67,0.7123103014148866
68,0.7123103014148866
68,0.7123103014148866
68,0.7123103014148866
68,0.7123103014148866
68,0.7123103014148866
68,0.7123103014148866
68,0.7123103014148866
68,0.7123103014148866
68,0.7123103014148866
68,0.7123103014148866
69,0.7123103014148866
69,0.7123103014148866
69,0.7123103014148866
69,0.7123103014148866
69,0.7123103014148866
69,0.7123103014148866
69,0.7123103014148866
69,0.7123103014148866
69,0.7123103014148866
70,0.7123103014148866
70,0.7123103014148866
70,0.7123103014148866
70,0.7123103014148866
70,0.7123103014148866
70,0.7123103014148866
70,0.7123103014148866
70,0.7123103014148866
70,0.7123103014148866
70,0.7123103014148866
71,0.7123103014148866
71,0.7123103014148866
71,0.7123103014148866
71,0.7123103014148866
71,0.7123103014148866
71,0.7123103014148866
71,0.7123103014148866
71,0.7123103014148866
71,0.7123103014148866
72,0.7123103014148866
72,0.7123103014148866
72,0.7123103014148866
72,0.7123103014148866
72,0.7123103014148866
72,0.716652610604764
72,0.716652610604764
72,0.716652610604764
72,0.716652610604764
73,0.716652610604764
73,0.716652610604764
73,0.716652610604764
73,0.716652610604764
73,0.716652610604764
73,0.716652610604764
73,0.716652610604764
73,0.716652610604764
73,0.716652610604764
73,0.716652610604764
74,0.716652610604764
74,0.716652610604764
74,0.716652610604764
74,0.716652610604764
74,0.716652610604764
74,0.716652610604764
74,0.716652610604764
74,0.716652610604764
74,0.716652610604764
75,0.716652610604764
75,0.716652610604764
75,0.7218707530193826
75,0.7218707530193826
75,0.7218707530193826
75,0.7218707530193826
75,0.7218707530193826
75,0.7218707530193826
75,0.7218707530193826
76,0.7218707530193826
76,0.7218707530193826
76,0.7218707530193826
76,0.7218707530193826
76,0.7218707530193826
76,0.7218707530193826
76,0.7218707530193826
76,0.7218707530193826
76,0.7218707530193826
77,0.7218707530193826
77,0.7218707530193826
77,0.7218707530193826
77,0.7218707530193826
77,0.7218707530193826
77,0.7218707530193826
77,0.7218707530193826
77,0.7218707530193826
78,0.7218707530193826
78,0.7231497323150733
78,0.7231497323150733
78,0.7231497323150733
78,0.7231497323150733
78,0.7231497323150733
78,0.7231497323150733
78,0.7231497323150733
79,0.7231497323150733
79,0.7231497323150733
79,0.7231497323150733
79,0.7231497323150733
79,0.7231497323150733
79,0.7231497323150733
79,0.7231497323150733
79,0.7231497323150733
79,0.7231497323150733
80,0.7231497323150733
80,0.7231497323150733
80,0.7231497323150733
80,0.7231497323150733
80,0.7231497323150733
80,0.7231497323150733
80,0.7231497323150733
80,0.7231497323150733
81,0.7231497323150733
81,0.7231497323150733
81,0.7231497323150733
81,0.7231497323150733
81,0.7231497323150733
81,0.7231497323150733
81,0.7231497323150733
81,0.7231497323150733
81,0.7231497323150733
82,0.7231497323150733
82,0.7231497323150733
82,0.7231497323150733
82,0.7231497323150733
82,0.7231497323150733
82,0.7231497323150733
82,0.7231497323150733
82,0.7231497323150733
82,0.7231497323150733
83,0.7231497323150733
83,0.7231497323150733
83,0.7231497323150733
83,0.7231497323150733
83,0.7231497323150733
83,0.7231497323150733
83,0.7231497323150733
83,0.7231497323150733
84,0.7231497323150733
84,0.7231497323150733
84,0.7231497323150733
84,0.7231497323150733
84,0.7231497323150733
84,0.7231497323150733
84,0.7231497323150733
84,0.7231497323150733
85,0.7231497323150733
85,0.7231497323150733
85,0.7231497323150733
85,0.7231497323150733
85,0.7231497323150733
85,0.7231497323150733
85,0.7231497323150733
85,0.7231497323150733
85,0.7231497323150733
86,0.7231497323150733
86,0.7231497323150733
86,0.7231497323150733
86,0.7231497323150733
86,0.7231497323150733
86,0.7231497323150733
86,0.7231497323150733
86,0.7231497323150733
86,0.7231497323150733
87,0.7231497323150733
87,0.7231497323150733
87,0.7231497323150733
87,0.7231497323150733
87,0.7231497323150733
87,0.7231497323150733
87,0.7231497323150733
87,0.7231497323150733
88,0.7231497323150733
88,0.7231497323150733
88,0.7231497323150733
88,0.7231497323150733
88,0.7231497323150733
88,0.7231497323150733
88,0.7231497323150733
88,0.7231497323150733
88,0.7231497323150733
89,0.7231497323150733
89,0.7231497323150733
89,0.7231497323150733
89,0.7231497323150733
89,0.7231497323150733
89,0.7231497323150733
89,0.7231497323150733
89,0.7252065687821924
89,0.7252065687821924
90,0.7252065687821924
90,0.7252065687821924
90,0.7252065687821924
90,0.7252065687821924
90,0.7252065687821924
90,0.7252065687821924
90,0.7252065687821924
90,0.7252065687821924
90,0.7252065687821924
91,0.7252065687821924
91,0.7252065687821924
91,0.7252065687821924
91,0.7252065687821924
91,0.7252065687821924
91,0.7252065687821924
91,0.7252065687821924
91,0.7252065687821924
92,0.7252065687821924
92,0.7252065687821924
92,0.7252065687821924
92,0.7252065687821924
92,0.7252065687821924
92,0.7252065687821924
92,0.7252065687821924
92,0.7252065687821924
92,0.7252065687821924
93,0.7252065687821924
93,0.7252065687821924
93,0.7252065687821924
93,0.7252065687821924
93,0.7252065687821924
93,0.7252065687821924
93,0.7252065687821924
93,0.7252065687821924
94,0.7252065687821924
94,0.7252065687821924
94,0.7252065687821924
94,0.7252065687821924
94,0.7252065687821924
94,0.7252065687821924
94,0.7252065687821924
94,0.7252065687821924
94,0.7252065687821924
95,0.7252065687821924
95,0.7252065687821924
95,0.7252065687821924
95,0.7252065687821924
95,0.7252065687821924
95,0.7252065687821924
95,0.7252065687821924
95,0.7252065687821924
95,0.7252065687821924
96,0.7252065687821924
96,0.7252065687821924
96,0.7252065687821924
96,0.7252065687821924
96,0.7252065687821924
96,0.7252065687821924
96,0.7252065687821924
96,0.7252065687821924
96,0.7252065687821924
96,0.7252065687821924
97,0.7252065687821924
97,0.7252065687821924
97,0.7252065687821924
97,0.7252065687821924
97,0.7252065687821924
97,0.7252065687821924
97,0.7252065687821924
97,0.7252065687821924
97,0.7252065687821924
98,0.7252065687821924
98,0.7252065687821924
98,0.7252065687821924
98,0.7252065687821924
98,0.7252065687821924
98,0.7252065687821924
98,0.7252065687821924
98,0.7252065687821924
98,0.7252065687821924
99,0.7252065687821924
99,0.7252065687821924
99,0.7252065687821924
99,0.7252065687821924
99,0.7252065687821924
99,0.7252065687821924
99,0.7252065687821924
99,0.7252065687821924
99,0.7252065687821924
100,0.7252065687821924
100,0.7252065687821924
100,0.7252065687821924
100,0.7252065687821924
100,0.7252065687821924
100,0.7252065687821924
100,0.7252065687821924
100,0.7252065687821924
100,0.7252065687821924
101,0.7252065687821924
101,0.7252065687821924
101,0.7252065687821924
101,0.7252065687821924
101,0.7252065687821924
101,0.7252065687821924
101,0.7252065687821924
101,0.7252065687821924
101,0.7252065687821924
101,0.7252065687821924
102,0.7252065687821924
102,0.7252065687821924
102,0.7252065687821924
102,0.7252065687821924
102,0.7252065687821924
102,0.7252065687821924
102,0.7252065687821924
102,0.7252065687821924
102,0.7252065687821924
103,0.7252065687821924
103,0.7252065687821924
103,0.7252065687821924
103,0.7252065687821924
103,0.7252065687821924
103,0.7252065687821924
103,0.7252065687821924
103,0.7252065687821924
103,0.7252065687821924
104,0.7252065687821924
104,0.7252065687821924
104,0.7252065687821924
104,0.7252065687821924
104,0.7252065687821924
104,0.7252065687821924
104,0.7252065687821924
104,0.7252065687821924
104,0.7252065687821924
105,0.7252065687821924
105,0.7252065687821924
105,0.7252065687821924
105,0.7252065687821924
105,0.7252065687821924
105,0.7252065687821924
105,0.7252065687821924
105,0.7252065687821924
105,0.7252065687821924
105,0.7252065687821924
106,0.7252065687821924
106,0.7252065687821924
106,0.7252065687821924
106,0.7254721824034225
106,0.7254721824034225
106,0.7254721824034225
106,0.7254721824034225
106,0.7254721824034225
106,0.7254721824034225
107,0.7254721824034225
107,0.7254721824034225
107,0.7254721824034225
107,0.7254721824034225
107,0.7254721824034225
107,0.7254721824034225
107,0.7254721824034225
107,0.7254721824034225
107,0.7254721824034225
108,0.7254721824034225
108,0.7254721824034225
108,0.7254721824034225
108,0.7254721824034225
108,0.7254721824034225
108,0.7254721824034225
108,0.7254721824034225
108,0.7254721824034225
108,0.7254721824034225
109,0.7254721824034225
109,0.7254721824034225
109,0.7254721824034225
109,0.7254721824034225
109,0.7254721824034225
109,0.7254721824034225
109,0.7254721824034225
109,0.7254721824034225
109,0.7254721824034225
109,0.7254721824034225
110,0.7254721824034225
110,0.7254721824034225
110,0.7254721824034225
110,0.7254721824034225
110,0.7254721824034225
110,0.7254721824034225
110,0.7254721824034225
110,0.7254721824034225
111,0.7254721824034225
111,0.7254721824034225
111,0.7254721824034225
111,0.7254721824034225
111,0.7254721824034225
111,0.7254721824034225
111,0.7254721824034225
111,0.7254721824034225
111,0.7254721824034225
112,0.7254721824034225
112,0.7254721824034225
112,0.7254721824034225
112,0.7254721824034225
112,0.7254721824034225
112,0.7254721824034225
112,0.7254721824034225
112,0.7254721824034225
112,0.7254721824034225
113,0.7254721824034225
113,0.7254721824034225
113,0.7254721824034225
113,0.7254721824034225
113,0.7254721824034225
113,0.7254721824034225
113,0.7254721824034225
113,0.7254721824034225
113,0.7254721824034225
114,0.7254721824034225
114,0.7254721824034225
114,0.7254721824034225
114,0.7254721824034225
114,0.7254721824034225
114,0.7254721824034225
114,0.7254721824034225
114,0.7254721824034225
114,0.7254721824034225
115,0.7254721824034225
115,0.7254721824034225
115,0.7254721824034225
115,0.7254721824034225
115,0.7254721824034225
115,0.7254721824034225
115,0.7254721824034225
115,0.7254721824034225
116,0.7254721824034225
116,0.7254721824034225
116,0.7254721824034225
116,0.7254721824034225
116,0.7254721824034225
116,0.7254721824034225
116,0.7254721824034225
116,0.7254721824034225
116,0.7254721824034225
117,0.7254721824034225
117,0.7254721824034225
117,0.7254721824034225
117,0.7254721824034225
117,0.7254721824034225
117,0.7254721824034225
117,0.7254721824034225
117,0.7254721824034225
117,0.7254721824034225
118,0.7254721824034225
118,0.7254721824034225
118,0.7254721824034225
118,0.7254721824034225
118,0.7254721824034225
118,0.7254721824034225
118,0.7254721824034225
118,0.7254721824034225
118,0.7254721824034225
119,0.7254721824034225
119,0.7254721824034225
119,0.7254721824034225
119,0.7254721824034225
119,0.7254721824034225
119,0.7254721824034225
119,0.7254721824034225
119,0.7254721824034225
120,0.7254721824034225
120,0.7254721824034225
120,0.7254721824034225
120,0.7254721824034225
120,0.7286192007057448
120,0.7286192007057448
120,0.7286192007057448
120,0.7286192007057448
120,0.7286192007057448
121,0.7286192007057448
121,0.7286192007057448
121,0.7286192007057448
121,0.7286192007057448
121,0.7286192007057448
121,0.7286192007057448
121,0.7286192007057448
121,0.7286192007057448
121,0.7286192007057448
122,0.7286192007057448
122,0.7286192007057448
122,0.7286192007057448
122,0.7286192007057448
122,0.7286192007057448
122,0.7286192007057448
122,0.7286192007057448
122,0.7286192007057448
123,0.7286192007057448
123,0.7286192007057448
123,0.7286192007057448
123,0.7294148220337866
123,0.7294148220337866
123,0.7294148220337866
123,0.7294148220337866
123,0.7294148220337866
123,0.7294148220337866
124,0.7294148220337866
124,0.7294148220337866
124,0.7294148220337866
124,0.7294148220337866
124,0.7294148220337866
124,0.7294148220337866
124,0.7294148220337866
124,0.7294148220337866
125,0.7294148220337866
125,0.7294148220337866
125,0.7294148220337866
125,0.7294148220337866
125,0.7294148220337866
125,0.7294148220337866
125,0.7294148220337866
125,0.7294148220337866
125,0.7294148220337866
126,0.7294148220337866
126,0.7294148220337866
126,0.7328490529683777
126,0.7328490529683777
126,0.7328490529683777
127,0.7328490529683777
127,0.7328490529683777
127,0.7328490529683777
127,0.7328490529683777
127,0.7328490529683777
127,0.7328490529683777
127,0.7328490529683777
128,0.7328490529683777
128,0.7328490529683777
128,0.7328490529683777
128,0.7328490529683777
128,0.7328490529683777
128,0.7328490529683777
128,0.7328490529683777
128,0.7328490529683777
128,0.7328490529683777
129,0.7328490529683777
129,0.7328490529683777
129,0.7328490529683777
129,0.7328490529683777
129,0.7328490529683777
129,0.7328490529683777
129,0.7328490529683777
129,0.7328490529683777
129,0.7328490529683777
130,0.7328490529683777
130,0.7328490529683777
130,0.7328490529683777
130,0.7328490529683777
130,0.7328490529683777
130,0.7328490529683777
130,0.7328490529683777
130,0.7328490529683777
131,0.7328490529683777
131,0.7328490529683777
131,0.7328490529683777
131,0.7328490529683777
131,0.7328490529683777
131,0.7328490529683777
131,0.7328490529683777
131,0.7328490529683777
131,0.7328490529683777
132,0.7328490529683777
132,0.7328490529683777
132,0.7328490529683777
132,0.7328490529683777
132,0.7328490529683777
132,0.7354393990226508
132,0.7354393990226508
132,0.7354393990226508
132,0.7354393990226508
133,0.7354393990226508
133,0.7354393990226508
133,0.7354393990226508
133,0.7354393990226508
133,0.7354393990226508
133,0.7354393990226508
133,0.7354393990226508
133,0.7354393990226508
133,0.7354393990226508
134,0.7354393990226508
134,0.7354393990226508
134,0.7354393990226508
134,0.7354393990226508
134,0.7354393990226508
134,0.7354393990226508
134,0.7354393990226508
134,0.7354393990226508
135,0.7354393990226508
135,0.7354393990226508
135,0.7354393990226508
135,0.7354393990226508
135,0.7354393990226508
135,0.7354393990226508
135,0.7354393990226508
136,0.7354393990226508
136,0.7354393990226508
136,0.7354393990226508
136,0.7354393990226508
136,0.7354393990226508
136,0.7354393990226508
136,0.7354393990226508
136,0.7354393990226508
136,0.7354393990226508
137,0.7354393990226508
137,0.7354393990226508
137,0.7354393990226508
137,0.7354393990226508
137,0.7354393990226508
137,0.7354393990226508
137,0.7354393990226508
137,0.7354393990226508
138,0.7354393990226508
138,0.7354393990226508
138,0.7354393990226508
138,0.7354393990226508
138,0.7354393990226508
138,0.7354393990226508
138,0.7354393990226508
138,0.7354393990226508
139,0.7354393990226508
139,0.7354393990226508
139,0.7354393990226508
139,0.7354393990226508
139,0.7354393990226508
139,0.7354393990226508
139,0.7354393990226508
139,0.7354393990226508
139,0.7354393990226508
140,0.7354393990226508
140,0.7354393990226508
140,0.7354393990226508
140,0.7354393990226508
140,0.7354393990226508
140,0.7354393990226508
140,0.7354393990226508
140,0.7354393990226508
140,0.7354393990226508
141,0.7354393990226508
141,0.7354393990226508
141,0.7354393990226508
141,0.7354393990226508
141,0.7366367701544164
141,0.7366367701544164
141,0.7366367701544164
141,0.7366367701544164
142,0.7366367701544164
142,0.7366367701544164
142,0.7366367701544164
142,0.7366367701544164
142,0.7366367701544164
142,0.7366367701544164
142,0.7366367701544164
142,0.7366367701544164
142,0.7366367701544164
143,0.7366367701544164
143,0.7366367701544164
143,0.7366367701544164
143,0.7366367701544164
143,0.7366367701544164
143,0.7366367701544164
143,0.7366367701544164
143,0.7366367701544164
143,0.7366367701544164
144,0.7366367701544164
144,0.7366367701544164
144,0.7366367701544164
144,0.7366367701544164
144,0.7366367701544164
144,0.7366367701544164
144,0.7366367701544164
144,0.7366367701544164
144,0.7366367701544164
145,0.7366367701544164
145,0.7366367701544164
145,0.7366367701544164
145,0.7366367701544164
145,0.7366367701544164
145,0.7366367701544164
145,0.7366367701544164
145,0.7366367701544164
146,0.7366367701544164
146,0.7366367701544164
146,0.7366367701544164
146,0.7366367701544164
146,0.7366367701544164
146,0.7366367701544164
146,0.7366367701544164
146,0.7366367701544164
146,0.7366367701544164
147,0.7366367701544164
147,0.7366367701544164
147,0.736648608978478
147,0.736648608978478
147,0.736648608978478
147,0.736648608978478
147,0.736648608978478
147,0.736648608978478
147,0.736648608978478
148,0.736648608978478
148,0.736648608978478
148,0.736648608978478
148,0.736648608978478
148,0.736648608978478
148,0.736648608978478
148,0.736648608978478
148,0.736648608978478
148,0.736648608978478
149,0.736648608978478
149,0.736648608978478
149,0.736648608978478
149,0.736648608978478
149,0.736648608978478
149,0.736648608978478
149,0.736648608978478
149,0.736648608978478
149,0.736648608978478
150,0.736648608978478
150,0.736648608978478
150,0.736648608978478
150,0.736648608978478
150,0.736648608978478
150,0.736648608978478
150,0.736648608978478
150,0.736648608978478
151,0.736648608978478
151,0.736648608978478
151,0.736648608978478
151,0.736648608978478
151,0.736648608978478
151,0.736648608978478
151,0.736648608978478
151,0.736648608978478
151,0.736648608978478
152,0.736648608978478
152,0.736648608978478
152,0.736648608978478
152,0.736648608978478
152,0.736648608978478
152,0.736648608978478
152,0.736648608978478
153,0.736648608978478
153,0.736648608978478
153,0.736648608978478
153,0.736648608978478
153,0.736648608978478
153,0.736648608978478
153,0.736648608978478
153,0.736648608978478
154,0.736648608978478
154,0.736648608978478
154,0.736648608978478
154,0.736648608978478
154,0.736648608978478
154,0.736648608978478
154,0.736648608978478
154,0.736648608978478
155,0.736648608978478
155,0.736648608978478
155,0.736648608978478
155,0.736648608978478
155,0.736648608978478
155,0.736648608978478
155,0.736648608978478
155,0.736648608978478
155,0.736648608978478
156,0.736648608978478
156,0.736648608978478
156,0.736648608978478
156,0.736648608978478
156,0.736648608978478
156,0.736648608978478
156,0.736648608978478
156,0.736648608978478
156,0.736648608978478
157,0.736648608978478
157,0.736648608978478
157,0.736648608978478
157,0.736648608978478
157,0.736648608978478
157,0.736648608978478
157,0.736648608978478
157,0.736648608978478
158,0.736648608978478
158,0.736648608978478
158,0.736648608978478
158,0.736648608978478
158,0.736648608978478
158,0.736648608978478
158,0.736648608978478
158,0.736648608978478
159,0.736648608978478
159,0.736648608978478
159,0.736648608978478
159,0.736648608978478
159,0.736648608978478
159,0.736648608978478
159,0.736648608978478
159,0.736648608978478
159,0.736648608978478
160,0.736648608978478
160,0.736648608978478
160,0.736648608978478
160,0.736648608978478
160,0.736648608978478
160,0.736648608978478
160,0.736648608978478
160,0.736648608978478
160,0.736648608978478
161,0.736648608978478
161,0.736648608978478
161,0.736648608978478
161,0.736648608978478
161,0.736648608978478
161,0.736648608978478
161,0.736648608978478
161,0.736648608978478
162,0.7371829852567346
162,0.7371829852567346
162,0.7371829852567346
162,0.7371829852567346
162,0.7371829852567346
162,0.7371829852567346
162,0.7371829852567346
162,0.7371829852567346
162,0.7371829852567346
163,0.7371829852567346
163,0.7371829852567346
163,0.7371829852567346
163,0.7371829852567346
163,0.7371829852567346
163,0.7371829852567346
163,0.7371829852567346
163,0.7371829852567346
163,0.7371829852567346
164,0.7371829852567346
164,0.7371829852567346
164,0.7371829852567346
164,0.7371829852567346
164,0.7371829852567346
164,0.7371829852567346
164,0.7371829852567346
164,0.7381663985564605
165,0.7381663985564605
165,0.7381663985564605
165,0.7381663985564605
165,0.7381663985564605
165,0.7381663985564605
165,0.7381663985564605
165,0.7381663985564605
165,0.7381663985564605
165,0.7381663985564605
166,0.7381663985564605
166,0.7381663985564605
166,0.7381663985564605
166,0.7381663985564605
166,0.7381663985564605
166,0.7381663985564605
166,0.7381663985564605
166,0.7381663985564605
166,0.7381663985564605
167,0.7381663985564605
167,0.7381663985564605
167,0.7381663985564605
167,0.7381663985564605
167,0.7381663985564605
167,0.7381663985564605
167,0.7398087948451103
167,0.7398087948451103
168,0.7398087948451103
168,0.7398087948451103
168,0.7398087948451103
168,0.7398087948451103
168,0.7398087948451103
168,0.7398087948451103
168,0.7398087948451103
168,0.7398087948451103
168,0.7398087948451103
169,0.7398087948451103
169,0.7398087948451103
169,0.7398087948451103
169,0.7398087948451103
169,0.7398087948451103
169,0.7398087948451103
169,0.7398087948451103
169,0.7398087948451103
170,0.7398087948451103
170,0.7398087948451103
170,0.7398087948451103
170,0.7398087948451103
170,0.7398087948451103
170,0.7398087948451103
170,0.7398087948451103
170,0.7398087948451103
170,0.7398087948451103
171,0.7398087948451103
171,0.7398087948451103
171,0.7398087948451103
171,0.7398087948451103
171,0.7398087948451103
171,0.7398087948451103
171,0.7398087948451103
171,0.7398087948451103
172,0.7398087948451103
172,0.7398087948451103
172,0.7398087948451103
172,0.7398087948451103
172,0.7398087948451103
172,0.7398087948451103
172,0.7398087948451103
173,0.7398087948451103
173,0.7398087948451103
173,0.7398087948451103
173,0.7398087948451103
173,0.7398087948451103
173,0.7398087948451103
173,0.7398087948451103
174,0.7398087948451103
174,0.7398087948451103
174,0.7398087948451103
174,0.7398087948451103
174,0.7398087948451103
174,0.7398087948451103
174,0.7398087948451103
174,0.7398087948451103
174,0.7398087948451103
175,0.7398087948451103
175,0.7398087948451103
175,0.7398087948451103
175,0.7398087948451103
175,0.7398087948451103
175,0.7398087948451103
175,0.7398087948451103
175,0.7398087948451103
176,0.7398087948451103
176,0.7398087948451103
176,0.7398087948451103
176,0.7398087948451103
176,0.7398087948451103
176,0.7398087948451103
176,0.7398087948451103
176,0.7398087948451103
176,0.7398087948451103
177,0.7398087948451103
177,0.7398087948451103
177,0.7398087948451103
177,0.7398087948451103
177,0.7398087948451103
177,0.7398087948451103
177,0.7398087948451103
177,0.7398087948451103
178,0.7398087948451103
178,0.7398087948451103
178,0.7398087948451103
178,0.7398087948451103
178,0.7398087948451103
178,0.7398087948451103
178,0.7398087948451103
178,0.7398087948451103
179,0.7398087948451103
179,0.7398087948451103
179,0.7398087948451103
179,0.7398087948451103
179,0.7398087948451103
179,0.7398087948451103
179,0.7398087948451103
179,0.7398087948451103
179,0.7398087948451103
180,0.7398087948451103
180,0.7398087948451103
180,0.7398087948451103
180,0.7398087948451103
180,0.7398087948451103
180,0.7398087948451103
180,0.7398087948451103
181,0.7398087948451103
181,0.7398087948451103
181,0.7398087948451103
181,0.7398087948451103
181,0.7398087948451103
181,0.7398087948451103
181,0.7398087948451103
182,0.7398087948451103
182,0.7398087948451103
182,0.7398087948451103
182,0.7398087948451103
182,0.7398087948451103
182,0.7398087948451103
182,0.7398087948451103
182,0.7398087948451103
183,0.7398087948451103
183,0.7398087948451103
183,0.7398087948451103
183,0.7398087948451103
183,0.7398087948451103
183,0.7398087948451103
183,0.7398087948451103
183,0.7398087948451103
183,0.7398087948451103
184,0.7398087948451103
184,0.7398087948451103
184,0.7398087948451103
184,0.7398087948451103
184,0.7398087948451103
184,0.7398087948451103
184,0.7398087948451103
184,0.7398087948451103
184,0.7398087948451103
185,0.7398087948451103
185,0.7398087948451103
185,0.7398087948451103
185,0.7398087948451103
185,0.7398087948451103
185,0.7398087948451103
185,0.7398087948451103
185,0.7398087948451103
185,0.7398087948451103
186,0.7398087948451103
186,0.7398087948451103
186,0.7398087948451103
186,0.7398087948451103
186,0.7398087948451103
186,0.7398087948451103
186,0.7398087948451103
186,0.7398087948451103
187,0.7398087948451103
187,0.7398087948451103
187,0.7398087948451103
187,0.7398087948451103
187,0.7398087948451103
187,0.7398087948451103
187,0.7398087948451103
187,0.7398087948451103
188,0.7398087948451103
188,0.7398087948451103
188,0.7398087948451103
188,0.7398087948451103
188,0.7398087948451103
188,0.7398087948451103
188,0.7398087948451103
188,0.7398087948451103
188,0.7398087948451103
189,0.7398087948451103
189,0.7398087948451103
189,0.7398087948451103
189,0.7398087948451103
189,0.7398087948451103
189,0.7398087948451103
189,0.7398087948451103
189,0.7398087948451103
189,0.7398087948451103
190,0.7398087948451103
190,0.7398087948451103
190,0.7398087948451103
190,0.7398087948451103
190,0.7398087948451103
190,0.7398087948451103
190,0.7398087948451103
190,0.7398087948451103
191,0.7398087948451103
191,0.7398087948451103
191,0.7398087948451103
191,0.7398087948451103
191,0.7398087948451103
191,0.7398087948451103
191,0.7398087948451103
191,0.7398087948451103
191,0.7398087948451103
192,0.7398087948451103
192,0.7398087948451103
192,0.7398087948451103
192,0.7398087948451103
192,0.7398087948451103
192,0.7398087948451103
192,0.7398087948451103
193,0.7398087948451103
193,0.7398087948451103
193,0.7398087948451103
193,0.7398087948451103
193,0.7398087948451103
193,0.7398087948451103
193,0.7398087948451103
193,0.7398087948451103
193,0.7398087948451103
194,0.7398087948451103
194,0.7398087948451103
194,0.7398087948451103
194,0.7398087948451103
194,0.7398087948451103
194,0.7398087948451103
194,0.7398087948451103
194,0.7398087948451103
195,0.7398087948451103
195,0.7398087948451103
195,0.7398087948451103
195,0.7398087948451103
195,0.7398087948451103
195,0.7398087948451103
195,0.7398087948451103
195,0.7398087948451103
196,0.7398087948451103
196,0.7398087948451103
196,0.7398087948451103
196,0.7398087948451103
196,0.7398087948451103
196,0.7398087948451103
196,0.7398087948451103
196,0.7398087948451103
197,0.7398087948451103
197,0.7398087948451103
197,0.7398087948451103
197,0.7398087948451103
197,0.7398087948451103
197,0.7398087948451103
197,0.7398087948451103
197,0.7398087948451103
198,0.7398087948451103
198,0.7398087948451103
198,0.7398087948451103
198,0.7398087948451103
198,0.7398087948451103
198,0.7398087948451103
198,0.7398087948451103
198,0.7398087948451103
199,0.7398087948451103
199,0.7398087948451103
199,0.7398087948451103
199,0.7398087948451103
199,0.7398087948451103
199,0.7398087948451103
199,0.7398087948451103
199,0.7398087948451103
199,0.7398087948451103
200,0.7398087948451103
200,0.7398087948451103
200,0.7398087948451103
200,0.7398087948451103
200,0.7398087948451103
200,0.7398087948451103
200,0.7398087948451103
200,0.7398087948451103
201,0.7398087948451103
201,0.7398087948451103
201,0.7398087948451103
201,0.7398087948451103
201,0.7398087948451103
201,0.7398087948451103
201,0.7398087948451103
201,0.7398087948451103
201,0.7398087948451103
202,0.7398087948451103
202,0.7398087948451103
202,0.7398087948451103
202,0.7398087948451103
202,0.7398087948451103
202,0.7398087948451103
202,0.7398087948451103
202,0.7398087948451103
203,0.7398087948451103
203,0.7398087948451103
203,0.7398087948451103
203,0.7398087948451103
203,0.7398087948451103
203,0.7398087948451103
203,0.7398087948451103
203,0.7398087948451103
204,0.7398087948451103
204,0.7398087948451103
204,0.7398087948451103
204,0.7398087948451103
204,0.7398087948451103
204,0.7398087948451103
204,0.7398087948451103
204,0.7398087948451103
204,0.7398087948451103
205,0.7398087948451103
205,0.7398087948451103
205,0.7398087948451103
205,0.7398087948451103
205,0.7398087948451103
205,0.7398087948451103
205,0.7398087948451103
205,0.7398087948451103
205,0.7398087948451103
206,0.7398087948451103
206,0.7398087948451103
206,0.7398087948451103
206,0.7398087948451103
206,0.7398087948451103
206,0.7398087948451103
206,0.7398087948451103
206,0.7398087948451103
206,0.7398087948451103
207,0.7398087948451103
207,0.7398087948451103
207,0.7398087948451103
207,0.7398087948451103
207,0.7398087948451103
207,0.7398087948451103
207,0.7398087948451103
207,0.7398087948451103
207,0.7398087948451103
208,0.7398087948451103
208,0.7398087948451103
208,0.7398087948451103
208,0.7398087948451103
208,0.7398087948451103
208,0.7398087948451103
208,0.7398087948451103
208,0.7398087948451103
208,0.7398087948451103
209,0.7398087948451103
209,0.7398087948451103
209,0.7398087948451103
209,0.7398087948451103
209,0.7398087948451103
209,0.7398087948451103
209,0.7431359158034517
209,0.7431359158034517
209,0.7431359158034517
210,0.7431359158034517
210,0.7431359158034517
210,0.7431359158034517
210,0.7431359158034517
210,0.7431359158034517
210,0.7431359158034517
210,0.7431359158034517
210,0.7431359158034517
211,0.7431359158034517
211,0.7431359158034517
211,0.7431359158034517
211,0.7431359158034517
211,0.7431359158034517
211,0.7431359158034517
211,0.7431359158034517
211,0.7431359158034517
212,0.7431359158034517
212,0.7431359158034517
212,0.7431359158034517
212,0.7431359158034517
212,0.7431359158034517
212,0.7431359158034517
212,0.74460261687022
212,0.74460261687022
212,0.74460261687022
213,0.74460261687022
213,0.74460261687022
213,0.74460261687022
213,0.74460261687022
213,0.74460261687022
213,0.74460261687022
213,0.74460261687022
213,0.74460261687022
214,0.74460261687022
214,0.74460261687022
214,0.74460261687022
214,0.74460261687022
214,0.74460261687022
214,0.74460261687022
214,0.74460261687022
214,0.74460261687022
214,0.74460261687022
215,0.74460261687022
215,0.74460261687022
215,0.74460261687022
215,0.74460261687022
215,0.74460261687022
215,0.74460261687022
215,0.74460261687022
215,0.74460261687022
216,0.74460261687022
216,0.74460261687022
216,0.74460261687022
216,0.74460261687022
216,0.74460261687022
216,0.74460261687022
216,0.74460261687022
216,0.74460261687022
216,0.74460261687022
217,0.74460261687022
217,0.74460261687022
217,0.74460261687022
217,0.74460261687022
217,0.74460261687022
217,0.74460261687022
217,0.74460261687022
217,0.74460261687022
217,0.74460261687022
218,0.74460261687022
218,0.74460261687022
218,0.74460261687022
218,0.74460261687022
218,0.74460261687022
218,0.74460261687022
218,0.74460261687022
218,0.74460261687022
218,0.74460261687022
219,0.74460261687022
219,0.74460261687022
219,0.74460261687022
219,0.74460261687022
219,0.74460261687022
219,0.74460261687022
219,0.74460261687022
219,0.74460261687022
219,0.74460261687022
220,0.74460261687022
220,0.74460261687022
220,0.74460261687022
220,0.74460261687022
220,0.74460261687022
220,0.74460261687022
220,0.74460261687022
220,0.74460261687022
220,0.74460261687022
221,0.74460261687022
221,0.74460261687022
221,0.74460261687022
221,0.74460261687022
221,0.74460261687022
221,0.74460261687022
221,0.74460261687022
221,0.74460261687022
222,0.74460261687022
222,0.74460261687022
222,0.74460261687022
222,0.74460261687022
222,0.74460261687022
222,0.74460261687022
222,0.74460261687022
222,0.74460261687022
222,0.74460261687022
223,0.74460261687022
223,0.74460261687022
223,0.74460261687022
223,0.74460261687022
223,0.74460261687022
223,0.74460261687022
223,0.74460261687022
223,0.74460261687022
223,0.74460261687022
224,0.74460261687022
224,0.74460261687022
224,0.74460261687022
224,0.74460261687022
224,0.74460261687022
224,0.74460261687022
224,0.74460261687022
224,0.74460261687022
224,0.74460261687022
225,0.74460261687022
225,0.74460261687022
225,0.74460261687022
225,0.74460261687022
225,0.74460261687022
225,0.74460261687022
225,0.74460261687022
225,0.74460261687022
225,0.74460261687022
226,0.74460261687022
226,0.74460261687022
226,0.74460261687022
226,0.74460261687022
226,0.74460261687022
226,0.74460261687022
226,0.74460261687022
226,0.74460261687022
226,0.7447165142137241
227,0.7447165142137241
227,0.7447165142137241
227,0.7447165142137241
227,0.7447165142137241
227,0.7447165142137241
227,0.7447165142137241
227,0.7447165142137241
227,0.7447165142137241
227,0.7447165142137241
228,0.7447165142137241
228,0.7447165142137241
228,0.7447165142137241
228,0.7447165142137241
228,0.7447165142137241
228,0.7447165142137241
228,0.7447165142137241
228,0.7447165142137241
229,0.7447165142137241
229,0.7447165142137241
229,0.7447165142137241
229,0.7447165142137241
229,0.7447165142137241
229,0.7447165142137241
229,0.7447165142137241
229,0.7447165142137241
229,0.7447165142137241
230,0.7447165142137241
230,0.7447165142137241
230,0.7447165142137241
230,0.7447165142137241
230,0.7447165142137241
230,0.7447165142137241
230,0.7447165142137241
230,0.7447165142137241
231,0.7447165142137241
231,0.7447165142137241
231,0.7447165142137241
231,0.7447165142137241
231,0.7447165142137241
231,0.7447165142137241
231,0.7447165142137241
231,0.7447165142137241
231,0.7447165142137241
232,0.7447165142137241
232,0.7447165142137241
232,0.7447165142137241
232,0.7447165142137241
232,0.7447165142137241
232,0.7447165142137241
232,0.7447165142137241
232,0.7447165142137241
233,0.7447165142137241
233,0.7447165142137241
233,0.7447165142137241
233,0.7447165142137241
233,0.7447165142137241
233,0.7447165142137241
233,0.7447165142137241
233,0.7447165142137241
233,0.7447165142137241
234,0.7447165142137241
234,0.7447165142137241
234,0.7447165142137241
234,0.7447165142137241
234,0.7447165142137241
234,0.7447165142137241
234,0.7447165142137241
234,0.7447165142137241
235,0.7447165142137241
235,0.7447165142137241
235,0.7447165142137241
235,0.7447165142137241
235,0.7447165142137241
235,0.7447165142137241
235,0.7447165142137241
235,0.7447165142137241
235,0.7447165142137241
236,0.7447165142137241
236,0.7447165142137241
236,0.7447165142137241
236,0.7447165142137241
236,0.7447165142137241
236,0.7447165142137241
236,0.7447165142137241
236,0.7447165142137241
237,0.7447165142137241
237,0.7447165142137241
237,0.7447165142137241
237,0.7447165142137241
237,0.7447165142137241
237,0.7447165142137241
237,0.7447165142137241
237,0.7447165142137241
237,0.7447165142137241
238,0.7447165142137241
238,0.7447165142137241
238,0.7447165142137241
238,0.7447165142137241
238,0.7447165142137241
238,0.7447165142137241
238,0.7447165142137241
238,0.7447165142137241
239,0.7447165142137241
239,0.7447165142137241
239,0.7447165142137241
239,0.7447165142137241
239,0.7447165142137241
239,0.7447165142137241
239,0.7447165142137241
239,0.7447165142137241
240,0.7447165142137241
240,0.7447165142137241
240,0.7447165142137241
240,0.7447165142137241
240,0.7447165142137241
240,0.7447165142137241
240,0.7447165142137241
240,0.7447165142137241
240,0.7447165142137241
241,0.7447165142137241
241,0.7447165142137241
241,0.7447165142137241
241,0.7447165142137241
241,0.7447165142137241
241,0.7447165142137241
241,0.7447165142137241
241,0.7447165142137241
242,0.7447165142137241
242,0.7447165142137241
242,0.7447165142137241
242,0.7447165142137241
242,0.7447165142137241
242,0.7447165142137241
242,0.7447165142137241
242,0.7447165142137241
242,0.7447165142137241
243,0.7447165142137241
243,0.7447165142137241
243,0.7447165142137241
243,0.7447165142137241
243,0.7447165142137241
243,0.7447165142137241
243,0.7447165142137241
243,0.7447165142137241
244,0.7447165142137241
244,0.7447165142137241
244,0.7447165142137241
244,0.7447165142137241
244,0.7447165142137241
244,0.7447165142137241
244,0.7447165142137241
244,0.7447165142137241
244,0.7447165142137241
245,0.7447165142137241
245,0.7447165142137241
245,0.7447165142137241
245,0.7447165142137241
245,0.7447165142137241
245,0.7447165142137241
245,0.7447165142137241
245,0.7447165142137241
246,0.7447165142137241
246,0.7447165142137241
246,0.7447165142137241
246,0.7447165142137241
246,0.7447165142137241
246,0.7447165142137241
246,0.7447165142137241
246,0.7447165142137241
246,0.7447165142137241
247,0.7447165142137241
247,0.7447165142137241
247,0.7447165142137241
247,0.7447165142137241
247,0.7462506955101218
247,0.7462506955101218
247,0.7462506955101218
247,0.7462506955101218
248,0.7462506955101218
248,0.7462506955101218
248,0.7462506955101218
248,0.7462506955101218
248,0.7462506955101218
248,0.7462506955101218
248,0.7462506955101218
248,0.7462506955101218
248,0.7462506955101218
249,0.7462506955101218
249,0.7462506955101218
249,0.7462506955101218
249,0.7462506955101218
249,0.7462506955101218
249,0.7462506955101218
249,0.7462506955101218
249,0.7462506955101218
249,0.7462506955101218
249,0.7462506955101218
250,0.7462506955101218
