0,0.46151440261305565
0,0.46151440261305565
0,0.46151440261305565
0,0.46151440261305565
0,0.46151440261305565
0,0.46151440261305565
0,0.46151440261305565
0,0.46151440261305565
0,0.46151440261305565
0,0.46151440261305565
0,0.46151440261305565
0,0.46151440261305565
0,0.46151440261305565
0,0.46151440261305565
0,0.46151440261305565
0,0.46151440261305565
0,0.46151440261305565
0,0.46151440261305565
0,0.46151440261305565
0,0.46151440261305565
1,0.46151440261305565
1,0.46151440261305565
1,0.46151440261305565
1,0.46151440261305565
1,0.8179871279336336
1,0.8179871279336336
1,0.8179871279336336
1,0.8179871279336336
1,0.8179871279336336
1,0.8179871279336336
1,0.8179871279336336
1,0.8179871279336336
1,0.8179871279336336
1,0.8179871279336336
1,0.8179871279336336
1,0.8179871279336336
1,0.8179871279336336
1,0.8179871279336336
1,0.8179871279336336
1,0.8179871279336336
2,0.8179871279336336
2,0.8179871279336336
2,0.8179871279336336
2,0.8179871279336336
2,0.8179871279336336
2,0.8179871279336336
2,0.8179871279336336
2,0.8179871279336336
2,0.8179871279336336
2,0.8464279239367936
2,0.8464279239367936
2,0.8464279239367936
2,0.8464279239367936
2,0.8464279239367936
2,0.8464279239367936
2,0.8464279239367936
2,0.8464279239367936
2,0.8464279239367936
3,0.8464279239367936
3,0.8464279239367936
3,0.8464279239367936
3,0.8464279239367936
3,0.8464279239367936
3,0.8464279239367936
3,0.8464279239367936
3,0.8464279239367936
3,0.8464279239367936
3,0.8464279239367936
3,0.8464279239367936
3,0.8464279239367936
3,0.8464279239367936
3,0.8464279239367936
3,0.8464279239367936
3,0.8464279239367936
3,0.8521622794914678
3,0.8521622794914678
3,0.8521622794914678
4,0.8521622794914678
4,0.8521622794914678
4,0.8521622794914678
4,0.8521622794914678
4,0.8521622794914678
4,0.8521622794914678
4,0.8521622794914678
4,0.8521622794914678
4,0.8521622794914678
4,0.8521622794914678
4,0.8521622794914678
4,0.8521622794914678
4,0.8521622794914678
4,0.8521622794914678
4,0.8521622794914678
4,0.8521622794914678
4,0.8521622794914678
5,0.8521622794914678
5,0.8521622794914678
5,0.8521622794914678
5,0.8521622794914678
5,0.8521622794914678
5,0.9075179295622132
5,0.9075179295622132
5,0.9075179295622132
5,0.9075179295622132
5,0.9075179295622132
5,0.9075179295622132
5,0.9075179295622132
5,0.9075179295622132
5,0.9075179295622132
5,0.9075179295622132
5,0.9075179295622132
5,0.9075179295622132
5,0.9075179295622132
6,0.9075179295622132
6,0.9075179295622132
6,0.9075179295622132
6,0.9075179295622132
6,0.9075179295622132
6,0.9075179295622132
6,0.9075179295622132
6,0.9075179295622132
6,0.9075179295622132
6,0.9075179295622132
6,0.9075179295622132
6,0.9075179295622132
6,0.9096020400688677
6,0.9096020400688677
6,0.9096020400688677
6,0.9096020400688677
6,0.9096020400688677
6,0.9096020400688677
6,0.9096020400688677
7,0.9096020400688677
7,0.9096020400688677
7,0.9096020400688677
7,0.9096020400688677
7,0.9096020400688677
7,0.9096020400688677
7,0.9096020400688677
7,0.9096020400688677
7,0.9096020400688677
7,0.9096020400688677
7,0.9096020400688677
7,0.9096020400688677
7,0.9096020400688677
7,0.9096020400688677
7,0.9096020400688677
7,0.9096020400688677
7,0.9096020400688677
7,0.9096020400688677
8,0.9267656570078068
8,0.9267656570078068
8,0.9267656570078068
8,0.9267656570078068
8,0.9267656570078068
8,0.9267656570078068
8,0.9267656570078068
8,0.9267656570078068
8,0.9267656570078068
8,0.9267656570078068
8,0.9267656570078068
8,0.9267656570078068
8,0.9267656570078068
8,0.9267656570078068
8,0.9267656570078068
8,0.9267656570078068
8,0.9267656570078068
8,0.9267656570078068
9,0.9267656570078068
9,0.9267656570078068
9,0.9267656570078068
9,0.9267656570078068
9,0.9267656570078068
9,0.9267656570078068
9,0.9267656570078068
9,0.9360535532522113
9,0.9360535532522113
9,0.9360535532522113
9,0.9360535532522113
9,0.9360535532522113
9,0.9360535532522113
9,0.9360535532522113
9,0.9360535532522113
9,0.9360535532522113
9,0.9360535532522113
9,0.9360535532522113
9,0.9360535532522113
10,0.9360535532522113
10,0.9360535532522113
10,0.9360535532522113
10,0.9360535532522113
10,0.9360535532522113
10,0.9360535532522113
10,0.9360535532522113
10,0.9360535532522113
10,0.9360535532522113
10,0.9360535532522113
10,0.9360535532522113
10,0.9360535532522113
10,0.9360535532522113
10,0.9360535532522113
10,0.9360535532522113
10,0.9360535532522113
10,0.9360535532522113
10,0.9360535532522113
11,0.9360535532522113
11,0.9360535532522113
11,0.9360535532522113
11,0.9360535532522113
11,0.9360535532522113
11,0.9360535532522113
11,0.9360535532522113
11,0.9360535532522113
11,0.9360535532522113
11,0.9360535532522113
11,0.9360535532522113
11,0.9360535532522113
11,0.9360535532522113
11,0.9360535532522113
11,0.9360535532522113
11,0.9360535532522113
11,0.9360535532522113
11,0.9360535532522113
11,0.9360535532522113
12,0.9360535532522113
12,0.9378349865300524
12,0.9378349865300524
12,0.9378349865300524
12,0.9378349865300524
12,0.9378349865300524
12,0.9378349865300524
12,0.9378349865300524
12,0.9378349865300524
12,0.9378349865300524
12,0.9378349865300524
12,0.9378349865300524
12,0.9378349865300524
12,0.9378349865300524
12,0.9378349865300524
12,0.9378349865300524
12,0.9378349865300524
12,0.9378349865300524
12,0.9378349865300524
13,0.9378349865300524
13,0.9378349865300524
13,0.9378349865300524
13,0.9378349865300524
13,0.9378349865300524
13,0.9378349865300524
13,0.9378349865300524
13,0.9432267729057798
13,0.9432267729057798
13,0.9432267729057798
13,0.9432267729057798
13,0.9432267729057798
13,0.9432267729057798
13,0.9432267729057798
13,0.9432267729057798
13,0.9432267729057798
13,0.9432267729057798
13,0.9432267729057798
13,0.9432267729057798
14,0.9432267729057798
14,0.9432267729057798
14,0.9432267729057798
14,0.9432267729057798
14,0.9432267729057798
14,0.9432267729057798
14,0.9432267729057798
14,0.9432267729057798
14,0.9432267729057798
14,0.9432267729057798
14,0.9432267729057798
14,0.9432267729057798
14,0.9432267729057798
14,0.9572545362401275
14,0.9572545362401275
14,0.9572545362401275
14,0.9572545362401275
14,0.9572545362401275
14,0.9572545362401275
15,0.9572545362401275
15,0.9572545362401275
15,0.9572545362401275
15,0.9572545362401275
15,0.9572545362401275
15,0.9572545362401275
15,0.9572545362401275
15,0.9572545362401275
15,0.9572545362401275
15,0.9572545362401275
15,0.9572545362401275
15,0.9572545362401275
15,0.9572545362401275
15,0.9572545362401275
15,0.9572545362401275
15,0.9572545362401275
15,0.9572545362401275
15,0.9572545362401275
16,0.9572545362401275
16,0.9575848691875365
16,0.9575848691875365
16,0.9575848691875365
16,0.9575848691875365
16,0.9575848691875365
16,0.9575848691875365
16,0.9575848691875365
16,0.9575848691875365
16,0.9575848691875365
16,0.9575848691875365
16,0.9575848691875365
16,0.9575848691875365
16,0.9575848691875365
16,0.9575848691875365
16,0.9575848691875365
16,0.9575848691875365
17,0.9575848691875365
17,0.9575848691875365
17,0.9575848691875365
17,0.9575848691875365
17,0.9575848691875365
17,0.9575848691875365
17,0.9575848691875365
17,0.9575848691875365
17,0.9575848691875365
17,0.9605820966662724
17,0.9605820966662724
17,0.9605820966662724
17,0.9605820966662724
17,0.9605820966662724
17,0.9605820966662724
17,0.9605820966662724
17,0.9605820966662724
18,0.9605820966662724
18,0.9605820966662724
18,0.9605820966662724
18,0.9605820966662724
18,0.9605820966662724
18,0.9605820966662724
18,0.9605820966662724
18,0.9605820966662724
18,0.9605820966662724
18,0.9605820966662724
18,0.9605820966662724
18,0.9605820966662724
18,0.9605820966662724
18,0.9605820966662724
18,0.9605820966662724
18,0.9605820966662724
18,0.9605820966662724
19,0.9808526848195709
19,0.9808526848195709
19,0.9808526848195709
19,0.9808526848195709
19,0.9808526848195709
19,0.9808526848195709
19,0.9808526848195709
19,0.9808526848195709
19,0.9808526848195709
19,0.9808526848195709
19,0.9808526848195709
19,0.9808526848195709
19,0.9808526848195709
19,0.9808526848195709
19,0.9808526848195709
19,0.9808526848195709
20,0.9808526848195709
20,0.9808526848195709
20,0.9808526848195709
20,0.9808526848195709
20,0.9808526848195709
20,0.9808526848195709
20,0.9808526848195709
20,0.9808526848195709
20,0.9808526848195709
20,0.9809787725506262
20,0.9809787725506262
20,0.9809787725506262
20,0.9809787725506262
20,0.9809787725506262
20,0.9809787725506262
20,0.9809787725506262
20,0.9809787725506262
21,0.9809787725506262
21,0.9809787725506262
21,0.9809787725506262
21,0.9809787725506262
21,0.9809787725506262
21,0.9809787725506262
21,0.9809787725506262
21,0.9809787725506262
21,0.9809787725506262
21,0.9809787725506262
21,0.9809787725506262
21,0.9809787725506262
21,0.9809787725506262
21,0.9809787725506262
21,0.9809787725506262
21,0.9809787725506262
22,0.9809787725506262
22,0.9827806569397405
22,0.9827806569397405
22,0.9827806569397405
22,0.9827806569397405
22,0.9827806569397405
22,0.9827806569397405
22,0.9827806569397405
22,0.9827806569397405
22,0.9827806569397405
22,0.9827806569397405
22,0.9827806569397405
22,0.9827806569397405
22,0.9827806569397405
22,0.9827806569397405
22,0.9827806569397405
23,0.9827806569397405
23,0.9827806569397405
23,0.9827806569397405
23,0.9827806569397405
23,0.9827806569397405
23,0.9827806569397405
23,0.9827806569397405
23,0.9827806569397405
23,0.9827806569397405
23,0.9827806569397405
23,0.9827806569397405
23,0.9827806569397405
23,0.9827806569397405
23,0.9827806569397405
23,0.9827806569397405
23,0.9827806569397405
24,0.9827806569397405
24,0.9827806569397405
24,0.9827806569397405
24,0.9827806569397405
24,0.9827806569397405
24,0.9827806569397405
24,0.9827806569397405
24,0.9827806569397405
24,0.9827806569397405
24,0.9827806569397405
24,0.9827806569397405
24,0.9827806569397405
24,0.9827806569397405
24,0.9827806569397405
24,0.9827806569397405
24,0.9827806569397405
25,0.9827806569397405
25,0.9827806569397405
25,0.9827806569397405
25,0.9827806569397405
25,0.9827806569397405
25,0.9827806569397405
25,0.9827806569397405
25,0.9827806569397405
25,0.9827806569397405
25,0.9827806569397405
25,0.9827806569397405
25,0.9827806569397405
25,0.9827806569397405
25,0.9827806569397405
25,0.9827806569397405
25,0.9827806569397405
25,0.9827806569397405
26,0.9827806569397405
26,0.9827806569397405
26,0.9827806569397405
26,0.9827806569397405
26,0.9827806569397405
26,0.9827806569397405
26,0.9827806569397405
26,0.9827806569397405
26,0.9827806569397405
26,0.9827806569397405
26,0.9827806569397405
26,0.9827806569397405
26,0.9827806569397405
26,0.9827806569397405
26,0.9827806569397405
26,0.9827806569397405
27,0.9827806569397405
27,0.9827806569397405
27,0.9827806569397405
27,0.9827806569397405
27,0.9827806569397405
27,0.9827806569397405
27,0.9827806569397405
27,0.9827806569397405
27,0.9827806569397405
27,0.9827806569397405
27,0.9827806569397405
27,0.9827806569397405
27,0.9827806569397405
27,0.9827806569397405
27,0.9827806569397405
27,0.9827806569397405
28,0.9827806569397405
28,0.9827806569397405
28,0.9827806569397405
28,0.9827806569397405
28,0.9827806569397405
28,0.9827806569397405
28,0.9827806569397405
28,0.9827806569397405
28,0.9827806569397405
28,0.9827806569397405
28,0.9827806569397405
28,0.9827806569397405
28,0.9827806569397405
28,0.9827806569397405
28,0.9827806569397405
28,0.9827806569397405
29,0.9827806569397405
29,0.9827806569397405
29,0.9827806569397405
29,0.9827806569397405
29,0.9827806569397405
29,0.9827806569397405
29,0.9827806569397405
29,0.9827806569397405
29,0.9827806569397405
29,0.9827806569397405
29,0.9827806569397405
29,0.9827806569397405
29,0.9827806569397405
29,0.9827806569397405
29,0.9827806569397405
29,0.9827806569397405
30,0.9827806569397405
30,0.9827806569397405
30,0.9827806569397405
30,0.9827806569397405
30,0.9827806569397405
30,0.9827806569397405
30,0.9827806569397405
30,0.9827806569397405
30,0.9827806569397405
30,0.9827806569397405
30,0.9827806569397405
30,0.9827806569397405
30,0.9827806569397405
30,0.9827806569397405
30,0.9827806569397405
30,0.9827806569397405
31,0.9827806569397405
31,0.9827806569397405
31,0.9827806569397405
31,0.9827806569397405
31,0.9827806569397405
31,0.9827806569397405
31,0.9827806569397405
31,0.9827806569397405
31,0.9827806569397405
31,0.9827806569397405
31,0.9827806569397405
31,0.9827806569397405
31,0.9827806569397405
31,0.9827806569397405
31,0.9827806569397405
31,0.9827806569397405
32,0.9827806569397405
32,0.9827806569397405
32,0.9827806569397405
32,0.9827806569397405
32,0.9827806569397405
32,0.9827806569397405
32,0.9827806569397405
32,0.9827806569397405
32,0.9827806569397405
32,0.9827806569397405
32,0.9827806569397405
32,0.9827806569397405
32,0.9827806569397405
32,0.9827806569397405
32,0.9827806569397405
32,0.9827806569397405
33,0.9827806569397405
33,0.9827806569397405
33,0.9827806569397405
33,0.9827806569397405
33,0.9827806569397405
33,0.9827806569397405
33,0.9827806569397405
33,0.9827806569397405
33,0.9827806569397405
33,0.9827806569397405
33,0.9827806569397405
33,0.9827806569397405
33,0.9827806569397405
33,0.9827806569397405
33,0.9827806569397405
33,0.9827806569397405
33,0.9827806569397405
34,0.9827806569397405
34,0.9827806569397405
34,0.9827806569397405
34,0.9827806569397405
34,0.9827806569397405
34,0.9827806569397405
34,0.9827806569397405
34,0.9827806569397405
34,0.9827806569397405
34,0.9827806569397405
34,0.9827806569397405
34,0.9827806569397405
34,0.9827806569397405
34,0.9827806569397405
34,0.9827806569397405
34,0.9827806569397405
35,0.9827806569397405
35,0.9827806569397405
35,0.9827806569397405
35,0.9827806569397405
35,0.9827806569397405
35,0.9827806569397405
35,0.9827806569397405
35,0.9827806569397405
35,0.9827806569397405
35,0.9827806569397405
35,0.9827806569397405
35,0.9827806569397405
35,0.9827806569397405
35,0.9827806569397405
35,0.9827806569397405
35,0.9827806569397405
36,0.9830829898670874
36,0.9830829898670874
36,0.9830829898670874
36,0.9830829898670874
36,0.9830829898670874
36,0.9830829898670874
36,0.9830829898670874
36,0.9830829898670874
36,0.9830829898670874
36,0.9830829898670874
36,0.9830829898670874
36,0.9830829898670874
36,0.9830829898670874
36,0.9830829898670874
36,0.9830829898670874
36,0.9830829898670874
37,0.9830829898670874
37,0.9830829898670874
37,0.9830829898670874
37,0.9830829898670874
37,0.9830829898670874
37,0.9830829898670874
37,0.9830829898670874
37,0.9830829898670874
37,0.9830829898670874
37,0.9873997967180075
37,0.9873997967180075
37,0.9873997967180075
37,0.9873997967180075
37,0.9873997967180075
37,0.9873997967180075
37,0.9873997967180075
38,0.9873997967180075
38,0.9873997967180075
38,0.9873997967180075
38,0.9873997967180075
38,0.9873997967180075
38,0.9873997967180075
38,0.9873997967180075
38,0.9873997967180075
38,0.9873997967180075
38,0.9873997967180075
38,0.9873997967180075
38,0.9873997967180075
38,0.9873997967180075
38,0.9873997967180075
38,0.9873997967180075
38,0.9873997967180075
39,0.9873997967180075
39,0.9873997967180075
39,0.9873997967180075
39,0.9873997967180075
39,0.9873997967180075
39,0.9873997967180075
39,0.9873997967180075
39,0.9873997967180075
39,0.9873997967180075
39,0.9873997967180075
39,0.9873997967180075
39,0.9873997967180075
39,0.9873997967180075
39,0.9873997967180075
39,0.9873997967180075
39,0.9873997967180075
40,0.9873997967180075
40,0.9873997967180075
40,0.9873997967180075
40,0.9873997967180075
40,0.9873997967180075
40,0.9873997967180075
40,0.9873997967180075
40,0.9873997967180075
40,0.9873997967180075
40,0.9873997967180075
40,0.9873997967180075
40,0.989697230933685
40,0.989697230933685
40,0.989697230933685
40,0.989697230933685
40,0.989697230933685
41,0.989697230933685
41,0.989697230933685
41,0.989697230933685
41,0.989697230933685
41,0.989697230933685
41,0.989697230933685
41,0.989697230933685
41,0.989697230933685
41,0.989697230933685
41,0.989697230933685
41,0.989697230933685
41,0.989697230933685
41,0.989697230933685
41,0.989697230933685
41,0.989697230933685
41,0.989697230933685
42,0.989697230933685
42,0.989697230933685
42,0.989697230933685
42,0.989697230933685
42,0.989697230933685
42,0.989697230933685
42,0.989697230933685
42,0.989697230933685
42,0.989697230933685
42,0.989697230933685
42,0.989697230933685
42,0.989697230933685
42,0.989697230933685
42,0.989697230933685
42,0.989697230933685
42,0.989697230933685
43,0.989697230933685
43,0.989697230933685
43,0.989697230933685
43,0.989697230933685
43,0.989697230933685
43,0.989697230933685
43,0.989697230933685
43,0.989697230933685
43,0.989697230933685
43,0.989697230933685
43,0.989697230933685
43,0.989697230933685
43,0.989697230933685
43,0.9903507061873469
43,0.9903507061873469
43,0.9903507061873469
44,0.9903507061873469
44,0.9903507061873469
44,0.9903507061873469
44,0.9903507061873469
44,0.9903507061873469
44,0.9903507061873469
44,0.9903507061873469
44,0.9903507061873469
44,0.9903507061873469
44,0.9903507061873469
44,0.9903507061873469
44,0.9903507061873469
44,0.9903507061873469
44,0.9903507061873469
44,0.9903507061873469
45,0.9903507061873469
45,0.9903507061873469
45,0.9903507061873469
45,0.9903507061873469
45,0.9903507061873469
45,0.9903507061873469
45,0.9903507061873469
45,0.990477435254767
45,0.990477435254767
45,0.990477435254767
45,0.990477435254767
45,0.990477435254767
45,0.990477435254767
45,0.990477435254767
45,0.990477435254767
45,0.990477435254767
45,0.990477435254767
46,0.990477435254767
46,0.990477435254767
46,0.990477435254767
46,0.990477435254767
46,0.990477435254767
46,0.990477435254767
46,0.990477435254767
46,0.990477435254767
46,0.990477435254767
46,0.990477435254767
46,0.990477435254767
46,0.990477435254767
46,0.990477435254767
46,0.990477435254767
46,0.990477435254767
47,0.990477435254767
47,0.990477435254767
47,0.990477435254767
47,0.990477435254767
47,0.990477435254767
47,0.990477435254767
47,0.990477435254767
47,0.990477435254767
47,0.990477435254767
47,0.990477435254767
47,0.990477435254767
47,0.990477435254767
47,0.990477435254767
47,0.990477435254767
47,0.990477435254767
47,0.990477435254767
48,0.990477435254767
48,0.990477435254767
48,0.990477435254767
48,0.990477435254767
48,0.990477435254767
48,0.990477435254767
48,0.990477435254767
48,0.990477435254767
48,0.990477435254767
48,0.9909484338164792
48,0.9909484338164792
48,0.9909484338164792
48,0.9909484338164792
48,0.9909484338164792
48,0.9909484338164792
48,0.9909484338164792
49,0.9909484338164792
49,0.9909484338164792
49,0.9909484338164792
49,0.9909484338164792
49,0.9909484338164792
49,0.9909484338164792
49,0.9909484338164792
49,0.9909484338164792
49,0.9909484338164792
49,0.9909484338164792
49,0.9909484338164792
49,0.9909484338164792
49,0.9909484338164792
49,0.9909484338164792
49,0.9909484338164792
49,0.9909484338164792
50,0.9909484338164792
50,0.9909484338164792
50,0.9916422436163276
50,0.9916422436163276
50,0.9916422436163276
50,0.9916422436163276
50,0.9916422436163276
50,0.9916422436163276
50,0.9916422436163276
50,0.9916422436163276
50,0.9916422436163276
50,0.9916422436163276
50,0.9916422436163276
50,0.9916422436163276
50,0.9916422436163276
50,0.9916422436163276
51,0.9916422436163276
51,0.9916422436163276
51,0.9916422436163276
51,0.9916422436163276
51,0.9916422436163276
51,0.9916422436163276
51,0.9916422436163276
51,0.9916422436163276
51,0.9916422436163276
51,0.9916422436163276
51,0.9916422436163276
51,0.9917645371752056
51,0.9917645371752056
51,0.9917645371752056
51,0.9917645371752056
51,0.9917645371752056
52,0.9917645371752056
52,0.9917645371752056
52,0.9917645371752056
52,0.9917645371752056
52,0.9917645371752056
52,0.9917645371752056
52,0.9917645371752056
52,0.9917645371752056
52,0.9917645371752056
52,0.9917645371752056
52,0.9917645371752056
52,0.9917645371752056
52,0.9917645371752056
52,0.9917645371752056
52,0.9917645371752056
52,0.9917645371752056
53,0.9917645371752056
53,0.9917645371752056
53,0.9917645371752056
53,0.9917645371752056
53,0.9917891130231795
53,0.9917891130231795
53,0.9917891130231795
53,0.9917891130231795
53,0.9917891130231795
53,0.9917891130231795
53,0.9917891130231795
53,0.9917891130231795
53,0.9917891130231795
53,0.9917891130231795
53,0.9917891130231795
53,0.9917891130231795
54,0.9917891130231795
54,0.9917891130231795
54,0.9917891130231795
54,0.9917891130231795
54,0.9917891130231795
54,0.9917891130231795
54,0.9917891130231795
54,0.9917891130231795
54,0.9917891130231795
54,0.9917891130231795
54,0.9917891130231795
54,0.9917891130231795
54,0.9917891130231795
54,0.9917891130231795
54,0.9917891130231795
54,0.9917891130231795
55,0.9917891130231795
55,0.9917891130231795
55,0.9917891130231795
55,0.9917891130231795
55,0.9917891130231795
55,0.9917891130231795
55,0.9917891130231795
55,0.9917891130231795
55,0.9917891130231795
55,0.9917891130231795
55,0.9917891130231795
55,0.9917891130231795
55,0.9917891130231795
55,0.9917891130231795
55,0.9917891130231795
55,0.9917891130231795
56,0.9917891130231795
56,0.9917891130231795
56,0.9917891130231795
56,0.9917891130231795
56,0.9917891130231795
56,0.9917891130231795
56,0.9917891130231795
56,0.9917891130231795
56,0.9917891130231795
56,0.9917891130231795
56,0.9917891130231795
56,0.9917891130231795
56,0.9917891130231795
56,0.9917891130231795
56,0.9917891130231795
56,0.9917891130231795
57,0.9917891130231795
57,0.9917891130231795
57,0.9917891130231795
57,0.9917891130231795
57,0.9917891130231795
57,0.9917891130231795
57,0.9917891130231795
57,0.9917891130231795
57,0.9917891130231795
57,0.9917891130231795
57,0.9917891130231795
57,0.9917891130231795
57,0.9917891130231795
57,0.9917891130231795
57,0.9917891130231795
57,0.9917891130231795
58,0.9917891130231795
58,0.9917891130231795
58,0.9917891130231795
58,0.9917891130231795
58,0.9917891130231795
58,0.9917891130231795
58,0.9917891130231795
58,0.9917891130231795
58,0.9917891130231795
58,0.9917891130231795
58,0.9917891130231795
58,0.9917891130231795
58,0.9917891130231795
58,0.9917891130231795
58,0.9917891130231795
58,0.9917891130231795
58,0.9917891130231795
59,0.9917891130231795
59,0.9917891130231795
59,0.9917891130231795
59,0.9917891130231795
59,0.9917891130231795
59,0.9917891130231795
59,0.9917891130231795
59,0.9927615941366136
59,0.9927615941366136
59,0.9927615941366136
59,0.9927615941366136
59,0.9927615941366136
59,0.9927615941366136
59,0.9927615941366136
59,0.9927615941366136
59,0.9927615941366136
60,0.9927615941366136
60,0.9927615941366136
60,0.9927615941366136
60,0.9927615941366136
60,0.9927615941366136
60,0.9927615941366136
60,0.9927615941366136
60,0.9927615941366136
60,0.9927615941366136
60,0.9927615941366136
60,0.9927615941366136
60,0.9927615941366136
60,0.9927615941366136
60,0.9927615941366136
60,0.9927615941366136
60,0.9927615941366136
60,0.9935930530560957
61,0.9935930530560957
61,0.9935930530560957
61,0.9935930530560957
61,0.9935930530560957
61,0.9935930530560957
61,0.9935930530560957
61,0.9935930530560957
61,0.9935930530560957
61,0.9935930530560957
61,0.9935930530560957
61,0.9935930530560957
61,0.9935930530560957
61,0.9935930530560957
61,0.9935930530560957
61,0.9935930530560957
61,0.9935930530560957
62,0.9935930530560957
62,0.9935930530560957
62,0.9935930530560957
62,0.9935930530560957
62,0.9935930530560957
62,0.9935930530560957
62,0.9935930530560957
62,0.9935930530560957
62,0.9936522312248063
62,0.9936522312248063
62,0.9936522312248063
62,0.9936522312248063
62,0.9936522312248063
62,0.9936522312248063
62,0.9936522312248063
62,0.9936522312248063
62,0.9936522312248063
63,0.9936522312248063
63,0.9936522312248063
63,0.9936522312248063
63,0.9936522312248063
63,0.9936522312248063
63,0.9936522312248063
63,0.9936522312248063
63,0.9936522312248063
63,0.9936522312248063
63,0.9936522312248063
63,0.9936522312248063
63,0.9936522312248063
63,0.9936522312248063
63,0.9936522312248063
63,0.9936522312248063
63,0.9936522312248063
64,0.9936522312248063
64,0.9936522312248063
64,0.9936522312248063
64,0.9936522312248063
64,0.9936522312248063
64,0.9936522312248063
64,0.9936522312248063
64,0.9936522312248063
64,0.9936522312248063
64,0.9936522312248063
64,0.9936522312248063
64,0.9936522312248063
64,0.9936522312248063
64,0.9936522312248063
64,0.9936522312248063
64,0.9936522312248063
64,0.9936522312248063
65,0.9936522312248063
65,0.9936522312248063
65,0.9936522312248063
65,0.9936522312248063
65,0.9936522312248063
65,0.9936522312248063
65,0.9936522312248063
65,0.9936522312248063
65,0.9936522312248063
65,0.9936522312248063
65,0.9936522312248063
65,0.9936522312248063
65,0.9936522312248063
65,0.9936522312248063
65,0.9936522312248063
65,0.9936522312248063
65,0.9936522312248063
66,0.9936522312248063
66,0.9936522312248063
66,0.9936522312248063
66,0.9936522312248063
66,0.9936522312248063
66,0.9936522312248063
66,0.9936522312248063
66,0.9936522312248063
66,0.9936522312248063
66,0.9936522312248063
66,0.9936522312248063
66,0.9936522312248063
66,0.9936522312248063
66,0.9936522312248063
66,0.9936522312248063
66,0.9936522312248063
67,0.994110385844614
67,0.994110385844614
67,0.994110385844614
67,0.994110385844614
67,0.994110385844614
67,0.994110385844614
67,0.994110385844614
67,0.994110385844614
67,0.994110385844614
67,0.994110385844614
67,0.994110385844614
67,0.994110385844614
67,0.994110385844614
67,0.994110385844614
67,0.994110385844614
67,0.994110385844614
68,0.994110385844614
68,0.994110385844614
68,0.994110385844614
68,0.994110385844614
68,0.994110385844614
68,0.994110385844614
68,0.994110385844614
68,0.994110385844614
68,0.994110385844614
68,0.994110385844614
68,0.994110385844614
68,0.994110385844614
68,0.994110385844614
68,0.994110385844614
68,0.994110385844614
68,0.994110385844614
69,0.994110385844614
69,0.994110385844614
69,0.994110385844614
69,0.994110385844614
69,0.994110385844614
69,0.994110385844614
69,0.994110385844614
69,0.994110385844614
69,0.994110385844614
69,0.994110385844614
69,0.994110385844614
69,0.994110385844614
69,0.994110385844614
69,0.994110385844614
69,0.994110385844614
69,0.994110385844614
70,0.994110385844614
70,0.994110385844614
70,0.9941171299148923
70,0.9941171299148923
70,0.9941171299148923
70,0.9941171299148923
70,0.9941171299148923
70,0.9941171299148923
70,0.9941171299148923
70,0.9941171299148923
70,0.9941171299148923
70,0.9941171299148923
70,0.9941171299148923
70,0.9941171299148923
70,0.9941171299148923
70,0.9941171299148923
71,0.9941171299148923
71,0.9941171299148923
71,0.9941171299148923
71,0.9941171299148923
71,0.9941171299148923
71,0.9941171299148923
71,0.9941171299148923
71,0.9941171299148923
71,0.9941171299148923
71,0.9941171299148923
71,0.9941171299148923
71,0.9941171299148923
71,0.9941171299148923
71,0.9941171299148923
71,0.9941171299148923
71,0.9941171299148923
72,0.9941171299148923
72,0.9941171299148923
72,0.9941171299148923
72,0.9941171299148923
72,0.9941171299148923
72,0.9941171299148923
72,0.9941171299148923
72,0.9941171299148923
72,0.9941171299148923
72,0.9941171299148923
72,0.9941171299148923
72,0.9941171299148923
72,0.9941171299148923
72,0.9941171299148923
72,0.9941171299148923
72,0.9941171299148923
73,0.9941171299148923
73,0.9941171299148923
73,0.9941171299148923
73,0.9941171299148923
73,0.9941171299148923
73,0.9941171299148923
73,0.9941171299148923
73,0.9941171299148923
73,0.9941171299148923
73,0.9941171299148923
73,0.9941171299148923
73,0.9941171299148923
73,0.9941171299148923
73,0.9941171299148923
73,0.9941171299148923
73,0.9941171299148923
74,0.9941171299148923
74,0.9941171299148923
74,0.9941171299148923
74,0.9941171299148923
74,0.9941171299148923
74,0.9941171299148923
74,0.9941171299148923
74,0.9941171299148923
74,0.9941171299148923
74,0.9941171299148923
74,0.9941171299148923
74,0.9941171299148923
74,0.9941171299148923
74,0.9941171299148923
74,0.9941171299148923
74,0.9941171299148923
75,0.9941171299148923
75,0.9941171299148923
75,0.9941171299148923
75,0.9941171299148923
75,0.9941171299148923
75,0.9941171299148923
75,0.9941171299148923
75,0.9941171299148923
75,0.9941171299148923
75,0.9941171299148923
75,0.9941171299148923
75,0.9941171299148923
75,0.9941171299148923
75,0.9941171299148923
75,0.9941171299148923
75,0.9941171299148923
75,0.9941171299148923
76,0.9941171299148923
76,0.9941171299148923
76,0.9941171299148923
76,0.9941171299148923
76,0.9941171299148923
76,0.9941171299148923
76,0.9941171299148923
76,0.9941171299148923
76,0.9941171299148923
76,0.9941171299148923
76,0.9941171299148923
76,0.9941171299148923
76,0.9941171299148923
76,0.9941171299148923
76,0.9941171299148923
76,0.9941171299148923
77,0.9941171299148923
77,0.9941171299148923
77,0.9941171299148923
77,0.9941171299148923
77,0.9941171299148923
77,0.9941171299148923
77,0.9941171299148923
77,0.9941171299148923
77,0.9941171299148923
77,0.9941171299148923
77,0.9941171299148923
77,0.9941171299148923
77,0.9941171299148923
77,0.9941171299148923
77,0.9941171299148923
77,0.9941171299148923
78,0.9941171299148923
78,0.9941171299148923
78,0.9941171299148923
78,0.9941171299148923
78,0.9941171299148923
78,0.9941171299148923
78,0.9941171299148923
78,0.9941171299148923
78,0.9941171299148923
78,0.9941171299148923
78,0.9941171299148923
78,0.9941171299148923
78,0.9941171299148923
78,0.9941171299148923
78,0.9941171299148923
78,0.9941171299148923
79,0.9941171299148923
79,0.9941171299148923
79,0.9941171299148923
79,0.9941171299148923
79,0.9941171299148923
79,0.9941171299148923
79,0.9941171299148923
79,0.994197274574322
79,0.994197274574322
79,0.994197274574322
79,0.994197274574322
79,0.994197274574322
79,0.994197274574322
79,0.994197274574322
79,0.994197274574322
79,0.994197274574322
80,0.994197274574322
80,0.994197274574322
80,0.994197274574322
80,0.994197274574322
80,0.994197274574322
80,0.994197274574322
80,0.994197274574322
80,0.994197274574322
80,0.994197274574322
80,0.994197274574322
80,0.994197274574322
80,0.994197274574322
80,0.994197274574322
80,0.994197274574322
80,0.994197274574322
80,0.994197274574322
81,0.994197274574322
81,0.994197274574322
81,0.994197274574322
81,0.994197274574322
81,0.994197274574322
81,0.994197274574322
81,0.994197274574322
81,0.994197274574322
81,0.994197274574322
81,0.994197274574322
81,0.994197274574322
81,0.994197274574322
81,0.994197274574322
81,0.994197274574322
81,0.994197274574322
82,0.994197274574322
82,0.994197274574322
82,0.994197274574322
82,0.994197274574322
82,0.994197274574322
82,0.994197274574322
82,0.994197274574322
82,0.994197274574322
82,0.994197274574322
82,0.994197274574322
82,0.994197274574322
82,0.994197274574322
82,0.994197274574322
82,0.994197274574322
82,0.994197274574322
82,0.994197274574322
83,0.994197274574322
83,0.994197274574322
83,0.994197274574322
83,0.994197274574322
83,0.994197274574322
83,0.994197274574322
83,0.994197274574322
83,0.994197274574322
83,0.994197274574322
83,0.994197274574322
83,0.994197274574322
83,0.994197274574322
83,0.994197274574322
83,0.994197274574322
83,0.994197274574322
84,0.994197274574322
84,0.994197274574322
84,0.994197274574322
84,0.994197274574322
84,0.994197274574322
84,0.994197274574322
84,0.994197274574322
84,0.994197274574322
84,0.994197274574322
84,0.994197274574322
84,0.994197274574322
84,0.994197274574322
84,0.994197274574322
84,0.994197274574322
84,0.994197274574322
85,0.994197274574322
85,0.994197274574322
85,0.994197274574322
85,0.994197274574322
85,0.994197274574322
85,0.994197274574322
85,0.994197274574322
85,0.994197274574322
85,0.994197274574322
85,0.994197274574322
85,0.994197274574322
85,0.994197274574322
85,0.994197274574322
85,0.994197274574322
85,0.994197274574322
85,0.994197274574322
86,0.994197274574322
86,0.994197274574322
86,0.994197274574322
86,0.994197274574322
86,0.994197274574322
86,0.994197274574322
86,0.994197274574322
86,0.994197274574322
86,0.994197274574322
86,0.994197274574322
86,0.994197274574322
86,0.994197274574322
86,0.994197274574322
86,0.994197274574322
86,0.994197274574322
87,0.994197274574322
87,0.994197274574322
87,0.994197274574322
87,0.994197274574322
87,0.994197274574322
87,0.994197274574322
87,0.994197274574322
87,0.994197274574322
87,0.9957299448256121
87,0.9957299448256121
87,0.9957299448256121
87,0.9957299448256121
87,0.9957299448256121
87,0.9957299448256121
87,0.9957299448256121
88,0.9957299448256121
88,0.9957299448256121
88,0.9957299448256121
88,0.9957299448256121
88,0.9957299448256121
88,0.9957299448256121
88,0.9957299448256121
88,0.9957299448256121
88,0.9957299448256121
88,0.9957299448256121
88,0.9957299448256121
88,0.9957299448256121
88,0.9957299448256121
88,0.9957299448256121
88,0.9957299448256121
89,0.9957299448256121
89,0.9957299448256121
89,0.9957299448256121
89,0.9957299448256121
89,0.9957299448256121
89,0.9957299448256121
89,0.9957299448256121
89,0.9957299448256121
89,0.9957299448256121
89,0.9957299448256121
89,0.9957299448256121
89,0.9957299448256121
89,0.9957299448256121
89,0.9957299448256121
89,0.9957299448256121
89,0.9957299448256121
90,0.9957299448256121
90,0.9957299448256121
90,0.9957299448256121
90,0.9957299448256121
90,0.9957299448256121
90,0.9957299448256121
90,0.9957299448256121
90,0.9957299448256121
90,0.9957299448256121
90,0.9957299448256121
90,0.9957299448256121
90,0.9957299448256121
90,0.9957299448256121
90,0.9957299448256121
90,0.9957299448256121
91,0.9957299448256121
91,0.9957299448256121
91,0.9957299448256121
91,0.9957299448256121
91,0.9957299448256121
91,0.9957299448256121
91,0.9957299448256121
91,0.9957299448256121
91,0.9957299448256121
91,0.9957299448256121
91,0.9957299448256121
91,0.9957299448256121
91,0.9957299448256121
91,0.9957299448256121
91,0.9957299448256121
91,0.9957299448256121
92,0.9957299448256121
92,0.9957299448256121
92,0.9957299448256121
92,0.9957299448256121
92,0.9957299448256121
92,0.9957299448256121
92,0.9957299448256121
92,0.9957299448256121
92,0.9957299448256121
92,0.9957299448256121
92,0.9957299448256121
92,0.9957299448256121
92,0.9957299448256121
92,0.9957299448256121
92,0.9957299448256121
92,0.9957299448256121
93,0.9957299448256121
93,0.9957299448256121
93,0.9957299448256121
93,0.9957299448256121
93,0.9957299448256121
93,0.9957299448256121
93,0.9957299448256121
93,0.9957299448256121
93,0.9957299448256121
93,0.9957299448256121
93,0.9957299448256121
93,0.9957299448256121
93,0.9957299448256121
93,0.9957299448256121
93,0.9957299448256121
94,0.9972287930255472
94,0.9972287930255472
94,0.9972287930255472
94,0.9972287930255472
94,0.9972287930255472
94,0.9972287930255472
94,0.9972287930255472
94,0.9972287930255472
94,0.9972287930255472
94,0.9972287930255472
94,0.9972287930255472
94,0.9972287930255472
94,0.9972287930255472
94,0.9972287930255472
94,0.9972287930255472
95,0.9972287930255472
95,0.9972287930255472
95,0.9972287930255472
95,0.9972287930255472
95,0.9972287930255472
95,0.9972287930255472
95,0.9972287930255472
95,0.9972287930255472
95,0.9972287930255472
95,0.9972287930255472
95,0.9972287930255472
95,0.9972287930255472
95,0.9972287930255472
95,0.9972287930255472
95,0.9972287930255472
95,0.9972287930255472
96,0.9972287930255472
96,0.9972287930255472
96,0.9972287930255472
96,0.9972287930255472
96,0.9972287930255472
96,0.9972287930255472
96,0.9972287930255472
96,0.9972287930255472
96,0.9972287930255472
96,0.9972287930255472
96,0.9972287930255472
96,0.9972287930255472
96,0.9972287930255472
96,0.9972287930255472
96,0.9972287930255472
97,0.9972287930255472
97,0.9972287930255472
97,0.9972287930255472
97,0.9972287930255472
97,0.9972287930255472
97,0.9972287930255472
97,0.9972287930255472
97,0.9972287930255472
97,0.9972287930255472
97,0.9972287930255472
97,0.9972287930255472
97,0.9972287930255472
97,0.9972287930255472
97,0.9972287930255472
97,0.9972287930255472
97,0.9972287930255472
98,0.9972287930255472
98,0.9972287930255472
98,0.9972287930255472
98,0.9972287930255472
98,0.9972287930255472
98,0.9972287930255472
98,0.9972287930255472
98,0.9972287930255472
98,0.9972287930255472
98,0.9972287930255472
98,0.9972287930255472
98,0.9972287930255472
98,0.9972287930255472
98,0.9972287930255472
98,0.9972287930255472
99,0.9972287930255472
99,0.9972287930255472
99,0.9972287930255472
99,0.9972287930255472
99,0.9972287930255472
99,0.9972287930255472
99,0.9972287930255472
99,0.9972287930255472
99,0.9972287930255472
99,0.9972287930255472
99,0.9972287930255472
99,0.9972287930255472
99,0.9972287930255472
99,0.9972287930255472
99,0.9972287930255472
99,0.9972287930255472
100,0.9972287930255472
100,0.9972287930255472
100,0.9972287930255472
100,0.9972287930255472
100,0.9972287930255472
100,0.9972287930255472
100,0.9972287930255472
100,0.9974119491230158
100,0.9974119491230158
100,0.9974119491230158
100,0.9974119491230158
100,0.9974119491230158
100,0.9974119491230158
100,0.9974119491230158
100,0.9974119491230158
100,0.9974119491230158
101,0.9974119491230158
101,0.9974119491230158
101,0.9974119491230158
101,0.9974119491230158
101,0.9974119491230158
101,0.9974119491230158
101,0.9974119491230158
101,0.9974119491230158
101,0.9974119491230158
101,0.9974119491230158
101,0.9974119491230158
101,0.9974119491230158
101,0.9974119491230158
101,0.9974119491230158
101,0.9974119491230158
102,0.9974119491230158
102,0.9974119491230158
102,0.9974119491230158
102,0.9974119491230158
102,0.9974119491230158
102,0.9974119491230158
102,0.9974119491230158
102,0.9974119491230158
102,0.9974119491230158
102,0.9974119491230158
102,0.9974119491230158
102,0.9974119491230158
102,0.9974119491230158
102,0.9974119491230158
102,0.9974119491230158
102,0.9974119491230158
103,0.9974119491230158
103,0.9974119491230158
103,0.9974119491230158
103,0.9974119491230158
103,0.9974119491230158
103,0.9974119491230158
103,0.9974119491230158
103,0.9974119491230158
103,0.9974119491230158
103,0.9974119491230158
103,0.9975041421091401
103,0.9975041421091401
103,0.9975041421091401
103,0.9975041421091401
103,0.9975041421091401
104,0.9975041421091401
104,0.9975041421091401
104,0.9975041421091401
104,0.9975041421091401
104,0.9975041421091401
104,0.9975041421091401
104,0.9975041421091401
104,0.9975041421091401
104,0.9975041421091401
104,0.9975041421091401
104,0.9975041421091401
104,0.9975041421091401
104,0.9975041421091401
104,0.9975041421091401
104,0.9975041421091401
104,0.9975041421091401
105,0.9975041421091401
105,0.9975041421091401
105,0.9975041421091401
105,0.9975041421091401
105,0.9975041421091401
105,0.9975041421091401
105,0.9975041421091401
105,0.9975041421091401
105,0.9975041421091401
105,0.9975041421091401
105,0.9975041421091401
105,0.9975041421091401
105,0.9975041421091401
105,0.9975041421091401
105,0.9975041421091401
105,0.9975041421091401
106,0.9975041421091401
106,0.9975041421091401
106,0.9975041421091401
106,0.9975041421091401
106,0.9975041421091401
106,0.9975041421091401
106,0.9975041421091401
106,0.9975041421091401
106,0.9975041421091401
106,0.9975041421091401
106,0.9975041421091401
106,0.9975041421091401
106,0.9975041421091401
106,0.9978236094728242
106,0.9978236094728242
106,0.9978236094728242
106,0.9978236094728242
107,0.9978236094728242
107,0.9978236094728242
107,0.9978236094728242
107,0.9978236094728242
107,0.9978236094728242
107,0.9978236094728242
107,0.9978236094728242
107,0.9978236094728242
107,0.9978236094728242
107,0.9978236094728242
107,0.9978236094728242
107,0.9978236094728242
107,0.9978236094728242
107,0.9978236094728242
107,0.9978236094728242
107,0.9978236094728242
107,0.9978236094728242
108,0.9978236094728242
108,0.9978236094728242
108,0.9978236094728242
108,0.9978236094728242
108,0.9980016328586436
108,0.9980016328586436
108,0.9980016328586436
108,0.9980016328586436
108,0.9980016328586436
108,0.9980016328586436
108,0.9980016328586436
108,0.9980016328586436
108,0.9980016328586436
108,0.9980016328586436
108,0.9980016328586436
108,0.9980016328586436
108,0.9980016328586436
109,0.9980016328586436
109,0.9980016328586436
109,0.9980016328586436
109,0.9980016328586436
109,0.9980016328586436
109,0.9980016328586436
109,0.9980016328586436
109,0.9980016328586436
109,0.9980016328586436
109,0.9980016328586436
109,0.9980016328586436
109,0.9980016328586436
109,0.9981067939927997
109,0.9981067939927997
109,0.9981067939927997
109,0.9981067939927997
109,0.9981067939927997
110,0.9981067939927997
110,0.9981067939927997
110,0.9981067939927997
110,0.9981067939927997
110,0.9981067939927997
110,0.9981067939927997
110,0.9981067939927997
110,0.9981067939927997
110,0.9981067939927997
110,0.9981067939927997
110,0.9981067939927997
110,0.9981067939927997
110,0.9981067939927997
110,0.9981067939927997
110,0.9981067939927997
110,0.9981067939927997
111,0.9981067939927997
111,0.9981067939927997
111,0.9981067939927997
111,0.9981067939927997
111,0.998181004885006
111,0.998181004885006
111,0.998181004885006
111,0.998181004885006
111,0.998181004885006
111,0.998181004885006
111,0.998181004885006
111,0.998181004885006
111,0.998181004885006
111,0.998181004885006
111,0.998181004885006
111,0.998181004885006
111,0.998181004885006
112,0.998181004885006
112,0.998181004885006
112,0.998181004885006
112,0.998181004885006
112,0.998181004885006
112,0.998181004885006
112,0.998181004885006
112,0.998181004885006
112,0.998181004885006
112,0.998181004885006
112,0.998181004885006
112,0.998181004885006
112,0.998181004885006
112,0.998181004885006
112,0.998181004885006
112,0.998181004885006
112,0.998181004885006
113,0.998181004885006
113,0.998181004885006
113,0.998181004885006
113,0.998181004885006
113,0.998181004885006
113,0.998181004885006
113,0.998181004885006
113,0.998181004885006
113,0.998181004885006
113,0.998181004885006
113,0.998181004885006
113,0.998181004885006
113,0.998181004885006
113,0.998181004885006
113,0.998181004885006
113,0.998181004885006
113,0.998181004885006
114,0.998181004885006
114,0.998181004885006
114,0.998181004885006
114,0.9986107246442901
114,0.9986107246442901
114,0.9986107246442901
114,0.9986107246442901
114,0.9986107246442901
114,0.9986107246442901
114,0.9986107246442901
114,0.9986107246442901
114,0.9986107246442901
114,0.9986107246442901
114,0.9986107246442901
114,0.9986107246442901
114,0.9986107246442901
114,0.9986107246442901
115,0.9986107246442901
115,0.9986107246442901
115,0.9986107246442901
115,0.9986107246442901
115,0.9986107246442901
115,0.9986107246442901
115,0.9986107246442901
115,0.9986107246442901
115,0.9986107246442901
115,0.9986107246442901
115,0.9986107246442901
115,0.9986107246442901
115,0.9986107246442901
115,0.9986107246442901
115,0.9986107246442901
115,0.9986107246442901
115,0.9986107246442901
116,0.9986107246442901
116,0.9986107246442901
116,0.9986107246442901
116,0.9986107246442901
116,0.9986107246442901
116,0.9986107246442901
116,0.9986107246442901
116,0.9986107246442901
116,0.9986107246442901
116,0.9986107246442901
116,0.9986107246442901
116,0.9986107246442901
116,0.9986107246442901
116,0.9986107246442901
116,0.9986107246442901
116,0.9986107246442901
116,0.9986107246442901
117,0.9986107246442901
117,0.9986107246442901
117,0.9986107246442901
117,0.9986107246442901
117,0.9986107246442901
117,0.9986107246442901
117,0.9986107246442901
117,0.9986107246442901
117,0.9986107246442901
117,0.9986107246442901
117,0.9986107246442901
117,0.9986107246442901
117,0.9986107246442901
117,0.9986107246442901
117,0.9986107246442901
117,0.9986107246442901
117,0.9986107246442901
118,0.9986107246442901
118,0.9986107246442901
118,0.9986107246442901
118,0.9986107246442901
118,0.9986107246442901
118,0.9986107246442901
118,0.9986107246442901
118,0.9986107246442901
118,0.9986107246442901
118,0.9986107246442901
118,0.9989475603792662
118,0.9989475603792662
118,0.9989475603792662
118,0.9989475603792662
118,0.9989475603792662
118,0.9989475603792662
118,0.9989475603792662
119,0.9989475603792662
119,0.9989475603792662
119,0.9989475603792662
119,0.9989475603792662
119,0.9989475603792662
119,0.9989475603792662
119,0.9989475603792662
119,0.9989475603792662
119,0.9989475603792662
119,0.9989475603792662
119,0.9989475603792662
119,0.9989475603792662
119,0.9989475603792662
119,0.9989475603792662
119,0.9989475603792662
119,0.9989475603792662
119,0.9989475603792662
120,0.9989475603792662
120,0.9989586618334335
120,0.9989586618334335
120,0.9989586618334335
120,0.9989586618334335
120,0.9989586618334335
120,0.9989586618334335
120,0.9989586618334335
120,0.9989586618334335
120,0.9989586618334335
120,0.9989586618334335
120,0.9989586618334335
120,0.9989586618334335
120,0.9989586618334335
120,0.9989586618334335
120,0.9989586618334335
120,0.9989586618334335
121,0.9989586618334335
121,0.9989586618334335
121,0.9989586618334335
121,0.9989586618334335
121,0.9989586618334335
121,0.9989586618334335
121,0.9989586618334335
121,0.9989586618334335
121,0.9989586618334335
121,0.9989586618334335
121,0.9989586618334335
121,0.9989586618334335
121,0.9989586618334335
121,0.9989586618334335
121,0.9989586618334335
121,0.9989586618334335
121,0.9989586618334335
122,0.9989586618334335
122,0.9989586618334335
122,0.9989586618334335
122,0.9989586618334335
122,0.9989586618334335
122,0.9989586618334335
122,0.9989586618334335
122,0.9989586618334335
122,0.9989586618334335
122,0.9989586618334335
122,0.9989586618334335
122,0.9989586618334335
122,0.9989586618334335
122,0.9989586618334335
122,0.9989586618334335
122,0.9989586618334335
122,0.9989586618334335
123,0.9989586618334335
123,0.9989586618334335
123,0.9989586618334335
123,0.9989586618334335
123,0.9989586618334335
123,0.9989586618334335
123,0.9989586618334335
123,0.9989586618334335
123,0.9989586618334335
123,0.9989586618334335
123,0.9989586618334335
123,0.9989586618334335
123,0.9989586618334335
123,0.9989586618334335
123,0.9989586618334335
123,0.9989586618334335
123,0.9989586618334335
124,0.9989586618334335
124,0.9989586618334335
124,0.9989586618334335
124,0.9989586618334335
124,0.9989586618334335
124,0.9989586618334335
124,0.9989586618334335
124,0.9989586618334335
124,0.9989586618334335
124,0.9989586618334335
124,0.9989586618334335
124,0.9989586618334335
124,0.9989586618334335
124,0.9989586618334335
124,0.9989586618334335
124,0.9989586618334335
124,0.9989586618334335
125,0.9989586618334335
125,0.9989586618334335
125,0.9989586618334335
125,0.9989586618334335
125,0.9989586618334335
125,0.9989586618334335
125,0.9989586618334335
125,0.9989586618334335
125,0.9989586618334335
125,0.9989586618334335
125,0.9989586618334335
125,0.9989586618334335
125,0.9989586618334335
125,0.9989586618334335
125,0.9989586618334335
125,0.9989586618334335
125,0.9989586618334335
126,0.9989586618334335
126,0.9989586618334335
126,0.9989586618334335
126,0.9989586618334335
126,0.9989586618334335
126,0.9989586618334335
126,0.9989586618334335
126,0.9989586618334335
126,0.9989586618334335
126,0.9989586618334335
126,0.9989586618334335
126,0.9989586618334335
126,0.9989586618334335
126,0.9989586618334335
126,0.9989586618334335
126,0.9989586618334335
126,0.9989586618334335
127,0.9989586618334335
127,0.9989586618334335
127,0.9989586618334335
127,0.9989586618334335
127,0.9989586618334335
127,0.9989586618334335
127,0.9989586618334335
127,0.998972121406982
127,0.998972121406982
127,0.998972121406982
127,0.998972121406982
127,0.998972121406982
127,0.998972121406982
127,0.998972121406982
127,0.998972121406982
127,0.998972121406982
127,0.998972121406982
128,0.998972121406982
128,0.998972121406982
128,0.998972121406982
128,0.998972121406982
128,0.998972121406982
128,0.998972121406982
128,0.998972121406982
128,0.998972121406982
128,0.998972121406982
128,0.998972121406982
128,0.998972121406982
128,0.998972121406982
128,0.998972121406982
128,0.998972121406982
128,0.998972121406982
128,0.998972121406982
128,0.998972121406982
129,0.998972121406982
129,0.998972121406982
129,0.998972121406982
129,0.998972121406982
129,0.998972121406982
129,0.998972121406982
129,0.998972121406982
129,0.998972121406982
129,0.998972121406982
129,0.998972121406982
129,0.998972121406982
129,0.998972121406982
129,0.998972121406982
129,0.998972121406982
129,0.998972121406982
129,0.998972121406982
129,0.998972121406982
130,0.998972121406982
130,0.998972121406982
130,0.998972121406982
130,0.998972121406982
130,0.998972121406982
130,0.998972121406982
130,0.9989881978860234
130,0.9989881978860234
130,0.9989881978860234
130,0.9989881978860234
130,0.9989881978860234
130,0.9989881978860234
130,0.9989881978860234
130,0.9989881978860234
130,0.9989881978860234
130,0.9989881978860234
130,0.9989881978860234
131,0.9989881978860234
131,0.9989881978860234
131,0.9989881978860234
131,0.9989881978860234
131,0.9989881978860234
131,0.9989881978860234
131,0.9989881978860234
131,0.9989881978860234
131,0.9989881978860234
131,0.9989881978860234
131,0.9989881978860234
131,0.9989881978860234
131,0.9989881978860234
131,0.9989881978860234
131,0.9989891467201144
131,0.9989891467201144
131,0.9989891467201144
132,0.9989891467201144
132,0.9989891467201144
132,0.9989891467201144
132,0.9989891467201144
132,0.9989891467201144
132,0.9989891467201144
132,0.9989891467201144
132,0.9989891467201144
132,0.9989891467201144
132,0.9989891467201144
132,0.9989891467201144
132,0.9989891467201144
132,0.9989891467201144
132,0.9989891467201144
132,0.9989891467201144
132,0.9989891467201144
132,0.9989891467201144
133,0.9989891467201144
133,0.9989891467201144
133,0.9989891467201144
133,0.9989891467201144
133,0.9989891467201144
133,0.9989891467201144
133,0.9989891467201144
133,0.9989891467201144
133,0.9989891467201144
133,0.9989891467201144
133,0.9989891467201144
133,0.9989891467201144
133,0.9989891467201144
133,0.9989891467201144
133,0.9989891467201144
133,0.9989891467201144
133,0.9989891467201144
134,0.9989891467201144
134,0.9989891467201144
134,0.9989891467201144
134,0.9989891467201144
134,0.9989891467201144
134,0.9989891467201144
134,0.9989891467201144
134,0.9989891467201144
134,0.9989891467201144
134,0.9989891467201144
134,0.9989891467201144
134,0.9989891467201144
134,0.9989891467201144
134,0.9990670530721486
134,0.9990670530721486
134,0.9990670530721486
134,0.9990670530721486
135,0.9990670530721486
135,0.9990670530721486
135,0.9990670530721486
135,0.9990670530721486
135,0.9990670530721486
135,0.9990670530721486
135,0.9990670530721486
135,0.9990670530721486
135,0.9990670530721486
135,0.9990670530721486
135,0.9990670530721486
135,0.9990670530721486
135,0.9990670530721486
135,0.9990670530721486
135,0.9990670530721486
135,0.9990670530721486
135,0.9990670530721486
136,0.9990670530721486
136,0.9990670530721486
136,0.9990670530721486
136,0.9990670530721486
136,0.9990670530721486
136,0.9990670530721486
136,0.9990670530721486
136,0.9990670530721486
136,0.9990670530721486
136,0.9990670530721486
136,0.9990670530721486
136,0.9990670530721486
136,0.9990670530721486
136,0.9990670530721486
136,0.9990670530721486
136,0.9990670530721486
136,0.9990670530721486
136,0.9990670530721486
137,0.9990670530721486
137,0.9990670530721486
137,0.9990670530721486
137,0.9990670530721486
137,0.9990670530721486
137,0.9990670530721486
137,0.9990670530721486
137,0.9990670530721486
137,0.9990670530721486
137,0.9990670530721486
137,0.9990670530721486
137,0.9990670530721486
137,0.9990670530721486
137,0.9990670530721486
137,0.9990670530721486
137,0.9990670530721486
137,0.9990670530721486
138,0.9990670530721486
138,0.9990670530721486
138,0.9990670530721486
138,0.9990670530721486
138,0.9990670530721486
138,0.9990670530721486
138,0.9990670530721486
138,0.9990670530721486
138,0.9990670530721486
138,0.9990670530721486
138,0.9990670530721486
138,0.9990670530721486
138,0.9990670530721486
138,0.9990670530721486
138,0.9990670530721486
138,0.9990670530721486
138,0.9990670530721486
139,0.9990670530721486
139,0.9990670530721486
139,0.9991078328664404
139,0.9991078328664404
139,0.9991078328664404
139,0.9991078328664404
139,0.9991078328664404
139,0.9991078328664404
139,0.9991078328664404
139,0.9991078328664404
139,0.9991078328664404
139,0.9991078328664404
139,0.9991078328664404
139,0.9991078328664404
139,0.9991078328664404
139,0.9991078328664404
139,0.9991078328664404
140,0.9991078328664404
140,0.9991078328664404
140,0.9991078328664404
140,0.9991078328664404
140,0.9991078328664404
140,0.9991078328664404
140,0.9991078328664404
140,0.9991078328664404
140,0.9991078328664404
140,0.9991078328664404
140,0.9991078328664404
140,0.9991078328664404
140,0.9991078328664404
140,0.9991078328664404
140,0.9991078328664404
140,0.9991078328664404
140,0.9991078328664404
140,0.9991078328664404
141,0.9991078328664404
141,0.9991078328664404
141,0.9991078328664404
141,0.9991078328664404
141,0.9991078328664404
141,0.9991078328664404
141,0.9991078328664404
141,0.9991078328664404
141,0.9991078328664404
141,0.9991078328664404
141,0.9991078328664404
141,0.9991078328664404
141,0.9991078328664404
141,0.9991078328664404
141,0.9991078328664404
141,0.9991078328664404
141,0.9991078328664404
142,0.9991078328664404
142,0.9991078328664404
142,0.9991078328664404
142,0.9991078328664404
142,0.9991078328664404
142,0.9991078328664404
142,0.9991078328664404
142,0.9991078328664404
142,0.9991078328664404
142,0.9991078328664404
142,0.9991078328664404
142,0.9991078328664404
142,0.9991078328664404
142,0.9991078328664404
142,0.9991078328664404
142,0.9991078328664404
142,0.9991078328664404
143,0.9991078328664404
143,0.9991078328664404
143,0.9991078328664404
143,0.9991078328664404
143,0.9991078328664404
143,0.9991078328664404
143,0.9991078328664404
143,0.9991078328664404
143,0.9991078328664404
143,0.9991078328664404
143,0.9991078328664404
143,0.9991078328664404
143,0.9991078328664404
143,0.9991078328664404
143,0.9991078328664404
143,0.9991078328664404
143,0.9991078328664404
144,0.9991078328664404
144,0.9991078328664404
144,0.9991078328664404
144,0.9991078328664404
144,0.9991078328664404
144,0.9991078328664404
144,0.9991078328664404
144,0.9991078328664404
144,0.9991078328664404
144,0.9991078328664404
144,0.9991078328664404
144,0.9991078328664404
144,0.9991078328664404
144,0.9991078328664404
144,0.9991078328664404
144,0.9991078328664404
144,0.9991078328664404
145,0.9991078328664404
145,0.9991078328664404
145,0.9991078328664404
145,0.9991078328664404
145,0.9991078328664404
145,0.9991078328664404
145,0.9991078328664404
145,0.9991078328664404
145,0.9991078328664404
145,0.9991078328664404
145,0.9991078328664404
145,0.9991078328664404
145,0.9991078328664404
145,0.9991078328664404
145,0.9991078328664404
145,0.9991078328664404
145,0.9991078328664404
146,0.9991078328664404
146,0.9991078328664404
146,0.9991078328664404
146,0.9991078328664404
146,0.9991078328664404
146,0.9991078328664404
146,0.9991078328664404
146,0.9991078328664404
146,0.9991078328664404
146,0.9991078328664404
146,0.9991078328664404
146,0.9991078328664404
146,0.9991078328664404
146,0.9991078328664404
146,0.9991078328664404
146,0.9991078328664404
146,0.9991078328664404
146,0.9991078328664404
147,0.9991078328664404
147,0.9991078328664404
147,0.9991078328664404
147,0.9991078328664404
147,0.9991078328664404
147,0.9991078328664404
147,0.9991078328664404
147,0.9991078328664404
147,0.9991078328664404
147,0.9991078328664404
147,0.9991078328664404
147,0.9991078328664404
147,0.9991078328664404
147,0.9991078328664404
147,0.9991078328664404
147,0.9991078328664404
147,0.9991078328664404
148,0.9991078328664404
148,0.9991078328664404
148,0.9991078328664404
148,0.9991078328664404
148,0.9991078328664404
148,0.9991078328664404
148,0.9991078328664404
148,0.9991078328664404
148,0.9991078328664404
148,0.9991078328664404
148,0.9991078328664404
148,0.9991078328664404
148,0.9991078328664404
148,0.9991078328664404
148,0.9991078328664404
148,0.9991078328664404
148,0.9991078328664404
149,0.9991078328664404
149,0.9991078328664404
149,0.9991078328664404
149,0.9991078328664404
149,0.9991078328664404
149,0.9991078328664404
149,0.9991078328664404
149,0.9991078328664404
149,0.9991078328664404
149,0.9991078328664404
149,0.9991078328664404
149,0.9991078328664404
149,0.9991078328664404
149,0.9991078328664404
149,0.9991078328664404
149,0.9991078328664404
149,0.9991078328664404
150,0.9991078328664404
150,0.9991078328664404
150,0.9991078328664404
150,0.9991078328664404
150,0.9991078328664404
150,0.9991078328664404
150,0.9991078328664404
150,0.9991078328664404
150,0.9991078328664404
150,0.9991078328664404
150,0.9991078328664404
150,0.9991078328664404
150,0.9991078328664404
150,0.9991078328664404
150,0.9991078328664404
150,0.9991078328664404
150,0.9991078328664404
151,0.9991078328664404
151,0.9991078328664404
151,0.9991078328664404
151,0.9991078328664404
151,0.9991078328664404
151,0.9991078328664404
151,0.9991078328664404
151,0.9991078328664404
151,0.9991078328664404
151,0.9991078328664404
151,0.9991078328664404
151,0.9991078328664404
151,0.9991078328664404
151,0.9991078328664404
151,0.9991078328664404
151,0.9991078328664404
151,0.9991078328664404
152,0.9991078328664404
152,0.9991078328664404
152,0.9991078328664404
152,0.9991078328664404
152,0.9991078328664404
152,0.9991078328664404
152,0.9991078328664404
152,0.9991078328664404
152,0.9991078328664404
152,0.9991078328664404
152,0.9991078328664404
152,0.9991078328664404
152,0.9991078328664404
152,0.9991078328664404
152,0.9991078328664404
152,0.9991078328664404
152,0.9991078328664404
152,0.9991078328664404
153,0.9991078328664404
153,0.9991078328664404
153,0.9991078328664404
153,0.9991078328664404
153,0.9991078328664404
153,0.9991078328664404
153,0.9991078328664404
153,0.9991078328664404
153,0.9991078328664404
153,0.9991078328664404
153,0.9991078328664404
153,0.9991078328664404
153,0.9991078328664404
153,0.9991078328664404
153,0.9991078328664404
153,0.9991078328664404
153,0.9991078328664404
154,0.9991078328664404
154,0.9991078328664404
154,0.9991078328664404
154,0.9991078328664404
154,0.9991078328664404
154,0.9991078328664404
154,0.9991078328664404
154,0.9991078328664404
154,0.9991078328664404
154,0.9991078328664404
154,0.9991078328664404
154,0.9991078328664404
154,0.9991078328664404
154,0.9991078328664404
154,0.9991078328664404
154,0.9991078328664404
154,0.9991078328664404
155,0.9991078328664404
155,0.9991078328664404
155,0.9991078328664404
155,0.9991078328664404
155,0.9991078328664404
155,0.9991078328664404
155,0.9991078328664404
155,0.9991078328664404
155,0.9991078328664404
155,0.9991078328664404
155,0.9991078328664404
155,0.9991078328664404
155,0.9991078328664404
155,0.9991078328664404
155,0.9991078328664404
155,0.9991078328664404
155,0.9991078328664404
156,0.9991078328664404
156,0.9991078328664404
156,0.9991078328664404
156,0.9991078328664404
156,0.9991078328664404
156,0.9991078328664404
156,0.9991078328664404
156,0.9991078328664404
156,0.9991078328664404
156,0.9991078328664404
156,0.9991078328664404
156,0.9991078328664404
156,0.9991078328664404
156,0.9991078328664404
156,0.9991078328664404
156,0.9991078328664404
156,0.9991078328664404
157,0.9991078328664404
157,0.9991078328664404
157,0.9991078328664404
157,0.9991078328664404
157,0.9991078328664404
157,0.9991078328664404
157,0.9991078328664404
157,0.9991078328664404
157,0.9991078328664404
157,0.9991078328664404
157,0.9991078328664404
157,0.9991078328664404
157,0.9991078328664404
157,0.9991078328664404
157,0.9991078328664404
157,0.9991078328664404
157,0.9991078328664404
158,0.9991078328664404
158,0.9991078328664404
158,0.9991078328664404
158,0.9991078328664404
158,0.9991078328664404
158,0.9991078328664404
158,0.9991078328664404
158,0.9991078328664404
158,0.9991078328664404
158,0.9991078328664404
158,0.9991078328664404
158,0.9991078328664404
158,0.9991078328664404
158,0.9991078328664404
158,0.9991078328664404
158,0.9991078328664404
158,0.9991078328664404
159,0.9991078328664404
159,0.9991078328664404
159,0.9991078328664404
159,0.9991078328664404
159,0.9991078328664404
159,0.9991078328664404
159,0.9991078328664404
159,0.9991078328664404
159,0.9991078328664404
159,0.9991078328664404
159,0.9991078328664404
159,0.9991078328664404
159,0.9991078328664404
159,0.9991078328664404
159,0.9991078328664404
159,0.9991078328664404
159,0.9991078328664404
160,0.9991078328664404
160,0.9991078328664404
160,0.9991078328664404
160,0.9991078328664404
160,0.9991078328664404
160,0.9991078328664404
160,0.9991078328664404
160,0.9991078328664404
160,0.9991078328664404
160,0.9991078328664404
160,0.9991078328664404
160,0.9991078328664404
160,0.9991078328664404
160,0.9991078328664404
160,0.9991078328664404
160,0.9991078328664404
160,0.9991078328664404
161,0.9991078328664404
161,0.9991078328664404
161,0.9991078328664404
161,0.9991078328664404
161,0.9991078328664404
161,0.9991078328664404
161,0.9991078328664404
161,0.9991078328664404
161,0.9991078328664404
161,0.9991078328664404
161,0.9991078328664404
161,0.9991078328664404
161,0.9991078328664404
161,0.9991078328664404
161,0.9991078328664404
161,0.9991078328664404
161,0.9991078328664404
161,0.9991078328664404
162,0.9991078328664404
162,0.9991078328664404
162,0.9991078328664404
162,0.9991078328664404
162,0.9991078328664404
162,0.9991078328664404
162,0.9991078328664404
162,0.9991078328664404
162,0.9991078328664404
162,0.9991078328664404
162,0.9991078328664404
162,0.9991078328664404
162,0.9991078328664404
162,0.9991078328664404
162,0.9991078328664404
162,0.9991078328664404
162,0.9991078328664404
163,0.9991078328664404
163,0.9991078328664404
163,0.9991078328664404
163,0.9991078328664404
163,0.9991078328664404
163,0.9991078328664404
163,0.9991078328664404
163,0.9991078328664404
163,0.9991078328664404
163,0.9991078328664404
163,0.9991078328664404
163,0.9991078328664404
163,0.9991078328664404
163,0.9991078328664404
163,0.9991078328664404
163,0.9991078328664404
163,0.9991078328664404
164,0.9991078328664404
164,0.9991078328664404
164,0.9991078328664404
164,0.9991078328664404
164,0.9991078328664404
164,0.9991078328664404
164,0.9991078328664404
164,0.9991078328664404
164,0.9991078328664404
164,0.9991078328664404
164,0.9991078328664404
164,0.9991078328664404
164,0.9991078328664404
164,0.9991078328664404
164,0.9991078328664404
164,0.9991078328664404
164,0.9991078328664404
165,0.9991078328664404
165,0.9991078328664404
165,0.9991078328664404
165,0.9991078328664404
165,0.9991078328664404
165,0.9991078328664404
165,0.9991078328664404
165,0.9991078328664404
165,0.9991078328664404
165,0.9991078328664404
165,0.9991078328664404
165,0.9991078328664404
165,0.9991078328664404
165,0.9991078328664404
165,0.9991078328664404
165,0.9991078328664404
165,0.9991078328664404
166,0.9991078328664404
166,0.9991078328664404
166,0.9991078328664404
166,0.9991078328664404
166,0.9991078328664404
166,0.9991078328664404
166,0.9991078328664404
166,0.9991078328664404
166,0.9991078328664404
166,0.9991078328664404
166,0.9991078328664404
166,0.9991078328664404
166,0.9991078328664404
166,0.9991078328664404
166,0.9991078328664404
166,0.9991078328664404
166,0.9991078328664404
167,0.9991078328664404
167,0.9991078328664404
167,0.9991078328664404
167,0.9991078328664404
167,0.9991078328664404
167,0.9991078328664404
167,0.9991078328664404
167,0.9991078328664404
167,0.9991078328664404
167,0.9991078328664404
167,0.9991078328664404
167,0.9991078328664404
167,0.9991078328664404
167,0.9991078328664404
167,0.9991078328664404
167,0.9991078328664404
167,0.9991078328664404
168,0.9991078328664404
168,0.9991078328664404
168,0.9991078328664404
168,0.9991078328664404
168,0.9991078328664404
168,0.9991078328664404
168,0.9991078328664404
168,0.9991078328664404
168,0.9991078328664404
168,0.9991078328664404
168,0.9991078328664404
168,0.9991078328664404
168,0.9991078328664404
168,0.9991078328664404
168,0.9991078328664404
168,0.9991078328664404
168,0.9991078328664404
168,0.9991078328664404
169,0.9991078328664404
169,0.9991078328664404
169,0.9991078328664404
169,0.9991078328664404
169,0.9991078328664404
169,0.9991078328664404
169,0.9991078328664404
169,0.9991078328664404
169,0.9991078328664404
169,0.9991078328664404
169,0.9991078328664404
169,0.9991078328664404
169,0.9991078328664404
169,0.9991078328664404
169,0.9991078328664404
169,0.9991078328664404
169,0.9991078328664404
170,0.9991078328664404
170,0.9991078328664404
170,0.9991078328664404
170,0.9991078328664404
170,0.9991078328664404
170,0.9991078328664404
170,0.9991078328664404
170,0.9991078328664404
170,0.9991078328664404
170,0.9991078328664404
170,0.9991078328664404
170,0.9991078328664404
170,0.9991078328664404
170,0.9991078328664404
170,0.9991078328664404
170,0.9991078328664404
170,0.9991078328664404
171,0.9991078328664404
171,0.9991078328664404
171,0.9991078328664404
171,0.9991078328664404
171,0.9991078328664404
171,0.9991078328664404
171,0.9991078328664404
171,0.9991078328664404
171,0.9991078328664404
171,0.9991078328664404
171,0.9991078328664404
171,0.9991078328664404
171,0.9991078328664404
171,0.9991078328664404
171,0.9991078328664404
171,0.9991078328664404
171,0.9991078328664404
172,0.9991078328664404
172,0.9991078328664404
172,0.9991078328664404
172,0.9991078328664404
172,0.9991078328664404
172,0.9991078328664404
172,0.9991078328664404
172,0.9991078328664404
172,0.9991078328664404
172,0.9991078328664404
172,0.9991078328664404
172,0.9991078328664404
172,0.9991078328664404
172,0.9991078328664404
172,0.9991078328664404
172,0.9991078328664404
172,0.9991078328664404
173,0.9991078328664404
173,0.9991078328664404
173,0.9991078328664404
173,0.9991078328664404
173,0.9991078328664404
173,0.9991078328664404
173,0.9991078328664404
173,0.9991078328664404
173,0.9991078328664404
173,0.9991078328664404
173,0.9991078328664404
173,0.9991078328664404
173,0.9991078328664404
173,0.9991078328664404
173,0.9991078328664404
173,0.9991078328664404
173,0.9991078328664404
174,0.9991078328664404
174,0.9991078328664404
174,0.9991121887724362
174,0.9991121887724362
174,0.9991121887724362
174,0.9991121887724362
174,0.9991121887724362
174,0.9991121887724362
174,0.9991121887724362
174,0.9991121887724362
174,0.9991121887724362
174,0.9991121887724362
174,0.9991121887724362
174,0.9991121887724362
174,0.9991121887724362
174,0.9991121887724362
174,0.9991121887724362
174,0.9991121887724362
175,0.9991121887724362
175,0.9991121887724362
175,0.9991121887724362
175,0.9991121887724362
175,0.9991121887724362
175,0.9991121887724362
175,0.9991121887724362
175,0.9991121887724362
175,0.9991121887724362
175,0.9992580916602647
175,0.9992580916602647
175,0.9992580916602647
175,0.9992580916602647
175,0.9992580916602647
175,0.9992580916602647
175,0.9992580916602647
175,0.9992580916602647
176,0.9992580916602647
176,0.9992580916602647
176,0.9992580916602647
176,0.9992580916602647
176,0.9992580916602647
176,0.9992580916602647
176,0.9992580916602647
176,0.9992580916602647
176,0.9992580916602647
176,0.9992580916602647
176,0.9992580916602647
176,0.9992580916602647
176,0.9992580916602647
176,0.9992580916602647
176,0.9992580916602647
176,0.9992580916602647
176,0.9992580916602647
177,0.9992580916602647
177,0.9992580916602647
177,0.9992580916602647
177,0.9992580916602647
177,0.9992580916602647
177,0.9992580916602647
177,0.9992580916602647
177,0.9992580916602647
177,0.9992580916602647
177,0.9992580916602647
177,0.9992580916602647
177,0.9992580916602647
177,0.9992580916602647
177,0.9992580916602647
177,0.9992580916602647
177,0.9992580916602647
177,0.9992580916602647
178,0.9992580916602647
178,0.9992580916602647
178,0.9992580916602647
178,0.9992580916602647
178,0.9992580916602647
178,0.9992580916602647
178,0.9992580916602647
178,0.9992580916602647
178,0.9992580916602647
178,0.9992580916602647
178,0.9992580916602647
178,0.9992580916602647
178,0.9992580916602647
178,0.9992580916602647
178,0.9992580916602647
178,0.9992580916602647
178,0.9992580916602647
179,0.9992580916602647
179,0.9992580916602647
179,0.9992580916602647
179,0.9992580916602647
179,0.9992580916602647
179,0.9992580916602647
179,0.9992580916602647
179,0.9992580916602647
179,0.9992580916602647
179,0.9992580916602647
179,0.9992580916602647
179,0.9992580916602647
179,0.9992580916602647
179,0.9992580916602647
179,0.9992580916602647
179,0.9992580916602647
179,0.9992697628556034
180,0.9992697628556034
