0,0.4907751395619312
0,0.4907751395619312
0,0.4907751395619312
1,0.525065794903576
1,0.525065794903576
1,0.525065794903576
2,0.525065794903576
2,0.525065794903576
2,0.525065794903576
2,0.525065794903576
3,0.525065794903576
3,0.525065794903576
3,0.525065794903576
3,0.525065794903576
4,0.525065794903576
4,0.525065794903576
4,0.525065794903576
4,0.525065794903576
5,0.525065794903576
5,0.525065794903576
5,0.525065794903576
6,0.525065794903576
6,0.525065794903576
6,0.525065794903576
6,0.525065794903576
7,0.525065794903576
7,0.525065794903576
7,0.525065794903576
7,0.525065794903576
8,0.525065794903576
8,0.525065794903576
8,0.525065794903576
8,0.525065794903576
9,0.525065794903576
9,0.525065794903576
9,0.525065794903576
9,0.525065794903576
10,0.525065794903576
10,0.525065794903576
10,0.525065794903576
11,0.525065794903576
11,0.525065794903576
11,0.525065794903576
11,0.525065794903576
12,0.525065794903576
12,0.525065794903576
12,0.525065794903576
12,0.525065794903576
13,0.525065794903576
13,0.525065794903576
13,0.525065794903576
14,0.525065794903576
14,0.525065794903576
14,0.525065794903576
14,0.525065794903576
15,0.525065794903576
15,0.525065794903576
15,0.525065794903576
16,0.525065794903576
16,0.525065794903576
16,0.525065794903576
16,0.525065794903576
17,0.525065794903576
17,0.525065794903576
17,0.525065794903576
17,0.525065794903576
18,0.525065794903576
18,0.525065794903576
18,0.525065794903576
18,0.525065794903576
19,0.525065794903576
19,0.525065794903576
19,0.525065794903576
19,0.525065794903576
20,0.525065794903576
20,0.525065794903576
20,0.525065794903576
20,0.525065794903576
21,0.525065794903576
21,0.525065794903576
21,0.525065794903576
22,0.525065794903576
22,0.525065794903576
22,0.525065794903576
22,0.525065794903576
23,0.525065794903576
23,0.525065794903576
23,0.525065794903576
23,0.525065794903576
24,0.525065794903576
24,0.525065794903576
24,0.525065794903576
24,0.525065794903576
25,0.525065794903576
25,0.525065794903576
25,0.525065794903576
25,0.525065794903576
26,0.525065794903576
26,0.525065794903576
26,0.525065794903576
27,0.525065794903576
27,0.525065794903576
27,0.525065794903576
27,0.525065794903576
28,0.525065794903576
28,0.525065794903576
28,0.525065794903576
28,0.525065794903576
29,0.525065794903576
29,0.525065794903576
29,0.525065794903576
30,0.525065794903576
30,0.525065794903576
30,0.525065794903576
30,0.525065794903576
31,0.525065794903576
31,0.525065794903576
31,0.525065794903576
31,0.525065794903576
32,0.525065794903576
32,0.525065794903576
32,0.525065794903576
32,0.525065794903576
33,0.525065794903576
33,0.525065794903576
33,0.525065794903576
33,0.525065794903576
34,0.525065794903576
34,0.525065794903576
34,0.525065794903576
34,0.525065794903576
34,0.525065794903576
35,0.525065794903576
35,0.525065794903576
35,0.525065794903576
35,0.525065794903576
36,0.525065794903576
36,0.525065794903576
36,0.525065794903576
36,0.525065794903576
37,0.525065794903576
37,0.525065794903576
37,0.525065794903576
37,0.525065794903576
38,0.525065794903576
38,0.525065794903576
38,0.525065794903576
38,0.525065794903576
39,0.525065794903576
39,0.525065794903576
39,0.525065794903576
39,0.525065794903576
40,0.525065794903576
40,0.525065794903576
40,0.525065794903576
40,0.525065794903576
41,0.525065794903576
41,0.525065794903576
41,0.525065794903576
42,0.525065794903576
42,0.525065794903576
42,0.525065794903576
42,0.525065794903576
43,0.525065794903576
43,0.525065794903576
43,0.525065794903576
43,0.525065794903576
44,0.525065794903576
44,0.525065794903576
44,0.525065794903576
44,0.525065794903576
45,0.525065794903576
45,0.525065794903576
45,0.525065794903576
45,0.525065794903576
46,0.525065794903576
46,0.525065794903576
46,0.525065794903576
46,0.525065794903576
47,0.525065794903576
47,0.525065794903576
47,0.525065794903576
47,0.525065794903576
48,0.525065794903576
48,0.525065794903576
48,0.5420083656885945
49,0.5420083656885945
49,0.5420083656885945
49,0.5420083656885945
49,0.5420083656885945
50,0.5420083656885945
50,0.5420083656885945
50,0.5420083656885945
50,0.5420083656885945
51,0.5420083656885945
51,0.5420083656885945
51,0.5420083656885945
51,0.5420083656885945
52,0.5420083656885945
52,0.5420083656885945
52,0.5420083656885945
52,0.5420083656885945
53,0.5420083656885945
53,0.5420083656885945
53,0.5420083656885945
54,0.5420083656885945
54,0.5420083656885945
54,0.5420083656885945
54,0.5420083656885945
55,0.5420083656885945
55,0.5420083656885945
55,0.5420083656885945
55,0.5420083656885945
56,0.5420083656885945
56,0.5420083656885945
56,0.5420083656885945
56,0.5420083656885945
57,0.5420083656885945
57,0.5420083656885945
57,0.5420083656885945
57,0.5420083656885945
58,0.5420083656885945
58,0.5420083656885945
58,0.5420083656885945
58,0.5420083656885945
59,0.5420083656885945
59,0.5420083656885945
59,0.5420083656885945
59,0.5420083656885945
60,0.5420083656885945
60,0.5420083656885945
60,0.5420083656885945
60,0.5420083656885945
61,0.5420083656885945
61,0.5420083656885945
61,0.5420083656885945
61,0.5420083656885945
62,0.5420083656885945
62,0.5420083656885945
62,0.5420083656885945
62,0.5420083656885945
63,0.5420083656885945
63,0.5420083656885945
63,0.5420083656885945
64,0.5420083656885945
64,0.5420083656885945
64,0.5420083656885945
64,0.5420083656885945
65,0.5420083656885945
65,0.5420083656885945
65,0.5420083656885945
65,0.5420083656885945
66,0.5420083656885945
66,0.5420083656885945
66,0.5420083656885945
66,0.5420083656885945
67,0.5420083656885945
67,0.5420083656885945
67,0.5420083656885945
67,0.5420083656885945
68,0.5420083656885945
68,0.5420083656885945
68,0.5420083656885945
68,0.5420083656885945
69,0.5420083656885945
69,0.5420083656885945
69,0.5420083656885945
69,0.5420083656885945
70,0.5420083656885945
70,0.5420083656885945
70,0.5420083656885945
71,0.5420083656885945
71,0.5420083656885945
71,0.5420083656885945
71,0.5420083656885945
72,0.5420083656885945
72,0.5420083656885945
72,0.5420083656885945
72,0.5420083656885945
73,0.5420083656885945
73,0.5420083656885945
73,0.5420083656885945
73,0.5420083656885945
74,0.5420083656885945
74,0.5420083656885945
74,0.5420083656885945
74,0.5420083656885945
75,0.5420083656885945
75,0.5420083656885945
75,0.5420083656885945
75,0.5420083656885945
76,0.5420083656885945
76,0.5420083656885945
76,0.5420083656885945
76,0.5420083656885945
77,0.5420083656885945
77,0.5420083656885945
77,0.5420083656885945
77,0.5420083656885945
78,0.5420083656885945
78,0.5420083656885945
78,0.5420083656885945
78,0.5420083656885945
79,0.5420083656885945
79,0.5420083656885945
79,0.5420083656885945
80,0.5420083656885945
80,0.5420083656885945
80,0.5420083656885945
80,0.5420083656885945
81,0.5420083656885945
81,0.5420083656885945
81,0.5420083656885945
82,0.5420083656885945
82,0.5420083656885945
82,0.5420083656885945
82,0.5420083656885945
82,0.5420083656885945
83,0.5420083656885945
83,0.5420083656885945
83,0.5420083656885945
84,0.5420083656885945
84,0.5420083656885945
84,0.5420083656885945
84,0.5420083656885945
85,0.5420083656885945
85,0.5420083656885945
85,0.5420083656885945
85,0.5420083656885945
86,0.5420083656885945
86,0.5420083656885945
86,0.5420083656885945
86,0.5420083656885945
87,0.5420083656885945
87,0.5420083656885945
87,0.5420083656885945
87,0.5420083656885945
88,0.5420083656885945
88,0.5420083656885945
88,0.5420083656885945
88,0.5420083656885945
89,0.5420083656885945
89,0.5420083656885945
89,0.5420083656885945
89,0.5420083656885945
90,0.5420083656885945
90,0.5420083656885945
90,0.5420083656885945
90,0.5420083656885945
91,0.5420083656885945
91,0.5420083656885945
91,0.5420083656885945
91,0.5420083656885945
92,0.5420083656885945
92,0.5420083656885945
92,0.5420083656885945
92,0.5420083656885945
93,0.5420083656885945
93,0.5420083656885945
93,0.5420083656885945
93,0.5420083656885945
94,0.5420083656885945
94,0.5420083656885945
94,0.5420083656885945
94,0.5420083656885945
95,0.5420083656885945
95,0.5420083656885945
95,0.5420083656885945
95,0.5420083656885945
96,0.5420083656885945
96,0.5420083656885945
96,0.5420083656885945
96,0.5420083656885945
97,0.5420083656885945
97,0.5420083656885945
97,0.5420083656885945
97,0.5420083656885945
98,0.5420083656885945
98,0.5420083656885945
98,0.5420083656885945
98,0.5420083656885945
99,0.5420083656885945
99,0.5420083656885945
99,0.5420083656885945
99,0.5420083656885945
100,0.5420083656885945
