0,0.2699048437563322
0,0.2699048437563322
0,0.2699048437563322
0,0.2699048437563322
0,0.2699048437563322
0,0.2699048437563322
0,0.2699048437563322
0,0.2699048437563322
0,0.2699048437563322
0,0.2699048437563322
0,0.2699048437563322
0,0.2699048437563322
0,0.2699048437563322
0,0.2699048437563322
0,0.2699048437563322
0,0.2699048437563322
1,0.2699048437563322
1,0.2699048437563322
1,0.2699048437563322
1,0.2699048437563322
1,0.2699048437563322
1,0.2699048437563322
1,0.2699048437563322
1,0.2699048437563322
1,0.5355806030677901
1,0.5355806030677901
1,0.5355806030677901
1,0.5355806030677901
1,0.5355806030677901
1,0.5355806030677901
1,0.5355806030677901
1,0.5355806030677901
2,0.5355806030677901
2,0.5355806030677901
2,0.5355806030677901
2,0.5355806030677901
2,0.5355806030677901
2,0.5355806030677901
2,0.5355806030677901
2,0.5355806030677901
2,0.5355806030677901
2,0.5355806030677901
2,0.5355806030677901
2,0.5355806030677901
2,0.5355806030677901
2,0.5355806030677901
2,0.5355806030677901
2,0.5355806030677901
3,0.5355806030677901
3,0.6860468743210923
3,0.6860468743210923
3,0.6860468743210923
3,0.6860468743210923
3,0.6860468743210923
3,0.6860468743210923
3,0.6860468743210923
3,0.6860468743210923
3,0.6860468743210923
3,0.6860468743210923
3,0.6860468743210923
3,0.6860468743210923
3,0.6860468743210923
3,0.6860468743210923
3,0.6860468743210923
4,0.6860468743210923
4,0.6860468743210923
4,0.6860468743210923
4,0.6860468743210923
4,0.6860468743210923
4,0.6860468743210923
4,0.6860468743210923
4,0.6860468743210923
4,0.6860468743210923
4,0.6860468743210923
4,0.7303735414979483
4,0.7303735414979483
4,0.7303735414979483
4,0.7303735414979483
5,0.7303735414979483
5,0.7303735414979483
5,0.7303735414979483
5,0.7303735414979483
5,0.7303735414979483
5,0.7303735414979483
5,0.7303735414979483
5,0.7303735414979483
5,0.7303735414979483
5,0.7303735414979483
5,0.7303735414979483
5,0.7303735414979483
5,0.7303735414979483
5,0.7303735414979483
6,0.7303735414979483
6,0.7303735414979483
6,0.7303735414979483
6,0.7303735414979483
6,0.7303735414979483
6,0.7303735414979483
6,0.7303735414979483
6,0.7751332937332404
6,0.7751332937332404
6,0.7751332937332404
6,0.7751332937332404
6,0.7751332937332404
6,0.7751332937332404
7,0.7751332937332404
7,0.7751332937332404
7,0.7751332937332404
7,0.7751332937332404
7,0.7751332937332404
7,0.7751332937332404
7,0.7751332937332404
7,0.7751332937332404
7,0.7751332937332404
7,0.7751332937332404
7,0.7751332937332404
7,0.7751332937332404
7,0.7751332937332404
7,0.7751332937332404
8,0.7751332937332404
8,0.7751332937332404
8,0.7751332937332404
8,0.7751332937332404
8,0.7751332937332404
8,0.7939070846047571
8,0.7939070846047571
8,0.7939070846047571
8,0.7939070846047571
8,0.7939070846047571
8,0.7939070846047571
8,0.7939070846047571
8,0.7939070846047571
8,0.7939070846047571
9,0.7939070846047571
9,0.7939070846047571
9,0.7939070846047571
9,0.7939070846047571
9,0.7939070846047571
9,0.7939070846047571
9,0.7939070846047571
9,0.7939070846047571
9,0.7939070846047571
9,0.7939070846047571
9,0.7939070846047571
9,0.7939070846047571
9,0.7939070846047571
10,0.7939070846047571
10,0.7939070846047571
10,0.7939070846047571
10,0.8273565603065615
10,0.8273565603065615
10,0.8273565603065615
10,0.8273565603065615
10,0.8273565603065615
10,0.8273565603065615
10,0.8273565603065615
10,0.8273565603065615
10,0.8273565603065615
10,0.8273565603065615
11,0.8273565603065615
11,0.8273565603065615
11,0.8273565603065615
11,0.8273565603065615
11,0.8273565603065615
11,0.8273565603065615
11,0.8273565603065615
11,0.8273565603065615
11,0.8273565603065615
11,0.8273565603065615
11,0.8273565603065615
11,0.8273565603065615
12,0.8273565603065615
12,0.8273565603065615
12,0.8273565603065615
12,0.9072371397293191
12,0.9072371397293191
12,0.9072371397293191
12,0.9072371397293191
12,0.9072371397293191
12,0.9072371397293191
12,0.9072371397293191
12,0.9072371397293191
13,0.9072371397293191
13,0.9072371397293191
13,0.9072371397293191
13,0.9072371397293191
13,0.9072371397293191
13,0.9072371397293191
13,0.9072371397293191
13,0.9072371397293191
13,0.9072371397293191
13,0.9072371397293191
13,0.9072371397293191
14,0.9072371397293191
14,0.9072371397293191
14,0.9072371397293191
14,0.9072371397293191
14,0.9072371397293191
14,0.9072371397293191
14,0.934600141735107
14,0.934600141735107
14,0.934600141735107
14,0.934600141735107
14,0.934600141735107
14,0.934600141735107
15,0.934600141735107
15,0.934600141735107
15,0.934600141735107
15,0.934600141735107
15,0.934600141735107
15,0.934600141735107
15,0.934600141735107
15,0.934600141735107
15,0.934600141735107
15,0.934600141735107
15,0.934600141735107
15,0.934600141735107
16,0.934600141735107
16,0.934600141735107
16,0.934600141735107
16,0.934600141735107
16,0.934600141735107
16,0.934600141735107
16,0.934600141735107
16,0.9383049691811386
16,0.9383049691811386
16,0.9383049691811386
16,0.9383049691811386
16,0.9383049691811386
17,0.9383049691811386
17,0.9383049691811386
17,0.9383049691811386
17,0.9383049691811386
17,0.9383049691811386
17,0.9383049691811386
17,0.9383049691811386
17,0.9383049691811386
17,0.9383049691811386
17,0.9383049691811386
17,0.9383049691811386
17,0.9383049691811386
18,0.9383049691811386
18,0.9383049691811386
18,0.9383049691811386
18,0.9383049691811386
18,0.9383049691811386
18,0.9383049691811386
18,0.9383049691811386
18,0.9383049691811386
18,0.9391069665194144
18,0.9391069665194144
18,0.9391069665194144
18,0.9391069665194144
19,0.9391069665194144
19,0.9391069665194144
19,0.9391069665194144
19,0.9391069665194144
19,0.9391069665194144
19,0.9391069665194144
19,0.9391069665194144
19,0.9391069665194144
19,0.9391069665194144
19,0.9391069665194144
19,0.9391069665194144
20,0.9391069665194144
20,0.9391069665194144
20,0.9391069665194144
20,0.9391069665194144
20,0.9391069665194144
20,0.9391069665194144
20,0.9391069665194144
20,0.9391069665194144
20,0.9391069665194144
20,0.9391069665194144
20,0.9456373391228229
20,0.9456373391228229
21,0.9456373391228229
21,0.9456373391228229
21,0.9456373391228229
21,0.9456373391228229
21,0.9456373391228229
21,0.9456373391228229
21,0.9456373391228229
21,0.9456373391228229
21,0.9456373391228229
21,0.9456373391228229
21,0.9456373391228229
21,0.9456373391228229
22,0.9456373391228229
22,0.9456373391228229
22,0.9456373391228229
22,0.9456373391228229
22,0.9456373391228229
22,0.9456373391228229
22,0.9456373391228229
22,0.9456373391228229
22,0.9456373391228229
22,0.9456373391228229
22,0.9456373391228229
22,0.9475652011013621
23,0.9475652011013621
23,0.9475652011013621
23,0.9475652011013621
23,0.9475652011013621
23,0.9475652011013621
23,0.9475652011013621
23,0.9475652011013621
23,0.9475652011013621
23,0.9475652011013621
23,0.9475652011013621
23,0.9475652011013621
23,0.9475652011013621
23,0.9475652011013621
24,0.9475652011013621
24,0.9475652011013621
24,0.9475652011013621
24,0.9475652011013621
24,0.9475652011013621
24,0.9475652011013621
24,0.9475652011013621
24,0.9475652011013621
24,0.9475652011013621
24,0.9475652011013621
24,0.9475652011013621
24,0.9476895553460698
25,0.9476895553460698
25,0.9476895553460698
25,0.9476895553460698
25,0.9476895553460698
25,0.9476895553460698
25,0.9476895553460698
25,0.9476895553460698
25,0.9476895553460698
25,0.9476895553460698
25,0.9476895553460698
25,0.9476895553460698
25,0.9476895553460698
26,0.9476895553460698
26,0.9476895553460698
26,0.9476895553460698
26,0.9476895553460698
26,0.9476895553460698
26,0.9476895553460698
26,0.9476895553460698
26,0.9476895553460698
26,0.9476895553460698
26,0.9476895553460698
26,0.9476895553460698
26,0.9476895553460698
26,0.9476895553460698
27,0.9476895553460698
27,0.9476895553460698
27,0.9476895553460698
27,0.9476895553460698
27,0.9476895553460698
27,0.9476895553460698
27,0.9476895553460698
27,0.9476895553460698
27,0.9476895553460698
27,0.9476895553460698
27,0.9476895553460698
27,0.9476895553460698
28,0.9476895553460698
28,0.9476895553460698
28,0.9476895553460698
28,0.9476895553460698
28,0.9476895553460698
28,0.9476895553460698
28,0.9476895553460698
28,0.9476895553460698
28,0.9476895553460698
28,0.9476895553460698
28,0.9476895553460698
28,0.9476895553460698
29,0.9506298004693989
29,0.9506298004693989
29,0.9506298004693989
29,0.9506298004693989
29,0.9506298004693989
29,0.9506298004693989
29,0.9506298004693989
29,0.9506298004693989
29,0.9506298004693989
29,0.9506298004693989
29,0.9506298004693989
29,0.9506298004693989
29,0.9506298004693989
30,0.9506298004693989
30,0.9506298004693989
30,0.9506298004693989
30,0.9506298004693989
30,0.9506298004693989
30,0.9506298004693989
30,0.9506298004693989
30,0.9506298004693989
30,0.9506298004693989
30,0.9506298004693989
30,0.9506298004693989
30,0.9506298004693989
31,0.9565222962834758
31,0.9565222962834758
31,0.9565222962834758
31,0.9565222962834758
31,0.9565222962834758
31,0.9565222962834758
31,0.9565222962834758
31,0.9565222962834758
31,0.9565222962834758
31,0.9565222962834758
31,0.9565222962834758
31,0.9565222962834758
32,0.9565222962834758
32,0.9565222962834758
32,0.9565222962834758
32,0.9565222962834758
32,0.9565222962834758
32,0.9565222962834758
32,0.9565222962834758
32,0.9565222962834758
32,0.9565222962834758
32,0.9565222962834758
32,0.9565222962834758
32,0.9565222962834758
33,0.9565222962834758
33,0.9720823142126647
33,0.9720823142126647
33,0.9720823142126647
33,0.9720823142126647
33,0.9720823142126647
33,0.9720823142126647
33,0.9720823142126647
33,0.9720823142126647
33,0.9720823142126647
33,0.9720823142126647
33,0.9720823142126647
34,0.9720823142126647
34,0.9720823142126647
34,0.9720823142126647
34,0.9720823142126647
34,0.9720823142126647
34,0.9720823142126647
34,0.9720823142126647
34,0.9720823142126647
34,0.9720823142126647
34,0.9720823142126647
34,0.9720823142126647
34,0.9720823142126647
35,0.9720823142126647
35,0.9720823142126647
35,0.9720823142126647
35,0.9720823142126647
35,0.9720823142126647
35,0.9720823142126647
35,0.9720823142126647
35,0.9720823142126647
35,0.9720823142126647
35,0.9720823142126647
35,0.9720823142126647
35,0.9720823142126647
36,0.9720823142126647
36,0.9720823142126647
36,0.9720823142126647
36,0.9720823142126647
36,0.9720823142126647
36,0.9720823142126647
36,0.9720823142126647
36,0.9720823142126647
36,0.9720823142126647
36,0.9720823142126647
36,0.9720823142126647
36,0.9720823142126647
37,0.9720823142126647
37,0.9720823142126647
37,0.9720823142126647
37,0.9749815333382922
37,0.9749815333382922
37,0.9749815333382922
37,0.9749815333382922
37,0.9749815333382922
37,0.9749815333382922
37,0.9749815333382922
37,0.9749815333382922
37,0.9749815333382922
38,0.9749815333382922
38,0.9749815333382922
38,0.9749815333382922
38,0.9749815333382922
38,0.9749815333382922
38,0.9749815333382922
38,0.9749815333382922
38,0.9749815333382922
38,0.9749815333382922
38,0.9749815333382922
38,0.9749815333382922
39,0.9749815333382922
39,0.9749815333382922
39,0.9749815333382922
39,0.9749815333382922
39,0.9749815333382922
39,0.9749815333382922
39,0.9749815333382922
39,0.9749815333382922
39,0.9749815333382922
39,0.9749815333382922
39,0.9749815333382922
39,0.9749815333382922
40,0.9749815333382922
40,0.9749815333382922
40,0.9749815333382922
40,0.9749815333382922
40,0.9749815333382922
40,0.9749815333382922
40,0.9749815333382922
40,0.9749815333382922
40,0.9749815333382922
40,0.9749815333382922
40,0.9749815333382922
40,0.9749815333382922
40,0.9749815333382922
41,0.9749815333382922
41,0.9749815333382922
41,0.9749815333382922
41,0.9749815333382922
41,0.9749815333382922
41,0.9769061724359772
41,0.9769061724359772
41,0.9769061724359772
41,0.9769061724359772
41,0.9769061724359772
41,0.9769061724359772
41,0.9769061724359772
42,0.9769061724359772
42,0.9769061724359772
42,0.9769061724359772
42,0.9769061724359772
42,0.9769061724359772
42,0.9769061724359772
42,0.9769061724359772
42,0.9769061724359772
42,0.9769061724359772
42,0.9769061724359772
42,0.9769061724359772
43,0.9769061724359772
43,0.9769061724359772
43,0.9769061724359772
43,0.9769061724359772
43,0.9769061724359772
43,0.9769061724359772
43,0.9769061724359772
43,0.9817873838985581
43,0.9817873838985581
43,0.9817873838985581
43,0.9817873838985581
43,0.9817873838985581
44,0.9817873838985581
44,0.9817873838985581
44,0.9817873838985581
44,0.9817873838985581
44,0.9817873838985581
44,0.9817873838985581
44,0.9817873838985581
44,0.9817873838985581
44,0.9817873838985581
44,0.9817873838985581
44,0.9817873838985581
44,0.9817873838985581
44,0.9817873838985581
45,0.9817873838985581
45,0.9817873838985581
45,0.9817873838985581
45,0.9817873838985581
45,0.9817873838985581
45,0.9817873838985581
45,0.9817873838985581
45,0.9819483005141134
45,0.9819483005141134
45,0.9819483005141134
45,0.9819483005141134
45,0.9819483005141134
46,0.9819483005141134
46,0.9819483005141134
46,0.9819483005141134
46,0.9819483005141134
46,0.9819483005141134
46,0.9819483005141134
46,0.9819483005141134
46,0.9819483005141134
46,0.9819483005141134
46,0.9819483005141134
46,0.9819483005141134
46,0.9819483005141134
47,0.9819483005141134
47,0.9819483005141134
47,0.9819483005141134
47,0.9819483005141134
47,0.9819483005141134
47,0.9819483005141134
47,0.9819483005141134
47,0.9819483005141134
47,0.9867287950900109
47,0.9867287950900109
47,0.9867287950900109
48,0.9867287950900109
48,0.9867287950900109
48,0.9867287950900109
48,0.9867287950900109
48,0.9867287950900109
48,0.9867287950900109
48,0.9867287950900109
48,0.9867287950900109
48,0.9867287950900109
48,0.9867287950900109
48,0.9867287950900109
48,0.9867287950900109
49,0.9867287950900109
49,0.9867287950900109
49,0.9867287950900109
49,0.9867287950900109
49,0.9867287950900109
49,0.9867287950900109
49,0.9867287950900109
49,0.9867287950900109
49,0.9867287950900109
49,0.9867287950900109
49,0.9868690121388839
49,0.9868690121388839
50,0.9868690121388839
50,0.9868690121388839
50,0.9868690121388839
50,0.9868690121388839
50,0.9868690121388839
50,0.9868690121388839
50,0.9868690121388839
50,0.9868690121388839
50,0.9868690121388839
50,0.9868690121388839
50,0.9868690121388839
50,0.9868690121388839
51,0.9868690121388839
51,0.9868690121388839
51,0.9868690121388839
51,0.9868690121388839
51,0.9868690121388839
51,0.9868690121388839
51,0.9868690121388839
51,0.9868690121388839
51,0.9868690121388839
51,0.9868690121388839
51,0.9868690121388839
51,0.9870155152924469
52,0.9870155152924469
52,0.9870155152924469
52,0.9870155152924469
52,0.9870155152924469
52,0.9870155152924469
52,0.9870155152924469
52,0.9870155152924469
52,0.9870155152924469
52,0.9870155152924469
52,0.9870155152924469
52,0.9870155152924469
52,0.9870155152924469
53,0.9870155152924469
53,0.9870155152924469
53,0.9870155152924469
53,0.9870155152924469
53,0.9870155152924469
53,0.9870155152924469
53,0.9870155152924469
53,0.9870155152924469
53,0.9870155152924469
53,0.9870155152924469
53,0.9870155152924469
53,0.9870155152924469
54,0.9879250439764565
54,0.9879250439764565
54,0.9879250439764565
54,0.9879250439764565
54,0.9879250439764565
54,0.9879250439764565
54,0.9879250439764565
54,0.9879250439764565
54,0.9879250439764565
54,0.9879250439764565
54,0.9879250439764565
54,0.9879250439764565
55,0.9879250439764565
55,0.9879250439764565
55,0.9879250439764565
55,0.9879250439764565
55,0.9879250439764565
55,0.9879250439764565
55,0.9879250439764565
55,0.9879250439764565
55,0.9879250439764565
55,0.9879250439764565
55,0.9879250439764565
55,0.9879250439764565
56,0.9879250439764565
56,0.9879250439764565
56,0.9879250439764565
56,0.9879250439764565
56,0.9879250439764565
56,0.9879250439764565
56,0.9879250439764565
56,0.9879250439764565
56,0.9879250439764565
56,0.9879250439764565
56,0.9879250439764565
56,0.9879250439764565
57,0.9879250439764565
57,0.9879250439764565
57,0.9879250439764565
57,0.9879250439764565
57,0.9879250439764565
57,0.9879250439764565
57,0.9879250439764565
57,0.9879250439764565
57,0.9879250439764565
57,0.9879250439764565
57,0.9879250439764565
57,0.9879250439764565
58,0.9879250439764565
58,0.9879250439764565
58,0.9939655667819252
58,0.9939655667819252
58,0.9939655667819252
58,0.9939655667819252
58,0.9939655667819252
58,0.9939655667819252
58,0.9939655667819252
58,0.9939655667819252
58,0.9939655667819252
58,0.9939655667819252
59,0.9939655667819252
59,0.9939655667819252
59,0.9939655667819252
59,0.9939655667819252
59,0.9939655667819252
59,0.9939655667819252
59,0.9939655667819252
59,0.9939655667819252
59,0.9939655667819252
59,0.9939655667819252
59,0.9939655667819252
59,0.9939655667819252
59,0.9939655667819252
60,0.9939655667819252
60,0.9939655667819252
60,0.9952785572587184
60,0.9952785572587184
60,0.9952785572587184
60,0.9952785572587184
60,0.9952785572587184
60,0.9952785572587184
60,0.9952785572587184
60,0.9952785572587184
60,0.9952785572587184
60,0.9952785572587184
61,0.9952785572587184
61,0.9952785572587184
61,0.9952785572587184
61,0.9952785572587184
61,0.9952785572587184
61,0.9952785572587184
61,0.9952785572587184
61,0.9952785572587184
61,0.9952785572587184
61,0.9952785572587184
61,0.9952785572587184
61,0.9952785572587184
62,0.9952785572587184
62,0.9952785572587184
62,0.9952785572587184
62,0.9952785572587184
62,0.9952785572587184
62,0.9952785572587184
62,0.9952785572587184
62,0.9952785572587184
62,0.9952785572587184
62,0.9952785572587184
62,0.9952785572587184
62,0.9952785572587184
62,0.9952785572587184
63,0.9952785572587184
63,0.9952785572587184
63,0.9952785572587184
63,0.9952785572587184
63,0.9952785572587184
63,0.9952785572587184
63,0.9952785572587184
63,0.9952785572587184
63,0.9952785572587184
63,0.9952785572587184
63,0.9952785572587184
63,0.9952785572587184
64,0.9952785572587184
64,0.9952785572587184
64,0.9952785572587184
64,0.9952872840610367
64,0.9952872840610367
64,0.9952872840610367
64,0.9952872840610367
64,0.9952872840610367
64,0.9952872840610367
64,0.9952872840610367
64,0.9952872840610367
64,0.9952872840610367
64,0.9952872840610367
65,0.9952872840610367
65,0.9952872840610367
65,0.9952872840610367
65,0.9952872840610367
65,0.9952872840610367
65,0.9952872840610367
65,0.9952872840610367
65,0.9952872840610367
65,0.9952872840610367
65,0.9952872840610367
65,0.9952872840610367
65,0.9952872840610367
66,0.9952872840610367
66,0.9952872840610367
66,0.9952872840610367
66,0.9952872840610367
66,0.9952872840610367
66,0.9952872840610367
66,0.9952872840610367
66,0.9952872840610367
66,0.9952872840610367
66,0.9952872840610367
66,0.9952872840610367
66,0.9952872840610367
66,0.9952872840610367
67,0.9952872840610367
67,0.9952872840610367
67,0.9952872840610367
67,0.9952872840610367
67,0.9952872840610367
67,0.9952872840610367
67,0.9952872840610367
67,0.9952872840610367
67,0.9952872840610367
67,0.9952872840610367
67,0.9952872840610367
67,0.9952872840610367
68,0.9952872840610367
68,0.9952872840610367
68,0.9952872840610367
68,0.9952872840610367
68,0.9952872840610367
68,0.9952872840610367
68,0.9952872840610367
68,0.9952872840610367
68,0.9952872840610367
68,0.9952872840610367
68,0.9952872840610367
68,0.9952872840610367
68,0.9952872840610367
69,0.9952872840610367
69,0.9952872840610367
69,0.9952872840610367
69,0.9952872840610367
69,0.9952872840610367
69,0.9952872840610367
69,0.9952872840610367
69,0.9952872840610367
69,0.9952872840610367
69,0.9952872840610367
69,0.9952872840610367
69,0.9952872840610367
70,0.9952872840610367
70,0.9952872840610367
70,0.9952872840610367
70,0.9954622541749478
70,0.9954622541749478
70,0.9954622541749478
70,0.9954622541749478
70,0.9954622541749478
70,0.9954622541749478
70,0.9954622541749478
70,0.9954622541749478
70,0.9954622541749478
70,0.9954622541749478
71,0.9954622541749478
71,0.9954622541749478
71,0.9954622541749478
71,0.9954622541749478
71,0.9954622541749478
71,0.9954622541749478
71,0.9954622541749478
71,0.9954622541749478
71,0.9954622541749478
71,0.9954622541749478
71,0.9954622541749478
71,0.9954622541749478
71,0.9954622541749478
72,0.9954622541749478
72,0.9954622541749478
72,0.995569652132641
72,0.995569652132641
72,0.995569652132641
72,0.995569652132641
72,0.995569652132641
72,0.995569652132641
72,0.995569652132641
72,0.995569652132641
72,0.995569652132641
72,0.995569652132641
72,0.995569652132641
73,0.995569652132641
73,0.995569652132641
73,0.995569652132641
73,0.995569652132641
73,0.995569652132641
73,0.995569652132641
73,0.995569652132641
73,0.995569652132641
73,0.995569652132641
73,0.995569652132641
73,0.995569652132641
73,0.995569652132641
73,0.995569652132641
74,0.995569652132641
74,0.995569652132641
74,0.995569652132641
74,0.995569652132641
74,0.995569652132641
74,0.995569652132641
74,0.995569652132641
74,0.995569652132641
74,0.995569652132641
74,0.995569652132641
74,0.995569652132641
74,0.995569652132641
75,0.995569652132641
75,0.995569652132641
75,0.995569652132641
75,0.995569652132641
75,0.995569652132641
75,0.995569652132641
75,0.995569652132641
75,0.995569652132641
75,0.995569652132641
75,0.995569652132641
75,0.995569652132641
75,0.995569652132641
75,0.995569652132641
76,0.995569652132641
76,0.995569652132641
76,0.995569652132641
76,0.995569652132641
76,0.995569652132641
76,0.995569652132641
76,0.995569652132641
76,0.995569652132641
76,0.995569652132641
76,0.995569652132641
76,0.995569652132641
76,0.995569652132641
76,0.995569652132641
77,0.995569652132641
77,0.995569652132641
77,0.995569652132641
77,0.995569652132641
77,0.995569652132641
77,0.995569652132641
77,0.995569652132641
77,0.995569652132641
77,0.995569652132641
77,0.995569652132641
77,0.995569652132641
77,0.995569652132641
77,0.995569652132641
78,0.995569652132641
78,0.995569652132641
78,0.995569652132641
78,0.995569652132641
78,0.995569652132641
78,0.995569652132641
78,0.995569652132641
78,0.995569652132641
78,0.995569652132641
78,0.995569652132641
78,0.995569652132641
78,0.995569652132641
79,0.995569652132641
79,0.995569652132641
79,0.995569652132641
79,0.995569652132641
79,0.995569652132641
79,0.995569652132641
79,0.995569652132641
79,0.995569652132641
79,0.995569652132641
79,0.995569652132641
79,0.995569652132641
79,0.995569652132641
79,0.995569652132641
80,0.995569652132641
80,0.995569652132641
80,0.995569652132641
80,0.995569652132641
80,0.995569652132641
80,0.995569652132641
80,0.995569652132641
80,0.995569652132641
80,0.995569652132641
80,0.995569652132641
80,0.995569652132641
80,0.995569652132641
80,0.995569652132641
81,0.995569652132641
81,0.995569652132641
81,0.995569652132641
81,0.995569652132641
81,0.995569652132641
81,0.995569652132641
81,0.995569652132641
81,0.995569652132641
81,0.995569652132641
81,0.995569652132641
81,0.995569652132641
81,0.995569652132641
81,0.9955813940377711
82,0.9955813940377711
82,0.9955813940377711
82,0.9955813940377711
82,0.9955813940377711
82,0.9955813940377711
82,0.9955813940377711
82,0.9955813940377711
82,0.9955813940377711
82,0.9955813940377711
82,0.9955813940377711
82,0.9955813940377711
82,0.9955813940377711
83,0.9955813940377711
83,0.9955813940377711
83,0.9955813940377711
83,0.9955813940377711
83,0.9955813940377711
83,0.9955813940377711
83,0.9955813940377711
83,0.9955813940377711
83,0.9955813940377711
83,0.9955813940377711
83,0.9955813940377711
83,0.9955813940377711
83,0.9955813940377711
84,0.9955813940377711
84,0.9955813940377711
84,0.9955813940377711
84,0.9955813940377711
84,0.9955813940377711
84,0.9955813940377711
84,0.9955813940377711
84,0.9955813940377711
84,0.9955813940377711
84,0.9955813940377711
84,0.9955813940377711
84,0.9955813940377711
84,0.9955813940377711
85,0.9955813940377711
85,0.9955813940377711
85,0.9955813940377711
85,0.9955813940377711
85,0.9955813940377711
85,0.9955813940377711
85,0.9955813940377711
85,0.9955813940377711
85,0.9955813940377711
85,0.9955813940377711
85,0.9955813940377711
85,0.9955813940377711
85,0.9955813940377711
86,0.9955813940377711
86,0.9955813940377711
86,0.9955813940377711
86,0.9955813940377711
86,0.9955813940377711
86,0.9955813940377711
86,0.9955813940377711
86,0.9955813940377711
86,0.9955813940377711
86,0.9955813940377711
86,0.9955813940377711
86,0.9955813940377711
87,0.9955813940377711
87,0.9955813940377711
87,0.9955813940377711
87,0.9955813940377711
87,0.9955813940377711
87,0.9955813940377711
87,0.9955813940377711
87,0.9955813940377711
87,0.9955813940377711
87,0.9955813940377711
87,0.9955813940377711
87,0.9956589662217353
87,0.9956589662217353
88,0.9956589662217353
88,0.9956589662217353
88,0.9956589662217353
88,0.9956589662217353
88,0.9956589662217353
88,0.9956589662217353
88,0.9956589662217353
88,0.9956589662217353
88,0.9956589662217353
88,0.9956589662217353
88,0.9956589662217353
88,0.9956589662217353
89,0.9956589662217353
89,0.9956589662217353
89,0.9956589662217353
89,0.9956589662217353
89,0.9956589662217353
89,0.9956589662217353
89,0.9956589662217353
89,0.9956589662217353
89,0.9956589662217353
89,0.9956589662217353
89,0.9956589662217353
89,0.9956607451267638
90,0.9956607451267638
90,0.9956607451267638
90,0.9956607451267638
90,0.9956607451267638
90,0.9956607451267638
90,0.9956607451267638
90,0.9956607451267638
90,0.9956607451267638
90,0.9956607451267638
90,0.9956607451267638
90,0.9956607451267638
90,0.9956607451267638
90,0.9956607451267638
91,0.9956607451267638
91,0.9956607451267638
91,0.9956607451267638
91,0.9956607451267638
91,0.9956607451267638
91,0.9956607451267638
91,0.9956607451267638
91,0.9956607451267638
91,0.9956607451267638
91,0.9956607451267638
91,0.9956607451267638
91,0.9956616613178692
92,0.9956616613178692
92,0.9956616613178692
92,0.9956616613178692
92,0.9956616613178692
92,0.9956616613178692
92,0.9956616613178692
92,0.9956616613178692
92,0.9956616613178692
92,0.9956616613178692
92,0.9956616613178692
92,0.9956616613178692
92,0.9956616613178692
92,0.9956616613178692
93,0.9956616613178692
93,0.9956616613178692
93,0.9956616613178692
93,0.9956616613178692
93,0.9956616613178692
93,0.9956616613178692
93,0.9956616613178692
93,0.9956616613178692
93,0.9956616613178692
93,0.9956616613178692
93,0.9956616613178692
93,0.9956624665873397
94,0.9956624665873397
94,0.9956624665873397
94,0.9956624665873397
94,0.9956624665873397
94,0.9956624665873397
94,0.9956624665873397
94,0.9956624665873397
94,0.9956624665873397
94,0.9956624665873397
94,0.9956624665873397
94,0.9956624665873397
94,0.9956624665873397
94,0.9956624665873397
95,0.9956624665873397
95,0.9956624665873397
95,0.9956624665873397
95,0.9956624665873397
95,0.9956624665873397
95,0.9956624665873397
95,0.9956624665873397
95,0.9956624665873397
95,0.9956624665873397
95,0.9956624665873397
95,0.9956624665873397
95,0.9956624665873397
96,0.9956624665873397
96,0.9956624665873397
96,0.9956624665873397
96,0.9956624665873397
96,0.9956624665873397
96,0.9956624665873397
96,0.9956624665873397
96,0.9956624665873397
96,0.9956624665873397
96,0.9956624665873397
96,0.9956624665873397
96,0.9956624665873397
96,0.9956624665873397
97,0.9956624665873397
97,0.9956624665873397
97,0.9956624665873397
97,0.9956624665873397
97,0.9956624665873397
97,0.9956624665873397
97,0.9956624665873397
97,0.9956624665873397
97,0.9956624665873397
97,0.9956624665873397
97,0.9956624665873397
97,0.9956624665873397
97,0.9956624665873397
98,0.9956624665873397
98,0.9956624665873397
98,0.9956624665873397
98,0.9956624665873397
98,0.9956624665873397
98,0.9956624665873397
98,0.9956624665873397
98,0.9956624665873397
98,0.9956624665873397
98,0.9956624665873397
98,0.9956624665873397
98,0.9956624665873397
99,0.9956624665873397
99,0.9956624665873397
99,0.9956624665873397
99,0.9956624665873397
99,0.9956624665873397
99,0.9956624665873397
99,0.9956624665873397
99,0.9956624665873397
99,0.9956624665873397
99,0.9956624665873397
99,0.9956624665873397
99,0.9956624665873397
99,0.9956624665873397
100,0.9956624665873397
100,0.9956624665873397
100,0.9956624665873397
100,0.9956624665873397
100,0.9956624665873397
100,0.9956624665873397
100,0.9956624665873397
100,0.9956624665873397
100,0.9956624665873397
100,0.9956624665873397
100,0.9956624665873397
100,0.9956624665873397
101,0.9956624665873397
101,0.9956624665873397
101,0.9956624665873397
101,0.9956624665873397
101,0.9956624665873397
101,0.9956624665873397
101,0.9956624665873397
101,0.9956624665873397
101,0.9956624665873397
101,0.9956624665873397
101,0.9956624665873397
101,0.9961571118742705
101,0.9961571118742705
102,0.9961571118742705
102,0.9961571118742705
102,0.9961571118742705
102,0.9961571118742705
102,0.9961571118742705
102,0.9961571118742705
102,0.9961571118742705
102,0.9961571118742705
102,0.9961571118742705
102,0.9961571118742705
102,0.9961571118742705
102,0.9961571118742705
102,0.9961571118742705
103,0.9961571118742705
103,0.9961571118742705
103,0.9961571118742705
103,0.9961571118742705
103,0.9961571118742705
103,0.9961571118742705
103,0.9961571118742705
103,0.9961571118742705
103,0.9961571118742705
103,0.9961571118742705
103,0.9961571118742705
103,0.9961571118742705
104,0.9961571118742705
104,0.9961571118742705
104,0.9961571118742705
104,0.9961571118742705
104,0.9961571118742705
104,0.9961571118742705
104,0.9961571118742705
104,0.9961571118742705
104,0.9961571118742705
104,0.9961571118742705
104,0.9961571118742705
104,0.9961571118742705
104,0.9961571118742705
105,0.9961571118742705
105,0.9961571118742705
105,0.9961571118742705
105,0.9961571118742705
105,0.9961571118742705
105,0.9961571118742705
105,0.9961571118742705
105,0.9961571118742705
105,0.9961571118742705
105,0.9961571118742705
105,0.9982824386945122
106,0.9982824386945122
106,0.9982824386945122
106,0.9982824386945122
106,0.9982824386945122
106,0.9982824386945122
106,0.9982824386945122
106,0.9982824386945122
106,0.9982824386945122
106,0.9982824386945122
106,0.9982824386945122
106,0.9982824386945122
107,0.9982824386945122
107,0.9982824386945122
107,0.9982824386945122
107,0.9982824386945122
107,0.9982824386945122
107,0.9982824386945122
107,0.9982824386945122
107,0.9982824386945122
107,0.9982824386945122
107,0.9982824386945122
107,0.9982824386945122
107,0.9982824386945122
108,0.9982824386945122
108,0.9986891883046544
108,0.9986891883046544
108,0.9986891883046544
108,0.9986891883046544
108,0.9986891883046544
108,0.9986891883046544
108,0.9986891883046544
108,0.9986891883046544
108,0.9986891883046544
108,0.9986891883046544
109,0.9986891883046544
109,0.9986891883046544
109,0.9986891883046544
109,0.9986891883046544
109,0.9986891883046544
109,0.9986891883046544
109,0.9986891883046544
109,0.9986891883046544
109,0.9986891883046544
109,0.9986891883046544
109,0.9986891883046544
110,0.9986891883046544
110,0.9986891883046544
110,0.9986891883046544
110,0.9986891883046544
110,0.9986891883046544
110,0.9986891883046544
110,0.9986891883046544
110,0.9986891883046544
110,0.9986891883046544
110,0.9986891883046544
110,0.9986891883046544
110,0.9986891883046544
111,0.9986891883046544
111,0.9986891883046544
111,0.9986891883046544
111,0.9986891883046544
111,0.9986891883046544
111,0.9986891883046544
111,0.9986891883046544
111,0.9986891883046544
111,0.9986891883046544
111,0.9986891883046544
111,0.9986891883046544
112,0.9986891883046544
112,0.9986891883046544
112,0.9986891883046544
112,0.9986891883046544
112,0.9986891883046544
112,0.9986891883046544
112,0.9988198953180952
112,0.9988198953180952
112,0.9988198953180952
112,0.9988198953180952
112,0.9988198953180952
113,0.9988198953180952
113,0.9988198953180952
113,0.9988198953180952
113,0.9988198953180952
113,0.9988198953180952
113,0.9988198953180952
113,0.9988198953180952
113,0.9988198953180952
113,0.9988198953180952
113,0.9988198953180952
113,0.9988198953180952
113,0.9988198953180952
114,0.9988198953180952
114,0.9988198953180952
114,0.9988198953180952
114,0.9988198953180952
114,0.9988198953180952
114,0.9988198953180952
114,0.9988198953180952
114,0.9988198953180952
114,0.9988198953180952
114,0.9988198953180952
114,0.9988198953180952
115,0.9988198953180952
115,0.9988198953180952
115,0.9988198953180952
115,0.9988198953180952
115,0.9988198953180952
115,0.9988198953180952
115,0.9988198953180952
115,0.9988198953180952
115,0.9988198953180952
115,0.9988198953180952
115,0.9988198953180952
116,0.9988198953180952
116,0.9988198953180952
116,0.9988198953180952
116,0.9988198953180952
116,0.9988198953180952
116,0.9988198953180952
116,0.9988198953180952
116,0.9988198953180952
116,0.9988198953180952
116,0.9988198953180952
116,0.9988198953180952
116,0.9988198953180952
117,0.9988198953180952
117,0.9988198953180952
117,0.9988198953180952
117,0.9988198953180952
117,0.9988198953180952
117,0.9988198953180952
117,0.9988198953180952
117,0.9988198953180952
117,0.9988198953180952
117,0.9988198953180952
117,0.9988198953180952
118,0.9988198953180952
118,0.9988198953180952
118,0.9988198953180952
118,0.9988198953180952
118,0.9988198953180952
118,0.9988198953180952
118,0.9988198953180952
118,0.9988198953180952
118,0.9988198953180952
118,0.9988198953180952
118,0.9988198953180952
118,0.9988198953180952
119,0.9988198953180952
119,0.9988461973083487
119,0.9988461973083487
119,0.9988461973083487
119,0.9988461973083487
119,0.9988461973083487
119,0.9988461973083487
119,0.9988461973083487
119,0.9988461973083487
119,0.9988461973083487
119,0.9988461973083487
119,0.9988461973083487
120,0.9988461973083487
120,0.9988461973083487
120,0.9988461973083487
120,0.9988461973083487
120,0.9988461973083487
120,0.9988461973083487
120,0.9988461973083487
120,0.9988461973083487
120,0.9988461973083487
120,0.9988461973083487
120,0.9988461973083487
120,0.9988461973083487
121,0.9988461973083487
121,0.9988461973083487
121,0.9988710192764025
121,0.9988710192764025
121,0.9988710192764025
121,0.9988710192764025
121,0.9988710192764025
121,0.9988710192764025
121,0.9988710192764025
121,0.9988710192764025
121,0.9988710192764025
121,0.9988710192764025
122,0.9988710192764025
122,0.9988710192764025
122,0.9988710192764025
122,0.9988710192764025
122,0.9988710192764025
122,0.9988710192764025
122,0.9988710192764025
122,0.9988710192764025
122,0.9988710192764025
122,0.9988710192764025
122,0.9988710192764025
122,0.9988710192764025
123,0.9988710192764025
123,0.9988710192764025
123,0.9988710192764025
123,0.9992267890296362
123,0.9992267890296362
123,0.9992267890296362
123,0.9992267890296362
123,0.9992267890296362
123,0.9992267890296362
123,0.9992267890296362
123,0.9992267890296362
123,0.9992267890296362
124,0.9992267890296362
124,0.9992267890296362
124,0.9992267890296362
124,0.9992267890296362
124,0.9992267890296362
124,0.9992267890296362
124,0.9992267890296362
124,0.9992267890296362
124,0.9992267890296362
124,0.9992267890296362
124,0.9992267890296362
124,0.9992267890296362
125,0.9992267890296362
125,0.9992267890296362
125,0.9992267890296362
125,0.9992267890296362
125,0.9992267890296362
125,0.9992267890296362
125,0.9992267890296362
125,0.9992267890296362
125,0.9992267890296362
125,0.9992267890296362
125,0.9992267890296362
125,0.9992267890296362
126,0.9992267890296362
126,0.9992267890296362
126,0.9992267890296362
126,0.9992267890296362
126,0.9992267890296362
126,0.9992267890296362
126,0.9992267890296362
126,0.9992267890296362
126,0.9992267890296362
126,0.9992267890296362
126,0.9992267890296362
126,0.9992267890296362
127,0.9992267890296362
127,0.9992267890296362
127,0.9992267890296362
127,0.9992267890296362
127,0.9992267890296362
127,0.9992333492576555
127,0.9992333492576555
127,0.9992333492576555
127,0.9992333492576555
127,0.9992333492576555
127,0.9992333492576555
127,0.9992333492576555
128,0.9992333492576555
128,0.9992333492576555
128,0.9992333492576555
128,0.9992333492576555
128,0.9992333492576555
128,0.9992333492576555
128,0.9992333492576555
128,0.9992333492576555
128,0.9992333492576555
128,0.9992333492576555
128,0.9992333492576555
128,0.9992333492576555
129,0.9992333492576555
129,0.9992333492576555
129,0.9992333492576555
129,0.9992333492576555
129,0.9992333492576555
129,0.9992333492576555
129,0.9992333492576555
129,0.9992333492576555
129,0.9992333492576555
129,0.9992333492576555
129,0.9992333492576555
129,0.9992333492576555
130,0.9992333492576555
130,0.9992333492576555
130,0.9992333492576555
130,0.9992333492576555
130,0.9992333492576555
130,0.9992333492576555
130,0.9992333492576555
130,0.9992333492576555
130,0.9992333492576555
130,0.9992333492576555
130,0.9992333492576555
130,0.9992333492576555
131,0.9992333492576555
131,0.9992333492576555
131,0.9992333492576555
131,0.9992333492576555
131,0.9992333492576555
131,0.9992333492576555
131,0.9992333492576555
131,0.9994409510029547
131,0.9994409510029547
131,0.9994409510029547
131,0.9994409510029547
131,0.9994409510029547
132,0.9994409510029547
132,0.9994409510029547
132,0.9994409510029547
132,0.9994409510029547
132,0.9994409510029547
132,0.9994409510029547
132,0.9994409510029547
132,0.9994409510029547
132,0.9994409510029547
132,0.9994409510029547
132,0.9994409510029547
132,0.9994409510029547
133,0.9994409510029547
133,0.9994409510029547
133,0.9994409510029547
133,0.9994409510029547
133,0.9994409510029547
133,0.9994409510029547
133,0.9994409510029547
133,0.9994409510029547
133,0.9997609309074413
133,0.9997609309074413
133,0.9997609309074413
133,0.9997609309074413
133,0.9997609309074413
134,0.9997609309074413
134,0.9997609309074413
134,0.9997609309074413
134,0.9997609309074413
134,0.9997609309074413
134,0.9997609309074413
134,0.9997609309074413
134,0.9997609309074413
134,0.9997609309074413
134,0.9997609309074413
134,0.9997609309074413
134,0.9997609309074413
135,0.9997609309074413
135,0.9997609309074413
135,0.9997609309074413
135,0.9997609309074413
135,0.9997609309074413
135,0.9997609309074413
135,0.9997609309074413
135,0.9997609309074413
135,0.9997609309074413
135,0.9997609309074413
135,0.9997609309074413
135,0.9997609309074413
136,0.9997609309074413
136,0.9997609309074413
136,0.9997609309074413
136,0.9997609309074413
136,0.9997609309074413
136,0.9997609309074413
136,0.9997609309074413
136,0.9997609309074413
136,0.9997609309074413
136,0.9997609309074413
136,0.9997609309074413
136,0.9997609309074413
137,0.9997609309074413
137,0.9997609309074413
137,0.9997609309074413
137,0.9997609309074413
137,0.9997609309074413
137,0.9997609309074413
137,0.9997609309074413
137,0.9997609309074413
137,0.9997609309074413
137,0.9997609309074413
137,0.9997609309074413
137,0.9997609309074413
138,0.9997609309074413
138,0.9997609309074413
138,0.9997609309074413
138,0.9997609309074413
138,0.9997609309074413
138,0.9997609309074413
138,0.9997609309074413
138,0.9997609309074413
138,0.9997609309074413
138,0.9997609309074413
138,0.9997609309074413
138,0.9997609309074413
139,0.9997609309074413
139,0.9997609309074413
139,0.9997609309074413
139,0.9997609309074413
139,0.9997609309074413
139,0.9997609309074413
139,0.9997609309074413
139,0.9997609309074413
139,0.9997609309074413
139,0.9997609309074413
139,0.9999876547924218
139,0.9999876547924218
140,0.9999876547924218
140,0.9999876547924218
140,0.9999876547924218
140,0.9999876547924218
140,0.9999876547924218
140,0.9999876547924218
140,0.9999876547924218
140,0.9999876547924218
140,0.9999876547924218
140,0.9999876547924218
140,0.9999876547924218
140,0.9999876547924218
141,0.9999876547924218
141,0.9999876547924218
141,0.9999876547924218
141,0.9999876547924218
141,0.9999876547924218
141,0.9999876547924218
141,0.9999876547924218
141,0.9999876547924218
141,0.9999876547924218
141,0.9999876547924218
141,0.9999876547924218
141,0.9999876547924218
142,0.9999876547924218
142,0.9999876547924218
142,0.9999876547924218
142,0.9999876547924218
142,0.9999876547924218
142,0.9999876547924218
142,0.9999876547924218
142,0.9999876547924218
142,0.9999876547924218
142,0.9999876547924218
142,0.9999876547924218
142,0.9999876547924218
143,0.9999876547924218
143,0.9999876547924218
143,0.9999876547924218
143,0.9999876547924218
143,0.9999876547924218
143,0.9999876547924218
143,0.9999876547924218
143,0.9999876547924218
143,0.9999876547924218
143,0.9999876547924218
143,0.9999876547924218
143,0.9999876547924218
143,0.999998028445478
144,0.999998028445478
144,0.999998028445478
144,0.999998028445478
144,0.999998028445478
144,0.999998028445478
144,0.999998028445478
144,0.999998028445478
144,0.999998028445478
144,0.999998028445478
144,0.999998028445478
144,0.999998028445478
144,0.999998028445478
145,0.999998028445478
145,0.999998028445478
145,0.999998028445478
145,0.999998028445478
145,0.999998028445478
145,0.999998028445478
145,0.999998028445478
145,0.999998028445478
145,0.999998028445478
145,0.999998028445478
145,0.999998028445478
145,0.999998028445478
146,0.999998028445478
146,0.999998028445478
146,0.999998028445478
146,0.999998028445478
146,0.999998028445478
146,0.999998028445478
146,0.999998028445478
146,0.999998028445478
146,0.999998028445478
146,0.999998028445478
146,0.999998028445478
146,0.999998028445478
146,0.999998028445478
147,0.999998028445478
147,0.999998028445478
147,0.999998028445478
147,0.999998028445478
147,0.999998028445478
147,0.999998028445478
147,0.999998028445478
147,0.999998028445478
147,0.999998028445478
147,0.999998028445478
147,0.999998028445478
147,0.999998028445478
148,0.999998028445478
148,0.999998028445478
148,0.999998028445478
148,0.999998028445478
148,0.999998028445478
148,0.999998028445478
148,0.999998028445478
148,0.999998028445478
148,0.999998028445478
148,0.999998028445478
148,0.999998028445478
148,0.999998028445478
149,0.999998028445478
149,0.999998028445478
149,0.999998028445478
149,0.999998028445478
149,0.999998028445478
149,0.999998028445478
149,0.999998028445478
149,0.999998028445478
149,0.999998028445478
149,0.999998028445478
149,0.999998028445478
149,0.999998028445478
149,0.999998028445478
150,0.999998028445478
150,0.999998028445478
150,0.999998028445478
150,0.999998028445478
150,0.999998028445478
150,0.999998028445478
150,0.999998028445478
150,0.999998028445478
150,0.999998028445478
150,0.999998028445478
150,0.999998028445478
150,0.999998028445478
151,0.999998028445478
151,0.999998028445478
151,0.999998028445478
151,0.999998028445478
151,0.999998028445478
151,0.999998028445478
151,0.999998028445478
151,0.999998028445478
151,0.999998028445478
151,0.999998028445478
151,0.999998028445478
151,0.999998028445478
152,0.999998028445478
152,0.9999990180298001
152,0.9999990180298001
152,0.9999990180298001
152,0.9999990180298001
152,0.9999990180298001
152,0.9999990180298001
152,0.9999990180298001
152,0.9999990180298001
152,0.9999990180298001
152,0.9999990180298001
152,0.9999990180298001
153,0.9999990180298001
153,0.9999990180298001
153,0.9999990180298001
153,0.9999990180298001
153,0.9999990180298001
153,0.9999990180298001
153,0.9999990180298001
153,0.9999990180298001
153,0.9999990180298001
153,0.9999990180298001
153,0.9999990180298001
153,0.9999990180298001
153,0.9999990180298001
154,0.9999990180298001
154,0.9999990180298001
154,0.9999990180298001
154,0.9999990180298001
154,0.9999990180298001
154,0.9999990180298001
154,0.9999990180298001
154,0.9999990180298001
154,0.9999990180298001
154,0.9999990180298001
154,0.9999990180298001
154,0.9999990180298001
155,0.9999990180298001
155,0.9999990180298001
155,0.9999990180298001
155,0.9999990180298001
155,0.9999990180298001
155,0.9999990180298001
155,0.9999990180298001
155,0.9999990180298001
155,0.9999990180298001
155,0.9999990180298001
155,0.9999990180298001
155,0.9999990180298001
156,0.9999990180298001
156,0.9999990180298001
156,0.9999990180298001
156,0.9999990180298001
156,0.9999990180298001
156,0.9999990180298001
156,0.9999990180298001
156,0.9999990180298001
156,0.9999990180298001
156,0.9999990180298001
156,0.9999990180298001
156,0.9999990180298001
156,0.9999990180298001
157,0.9999990180298001
157,0.9999990180298001
157,0.9999990180298001
157,0.9999990180298001
157,0.9999990180298001
157,0.9999990180298001
157,0.9999990180298001
157,0.9999990180298001
157,0.9999990180298001
157,0.9999990180298001
157,0.9999990180298001
157,0.9999990180298001
158,0.9999990180298001
158,0.9999990180298001
158,0.9999990180298001
158,0.9999990180298001
158,0.9999990180298001
158,0.9999990180298001
158,0.9999990180298001
158,0.9999990180298001
158,0.9999990180298001
158,0.9999990180298001
158,0.9999990180298001
158,0.9999990180298001
159,0.9999990180298001
159,0.9999990180298001
159,0.9999990180298001
159,0.9999990180298001
159,0.9999990180298001
159,0.9999990180298001
159,0.9999990180298001
159,0.9999990180298001
159,0.9999990180298001
159,0.9999990180298001
159,0.9999990180298001
159,0.9999990180298001
159,0.9999990180298001
160,0.9999990180298001
160,0.9999990180298001
160,0.9999990180298001
160,0.9999990180298001
160,0.9999990180298001
160,0.9999990180298001
160,0.9999990180298001
160,0.9999990180298001
160,0.9999990180298001
160,0.9999990180298001
160,0.9999990180298001
160,0.9999990180298001
161,0.9999990180298001
161,0.9999990180298001
161,0.9999990180298001
161,0.9999990180298001
161,0.9999990180298001
161,0.9999990180298001
161,0.9999990180298001
161,0.9999990180298001
161,0.9999990180298001
161,0.9999990180298001
161,0.9999990180298001
161,0.9999990180298001
162,0.9999990180298001
162,0.9999990180298001
162,0.9999990180298001
162,0.9999990180298001
162,0.9999990180298001
162,0.9999990180298001
162,0.9999990180298001
162,0.9999990180298001
162,0.9999990180298001
162,0.9999990180298001
162,0.9999990180298001
162,0.9999990180298001
162,0.9999990180298001
163,0.9999990180298001
163,0.9999990180298001
163,0.9999990180298001
163,0.9999990180298001
163,0.9999990180298001
163,0.9999990180298001
163,0.9999990180298001
163,0.9999990180298001
163,0.9999990180298001
163,0.9999990180298001
163,0.9999990180298001
163,0.9999990180298001
164,0.9999990180298001
164,0.9999990180298001
164,0.9999990180298001
164,0.9999990180298001
164,0.9999990180298001
164,0.9999990180298001
164,0.9999990180298001
164,0.9999990180298001
164,0.9999990180298001
164,0.9999990180298001
164,0.9999990180298001
164,0.9999990180298001
165,0.9999990180298001
165,0.9999990180298001
165,0.9999990180298001
165,0.9999990180298001
165,0.9999990180298001
165,0.9999990180298001
165,0.9999990180298001
165,0.9999990180298001
165,0.9999990180298001
165,0.9999990180298001
165,0.9999990180298001
165,0.9999990180298001
165,0.9999990180298001
166,0.9999990180298001
166,0.9999990180298001
166,0.9999990180298001
166,0.9999990180298001
166,0.9999990180298001
166,0.9999990180298001
166,0.9999990180298001
166,0.9999990180298001
166,0.9999990180298001
166,0.9999990180298001
166,0.9999990180298001
166,0.9999990180298001
167,0.9999990180298001
167,0.9999990180298001
167,0.9999990180298001
167,0.9999990180298001
167,0.9999990180298001
167,0.9999990180298001
167,0.9999990180298001
167,0.9999990180298001
167,0.9999990180298001
167,0.9999990180298001
167,0.9999990180298001
167,0.9999990180298001
168,0.9999990180298001
168,0.9999990180298001
168,0.9999990180298001
168,0.9999990180298001
168,0.9999990180298001
168,0.9999990180298001
168,0.9999990180298001
168,0.9999990180298001
168,0.9999990180298001
168,0.9999990180298001
168,0.9999990180298001
168,0.9999990180298001
168,0.9999990180298001
169,0.9999990180298001
169,0.9999990180298001
169,0.9999990180298001
169,0.9999990180298001
169,0.9999990180298001
169,0.9999990180298001
169,0.9999990180298001
169,0.9999990180298001
169,0.9999990180298001
169,0.9999990180298001
169,0.9999990180298001
169,0.9999990180298001
170,0.9999990180298001
170,0.9999990180298001
170,0.9999990180298001
170,0.9999990180298001
170,0.9999990180298001
170,0.9999990180298001
170,0.9999990180298001
170,0.9999990180298001
170,0.9999990180298001
170,0.9999990180298001
170,0.9999990180298001
170,0.9999990180298001
170,0.9999990180298001
171,0.9999990180298001
171,0.9999990180298001
171,0.9999990180298001
171,0.9999990180298001
171,0.9999990180298001
171,0.9999990180298001
171,0.9999990180298001
171,0.9999990180298001
171,0.9999990180298001
171,0.9999990180298001
171,0.9999990180298001
171,0.9999990180298001
172,0.9999990180298001
172,0.9999990180298001
172,0.9999990180298001
172,0.9999990180298001
172,0.9999990180298001
172,0.9999990180298001
172,0.9999990180298001
172,0.9999990180298001
172,0.9999990180298001
172,0.9999990180298001
172,0.9999990180298001
172,0.9999990180298001
173,0.9999990180298001
173,0.9999990180298001
173,0.9999990180298001
173,0.9999990180298001
173,0.9999990180298001
173,0.9999990180298001
173,0.9999990180298001
173,0.9999990180298001
173,0.9999990180298001
173,0.9999990180298001
173,0.9999990180298001
173,0.9999990180298001
174,0.9999990180298001
174,0.9999990180298001
174,0.9999990180298001
174,0.9999990180298001
174,0.9999990180298001
174,0.9999990180298001
174,0.9999990180298001
174,0.9999990180298001
174,0.9999990180298001
174,0.9999990180298001
174,0.9999990180298001
174,0.9999990180298001
174,0.9999990180298001
175,0.9999990180298001
175,0.9999990180298001
175,0.9999990180298001
175,0.9999990180298001
175,0.9999990180298001
175,0.9999990180298001
175,0.9999990180298001
175,0.9999990180298001
175,0.9999990180298001
175,0.9999990180298001
175,0.9999990180298001
175,0.9999990180298001
176,0.9999990180298001
176,0.9999990180298001
176,0.9999990180298001
176,0.9999990180298001
176,0.9999990180298001
176,0.9999990180298001
176,0.9999990180298001
176,0.9999990180298001
176,0.9999990180298001
176,0.9999990180298001
176,0.9999990180298001
176,0.9999990180298001
176,0.9999990180298001
177,0.9999990180298001
177,0.9999990180298001
177,0.9999990180298001
177,0.9999990180298001
177,0.9999990180298001
177,0.9999990180298001
177,0.9999990180298001
177,0.9999990180298001
177,0.9999990180298001
177,0.9999990180298001
177,0.9999990180298001
177,0.9999990180298001
178,0.9999990180298001
178,0.9999990180298001
178,0.9999990180298001
178,0.9999990180298001
178,0.9999990180298001
178,0.9999995525817874
178,0.9999995525817874
178,0.9999995525817874
178,0.9999995525817874
178,0.9999995525817874
178,0.9999995525817874
178,0.9999995525817874
179,0.9999995525817874
179,0.9999995525817874
179,0.9999995525817874
179,0.9999995525817874
179,0.9999995525817874
179,0.9999995525817874
179,0.9999995525817874
179,0.9999995525817874
179,0.9999995525817874
179,0.9999995525817874
179,0.9999995525817874
179,0.9999995525817874
179,0.9999995525817874
180,0.9999995525817874
180,0.9999995525817874
180,0.9999995525817874
180,0.9999995525817874
180,0.9999995525817874
180,0.9999995525817874
180,0.9999995525817874
180,0.9999995525817874
180,0.9999995525817874
180,0.9999995525817874
180,0.9999995525817874
180,0.9999995525817874
181,0.9999995525817874
181,0.9999995525817874
181,0.9999995525817874
181,0.9999995525817874
181,0.9999995525817874
181,0.9999995525817874
181,0.9999995525817874
181,0.9999995525817874
181,0.9999995525817874
181,0.9999995525817874
181,0.9999995525817874
181,0.9999995525817874
182,0.9999995525817874
182,0.9999995525817874
182,0.9999995525817874
182,0.9999995525817874
182,0.9999995525817874
182,0.9999995525817874
182,0.9999995525817874
182,0.9999995525817874
182,0.9999995525817874
182,0.9999995525817874
182,0.9999995525817874
182,0.9999995525817874
182,0.9999995525817874
183,0.9999995525817874
183,0.9999995525817874
183,0.9999995525817874
183,0.9999995525817874
183,0.9999995525817874
183,0.9999995525817874
183,0.9999995525817874
183,0.9999995525817874
183,0.9999995525817874
183,0.9999995525817874
183,0.9999995525817874
183,0.9999995525817874
183,0.9999995525817874
184,0.9999995525817874
184,0.9999995525817874
184,0.9999995525817874
184,0.9999995525817874
184,0.9999995525817874
184,0.9999995525817874
184,0.9999995525817874
184,0.9999995525817874
184,0.9999995525817874
184,0.9999995525817874
184,0.9999995525817874
184,0.9999995525817874
185,0.9999995525817874
185,0.9999995525817874
185,0.9999995525817874
185,0.9999995525817874
185,0.9999995525817874
185,0.9999995525817874
185,0.9999995525817874
185,0.9999995525817874
185,0.9999995525817874
185,0.9999995525817874
185,0.9999995525817874
185,0.9999995525817874
186,0.9999995525817874
186,0.9999995525817874
186,0.9999995525817874
186,0.9999995525817874
186,0.9999995525817874
186,0.9999995525817874
186,1.0
