1,0.6683776387983755
2,0.6683776387983755
3,0.6683776387983755
5,0.6683776387983755
6,0.6683776387983755
7,0.6683776387983755
8,0.6683776387983755
9,0.6683776387983755
10,0.7036301988625655
11,0.7036301988625655
12,0.7036301988625655
14,0.7036301988625655
15,0.708792163270224
16,0.708792163270224
17,0.708792163270224
18,0.708792163270224
19,0.708792163270224
20,0.708792163270224
22,0.708792163270224
23,0.708792163270224
24,0.708792163270224
25,0.708792163270224
26,0.708792163270224
27,0.708792163270224
28,0.708792163270224
29,0.708792163270224
30,0.708792163270224
31,0.708792163270224
32,0.708792163270224
34,0.708792163270224
35,0.708792163270224
36,0.708792163270224
37,0.708792163270224
38,0.708792163270224
39,0.708792163270224
40,0.708792163270224
41,0.708792163270224
43,0.708792163270224
44,0.708792163270224
45,0.708792163270224
46,0.708792163270224
47,0.708792163270224
48,0.708792163270224
49,0.708792163270224
51,0.708792163270224
52,0.708792163270224
53,0.708792163270224
54,0.708792163270224
55,0.708792163270224
56,0.708792163270224
58,0.708792163270224
59,0.708792163270224
60,0.708792163270224
61,0.708792163270224
62,0.708792163270224
63,0.708792163270224
64,0.708792163270224
65,0.708792163270224
66,0.708792163270224
68,0.708792163270224
69,0.708792163270224
70,0.708792163270224
71,0.708792163270224
72,0.708792163270224
73,0.708792163270224
74,0.708792163270224
75,0.708792163270224
76,0.708792163270224
77,0.708792163270224
79,0.708792163270224
80,0.708792163270224
81,0.708792163270224
82,0.708792163270224
83,0.708792163270224
84,0.708792163270224
85,0.708792163270224
86,0.708792163270224
87,0.708792163270224
88,0.708792163270224
89,0.708792163270224
90,0.708792163270224
91,0.708792163270224
92,0.708792163270224
94,0.708792163270224
95,0.708792163270224
96,0.708792163270224
97,0.708792163270224
98,0.708792163270224
99,0.708792163270224
100,0.708792163270224
101,0.708792163270224
102,0.708792163270224
103,0.708792163270224
104,0.708792163270224
105,0.708792163270224
106,0.708792163270224
107,0.708792163270224
108,0.708792163270224
110,0.708792163270224
111,0.708792163270224
112,0.708792163270224
113,0.708792163270224
114,0.708792163270224
115,0.708792163270224
116,0.708792163270224
117,0.708792163270224
118,0.708792163270224
119,0.708792163270224
120,0.708792163270224
121,0.708792163270224
122,0.708792163270224
123,0.708792163270224
124,0.708792163270224
126,0.708792163270224
127,0.708792163270224
128,0.708792163270224
129,0.708792163270224
130,0.708792163270224
131,0.708792163270224
132,0.708792163270224
133,0.708792163270224
134,0.708792163270224
135,0.708792163270224
136,0.708792163270224
137,0.708792163270224
139,0.708792163270224
140,0.708792163270224
141,0.708792163270224
142,0.708792163270224
143,0.708792163270224
144,0.708792163270224
145,0.708792163270224
146,0.708792163270224
147,0.708792163270224
148,0.708792163270224
149,0.708792163270224
150,0.708792163270224
152,0.708792163270224
153,0.708792163270224
154,0.708792163270224
155,0.708792163270224
156,0.708792163270224
157,0.708792163270224
158,0.708792163270224
159,0.708792163270224
160,0.708792163270224
161,0.708792163270224
162,0.708792163270224
163,0.708792163270224
165,0.708792163270224
166,0.708792163270224
167,0.708792163270224
168,0.708792163270224
169,0.708792163270224
170,0.708792163270224
171,0.708792163270224
172,0.708792163270224
173,0.708792163270224
174,0.708792163270224
175,0.708792163270224
176,0.708792163270224
178,0.708792163270224
179,0.708792163270224
180,0.708792163270224
