1,0.2963231531566034
1,0.2963231531566034
1,0.2963231531566034
1,0.2963231531566034
1,0.2963231531566034
1,0.2963231531566034
1,0.2963231531566034
1,0.2963231531566034
1,0.2963231531566034
1,0.2963231531566034
1,0.2963231531566034
1,0.2963231531566034
1,0.2963231531566034
1,0.2963231531566034
1,0.2963231531566034
1,0.2963231531566034
2,0.2963231531566034
2,0.2963231531566034
2,0.2963231531566034
2,0.2963231531566034
2,0.2963231531566034
2,0.2963231531566034
2,0.2963231531566034
2,0.2963231531566034
2,0.6197699200735199
2,0.6197699200735199
2,0.6197699200735199
2,0.6197699200735199
2,0.6197699200735199
2,0.6197699200735199
3,0.6197699200735199
3,0.6197699200735199
3,0.6197699200735199
3,0.6197699200735199
3,0.6197699200735199
3,0.6197699200735199
3,0.6197699200735199
3,0.6197699200735199
3,0.6197699200735199
3,0.6197699200735199
3,0.6197699200735199
3,0.6197699200735199
3,0.6197699200735199
4,0.6197699200735199
4,0.6197699200735199
4,0.6197699200735199
4,0.6197699200735199
4,0.6197699200735199
4,0.6197699200735199
4,0.7383546499332346
4,0.7383546499332346
4,0.7383546499332346
4,0.7383546499332346
4,0.7383546499332346
4,0.7383546499332346
5,0.7383546499332346
5,0.7383546499332346
5,0.7383546499332346
5,0.7383546499332346
5,0.7383546499332346
5,0.7383546499332346
5,0.7383546499332346
5,0.7383546499332346
5,0.7383546499332346
5,0.7383546499332346
5,0.7383546499332346
6,0.7383546499332346
6,0.7383546499332346
6,0.7383546499332346
6,0.7383546499332346
6,0.7383546499332346
6,0.7383546499332346
6,0.7383546499332346
6,0.7383546499332346
6,0.7733118404278261
6,0.7733118404278261
6,0.7733118404278261
7,0.7733118404278261
7,0.7733118404278261
7,0.7733118404278261
7,0.7733118404278261
7,0.7733118404278261
7,0.7733118404278261
7,0.7733118404278261
7,0.7733118404278261
7,0.7733118404278261
7,0.7733118404278261
7,0.7733118404278261
8,0.7733118404278261
8,0.7733118404278261
8,0.7733118404278261
8,0.7733118404278261
8,0.7733118404278261
8,0.7733118404278261
8,0.7733118404278261
8,0.7733118404278261
8,0.7733118404278261
8,0.7733118404278261
8,0.7733118404278261
8,0.7864966947045469
9,0.7864966947045469
9,0.7864966947045469
9,0.7864966947045469
9,0.7864966947045469
10,0.7864966947045469
10,0.7864966947045469
10,0.7864966947045469
10,0.7864966947045469
10,0.7864966947045469
10,0.7864966947045469
10,0.7864966947045469
10,0.7864966947045469
10,0.7864966947045469
10,0.7864966947045469
11,0.7864966947045469
11,0.7864966947045469
11,0.7864966947045469
11,0.7864966947045469
11,0.7864966947045469
11,0.7864966947045469
11,0.7864966947045469
11,0.7864966947045469
11,0.7864966947045469
11,0.7864966947045469
12,0.7977479633001172
12,0.7977479633001172
12,0.7977479633001172
12,0.7977479633001172
12,0.7977479633001172
12,0.7977479633001172
12,0.7977479633001172
12,0.7977479633001172
12,0.7977479633001172
12,0.7977479633001172
13,0.7977479633001172
13,0.7977479633001172
13,0.7977479633001172
13,0.7977479633001172
13,0.7977479633001172
13,0.7977479633001172
13,0.7977479633001172
13,0.7977479633001172
13,0.7977479633001172
13,0.7977479633001172
13,0.7977479633001172
14,0.7977479633001172
14,0.7977479633001172
14,0.7977479633001172
14,0.7977479633001172
14,0.8318819735546694
14,0.8318819735546694
14,0.8318819735546694
14,0.8318819735546694
14,0.8318819735546694
14,0.8318819735546694
15,0.8318819735546694
15,0.8318819735546694
15,0.8318819735546694
15,0.8318819735546694
15,0.8318819735546694
15,0.8318819735546694
15,0.8318819735546694
15,0.8318819735546694
15,0.8318819735546694
16,0.8318819735546694
16,0.8318819735546694
16,0.8318819735546694
16,0.8318819735546694
16,0.8318819735546694
16,0.8318819735546694
16,0.8318819735546694
16,0.8318819735546694
16,0.8318819735546694
16,0.8318819735546694
17,0.8533418824631182
17,0.8533418824631182
17,0.8533418824631182
17,0.8533418824631182
17,0.8533418824631182
17,0.8533418824631182
17,0.8533418824631182
17,0.8533418824631182
17,0.8533418824631182
18,0.8533418824631182
18,0.8533418824631182
18,0.8533418824631182
18,0.8533418824631182
18,0.8533418824631182
18,0.8533418824631182
18,0.8533418824631182
18,0.8533418824631182
18,0.8533418824631182
19,0.8533418824631182
19,0.8533418824631182
19,0.8533418824631182
20,0.8533418824631182
20,0.8533418824631182
20,0.8533418824631182
21,0.8533418824631182
21,0.8608791765069543
21,0.8608791765069543
21,0.8608791765069543
21,0.8608791765069543
22,0.8608791765069543
22,0.8608791765069543
22,0.8608791765069543
23,0.8608791765069543
23,0.8608791765069543
23,0.8608791765069543
23,0.8608791765069543
23,0.8608791765069543
23,0.8608791765069543
23,0.8608791765069543
24,0.8608791765069543
24,0.8608791765069543
24,0.8608791765069543
24,0.8608791765069543
24,0.8608791765069543
24,0.8608791765069543
24,0.8608791765069543
24,0.8608791765069543
24,0.8608791765069543
24,0.8608791765069543
24,0.8608791765069543
25,0.8648605402600046
25,0.8648605402600046
25,0.8648605402600046
25,0.8648605402600046
25,0.8648605402600046
25,0.8648605402600046
25,0.8648605402600046
25,0.8648605402600046
25,0.8648605402600046
25,0.8648605402600046
25,0.8648605402600046
26,0.8648605402600046
26,0.8648605402600046
26,0.8648605402600046
26,0.8648605402600046
26,0.8648605402600046
26,0.8648605402600046
26,0.8648605402600046
26,0.8648605402600046
26,0.8648605402600046
27,0.8648605402600046
27,0.8648605402600046
27,0.8648605402600046
27,0.8648605402600046
27,0.8648605402600046
27,0.9034047809253609
27,0.9034047809253609
27,0.9034047809253609
27,0.9034047809253609
28,0.9034047809253609
28,0.9034047809253609
28,0.9034047809253609
28,0.9034047809253609
28,0.9034047809253609
28,0.9034047809253609
28,0.9034047809253609
28,0.9034047809253609
29,0.9034047809253609
29,0.9034047809253609
29,0.9034047809253609
29,0.9034047809253609
29,0.9034047809253609
29,0.9034047809253609
29,0.9034047809253609
29,0.9034047809253609
29,0.9034047809253609
29,0.9034047809253609
30,0.9034047809253609
30,0.9034047809253609
30,0.9034047809253609
30,0.916981732739099
30,0.916981732739099
30,0.916981732739099
30,0.916981732739099
30,0.916981732739099
30,0.916981732739099
30,0.916981732739099
31,0.916981732739099
31,0.916981732739099
31,0.916981732739099
31,0.916981732739099
31,0.916981732739099
31,0.916981732739099
31,0.916981732739099
31,0.916981732739099
31,0.916981732739099
31,0.916981732739099
32,0.916981732739099
32,0.916981732739099
32,0.916981732739099
32,0.916981732739099
32,0.916981732739099
32,0.916981732739099
32,0.916981732739099
32,0.916981732739099
32,0.927322782376076
32,0.927322782376076
32,0.927322782376076
33,0.927322782376076
33,0.927322782376076
33,0.927322782376076
33,0.927322782376076
33,0.927322782376076
33,0.927322782376076
33,0.927322782376076
33,0.927322782376076
33,0.927322782376076
33,0.927322782376076
33,0.927322782376076
34,0.927322782376076
34,0.927322782376076
34,0.927322782376076
34,0.927322782376076
34,0.927322782376076
34,0.927322782376076
34,0.927322782376076
34,0.927322782376076
34,0.927322782376076
34,0.927322782376076
34,0.927322782376076
35,0.9312002804902044
35,0.9312002804902044
35,0.9312002804902044
35,0.9312002804902044
35,0.9312002804902044
35,0.9312002804902044
35,0.9312002804902044
35,0.9312002804902044
35,0.9312002804902044
35,0.9312002804902044
35,0.9312002804902044
36,0.9312002804902044
36,0.9312002804902044
36,0.9312002804902044
36,0.9312002804902044
36,0.9312002804902044
36,0.9312002804902044
36,0.9312002804902044
36,0.9312002804902044
36,0.9312002804902044
36,0.9312002804902044
36,0.9312002804902044
37,0.9312002804902044
37,0.9312002804902044
37,0.9312002804902044
37,0.9397137436788845
37,0.9397137436788845
37,0.9397137436788845
37,0.9397137436788845
37,0.9397137436788845
37,0.9397137436788845
37,0.9397137436788845
37,0.9397137436788845
37,0.9397137436788845
38,0.9397137436788845
38,0.9397137436788845
38,0.9397137436788845
38,0.9397137436788845
38,0.9397137436788845
38,0.9397137436788845
38,0.9397137436788845
38,0.9397137436788845
38,0.9397137436788845
38,0.9397137436788845
38,0.9397137436788845
38,0.9397137436788845
39,0.9397137436788845
39,0.9397137436788845
39,0.9397137436788845
39,0.9397137436788845
39,0.9398255946594326
39,0.9398255946594326
39,0.9398255946594326
39,0.9398255946594326
39,0.9398255946594326
39,0.9398255946594326
39,0.9398255946594326
40,0.9398255946594326
40,0.9398255946594326
40,0.9398255946594326
40,0.9398255946594326
40,0.9398255946594326
40,0.9398255946594326
40,0.9398255946594326
40,0.9398255946594326
40,0.9398255946594326
40,0.9398255946594326
40,0.9398255946594326
41,0.9398255946594326
41,0.9398255946594326
41,0.9398255946594326
41,0.9398255946594326
41,0.9398255946594326
41,0.9398255946594326
41,0.9398255946594326
41,0.9401365622668716
41,0.9401365622668716
41,0.9401365622668716
41,0.9401365622668716
42,0.9401365622668716
42,0.9401365622668716
42,0.9401365622668716
42,0.9401365622668716
42,0.9401365622668716
42,0.9401365622668716
42,0.9401365622668716
42,0.9401365622668716
42,0.9401365622668716
42,0.9401365622668716
42,0.9401365622668716
43,0.9401365622668716
43,0.9401365622668716
43,0.9401365622668716
43,0.9401365622668716
43,0.9401365622668716
43,0.9401365622668716
43,0.9401365622668716
43,0.9401365622668716
43,0.9401365622668716
43,0.9401365622668716
43,0.9453447094192073
43,0.9453447094192073
44,0.9453447094192073
44,0.9453447094192073
44,0.9453447094192073
44,0.9453447094192073
44,0.9453447094192073
44,0.9453447094192073
44,0.9453447094192073
44,0.9453447094192073
44,0.9453447094192073
44,0.9453447094192073
44,0.9453447094192073
45,0.9453447094192073
45,0.9453447094192073
45,0.9453447094192073
45,0.9453447094192073
45,0.9453447094192073
45,0.9453447094192073
45,0.9453447094192073
45,0.9453447094192073
45,0.9453447094192073
45,0.9453447094192073
45,0.9453447094192073
46,0.9453447094192073
46,0.9464602432764891
46,0.9464602432764891
46,0.9464602432764891
46,0.9464602432764891
46,0.9464602432764891
46,0.9464602432764891
46,0.9464602432764891
46,0.9464602432764891
46,0.9464602432764891
46,0.9464602432764891
47,0.9464602432764891
47,0.9464602432764891
47,0.9464602432764891
47,0.9464602432764891
47,0.9464602432764891
47,0.9464602432764891
47,0.9464602432764891
47,0.9464602432764891
47,0.9464602432764891
47,0.9464602432764891
47,0.9464602432764891
47,0.9464602432764891
48,0.9464602432764891
48,0.9464602432764891
48,0.9464602432764891
48,0.9464626414647559
48,0.9464626414647559
48,0.9464626414647559
48,0.9464626414647559
48,0.9464626414647559
48,0.9464626414647559
48,0.9464626414647559
48,0.9464626414647559
48,0.9464626414647559
49,0.9464626414647559
49,0.9464626414647559
49,0.9464626414647559
49,0.9464626414647559
49,0.9464626414647559
49,0.9464626414647559
49,0.9464626414647559
49,0.9464626414647559
49,0.9464626414647559
49,0.9464626414647559
49,0.9464626414647559
49,0.9464626414647559
50,0.9464626414647559
50,0.9464626414647559
50,0.9464626414647559
50,0.9464626414647559
50,0.9577370948178725
