0,0.28813940283788414
0,0.28813940283788414
0,0.28813940283788414
0,0.28813940283788414
0,0.28813940283788414
0,0.28813940283788414
0,0.28813940283788414
0,0.28813940283788414
0,0.28813940283788414
0,0.28813940283788414
0,0.28813940283788414
0,0.28813940283788414
0,0.28813940283788414
0,0.28813940283788414
0,0.28813940283788414
0,0.28813940283788414
0,0.28813940283788414
0,0.28813940283788414
0,0.28813940283788414
0,0.28813940283788414
0,0.28813940283788414
0,0.28813940283788414
0,0.28813940283788414
0,0.28813940283788414
0,0.6362572729348482
0,0.6362572729348482
0,0.6362572729348482
0,0.6362572729348482
0,0.6362572729348482
0,0.6362572729348482
0,0.6362572729348482
0,0.6362572729348482
0,0.6362572729348482
0,0.6362572729348482
0,0.6362572729348482
0,0.6362572729348482
0,0.6362572729348482
0,0.6362572729348482
0,0.6362572729348482
0,0.6362572729348482
0,0.6362572729348482
0,0.6362572729348482
0,0.6362572729348482
0,0.6362572729348482
1,0.6362572729348482
1,0.6362572729348482
1,0.6362572729348482
1,0.6362572729348482
1,0.6362572729348482
1,0.6610142927229227
1,0.6610142927229227
1,0.6610142927229227
1,0.6610142927229227
1,0.6610142927229227
1,0.6610142927229227
1,0.6610142927229227
1,0.6610142927229227
1,0.6610142927229227
1,0.6610142927229227
1,0.6610142927229227
1,0.6610142927229227
1,0.6610142927229227
1,0.6610142927229227
1,0.6610142927229227
1,0.6610142927229227
1,0.6610142927229227
1,0.6610142927229227
1,0.6610142927229227
1,0.6610142927229227
1,0.6610142927229227
1,0.6610142927229227
1,0.6610142927229227
1,0.6610142927229227
1,0.6610142927229227
1,0.6964362001305998
1,0.6964362001305998
1,0.6964362001305998
1,0.6964362001305998
1,0.6964362001305998
1,0.6964362001305998
1,0.6964362001305998
1,0.6964362001305998
1,0.6964362001305998
1,0.6964362001305998
1,0.6964362001305998
1,0.6964362001305998
1,0.6964362001305998
1,0.6964362001305998
2,0.6964362001305998
2,0.6964362001305998
2,0.6964362001305998
2,0.6964362001305998
2,0.6964362001305998
2,0.6964362001305998
2,0.6964362001305998
2,0.6964362001305998
2,0.6964362001305998
2,0.6964362001305998
2,0.6964362001305998
2,0.6982694800578475
2,0.6982694800578475
2,0.6982694800578475
2,0.6982694800578475
2,0.6982694800578475
2,0.6982694800578475
2,0.6982694800578475
2,0.6982694800578475
2,0.6982694800578475
2,0.6982694800578475
2,0.6982694800578475
2,0.6982694800578475
2,0.6982694800578475
2,0.6982694800578475
2,0.6982694800578475
2,0.6982694800578475
2,0.6982694800578475
2,0.6982694800578475
2,0.6982694800578475
2,0.6982694800578475
2,0.6982694800578475
2,0.6982694800578475
2,0.6982694800578475
2,0.6982694800578475
2,0.6982694800578475
2,0.6988331014953971
2,0.6988331014953971
2,0.6988331014953971
2,0.6988331014953971
2,0.6988331014953971
2,0.6988331014953971
2,0.6988331014953971
2,0.6988331014953971
2,0.6988331014953971
3,0.6988331014953971
3,0.6988331014953971
3,0.6988331014953971
3,0.6988331014953971
3,0.6988331014953971
3,0.6988331014953971
3,0.6988331014953971
3,0.6988331014953971
3,0.6988331014953971
3,0.6988331014953971
3,0.6988331014953971
3,0.6988331014953971
3,0.6988331014953971
3,0.6988331014953971
3,0.6988331014953971
3,0.6988331014953971
3,0.6988331014953971
3,0.6988331014953971
3,0.6988331014953971
3,0.6988331014953971
3,0.6988331014953971
3,0.6988331014953971
3,0.6988331014953971
3,0.6988331014953971
3,0.6988331014953971
3,0.6988331014953971
3,0.6988331014953971
3,0.6988331014953971
3,0.6988331014953971
3,0.6988331014953971
3,0.6988331014953971
3,0.6988331014953971
3,0.6988331014953971
3,0.6988331014953971
3,0.6988331014953971
3,0.6988331014953971
3,0.6988331014953971
3,0.6988331014953971
3,0.6988331014953971
3,0.6988331014953971
3,0.6988331014953971
3,0.7034468844062733
3,0.7034468844062733
3,0.7034468844062733
3,0.7034468844062733
4,0.7034468844062733
4,0.7034468844062733
4,0.7034468844062733
4,0.7034468844062733
4,0.7034468844062733
4,0.7034468844062733
4,0.7034468844062733
4,0.7034468844062733
4,0.7034468844062733
4,0.7034468844062733
4,0.7034468844062733
4,0.7034468844062733
4,0.7034468844062733
4,0.7034468844062733
4,0.7034468844062733
4,0.7034468844062733
4,0.7034468844062733
4,0.7034468844062733
4,0.7034468844062733
4,0.7034468844062733
4,0.7034468844062733
4,0.7034468844062733
4,0.7034468844062733
4,0.7034468844062733
4,0.7034468844062733
4,0.7034468844062733
4,0.7034468844062733
4,0.7034468844062733
4,0.7034468844062733
4,0.7034468844062733
4,0.7034468844062733
4,0.7034468844062733
4,0.7034468844062733
4,0.7034468844062733
4,0.7034468844062733
4,0.7034468844062733
4,0.7034468844062733
4,0.7034468844062733
4,0.7034468844062733
4,0.7034468844062733
4,0.7034468844062733
4,0.7034468844062733
4,0.7034468844062733
4,0.7034468844062733
4,0.7034468844062733
4,0.7034468844062733
5,0.7123791115862202
5,0.7123791115862202
5,0.7123791115862202
5,0.7123791115862202
5,0.7123791115862202
5,0.7123791115862202
5,0.7123791115862202
5,0.7123791115862202
5,0.7123791115862202
5,0.7123791115862202
5,0.7123791115862202
5,0.7123791115862202
5,0.7123791115862202
5,0.7123791115862202
5,0.7123791115862202
5,0.7123791115862202
5,0.7123791115862202
5,0.7123791115862202
5,0.7123791115862202
5,0.7123791115862202
5,0.7123791115862202
5,0.7123791115862202
5,0.7123791115862202
5,0.7123791115862202
5,0.7123791115862202
5,0.7123791115862202
5,0.7123791115862202
5,0.7123791115862202
5,0.7123791115862202
5,0.7123791115862202
5,0.7123791115862202
5,0.7123791115862202
5,0.7123791115862202
5,0.7123791115862202
5,0.7123791115862202
5,0.7123791115862202
5,0.7123791115862202
5,0.7123791115862202
5,0.7123791115862202
5,0.7123791115862202
5,0.7123791115862202
5,0.7123791115862202
5,0.7123791115862202
5,0.7123791115862202
6,0.7123791115862202
6,0.7123791115862202
6,0.7123791115862202
6,0.7123791115862202
6,0.7123791115862202
6,0.7123791115862202
6,0.7235050774496377
6,0.7235050774496377
6,0.7235050774496377
6,0.7235050774496377
6,0.7235050774496377
6,0.7235050774496377
6,0.7235050774496377
6,0.7235050774496377
6,0.7235050774496377
6,0.7235050774496377
6,0.7235050774496377
6,0.7235050774496377
6,0.7235050774496377
6,0.7235050774496377
6,0.7235050774496377
6,0.7235050774496377
6,0.7235050774496377
6,0.7235050774496377
6,0.7235050774496377
6,0.7235050774496377
6,0.7235050774496377
6,0.7235050774496377
6,0.7235050774496377
6,0.7235050774496377
6,0.7235050774496377
6,0.7246750795859824
6,0.7246750795859824
6,0.7246750795859824
6,0.7246750795859824
6,0.7246750795859824
6,0.7246750795859824
6,0.7246750795859824
6,0.7246750795859824
6,0.7246750795859824
6,0.7246750795859824
6,0.7246750795859824
6,0.7246750795859824
6,0.7246750795859824
7,0.7246750795859824
7,0.7246750795859824
7,0.7246750795859824
7,0.7246750795859824
7,0.7246750795859824
7,0.7246750795859824
7,0.7246750795859824
7,0.7246750795859824
7,0.7246750795859824
7,0.7246750795859824
7,0.7246750795859824
7,0.7246750795859824
7,0.7410624809077975
7,0.7410624809077975
7,0.7410624809077975
7,0.7410624809077975
7,0.7410624809077975
7,0.7410624809077975
7,0.7410624809077975
7,0.7410624809077975
7,0.7410624809077975
7,0.7410624809077975
7,0.7410624809077975
7,0.7410624809077975
7,0.7410624809077975
7,0.7410624809077975
7,0.7410624809077975
7,0.7410624809077975
7,0.7410624809077975
7,0.7410624809077975
7,0.7410624809077975
7,0.7410624809077975
7,0.7410624809077975
7,0.7410624809077975
7,0.7410624809077975
7,0.7410624809077975
7,0.7410624809077975
7,0.7422598162662699
7,0.7422598162662699
7,0.7422598162662699
7,0.7422598162662699
7,0.7422598162662699
7,0.7422598162662699
8,0.7422598162662699
8,0.7422598162662699
8,0.7422598162662699
8,0.7422598162662699
8,0.7422598162662699
8,0.7422598162662699
8,0.7422598162662699
8,0.7422598162662699
8,0.7422598162662699
8,0.7422598162662699
8,0.7422598162662699
8,0.7422598162662699
8,0.7422598162662699
8,0.7422598162662699
8,0.7422598162662699
8,0.7422598162662699
8,0.7422598162662699
8,0.7422598162662699
8,0.7422598162662699
8,0.7505813173030609
8,0.7505813173030609
8,0.7505813173030609
8,0.7505813173030609
8,0.7505813173030609
8,0.7505813173030609
8,0.7505813173030609
8,0.7505813173030609
8,0.7505813173030609
8,0.7505813173030609
8,0.7505813173030609
8,0.7505813173030609
8,0.7505813173030609
8,0.7505813173030609
8,0.7505813173030609
8,0.7505813173030609
8,0.7505813173030609
8,0.7505813173030609
8,0.7505813173030609
8,0.7505813173030609
8,0.7505813173030609
8,0.7505813173030609
8,0.7505813173030609
8,0.7505813173030609
8,0.7505813173030609
8,0.7505813173030609
8,0.7505813173030609
8,0.7505813173030609
9,0.7505813173030609
9,0.7505813173030609
9,0.7505813173030609
9,0.7505813173030609
9,0.7505813173030609
9,0.7505813173030609
9,0.7505813173030609
9,0.7505813173030609
9,0.7505813173030609
9,0.7505813173030609
9,0.7505813173030609
9,0.7505813173030609
9,0.7505813173030609
9,0.7505813173030609
9,0.7505813173030609
9,0.7505813173030609
9,0.7505813173030609
9,0.7505813173030609
9,0.7505813173030609
9,0.7505813173030609
9,0.7505813173030609
9,0.7505813173030609
9,0.7505813173030609
9,0.7505813173030609
9,0.7505813173030609
9,0.7505813173030609
9,0.7505813173030609
9,0.7505813173030609
9,0.7505813173030609
9,0.7505813173030609
9,0.7505813173030609
9,0.7505813173030609
9,0.7505813173030609
9,0.7505813173030609
9,0.7505813173030609
9,0.7505813173030609
9,0.7505813173030609
9,0.7505813173030609
9,0.7505813173030609
9,0.7505813173030609
9,0.7505813173030609
9,0.7505813173030609
9,0.7505813173030609
9,0.7505813173030609
9,0.7505813173030609
9,0.7505813173030609
9,0.7505813173030609
9,0.7505813173030609
10,0.7505813173030609
10,0.7505813173030609
10,0.7505813173030609
10,0.7505813173030609
10,0.7505813173030609
10,0.7505813173030609
10,0.7505813173030609
10,0.7505813173030609
10,0.7505813173030609
10,0.7505813173030609
10,0.7505813173030609
10,0.7505813173030609
10,0.7505813173030609
10,0.7505813173030609
10,0.7505813173030609
10,0.7505813173030609
10,0.7505813173030609
10,0.7505813173030609
10,0.7505813173030609
10,0.7505813173030609
10,0.7505813173030609
10,0.7505813173030609
10,0.7505813173030609
10,0.7505813173030609
10,0.7505813173030609
10,0.7505813173030609
10,0.7505813173030609
10,0.7505813173030609
10,0.7505813173030609
10,0.7505813173030609
10,0.7505813173030609
10,0.7505813173030609
10,0.7505813173030609
10,0.7505813173030609
10,0.7505813173030609
10,0.7505813173030609
10,0.7505813173030609
10,0.7505813173030609
10,0.7505813173030609
10,0.7505813173030609
10,0.7505813173030609
10,0.7505813173030609
10,0.7505813173030609
10,0.7505813173030609
10,0.7505813173030609
10,0.7505813173030609
10,0.7505813173030609
11,0.7505813173030609
11,0.7505813173030609
11,0.7505813173030609
11,0.7505813173030609
11,0.7505813173030609
11,0.7505813173030609
11,0.7505813173030609
11,0.7505813173030609
11,0.7505813173030609
11,0.7505813173030609
11,0.7505813173030609
11,0.7505813173030609
11,0.7505813173030609
11,0.7505813173030609
11,0.7505813173030609
11,0.7505813173030609
11,0.7505813173030609
11,0.7505813173030609
11,0.7505813173030609
11,0.7505813173030609
11,0.7505813173030609
11,0.7505813173030609
11,0.7505813173030609
11,0.7505813173030609
11,0.7505813173030609
11,0.7505813173030609
11,0.7505813173030609
11,0.7505813173030609
11,0.7505813173030609
11,0.7505813173030609
11,0.7505813173030609
11,0.7505813173030609
11,0.7505813173030609
11,0.7505813173030609
11,0.7505813173030609
11,0.7505813173030609
11,0.7505813173030609
11,0.7505813173030609
11,0.7505813173030609
11,0.7505813173030609
11,0.7505813173030609
11,0.7505813173030609
11,0.7505813173030609
11,0.7505813173030609
11,0.7505813173030609
11,0.7505813173030609
11,0.7505813173030609
11,0.7505813173030609
12,0.7505813173030609
12,0.7505813173030609
12,0.7505813173030609
12,0.7505813173030609
12,0.7539181194616617
12,0.7539181194616617
12,0.7539181194616617
12,0.7539181194616617
12,0.7539181194616617
12,0.7539181194616617
12,0.7539181194616617
12,0.7539181194616617
12,0.7539181194616617
12,0.7539181194616617
12,0.7539181194616617
12,0.7539181194616617
12,0.7539181194616617
12,0.7539181194616617
12,0.7539181194616617
12,0.7539181194616617
12,0.7539181194616617
12,0.7539181194616617
12,0.7539181194616617
12,0.7539181194616617
12,0.7539181194616617
12,0.7539181194616617
12,0.7539181194616617
12,0.7539181194616617
12,0.7539181194616617
12,0.7539181194616617
12,0.7539181194616617
12,0.7539181194616617
12,0.7539181194616617
12,0.7539181194616617
12,0.7539181194616617
12,0.7539181194616617
12,0.7539181194616617
12,0.7539181194616617
12,0.7539181194616617
12,0.7539181194616617
12,0.7539181194616617
12,0.7539181194616617
12,0.7539181194616617
12,0.7539181194616617
12,0.7539181194616617
12,0.7539181194616617
12,0.7539181194616617
13,0.7539181194616617
13,0.7539181194616617
13,0.7539181194616617
13,0.7539181194616617
13,0.7539181194616617
13,0.7539181194616617
13,0.7539181194616617
13,0.7546363019156759
13,0.7546363019156759
13,0.7546363019156759
13,0.7546363019156759
13,0.7546363019156759
13,0.7546363019156759
13,0.7546363019156759
13,0.7546363019156759
13,0.7546363019156759
13,0.7546363019156759
13,0.7546363019156759
13,0.7546363019156759
13,0.7546363019156759
13,0.7546363019156759
13,0.7546363019156759
13,0.7546363019156759
13,0.7546363019156759
13,0.7546363019156759
13,0.7546363019156759
13,0.7546363019156759
13,0.7546363019156759
13,0.7546363019156759
13,0.7546363019156759
13,0.7546363019156759
13,0.7546363019156759
13,0.7546363019156759
13,0.7546363019156759
13,0.7546363019156759
13,0.7546363019156759
13,0.7546363019156759
13,0.7546363019156759
13,0.7546363019156759
13,0.7546363019156759
13,0.7546363019156759
13,0.7546363019156759
13,0.7546363019156759
13,0.7546363019156759
13,0.7546363019156759
13,0.7546363019156759
13,0.7546363019156759
13,0.7546363019156759
14,0.7546363019156759
14,0.7546363019156759
14,0.7546363019156759
14,0.7546363019156759
14,0.7546363019156759
14,0.7546363019156759
14,0.7546363019156759
14,0.7546363019156759
14,0.7546363019156759
14,0.7546363019156759
14,0.7546363019156759
14,0.7546363019156759
14,0.7546363019156759
14,0.7546363019156759
14,0.7546363019156759
14,0.7546363019156759
14,0.7546363019156759
14,0.7546363019156759
14,0.7546363019156759
14,0.7546363019156759
14,0.7546363019156759
14,0.7546363019156759
14,0.7546363019156759
14,0.7546363019156759
14,0.7546363019156759
14,0.7546363019156759
14,0.7546363019156759
14,0.7546363019156759
14,0.7546363019156759
14,0.7546363019156759
14,0.7546363019156759
14,0.7546363019156759
14,0.7546363019156759
14,0.7546363019156759
14,0.7546363019156759
14,0.7546363019156759
14,0.7546363019156759
15,0.7546363019156759
15,0.7546363019156759
15,0.7546363019156759
15,0.7546363019156759
15,0.7546363019156759
15,0.7546363019156759
15,0.7546363019156759
15,0.7546363019156759
15,0.7546363019156759
15,0.7546363019156759
15,0.7546363019156759
15,0.7546363019156759
15,0.7546363019156759
15,0.7546363019156759
15,0.7546363019156759
15,0.7546363019156759
15,0.7546363019156759
15,0.7546363019156759
15,0.7546363019156759
15,0.7546363019156759
15,0.7546363019156759
15,0.7546363019156759
15,0.7546363019156759
15,0.7546363019156759
15,0.7546363019156759
15,0.7546363019156759
15,0.7546363019156759
15,0.7546363019156759
15,0.7546363019156759
16,0.7546363019156759
16,0.7546363019156759
16,0.7546363019156759
16,0.7546363019156759
16,0.7546363019156759
16,0.7546363019156759
16,0.7546363019156759
16,0.7546363019156759
16,0.7546363019156759
16,0.7546363019156759
16,0.7546363019156759
16,0.7546363019156759
16,0.7546363019156759
16,0.7546363019156759
16,0.7546363019156759
16,0.7546363019156759
16,0.7546363019156759
16,0.7546363019156759
16,0.7546363019156759
16,0.7546363019156759
16,0.7546363019156759
16,0.7546363019156759
16,0.7546363019156759
16,0.7546363019156759
16,0.7546363019156759
16,0.7546363019156759
16,0.7546363019156759
16,0.7546363019156759
16,0.7546363019156759
16,0.7546363019156759
16,0.7546363019156759
16,0.7546363019156759
16,0.7546363019156759
16,0.7546363019156759
16,0.7546363019156759
16,0.7546363019156759
16,0.7546363019156759
16,0.7546363019156759
16,0.7546363019156759
16,0.7546363019156759
16,0.7546363019156759
16,0.7546363019156759
16,0.7546363019156759
16,0.7574002795898633
16,0.7574002795898633
16,0.7574002795898633
16,0.7574002795898633
16,0.7574002795898633
17,0.7574002795898633
17,0.7574002795898633
17,0.7574002795898633
17,0.7574002795898633
17,0.7574002795898633
17,0.7574002795898633
17,0.7574002795898633
17,0.7574002795898633
17,0.7574002795898633
17,0.7574002795898633
17,0.7574002795898633
17,0.7574002795898633
17,0.7574002795898633
17,0.7574002795898633
17,0.7574002795898633
17,0.7574002795898633
17,0.7574002795898633
17,0.7574002795898633
17,0.7574002795898633
17,0.7574002795898633
17,0.7574002795898633
17,0.7574002795898633
17,0.7574002795898633
17,0.7574002795898633
17,0.7574002795898633
17,0.7574002795898633
17,0.7574002795898633
17,0.7574002795898633
17,0.7574002795898633
17,0.7574002795898633
17,0.7574002795898633
17,0.7574002795898633
17,0.7574002795898633
17,0.7574002795898633
17,0.7574002795898633
17,0.7574002795898633
17,0.7574002795898633
17,0.7574002795898633
17,0.7574002795898633
17,0.7574002795898633
17,0.7574002795898633
17,0.7574002795898633
17,0.7574002795898633
17,0.7574002795898633
17,0.7574002795898633
17,0.7574002795898633
18,0.7574002795898633
18,0.7574002795898633
18,0.7574002795898633
18,0.7574002795898633
18,0.7574002795898633
18,0.7574002795898633
18,0.7574002795898633
18,0.7574002795898633
18,0.7574002795898633
18,0.7574002795898633
18,0.7574002795898633
18,0.7574002795898633
18,0.7574002795898633
18,0.7574002795898633
18,0.7574002795898633
18,0.7574002795898633
18,0.7574002795898633
18,0.7574002795898633
18,0.7574002795898633
18,0.7574002795898633
18,0.7574002795898633
18,0.7574002795898633
18,0.7574002795898633
18,0.7574002795898633
18,0.7574002795898633
18,0.7574002795898633
18,0.7574002795898633
18,0.7574002795898633
18,0.7574002795898633
18,0.7574002795898633
18,0.7574002795898633
18,0.7574002795898633
18,0.7574002795898633
18,0.7574002795898633
18,0.7574002795898633
18,0.7574002795898633
18,0.7574002795898633
18,0.7574002795898633
18,0.7574002795898633
18,0.7574002795898633
18,0.7574002795898633
18,0.7574002795898633
18,0.7574002795898633
18,0.7574002795898633
18,0.7574002795898633
18,0.7574002795898633
18,0.7574002795898633
18,0.7574002795898633
18,0.7574002795898633
18,0.7574002795898633
19,0.7574002795898633
19,0.7574002795898633
19,0.7574002795898633
19,0.7574002795898633
19,0.7574002795898633
19,0.7574002795898633
19,0.7574002795898633
19,0.7574002795898633
19,0.7574002795898633
19,0.7574002795898633
19,0.7574002795898633
19,0.7574002795898633
19,0.7574002795898633
19,0.7574002795898633
19,0.7574002795898633
19,0.7574002795898633
19,0.7574002795898633
19,0.7574002795898633
19,0.7574002795898633
19,0.7574002795898633
19,0.7574002795898633
19,0.7574002795898633
19,0.7574002795898633
19,0.7574002795898633
19,0.7574574383292753
19,0.7574574383292753
19,0.7574574383292753
19,0.7574574383292753
19,0.7574574383292753
19,0.7574574383292753
19,0.7574574383292753
19,0.7574574383292753
19,0.7574574383292753
19,0.7574574383292753
19,0.7574574383292753
19,0.7574574383292753
19,0.7574574383292753
19,0.7574574383292753
19,0.7574574383292753
19,0.7574574383292753
19,0.7574574383292753
19,0.7574574383292753
19,0.7574574383292753
19,0.7574574383292753
19,0.7574574383292753
19,0.7574574383292753
19,0.7574574383292753
20,0.7574574383292753
20,0.7574574383292753
20,0.7574574383292753
20,0.7574574383292753
20,0.7574574383292753
20,0.7574574383292753
20,0.7574574383292753
20,0.7574574383292753
20,0.7574574383292753
20,0.7574574383292753
20,0.7574574383292753
20,0.7574574383292753
20,0.7574574383292753
20,0.7574574383292753
20,0.7574574383292753
20,0.7574574383292753
20,0.7574574383292753
20,0.7574574383292753
20,0.7574574383292753
20,0.7574574383292753
20,0.7574574383292753
20,0.7574574383292753
20,0.7574574383292753
20,0.7574574383292753
20,0.7574574383292753
20,0.7574574383292753
20,0.7574574383292753
20,0.7574574383292753
20,0.7574574383292753
20,0.7574574383292753
20,0.7574574383292753
20,0.7574574383292753
20,0.7574574383292753
20,0.7574574383292753
20,0.7574574383292753
20,0.7574574383292753
20,0.7574574383292753
20,0.7574574383292753
20,0.7574574383292753
20,0.7574574383292753
20,0.7574574383292753
20,0.7574574383292753
20,0.7574574383292753
20,0.7574574383292753
20,0.7574574383292753
20,0.7574574383292753
20,0.7574574383292753
20,0.7574574383292753
20,0.7574574383292753
20,0.7574574383292753
20,0.7574574383292753
21,0.7574574383292753
21,0.7574574383292753
21,0.7574574383292753
21,0.7574574383292753
21,0.7574574383292753
21,0.7574574383292753
21,0.7574574383292753
21,0.7574574383292753
21,0.7574574383292753
21,0.7574574383292753
21,0.7574574383292753
21,0.7574574383292753
21,0.7574574383292753
21,0.7574574383292753
21,0.7574574383292753
21,0.7574574383292753
21,0.7574574383292753
21,0.7574574383292753
21,0.7574574383292753
21,0.7574574383292753
21,0.7574574383292753
21,0.7574574383292753
21,0.7574574383292753
21,0.7574574383292753
21,0.7574574383292753
21,0.7574574383292753
21,0.7583798019643989
21,0.7583798019643989
21,0.7583798019643989
21,0.7583798019643989
21,0.7583798019643989
21,0.7583798019643989
21,0.7583798019643989
21,0.7583798019643989
21,0.7583798019643989
21,0.7583798019643989
21,0.7583798019643989
21,0.7583798019643989
21,0.7583798019643989
21,0.7583798019643989
21,0.7583798019643989
21,0.7583798019643989
21,0.7583798019643989
21,0.7583798019643989
21,0.7583798019643989
21,0.7583798019643989
21,0.7583798019643989
21,0.7583798019643989
21,0.7583798019643989
21,0.7583798019643989
21,0.7583798019643989
21,0.7583798019643989
22,0.7583798019643989
22,0.7583798019643989
22,0.7583798019643989
22,0.7583798019643989
22,0.7583798019643989
22,0.7583798019643989
22,0.7583798019643989
22,0.7583798019643989
22,0.7583798019643989
22,0.7583798019643989
22,0.7583798019643989
22,0.7583798019643989
22,0.7583798019643989
22,0.7583798019643989
22,0.7583798019643989
22,0.7583798019643989
22,0.7583798019643989
22,0.7583798019643989
22,0.7583798019643989
22,0.7583798019643989
22,0.7583798019643989
22,0.7583798019643989
22,0.7583798019643989
22,0.7583798019643989
22,0.7583798019643989
22,0.7583798019643989
22,0.7583798019643989
22,0.7583798019643989
22,0.7583798019643989
22,0.7583798019643989
22,0.7583798019643989
22,0.7583798019643989
22,0.7583798019643989
22,0.7583798019643989
22,0.7583798019643989
22,0.7583798019643989
22,0.7583798019643989
22,0.7583798019643989
22,0.7583798019643989
22,0.7583798019643989
22,0.7583798019643989
22,0.7583798019643989
22,0.7583798019643989
22,0.7583798019643989
22,0.7583798019643989
22,0.7583798019643989
22,0.7583798019643989
22,0.7583798019643989
22,0.7583798019643989
23,0.7583798019643989
23,0.7583798019643989
23,0.7583798019643989
23,0.7583798019643989
23,0.7583798019643989
23,0.7583798019643989
23,0.7583798019643989
23,0.7583798019643989
23,0.7583798019643989
23,0.7583798019643989
23,0.7583798019643989
23,0.7583798019643989
23,0.7583798019643989
23,0.7583798019643989
23,0.7583798019643989
23,0.7583798019643989
23,0.7583798019643989
23,0.7583798019643989
23,0.7583798019643989
23,0.7583798019643989
23,0.7583798019643989
23,0.7583798019643989
23,0.7583798019643989
23,0.7583798019643989
23,0.7583798019643989
23,0.7583798019643989
23,0.7583798019643989
23,0.7583798019643989
23,0.7583798019643989
23,0.7583798019643989
23,0.7583798019643989
23,0.7583798019643989
23,0.7583798019643989
23,0.7583798019643989
23,0.7583798019643989
23,0.7583798019643989
23,0.7583798019643989
23,0.7583798019643989
23,0.7583798019643989
23,0.7583798019643989
23,0.7583798019643989
23,0.7583798019643989
23,0.7583798019643989
23,0.7583798019643989
23,0.7583798019643989
23,0.7583798019643989
23,0.7583798019643989
23,0.7583798019643989
24,0.7583798019643989
24,0.7583798019643989
24,0.7583798019643989
24,0.7583798019643989
24,0.7583798019643989
24,0.7583798019643989
24,0.7583798019643989
24,0.7583798019643989
24,0.7583798019643989
24,0.7583798019643989
24,0.7583798019643989
24,0.7583798019643989
24,0.7583798019643989
24,0.7583798019643989
24,0.7583798019643989
24,0.7583798019643989
24,0.7583798019643989
24,0.7583798019643989
24,0.7583798019643989
24,0.7583798019643989
24,0.7583798019643989
24,0.7583798019643989
24,0.7583798019643989
24,0.7583798019643989
24,0.7583798019643989
24,0.7583798019643989
24,0.7583798019643989
24,0.7626334441526619
24,0.7626334441526619
24,0.7626334441526619
24,0.7626334441526619
24,0.7626334441526619
24,0.7626334441526619
24,0.7626334441526619
24,0.7626334441526619
24,0.7626334441526619
24,0.7626334441526619
24,0.7626334441526619
24,0.7626334441526619
24,0.7626334441526619
24,0.7626334441526619
24,0.7626334441526619
24,0.7626334441526619
24,0.7626334441526619
24,0.7626334441526619
24,0.7626334441526619
24,0.7626334441526619
24,0.7626334441526619
25,0.7626334441526619
25,0.7626334441526619
25,0.7626334441526619
25,0.7626334441526619
25,0.7644465244634691
25,0.7644465244634691
25,0.7644465244634691
25,0.7644465244634691
25,0.7644465244634691
25,0.7644465244634691
25,0.7644465244634691
25,0.7644465244634691
25,0.7644465244634691
25,0.7644465244634691
25,0.7644465244634691
25,0.7644465244634691
25,0.7644465244634691
25,0.7644465244634691
25,0.7644465244634691
25,0.7644465244634691
25,0.7644465244634691
25,0.7644465244634691
25,0.7644465244634691
25,0.7644465244634691
25,0.7644465244634691
25,0.7644465244634691
25,0.7644465244634691
25,0.7644465244634691
25,0.7644465244634691
25,0.7644465244634691
25,0.7644465244634691
25,0.7644465244634691
25,0.7644465244634691
25,0.7644465244634691
25,0.7644465244634691
25,0.7644465244634691
25,0.7644465244634691
25,0.7644465244634691
25,0.7644465244634691
25,0.7644465244634691
25,0.7644465244634691
25,0.7644465244634691
25,0.7644465244634691
25,0.7644465244634691
25,0.7644465244634691
25,0.7644465244634691
25,0.7644465244634691
26,0.7644465244634691
26,0.7644465244634691
26,0.7644465244634691
26,0.7644465244634691
26,0.7644465244634691
26,0.7644465244634691
26,0.7644465244634691
26,0.7644465244634691
26,0.7644465244634691
26,0.7644465244634691
26,0.7644465244634691
26,0.7644465244634691
26,0.7644465244634691
26,0.7644465244634691
26,0.7644465244634691
26,0.7644465244634691
26,0.7644465244634691
26,0.7644465244634691
26,0.7644465244634691
26,0.7644465244634691
26,0.7644465244634691
26,0.7644465244634691
26,0.7644465244634691
26,0.7644465244634691
26,0.7644465244634691
26,0.7644465244634691
26,0.7644465244634691
26,0.7644465244634691
26,0.7644465244634691
26,0.7644465244634691
26,0.7644465244634691
26,0.7644465244634691
26,0.7644465244634691
26,0.7644465244634691
26,0.7644465244634691
26,0.7644465244634691
26,0.7644465244634691
26,0.7644465244634691
26,0.7644465244634691
26,0.7644465244634691
26,0.7644465244634691
26,0.7644465244634691
26,0.7644465244634691
26,0.7644465244634691
26,0.7644465244634691
26,0.7644465244634691
26,0.7644465244634691
26,0.7644465244634691
27,0.7644465244634691
27,0.7644465244634691
27,0.7644465244634691
27,0.7644465244634691
27,0.7644465244634691
27,0.7644465244634691
27,0.7644465244634691
27,0.7644465244634691
27,0.7644465244634691
27,0.7644465244634691
27,0.7644465244634691
27,0.7644465244634691
27,0.7644465244634691
27,0.7644465244634691
27,0.7644465244634691
27,0.7644465244634691
27,0.7644465244634691
27,0.7644465244634691
27,0.7644465244634691
27,0.7644465244634691
27,0.7644465244634691
27,0.7644465244634691
27,0.7644465244634691
27,0.7644465244634691
27,0.7644465244634691
27,0.7644465244634691
27,0.7644465244634691
27,0.7644465244634691
27,0.7644465244634691
27,0.7644465244634691
27,0.7644465244634691
27,0.7644465244634691
27,0.7644465244634691
27,0.7644465244634691
27,0.7644465244634691
27,0.7644465244634691
27,0.7644465244634691
27,0.7644465244634691
27,0.7644465244634691
27,0.7644465244634691
27,0.7644465244634691
27,0.7644465244634691
27,0.7644465244634691
27,0.7644465244634691
27,0.7644465244634691
27,0.7644465244634691
27,0.7644465244634691
27,0.7644465244634691
27,0.7644465244634691
28,0.7644465244634691
28,0.7644465244634691
28,0.7644465244634691
28,0.7644465244634691
28,0.7644465244634691
28,0.7644465244634691
28,0.7644465244634691
28,0.7644465244634691
28,0.7644465244634691
28,0.7644465244634691
28,0.7644465244634691
28,0.7644465244634691
28,0.7644465244634691
28,0.7644465244634691
28,0.7644465244634691
28,0.7644465244634691
28,0.7644465244634691
28,0.7644465244634691
28,0.7644465244634691
28,0.7644465244634691
28,0.7644465244634691
28,0.7644465244634691
28,0.7644465244634691
28,0.7644465244634691
28,0.7644465244634691
28,0.7644465244634691
28,0.7644465244634691
28,0.7644465244634691
28,0.7644465244634691
28,0.7644465244634691
28,0.7644465244634691
28,0.7644465244634691
28,0.7644465244634691
28,0.7644465244634691
28,0.7644465244634691
28,0.7644465244634691
28,0.7644465244634691
28,0.7644465244634691
28,0.7644465244634691
28,0.7644465244634691
28,0.7644465244634691
28,0.7644465244634691
28,0.7644465244634691
28,0.7644465244634691
28,0.7644465244634691
28,0.7644465244634691
28,0.7644465244634691
28,0.7644465244634691
29,0.7644465244634691
29,0.7644465244634691
29,0.7644465244634691
29,0.7644465244634691
29,0.7644465244634691
29,0.7644465244634691
29,0.7644465244634691
29,0.7644465244634691
29,0.7644465244634691
29,0.7644465244634691
29,0.7644465244634691
29,0.7644465244634691
29,0.7644465244634691
29,0.7644465244634691
29,0.7644465244634691
29,0.7644465244634691
29,0.7644465244634691
29,0.7644465244634691
29,0.7644465244634691
29,0.7644465244634691
29,0.7644465244634691
29,0.7644465244634691
29,0.7644465244634691
29,0.7644465244634691
29,0.7644465244634691
29,0.7644465244634691
29,0.7644465244634691
29,0.7644465244634691
29,0.7644465244634691
29,0.7644465244634691
29,0.7644465244634691
29,0.7644465244634691
29,0.7644465244634691
29,0.7644465244634691
29,0.7644465244634691
29,0.7644465244634691
29,0.7644465244634691
29,0.7645483239753936
29,0.7645483239753936
29,0.7645483239753936
29,0.7645483239753936
29,0.7645483239753936
29,0.7645483239753936
29,0.7645483239753936
29,0.7645483239753936
29,0.7645483239753936
29,0.7645483239753936
29,0.7645483239753936
30,0.7645483239753936
30,0.7645483239753936
30,0.7645483239753936
30,0.7645483239753936
30,0.7645483239753936
30,0.7645483239753936
30,0.7645483239753936
30,0.7645483239753936
30,0.7645483239753936
30,0.7645483239753936
30,0.7645483239753936
30,0.7645483239753936
30,0.7645483239753936
30,0.7645483239753936
30,0.7660503397041157
30,0.7660503397041157
30,0.7660503397041157
30,0.7660503397041157
30,0.7660503397041157
30,0.7660503397041157
30,0.7660503397041157
30,0.7660503397041157
30,0.7660503397041157
30,0.7660503397041157
30,0.7660503397041157
30,0.7660503397041157
30,0.7660503397041157
30,0.7660503397041157
30,0.7660503397041157
30,0.7660503397041157
30,0.7660503397041157
30,0.7660503397041157
30,0.7660503397041157
30,0.7660503397041157
30,0.7660503397041157
30,0.7660503397041157
30,0.7660503397041157
30,0.7660503397041157
30,0.7660503397041157
30,0.7664135939454232
30,0.7664135939454232
30,0.7664135939454232
30,0.7664135939454232
30,0.7664135939454232
30,0.7664135939454232
31,0.7664135939454232
31,0.7664135939454232
31,0.7664135939454232
31,0.7664135939454232
31,0.7664135939454232
31,0.7664135939454232
31,0.7664135939454232
31,0.7664135939454232
31,0.7664135939454232
31,0.7664135939454232
31,0.7664135939454232
31,0.7664135939454232
31,0.7664135939454232
31,0.7664135939454232
31,0.7664135939454232
31,0.7664135939454232
31,0.7664135939454232
31,0.7664135939454232
31,0.7664135939454232
31,0.7668443820877662
31,0.7668443820877662
31,0.7668443820877662
31,0.7668443820877662
31,0.7668443820877662
31,0.7668443820877662
31,0.7668443820877662
31,0.7668443820877662
31,0.7668443820877662
31,0.7668443820877662
31,0.7668443820877662
31,0.7668443820877662
31,0.7668443820877662
31,0.7668443820877662
31,0.7668443820877662
31,0.7668443820877662
31,0.7668443820877662
31,0.7668443820877662
31,0.7668443820877662
31,0.7668443820877662
31,0.7668443820877662
31,0.7668443820877662
31,0.7668443820877662
31,0.7668443820877662
31,0.7668443820877662
31,0.7668443820877662
31,0.7668443820877662
31,0.7668443820877662
31,0.7668443820877662
32,0.7668443820877662
32,0.7668443820877662
32,0.7668443820877662
32,0.7668443820877662
32,0.7668443820877662
32,0.7668443820877662
32,0.7668443820877662
32,0.7668443820877662
32,0.7668443820877662
32,0.7668443820877662
32,0.7668443820877662
32,0.7668443820877662
32,0.7668443820877662
32,0.7668443820877662
32,0.7668443820877662
32,0.7668443820877662
32,0.7668443820877662
32,0.7668443820877662
32,0.7668443820877662
32,0.7668443820877662
32,0.7668443820877662
32,0.7668443820877662
32,0.7668443820877662
32,0.7668443820877662
32,0.7668443820877662
32,0.7668443820877662
32,0.7668443820877662
32,0.7668443820877662
32,0.7668443820877662
32,0.7668443820877662
32,0.7668443820877662
32,0.7668443820877662
32,0.7668443820877662
32,0.7668443820877662
32,0.7668443820877662
32,0.7668443820877662
32,0.7668443820877662
32,0.7668443820877662
32,0.7668443820877662
32,0.7668443820877662
32,0.7668443820877662
32,0.7668443820877662
32,0.7668443820877662
32,0.7668443820877662
32,0.7668443820877662
32,0.7668443820877662
32,0.7668443820877662
32,0.7668443820877662
32,0.7668443820877662
32,0.7668443820877662
32,0.7668443820877662
33,0.7668443820877662
33,0.7668443820877662
33,0.7668443820877662
33,0.7668443820877662
33,0.7668443820877662
33,0.7668443820877662
33,0.7668443820877662
33,0.7668443820877662
33,0.7668443820877662
33,0.7668443820877662
33,0.7668443820877662
33,0.7668443820877662
33,0.7668443820877662
33,0.7668443820877662
33,0.7668443820877662
33,0.7668443820877662
33,0.7668443820877662
33,0.7668443820877662
33,0.7668443820877662
33,0.7668443820877662
33,0.7668443820877662
33,0.7668443820877662
33,0.7668443820877662
33,0.7668443820877662
33,0.7668443820877662
33,0.7668443820877662
33,0.7668443820877662
33,0.7668443820877662
33,0.7668443820877662
33,0.7668443820877662
33,0.7668443820877662
33,0.7668443820877662
33,0.7668443820877662
33,0.7668443820877662
33,0.7668443820877662
33,0.7668443820877662
33,0.7668443820877662
33,0.7668443820877662
33,0.7668443820877662
33,0.7668443820877662
33,0.7668443820877662
33,0.7668443820877662
33,0.7668443820877662
33,0.7668443820877662
33,0.7668443820877662
33,0.7668443820877662
33,0.7668443820877662
33,0.7668443820877662
33,0.7668443820877662
33,0.7668443820877662
34,0.7668443820877662
34,0.7668443820877662
34,0.7668443820877662
34,0.7668443820877662
34,0.7668443820877662
34,0.7668443820877662
34,0.7668443820877662
34,0.7668443820877662
34,0.7668443820877662
34,0.7668443820877662
34,0.7668443820877662
34,0.7668443820877662
34,0.7668443820877662
34,0.7668443820877662
34,0.7668443820877662
34,0.7668443820877662
34,0.7668443820877662
34,0.7668443820877662
34,0.7668443820877662
34,0.7668443820877662
34,0.7668443820877662
34,0.7668443820877662
34,0.7668443820877662
34,0.7668443820877662
34,0.7668443820877662
34,0.7668443820877662
34,0.7668443820877662
34,0.7668443820877662
34,0.7668443820877662
34,0.7668443820877662
34,0.7668443820877662
34,0.7668443820877662
34,0.7668443820877662
34,0.7668443820877662
34,0.7668443820877662
34,0.7668443820877662
34,0.7668443820877662
34,0.7668443820877662
34,0.7668443820877662
34,0.7668443820877662
34,0.7668443820877662
34,0.7668443820877662
34,0.7668443820877662
34,0.7668443820877662
34,0.7668443820877662
34,0.7668443820877662
34,0.7668443820877662
34,0.7668443820877662
34,0.7668443820877662
34,0.7668443820877662
34,0.7668443820877662
35,0.7668443820877662
35,0.7668443820877662
35,0.7668443820877662
35,0.7668443820877662
35,0.7668443820877662
35,0.7668443820877662
35,0.7668443820877662
35,0.7668443820877662
35,0.7668443820877662
35,0.7668443820877662
35,0.7668443820877662
35,0.7668443820877662
35,0.7668443820877662
35,0.7668443820877662
35,0.7668443820877662
35,0.7668443820877662
35,0.7668443820877662
35,0.7668443820877662
35,0.7668443820877662
35,0.7668443820877662
35,0.7668443820877662
35,0.7668443820877662
35,0.7668443820877662
35,0.7668443820877662
35,0.7668443820877662
35,0.7668443820877662
35,0.7668443820877662
35,0.7668443820877662
35,0.7668443820877662
35,0.7668443820877662
35,0.7668443820877662
35,0.7668443820877662
35,0.7668443820877662
35,0.7668443820877662
35,0.7668443820877662
35,0.7668443820877662
35,0.7668443820877662
35,0.7668443820877662
35,0.7668443820877662
35,0.7668443820877662
35,0.7668443820877662
35,0.7668443820877662
35,0.7668443820877662
35,0.7668443820877662
35,0.7668443820877662
35,0.7668443820877662
35,0.7668443820877662
35,0.7668443820877662
35,0.7668443820877662
35,0.7668443820877662
35,0.7668443820877662
35,0.7668443820877662
35,0.7668443820877662
35,0.7668443820877662
36,0.7668443820877662
36,0.7668443820877662
36,0.7668443820877662
36,0.7668443820877662
36,0.7668443820877662
36,0.7668443820877662
36,0.7668443820877662
36,0.7668443820877662
36,0.7668443820877662
36,0.7668443820877662
36,0.7668443820877662
36,0.7668443820877662
36,0.7668443820877662
36,0.7668443820877662
36,0.7668443820877662
36,0.7668443820877662
36,0.7668443820877662
36,0.7668443820877662
36,0.7668443820877662
36,0.7668443820877662
36,0.7668443820877662
36,0.7668443820877662
36,0.7668443820877662
36,0.7668443820877662
36,0.7668443820877662
36,0.7668443820877662
36,0.7668443820877662
36,0.7668443820877662
36,0.7668443820877662
36,0.7668443820877662
36,0.7668443820877662
36,0.7668443820877662
36,0.7668443820877662
36,0.7668443820877662
36,0.7668443820877662
36,0.7668443820877662
36,0.7668443820877662
36,0.7668443820877662
36,0.7668443820877662
36,0.7668443820877662
36,0.7668443820877662
36,0.7668443820877662
36,0.7668443820877662
36,0.7668443820877662
36,0.7668443820877662
36,0.7668443820877662
36,0.7668443820877662
36,0.7668443820877662
36,0.7668443820877662
36,0.7668443820877662
36,0.7668443820877662
36,0.7668443820877662
36,0.7668443820877662
36,0.7668443820877662
37,0.7668443820877662
37,0.7668443820877662
37,0.7668443820877662
37,0.7668443820877662
37,0.7668443820877662
37,0.7668443820877662
37,0.7668443820877662
37,0.7668443820877662
37,0.7668443820877662
37,0.7668443820877662
37,0.7668443820877662
37,0.7668443820877662
37,0.7668443820877662
37,0.7668443820877662
37,0.7668443820877662
37,0.7668443820877662
37,0.7668443820877662
37,0.7668443820877662
37,0.7668443820877662
37,0.7668443820877662
37,0.7668443820877662
37,0.7668443820877662
37,0.7668443820877662
37,0.7668443820877662
37,0.7668443820877662
37,0.7668443820877662
37,0.7668443820877662
37,0.7668443820877662
37,0.7668443820877662
37,0.7668443820877662
37,0.7668443820877662
37,0.7668443820877662
37,0.7668443820877662
37,0.7668443820877662
37,0.7668443820877662
37,0.7668443820877662
37,0.7668443820877662
37,0.7668443820877662
37,0.7668443820877662
37,0.7668443820877662
37,0.7668443820877662
37,0.7668443820877662
37,0.7668443820877662
37,0.7668443820877662
37,0.7668443820877662
37,0.7668443820877662
37,0.7668443820877662
37,0.7668443820877662
37,0.7668443820877662
37,0.7668443820877662
37,0.7668443820877662
37,0.7668443820877662
37,0.7668443820877662
37,0.7668443820877662
37,0.7668443820877662
38,0.7668443820877662
38,0.7668443820877662
38,0.7668443820877662
38,0.7668443820877662
38,0.7668443820877662
38,0.7668443820877662
38,0.7668443820877662
38,0.7668443820877662
38,0.7668443820877662
38,0.7668443820877662
38,0.7668443820877662
38,0.7668443820877662
38,0.7668443820877662
38,0.7668443820877662
38,0.7668443820877662
38,0.7668443820877662
38,0.7668443820877662
38,0.7668443820877662
38,0.7668443820877662
38,0.7668443820877662
38,0.7668443820877662
38,0.7668443820877662
38,0.7668443820877662
38,0.7668443820877662
38,0.7668443820877662
38,0.7668443820877662
38,0.7668443820877662
38,0.7668443820877662
38,0.7668443820877662
38,0.7668443820877662
38,0.7668443820877662
38,0.7668443820877662
38,0.7668443820877662
38,0.7668443820877662
38,0.7668443820877662
38,0.7668443820877662
38,0.7668443820877662
38,0.7668443820877662
38,0.7668443820877662
38,0.7668443820877662
38,0.7668443820877662
38,0.7668443820877662
38,0.7668443820877662
38,0.7668443820877662
38,0.7668443820877662
38,0.7668443820877662
38,0.7668443820877662
38,0.7668443820877662
38,0.7668443820877662
38,0.7668443820877662
38,0.7668443820877662
39,0.7668443820877662
39,0.7668443820877662
39,0.7668443820877662
39,0.7668443820877662
39,0.7668443820877662
39,0.7668443820877662
39,0.7668443820877662
39,0.7668443820877662
39,0.7668443820877662
39,0.7668443820877662
39,0.7668443820877662
39,0.7668443820877662
39,0.7668443820877662
39,0.7668443820877662
39,0.7668443820877662
39,0.7668443820877662
39,0.7668443820877662
39,0.7668443820877662
39,0.7668443820877662
39,0.7668443820877662
39,0.7668443820877662
39,0.7668443820877662
39,0.7668443820877662
39,0.7668443820877662
39,0.7668443820877662
39,0.7668443820877662
39,0.7668443820877662
39,0.7668443820877662
39,0.7668443820877662
39,0.7668443820877662
39,0.7668443820877662
39,0.7668443820877662
39,0.7668443820877662
39,0.7668443820877662
39,0.7668443820877662
39,0.7668443820877662
39,0.7668443820877662
39,0.7668443820877662
39,0.7668443820877662
39,0.7668443820877662
39,0.7668443820877662
39,0.7668443820877662
39,0.7668443820877662
39,0.7668443820877662
39,0.7668443820877662
39,0.7668443820877662
39,0.7668443820877662
39,0.7668443820877662
39,0.7668443820877662
39,0.7668443820877662
40,0.7668443820877662
40,0.7668443820877662
40,0.7668443820877662
40,0.7668443820877662
40,0.7668443820877662
40,0.7668443820877664
40,0.7668443820877664
40,0.7668443820877664
40,0.7668443820877664
40,0.7668443820877664
40,0.7668443820877664
40,0.7668443820877664
40,0.7668443820877664
40,0.7668443820877664
40,0.7668443820877664
40,0.7668443820877664
40,0.7668443820877664
40,0.7668443820877664
40,0.7668443820877664
40,0.7668443820877664
40,0.7668443820877664
40,0.7668443820877664
40,0.7668443820877664
40,0.7668443820877664
40,0.7668443820877664
40,0.7668443820877664
40,0.7668443820877664
40,0.7668443820877664
40,0.7668443820877664
40,0.7668443820877664
40,0.7668443820877664
40,0.7668443820877664
40,0.7668443820877664
40,0.7668443820877664
40,0.7668443820877664
40,0.7668443820877664
40,0.7668443820877664
40,0.7668443820877664
40,0.7668443820877664
40,0.7668443820877664
40,0.7668443820877664
40,0.7668443820877664
40,0.7668443820877664
40,0.7668443820877664
40,0.7668443820877664
41,0.7668443820877664
41,0.7668443820877664
41,0.7668443820877664
41,0.7668443820877664
41,0.7668443820877664
41,0.7668443820877664
41,0.7668443820877664
41,0.7668443820877664
41,0.7668443820877664
41,0.7668443820877664
41,0.7668443820877664
41,0.7668443820877664
41,0.7668443820877664
41,0.7668443820877664
41,0.7668443820877664
41,0.7668443820877664
41,0.7668443820877664
41,0.7668443820877664
41,0.7668443820877664
41,0.7668443820877664
41,0.7668443820877664
41,0.7668443820877664
41,0.7668443820877664
41,0.7668443820877664
41,0.7668443820877664
41,0.7668443820877664
41,0.7668443820877664
41,0.7668443820877664
41,0.7668443820877664
41,0.7668443820877664
41,0.7668443820877664
41,0.7668443820877664
41,0.7668443820877664
41,0.7668443820877664
41,0.7668443820877664
41,0.7668443820877664
41,0.7668443820877664
41,0.7668443820877664
41,0.7668443820877664
41,0.7668443820877664
41,0.7668443820877664
41,0.7668443820877664
41,0.7668443820877664
41,0.7668443820877664
41,0.7668443820877664
41,0.7668443820877664
41,0.7668443820877664
41,0.7668443820877664
41,0.7668443820877664
42,0.7668443820877664
42,0.7668443820877664
42,0.7668443820877664
42,0.7668443820877664
42,0.7668443820877664
42,0.7668443820877664
42,0.7668443820877664
42,0.7668443820877664
42,0.7668443820877664
42,0.7668443820877664
42,0.7668443820877664
42,0.7668443820877664
42,0.7668443820877664
42,0.7668443820877664
42,0.7668443820877664
42,0.7668443820877664
42,0.7668443820877664
42,0.7668443820877664
42,0.7668443820877664
42,0.7668443820877664
42,0.7668443820877664
42,0.7668443820877664
42,0.7668443820877664
42,0.7668443820877664
42,0.7668443820877664
42,0.7668443820877664
42,0.7668443820877664
42,0.7668443820877664
42,0.7668443820877664
42,0.7668443820877664
42,0.7668443820877664
42,0.7668443820877664
42,0.7668443820877664
42,0.7668443820877664
42,0.7668443820877664
42,0.7668443820877664
42,0.7668443820877664
42,0.7668443820877664
42,0.7668443820877664
42,0.7668443820877664
42,0.7668443820877664
42,0.7668443820877664
42,0.7668443820877664
42,0.7668443820877664
42,0.7668443820877664
42,0.7668443820877664
42,0.7668443820877664
42,0.7668443820877664
42,0.7668443820877664
43,0.7668443820877664
43,0.7668443820877664
43,0.7668443820877664
43,0.7668443820877664
43,0.7668443820877664
43,0.7668443820877664
43,0.7668443820877664
43,0.7668443820877664
43,0.7668443820877664
43,0.7668443820877664
43,0.7668443820877664
43,0.7668443820877664
43,0.7668443820877664
43,0.7668443820877664
43,0.7668443820877664
43,0.7668443820877664
43,0.7668443820877664
43,0.7668443820877664
43,0.7668443820877664
43,0.7668443820877664
43,0.7668443820877664
43,0.7668443820877664
43,0.7668443820877664
43,0.7668443820877664
43,0.7668443820877664
43,0.7668443820877664
43,0.7668443820877664
43,0.7668443820877664
43,0.7668443820877664
43,0.7668443820877664
43,0.7668443820877664
43,0.7668443820877664
43,0.7668443820877664
43,0.7668443820877664
43,0.7668443820877664
43,0.7668443820877664
43,0.7668443820877664
43,0.7670474129154466
43,0.7670474129154466
43,0.7670474129154466
43,0.7670474129154466
43,0.7670474129154466
43,0.7670474129154466
43,0.7670474129154466
43,0.7670474129154466
43,0.7670474129154466
44,0.7670474129154466
44,0.7670474129154466
44,0.7670474129154466
44,0.7670474129154466
44,0.7670474129154466
44,0.7670474129154466
44,0.7670474129154466
44,0.7670474129154466
44,0.7670474129154466
44,0.7670474129154466
44,0.7670474129154466
44,0.7670474129154466
44,0.7670474129154466
44,0.7670474129154466
44,0.7670474129154466
44,0.7670474129154466
44,0.7672068578206505
44,0.7672068578206505
44,0.7672068578206505
44,0.7672068578206505
44,0.7672068578206505
44,0.7672068578206505
44,0.7672068578206505
44,0.7672068578206505
44,0.7672068578206505
44,0.7672068578206505
44,0.7672068578206505
44,0.7672068578206505
44,0.7672068578206505
44,0.7672068578206505
44,0.7672068578206505
44,0.7672068578206505
44,0.7672068578206505
44,0.7672068578206505
44,0.7672068578206505
44,0.7672068578206505
44,0.7672068578206505
44,0.7672068578206505
44,0.7672068578206505
44,0.7672068578206505
44,0.7672068578206505
44,0.7672068578206505
44,0.7672068578206505
44,0.7672068578206505
44,0.7672068578206505
44,0.7672068578206505
44,0.7672068578206505
44,0.7672068578206505
44,0.7672068578206505
44,0.7672068578206505
44,0.7672068578206505
44,0.7672068578206505
44,0.7672068578206505
44,0.7672068578206505
44,0.7672068578206505
44,0.7672068578206505
45,0.7672068578206505
45,0.7672068578206505
45,0.7672068578206505
45,0.7672068578206505
45,0.7672068578206505
45,0.7672068578206505
45,0.7672068578206505
45,0.7672068578206505
45,0.7672068578206505
45,0.7672068578206505
45,0.7672068578206505
45,0.7672068578206505
45,0.7672068578206505
45,0.7672068578206505
45,0.7672068578206505
45,0.7672068578206505
45,0.7672068578206505
45,0.7672068578206505
45,0.7672068578206505
45,0.7672068578206505
45,0.7672068578206505
45,0.7672068578206505
45,0.7672068578206505
45,0.7672068578206505
45,0.7672068578206505
45,0.7672068578206505
45,0.7672068578206505
45,0.7672068578206505
45,0.7672068578206505
45,0.7672068578206505
45,0.7672068578206505
45,0.7672068578206505
45,0.7672068578206505
45,0.7672068578206505
45,0.7672068578206505
45,0.7672068578206505
45,0.7672068578206505
45,0.7672068578206505
45,0.7672068578206505
45,0.7672068578206505
45,0.7672068578206505
45,0.7672068578206505
45,0.7672068578206505
45,0.7672068578206505
45,0.7672068578206505
45,0.7672068578206505
45,0.7672068578206505
45,0.7672068578206505
45,0.7672068578206505
45,0.7672068578206505
45,0.7672068578206505
45,0.7672068578206505
45,0.7672068578206505
45,0.7672068578206505
46,0.7672068578206505
46,0.7672068578206505
46,0.7672068578206505
46,0.7672068578206505
46,0.7672068578206505
46,0.7672068578206505
46,0.7672068578206505
46,0.7672068578206505
46,0.7672068578206505
46,0.7672068578206505
46,0.7672068578206505
46,0.7672068578206505
46,0.7672068578206505
46,0.7672068578206505
46,0.7672068578206505
46,0.7672068578206505
46,0.7672068578206505
46,0.7672068578206505
46,0.7672068578206505
46,0.7672068578206505
46,0.7672068578206505
46,0.7672068578206505
46,0.7672068578206505
46,0.7672068578206505
46,0.7672068578206505
46,0.7672068578206505
46,0.7672068578206505
46,0.7672068578206505
46,0.7672068578206505
46,0.7672068578206505
46,0.7672068578206505
46,0.7672068578206505
46,0.7672068578206505
46,0.7672068578206505
46,0.7672068578206505
46,0.7672068578206505
46,0.7672068578206505
46,0.7672068578206505
46,0.7672068578206505
46,0.7672068578206505
46,0.7672068578206505
46,0.7672068578206505
46,0.7672068578206505
46,0.7672068578206505
46,0.7672068578206505
46,0.7672068578206505
46,0.7672068578206505
46,0.7672068578206505
46,0.7672068578206505
46,0.7672068578206505
46,0.7672068578206505
46,0.7672068578206505
46,0.7672068578206505
46,0.7672068578206505
47,0.7672068578206505
47,0.7672068578206505
47,0.7672068578206505
47,0.7672068578206505
47,0.7672068578206505
47,0.7672068578206505
47,0.7672068578206505
47,0.7672068578206505
47,0.7672068578206505
47,0.7672068578206505
47,0.7672068578206505
47,0.7672068578206505
47,0.7672068578206505
47,0.7672068578206505
47,0.7672068578206505
47,0.7672068578206505
47,0.7672068578206505
47,0.7672068578206505
47,0.7672068578206505
47,0.7672068578206505
47,0.7672068578206505
47,0.7672068578206505
47,0.7672068578206505
47,0.7672068578206505
47,0.7672068578206505
47,0.7672068578206505
47,0.7672068578206505
47,0.7672068578206505
47,0.7672068578206505
47,0.7672068578206505
47,0.7672068578206505
47,0.7672068578206505
47,0.7672068578206505
47,0.7672068578206505
47,0.7672068578206505
47,0.7672068578206505
47,0.7672068578206505
47,0.7672068578206505
47,0.7672068578206505
47,0.7672068578206505
47,0.7672068578206505
47,0.7672068578206505
47,0.7672068578206505
47,0.7672068578206505
47,0.7672068578206505
47,0.7672068578206505
47,0.7672068578206505
47,0.7672068578206505
47,0.7672068578206505
47,0.7672068578206505
47,0.7672068578206505
47,0.7672068578206505
48,0.7672068578206505
48,0.7672068578206505
48,0.7672068578206505
48,0.7672068578206505
48,0.7672068578206505
48,0.7672068578206505
48,0.7672068578206505
48,0.7672068578206505
48,0.7672068578206505
48,0.7672068578206505
48,0.7672068578206505
48,0.7672068578206505
48,0.7672068578206505
48,0.7672068578206505
48,0.7672068578206505
48,0.7672068578206505
48,0.7672068578206505
48,0.7672068578206505
48,0.7672068578206505
48,0.7672068578206505
48,0.7672068578206505
48,0.7672068578206505
48,0.7672068578206505
48,0.7672068578206505
48,0.7672068578206505
48,0.7672068578206505
48,0.7672068578206505
48,0.7672068578206505
48,0.7672068578206505
48,0.7672068578206505
48,0.7672068578206505
48,0.7672068578206505
48,0.7672068578206505
48,0.7672068578206505
48,0.7672068578206505
48,0.7672068578206505
48,0.7672068578206505
48,0.7672068578206505
48,0.7672068578206505
48,0.7672068578206505
48,0.7672068578206505
48,0.7672068578206505
48,0.7672068578206505
48,0.7672068578206505
48,0.7672068578206505
48,0.7672068578206505
48,0.7672068578206505
48,0.7672068578206505
48,0.7672068578206505
48,0.7672068578206505
48,0.7672068578206505
48,0.7672068578206505
48,0.7672068578206505
48,0.7672068578206505
48,0.7672068578206505
49,0.7672068578206505
49,0.7672068578206505
49,0.7672068578206505
49,0.7672068578206505
49,0.7672068578206505
49,0.7672068578206505
49,0.7672068578206505
49,0.7672068578206505
49,0.7672068578206505
49,0.7672068578206505
49,0.7672068578206505
49,0.7672068578206505
49,0.7672068578206505
49,0.7672068578206505
49,0.7672068578206505
49,0.7672068578206505
49,0.7672068578206505
49,0.7672068578206505
49,0.7672068578206505
49,0.7672068578206505
49,0.7672068578206505
49,0.7672068578206505
49,0.7672068578206505
49,0.7672068578206505
49,0.7672068578206505
49,0.7672068578206505
49,0.7672068578206505
49,0.7672068578206505
49,0.7672068578206505
49,0.7672068578206505
49,0.7672068578206505
49,0.7672068578206505
49,0.7672068578206505
49,0.7672068578206505
49,0.7672068578206505
49,0.7672068578206505
49,0.7672068578206505
49,0.7672068578206505
49,0.7672068578206505
49,0.7672068578206505
49,0.7672068578206505
49,0.7672068578206505
49,0.7672068578206505
49,0.7672068578206505
49,0.7672068578206505
49,0.7672068578206505
49,0.7672068578206505
49,0.7672068578206505
49,0.7672068578206505
49,0.7672068578206505
49,0.7672068578206505
50,0.7672068578206505
50,0.7672068578206505
50,0.7672068578206505
50,0.7672068578206505
50,0.7672068578206505
50,0.7672068578206505
50,0.7672068578206505
50,0.7672068578206505
50,0.7672068578206505
50,0.7672068578206505
50,0.7672068578206505
50,0.7672068578206505
50,0.7672068578206505
50,0.7672068578206505
50,0.7672068578206505
50,0.7672068578206505
50,0.7672068578206505
50,0.7672068578206505
50,0.7672068578206505
50,0.7672068578206505
50,0.7672068578206505
50,0.7672068578206505
50,0.7672068578206505
50,0.7672068578206505
50,0.7672068578206505
50,0.7672068578206505
50,0.7672068578206505
50,0.7672068578206505
50,0.7672068578206505
50,0.7672068578206505
50,0.7672068578206505
50,0.7672068578206505
50,0.7672068578206505
50,0.7672068578206505
50,0.7672068578206505
50,0.7672068578206505
50,0.7672068578206505
50,0.7672068578206505
50,0.7672068578206505
50,0.7672068578206505
50,0.7672068578206505
50,0.7672068578206505
50,0.7672068578206505
50,0.7672068578206505
50,0.7672068578206505
50,0.7672068578206505
50,0.7672068578206505
50,0.7672068578206505
50,0.7672068578206505
50,0.7672068578206505
50,0.7672068578206505
50,0.7672068578206505
50,0.7672068578206505
51,0.7672068578206505
51,0.7672068578206505
51,0.7672068578206505
51,0.7672068578206505
51,0.7672068578206505
51,0.7672068578206505
51,0.7672068578206505
51,0.7672068578206505
51,0.7672068578206505
51,0.7672068578206505
51,0.7672068578206505
51,0.7672068578206505
51,0.7672068578206505
51,0.7672068578206505
51,0.7672068578206505
51,0.7672068578206505
51,0.7672068578206505
51,0.7672068578206505
51,0.7672068578206505
51,0.7672068578206505
51,0.7672068578206505
51,0.7672068578206505
51,0.7672068578206505
51,0.7672068578206505
51,0.7672068578206505
51,0.7672068578206505
51,0.7672068578206505
51,0.7672068578206505
51,0.7672068578206505
51,0.7672068578206505
51,0.7672068578206505
51,0.7672068578206505
51,0.7672068578206505
51,0.7672068578206505
51,0.7672068578206505
51,0.7672068578206505
51,0.7672068578206505
51,0.7672068578206505
51,0.7672068578206505
51,0.7672068578206505
51,0.7672068578206505
51,0.7672068578206505
51,0.7672068578206505
51,0.7672068578206505
51,0.7672068578206505
51,0.7672068578206505
51,0.7672068578206505
51,0.7672068578206505
51,0.7672068578206505
51,0.7672068578206505
51,0.7672068578206505
51,0.7672068578206505
52,0.7672068578206505
52,0.7672068578206505
52,0.7672068578206505
52,0.7672068578206505
52,0.7672068578206505
52,0.7672068578206505
52,0.7672068578206505
52,0.7672068578206505
52,0.7672068578206505
52,0.7672068578206505
52,0.7672068578206505
52,0.7672068578206505
52,0.7672068578206505
52,0.7672068578206505
52,0.7672068578206505
52,0.7672068578206505
52,0.7672068578206505
52,0.7672068578206505
52,0.7672068578206505
52,0.7672068578206505
52,0.7672068578206505
52,0.7672068578206505
52,0.7672068578206505
52,0.7672068578206505
52,0.7672068578206505
52,0.7672068578206505
52,0.7672068578206505
52,0.7672068578206505
52,0.7672068578206505
52,0.7672068578206505
52,0.7672068578206505
52,0.7672068578206505
52,0.7672068578206505
52,0.7672068578206505
52,0.7672068578206505
52,0.7672068578206505
52,0.7672068578206505
52,0.7672068578206505
52,0.7672068578206505
52,0.7672068578206505
52,0.7672068578206505
52,0.7672068578206505
52,0.7672068578206505
52,0.7672068578206505
52,0.7672068578206505
52,0.7672068578206505
52,0.7672068578206505
52,0.7672068578206505
52,0.7672068578206505
52,0.7672068578206505
52,0.7672068578206505
52,0.7672068578206505
53,0.7672068578206505
53,0.7672068578206505
53,0.7672068578206505
53,0.7672068578206505
53,0.7672068578206505
53,0.7672068578206505
53,0.7672068578206505
53,0.7672068578206505
53,0.7672068578206505
53,0.7672068578206505
53,0.7672068578206505
53,0.7672068578206505
53,0.7672068578206505
53,0.7672068578206505
53,0.7672068578206505
53,0.7672068578206505
53,0.7672068578206505
53,0.7672068578206505
53,0.7672068578206505
53,0.7672068578206505
53,0.7672068578206505
53,0.7672068578206505
53,0.7672068578206505
53,0.7672068578206505
53,0.7672068578206505
53,0.7672068578206505
53,0.7672068578206505
53,0.7672068578206505
53,0.7672068578206505
53,0.7672068578206505
53,0.7672068578206505
53,0.7672068578206505
53,0.7672068578206505
53,0.7672068578206505
53,0.7672068578206505
53,0.7672068578206505
53,0.7672068578206505
53,0.7672068578206505
53,0.7672068578206505
53,0.7672068578206505
53,0.7672068578206505
53,0.7672068578206505
53,0.7672068578206505
53,0.7672068578206505
53,0.7672068578206505
53,0.7672068578206505
53,0.7672068578206505
53,0.7672068578206505
53,0.7672068578206505
53,0.7672068578206505
53,0.7672068578206505
53,0.7672068578206505
53,0.7672068578206505
54,0.7672068578206505
54,0.7672068578206505
54,0.7672068578206505
54,0.7672068578206505
54,0.7672068578206505
54,0.7672068578206505
54,0.7672068578206505
54,0.7672068578206505
54,0.7672068578206505
54,0.7672068578206505
54,0.7672068578206505
54,0.7672068578206505
54,0.7672068578206505
54,0.7672068578206505
54,0.7672068578206505
54,0.7672068578206505
54,0.7672068578206505
54,0.7672068578206505
54,0.7672068578206505
54,0.7672068578206505
54,0.7672068578206505
54,0.7672068578206505
54,0.7672068578206505
54,0.7672068578206505
54,0.7672068578206505
54,0.7672068578206505
54,0.7672068578206505
54,0.7672068578206505
54,0.7672068578206505
54,0.7672068578206505
54,0.7672068578206505
54,0.7672068578206505
54,0.7672068578206505
54,0.7672068578206505
54,0.7672068578206505
54,0.7672068578206505
54,0.7672068578206505
54,0.7672068578206505
54,0.7672068578206505
54,0.7672068578206505
54,0.7672068578206505
54,0.7672068578206505
54,0.7672068578206505
54,0.7672068578206505
54,0.7672068578206505
54,0.7672068578206505
54,0.7672068578206505
54,0.7672068578206505
54,0.7672068578206505
54,0.7672068578206505
54,0.7672068578206505
54,0.7672068578206505
54,0.7672068578206505
54,0.7672068578206505
55,0.7672068578206505
55,0.7672068578206505
55,0.7672068578206505
55,0.7672068578206505
55,0.7672068578206505
55,0.7672068578206505
55,0.7672068578206505
55,0.7672068578206505
55,0.7672068578206505
55,0.7672068578206505
55,0.7672068578206505
55,0.7672068578206505
55,0.7672068578206505
55,0.7672068578206505
55,0.7672068578206505
55,0.7672068578206505
55,0.7672068578206505
55,0.7672068578206505
55,0.7672068578206505
55,0.7672068578206505
55,0.7672068578206505
55,0.7672068578206505
55,0.7672068578206505
55,0.7672068578206505
55,0.7672068578206505
55,0.7672068578206505
55,0.7672068578206505
55,0.7672068578206505
55,0.7672068578206505
55,0.7672068578206505
55,0.7672068578206505
55,0.7672068578206505
55,0.7672068578206505
55,0.7672068578206505
55,0.7672068578206505
55,0.7672068578206505
55,0.7672068578206505
55,0.7672068578206505
55,0.7672068578206505
55,0.7672068578206505
55,0.7672068578206505
55,0.7672068578206505
55,0.7672068578206505
55,0.7672068578206505
55,0.7672068578206505
55,0.7672068578206505
55,0.7672068578206505
55,0.7672068578206505
55,0.7672068578206505
55,0.7672068578206505
55,0.7672068578206505
55,0.7672068578206505
55,0.7672068578206505
55,0.7672068578206505
55,0.7672068578206505
56,0.7672068578206505
56,0.7672068578206505
56,0.7672068578206505
56,0.7672068578206505
56,0.7672068578206505
56,0.7672068578206505
56,0.7672068578206505
56,0.7672068578206505
56,0.7672068578206505
56,0.7672068578206505
56,0.7672068578206505
56,0.7672068578206505
56,0.7672068578206505
56,0.7672068578206505
56,0.7672068578206505
56,0.7672068578206505
56,0.7672068578206505
56,0.7672068578206505
56,0.7672068578206505
56,0.7672068578206505
56,0.7672068578206505
56,0.7672068578206505
56,0.7672068578206505
56,0.7672068578206505
56,0.7672068578206505
56,0.7672068578206505
56,0.7672068578206505
56,0.7672068578206505
56,0.7672068578206505
56,0.7672068578206505
56,0.7672068578206505
56,0.7672068578206505
56,0.7672068578206505
56,0.7672068578206505
56,0.7672068578206505
56,0.7672068578206505
56,0.7672068578206505
56,0.7672068578206505
56,0.7672068578206505
56,0.7672068578206505
56,0.7672068578206505
56,0.7672068578206505
56,0.7672068578206505
56,0.7672068578206505
56,0.7672068578206505
56,0.7672068578206505
56,0.7672068578206505
56,0.7672068578206505
56,0.7672068578206505
56,0.7672068578206505
56,0.7672068578206505
57,0.7672068578206505
57,0.7672068578206505
57,0.7672068578206505
57,0.7672068578206505
57,0.7672068578206505
57,0.7672068578206505
57,0.7672068578206505
57,0.7672068578206505
57,0.7672068578206505
57,0.7672068578206505
57,0.7672068578206505
57,0.7672068578206505
57,0.7672068578206505
57,0.7672068578206505
57,0.7672068578206505
57,0.7672068578206505
57,0.7672068578206505
57,0.7672068578206505
57,0.7672068578206505
57,0.7672068578206505
57,0.7672068578206505
57,0.7672068578206505
57,0.7672068578206505
57,0.7672068578206505
57,0.7672068578206505
57,0.7672068578206505
57,0.7672068578206505
57,0.7672068578206505
57,0.7672068578206505
57,0.7672068578206505
57,0.7672068578206505
57,0.7672068578206505
57,0.7672068578206505
57,0.7672068578206505
57,0.7672068578206505
57,0.7672068578206505
57,0.7672068578206505
57,0.7672068578206505
57,0.7672068578206505
57,0.7672068578206505
57,0.7672068578206505
57,0.7672068578206505
57,0.7672068578206505
57,0.7672068578206505
57,0.7672068578206505
57,0.7672068578206505
57,0.7672068578206505
57,0.7672068578206505
57,0.7672068578206505
57,0.7672068578206505
57,0.7672068578206505
57,0.7672068578206505
58,0.7672068578206505
58,0.7672068578206505
58,0.7672068578206505
58,0.7672068578206505
58,0.7672068578206505
58,0.7672068578206505
58,0.7672068578206505
58,0.7672068578206505
58,0.7672068578206505
58,0.7672068578206505
58,0.7672068578206505
58,0.7672068578206505
58,0.7672068578206505
58,0.7672068578206505
58,0.7672068578206505
58,0.7672068578206505
58,0.7672068578206505
58,0.7672068578206505
58,0.7672068578206505
58,0.7672068578206505
58,0.7672068578206505
58,0.7672068578206505
58,0.7672068578206505
58,0.7672068578206505
58,0.7672068578206505
58,0.7672068578206505
58,0.7672068578206505
58,0.7672068578206505
58,0.7672068578206505
58,0.7672068578206505
58,0.7672068578206505
58,0.7672068578206505
58,0.7672068578206505
58,0.7672068578206505
58,0.7672068578206505
58,0.7672068578206505
58,0.7672068578206505
58,0.7672068578206505
58,0.7672068578206505
58,0.7672068578206505
58,0.7672068578206505
58,0.7672068578206505
58,0.7672068578206505
58,0.7672068578206505
58,0.7672068578206505
58,0.7672068578206505
58,0.7672068578206505
58,0.7672068578206505
58,0.7672068578206505
58,0.7672068578206505
58,0.7672068578206505
58,0.7672068578206505
58,0.7672068578206505
58,0.7672068578206505
58,0.7672068578206505
58,0.7672068578206505
59,0.7672068578206505
59,0.7672068578206505
59,0.7672068578206505
59,0.7672068578206505
59,0.7672068578206505
59,0.7672068578206505
59,0.7672068578206505
59,0.7672068578206505
59,0.7672068578206505
59,0.7672068578206505
59,0.7672068578206505
59,0.7672068578206505
59,0.7672068578206505
59,0.7672068578206505
59,0.7672068578206505
59,0.7672068578206505
59,0.7672068578206505
59,0.7672068578206505
59,0.7672068578206505
59,0.7672068578206505
59,0.7672068578206505
59,0.7672068578206505
59,0.7672068578206505
59,0.7672068578206505
59,0.7672068578206505
59,0.7672068578206505
59,0.7672068578206505
59,0.7672068578206505
59,0.7672068578206505
59,0.7672068578206505
59,0.7672068578206505
59,0.7672068578206505
59,0.7672068578206505
59,0.7672068578206505
59,0.7672068578206505
59,0.7672068578206505
59,0.7672068578206505
59,0.7672068578206505
59,0.7672068578206505
59,0.7672068578206505
59,0.7672068578206505
59,0.7672068578206505
59,0.7672068578206505
59,0.7672068578206505
59,0.7672068578206505
59,0.7672068578206505
59,0.7672068578206505
59,0.7672068578206505
59,0.7672068578206505
59,0.7672068578206505
59,0.7672068578206505
59,0.7672068578206505
59,0.7672068578206505
59,0.7672068578206505
59,0.7672068578206505
60,0.7672068578206505
60,0.7672068578206505
60,0.7672068578206505
60,0.7672068578206505
60,0.7672068578206505
60,0.7672068578206505
60,0.7672068578206505
60,0.7672068578206505
60,0.7672068578206505
60,0.7672068578206505
60,0.7672068578206505
60,0.7672068578206505
60,0.7672068578206505
60,0.7672068578206505
60,0.7672068578206505
60,0.7672068578206505
60,0.7672068578206505
60,0.7672068578206505
60,0.7672068578206505
60,0.7672068578206505
60,0.7672068578206505
60,0.7672068578206505
60,0.7672068578206505
60,0.7672068578206505
60,0.7672068578206505
60,0.7672068578206505
60,0.7672068578206505
60,0.7672068578206505
60,0.7672068578206505
60,0.7672068578206505
60,0.7672068578206505
60,0.7672068578206505
60,0.7672068578206505
60,0.7672068578206505
60,0.7672068578206505
60,0.7672068578206505
60,0.7672068578206505
60,0.7672068578206505
60,0.7672068578206505
60,0.7672068578206505
60,0.7672068578206505
60,0.7672068578206505
60,0.7672068578206505
60,0.7672068578206505
60,0.7672068578206505
60,0.7672068578206505
60,0.7672068578206505
60,0.7672068578206505
60,0.7672068578206505
60,0.7672068578206505
60,0.7672068578206505
60,0.7672068578206505
60,0.7672068578206505
60,0.7672068578206505
60,0.7672068578206505
60,0.7672068578206505
61,0.7672068578206505
61,0.7672068578206505
61,0.7672068578206505
61,0.7672068578206505
61,0.7672068578206505
61,0.7672068578206505
61,0.7672068578206505
61,0.7672068578206505
61,0.7672068578206505
61,0.7672068578206505
61,0.7672068578206505
61,0.7672068578206505
61,0.7672068578206505
61,0.7672068578206505
61,0.7672068578206505
61,0.7672068578206505
61,0.7672068578206505
61,0.7672068578206505
61,0.7672068578206505
61,0.7672068578206505
61,0.7672068578206505
61,0.7672068578206505
61,0.7672068578206505
61,0.7672068578206505
61,0.7672068578206505
61,0.7672068578206505
61,0.7672068578206505
61,0.7672068578206505
61,0.7672068578206505
61,0.7672068578206505
61,0.7672068578206505
61,0.7672068578206505
61,0.7672068578206505
61,0.7672068578206505
61,0.7672068578206505
61,0.7672068578206505
61,0.7672068578206505
61,0.7672068578206505
61,0.7672068578206505
61,0.7672068578206505
61,0.7672068578206505
61,0.7672068578206505
61,0.7672068578206505
61,0.7672068578206505
61,0.7672068578206505
61,0.7672068578206505
61,0.7672068578206505
61,0.7672068578206505
61,0.7672068578206505
61,0.7672068578206505
61,0.7672068578206505
61,0.7672068578206505
62,0.7672068578206505
62,0.7672068578206505
62,0.7672068578206505
62,0.7672068578206505
62,0.7672068578206505
62,0.7672068578206505
62,0.7672068578206505
62,0.7672068578206505
62,0.7672068578206505
62,0.7672068578206505
62,0.7672068578206505
62,0.7672068578206505
62,0.7672068578206505
62,0.7672068578206505
62,0.7672068578206505
62,0.7672068578206505
62,0.7672068578206505
62,0.7672068578206505
62,0.7672068578206505
62,0.7672068578206505
62,0.7672068578206505
62,0.7672068578206505
62,0.7672068578206505
62,0.7672068578206505
62,0.7672068578206505
62,0.7672068578206505
62,0.7672068578206505
62,0.7672068578206505
62,0.7672068578206505
62,0.7672068578206505
62,0.7672068578206505
62,0.7672068578206505
62,0.7672068578206505
62,0.7672068578206505
62,0.7672068578206505
62,0.7672068578206505
62,0.7672068578206505
62,0.7672068578206505
62,0.7672068578206505
62,0.7672068578206505
62,0.7672068578206505
62,0.7672068578206505
62,0.7672068578206505
62,0.7672068578206505
62,0.7672068578206505
62,0.7672068578206505
62,0.7672068578206505
62,0.7672068578206505
63,0.7672068578206505
63,0.7672068578206505
63,0.7672068578206505
63,0.7672068578206505
63,0.7672068578206505
63,0.7672068578206505
63,0.7672068578206505
63,0.7672068578206505
63,0.7672068578206505
63,0.7672068578206505
63,0.7672068578206505
63,0.7672068578206505
63,0.7672068578206505
63,0.7672068578206505
63,0.7672068578206505
63,0.7672068578206505
63,0.7672068578206505
63,0.7672068578206505
63,0.7672068578206505
63,0.7672068578206505
63,0.7672068578206505
63,0.7672068578206505
63,0.7672068578206505
63,0.7672068578206505
63,0.7672068578206505
63,0.7672068578206505
63,0.7672068578206505
63,0.7672068578206505
63,0.7672068578206505
63,0.7672068578206505
63,0.7672068578206505
63,0.7672068578206505
63,0.7672068578206505
63,0.7672068578206505
63,0.7672068578206505
63,0.7672068578206505
63,0.7672068578206505
63,0.7672068578206505
63,0.7672068578206505
63,0.7672068578206505
63,0.7672068578206505
63,0.7672068578206505
63,0.7672068578206505
63,0.7672068578206505
63,0.7672068578206505
63,0.7672068578206505
64,0.7672068578206505
64,0.7672068578206505
64,0.7672068578206505
64,0.7672068578206505
64,0.7672068578206505
64,0.7672068578206505
64,0.7672068578206505
64,0.7672068578206505
64,0.7672068578206505
64,0.7672068578206505
64,0.7672068578206505
64,0.7672068578206505
64,0.7672068578206505
64,0.7672068578206505
64,0.7672068578206505
64,0.7672068578206505
64,0.7672068578206505
64,0.7672068578206505
64,0.7672068578206505
64,0.7672068578206505
64,0.7672068578206505
64,0.7672068578206505
64,0.7672068578206505
64,0.7672068578206505
64,0.7672068578206505
64,0.7672068578206505
64,0.7672068578206505
64,0.7672068578206505
64,0.7672068578206505
64,0.7672068578206505
64,0.7672068578206505
64,0.7672068578206505
64,0.7672068578206505
64,0.7672068578206505
64,0.7672068578206505
64,0.7672068578206505
64,0.7672068578206505
64,0.7672068578206505
64,0.7672068578206505
64,0.7672068578206505
64,0.7672068578206505
64,0.7672068578206505
64,0.7672068578206505
64,0.7672068578206505
64,0.7672068578206505
64,0.7672068578206505
64,0.7672068578206505
64,0.7672068578206505
64,0.7672068578206505
64,0.7672068578206505
64,0.7672068578206505
64,0.7672068578206505
64,0.7672068578206505
64,0.7672068578206505
65,0.7672068578206505
65,0.7672068578206505
65,0.7672068578206505
65,0.7672068578206505
65,0.7672068578206505
65,0.7672068578206505
65,0.7672068578206505
65,0.7672068578206505
65,0.7672068578206505
65,0.7672068578206505
65,0.7672068578206505
65,0.7672068578206505
65,0.7672068578206505
65,0.7672068578206505
65,0.7672068578206505
65,0.7672068578206505
65,0.7672068578206505
65,0.7672068578206505
65,0.7672068578206505
65,0.7672068578206505
65,0.7672068578206505
65,0.7672068578206505
65,0.7672068578206505
65,0.7672068578206505
65,0.7672068578206505
65,0.7672068578206505
65,0.7672068578206505
65,0.7672068578206505
65,0.7672068578206505
65,0.7672068578206505
65,0.7672068578206505
65,0.7672068578206505
65,0.7672068578206505
65,0.7672068578206505
65,0.7672068578206505
65,0.7672068578206505
65,0.7672068578206505
65,0.7672068578206505
65,0.7672068578206505
65,0.7672068578206505
65,0.7672068578206505
65,0.7672068578206505
65,0.7672068578206505
65,0.7672068578206505
65,0.7672068578206505
65,0.7672068578206505
65,0.7672068578206505
65,0.7672068578206505
65,0.7672068578206505
66,0.7672068578206505
66,0.7672068578206505
66,0.7672068578206505
66,0.7672068578206505
66,0.7672068578206505
66,0.7672068578206505
66,0.7672068578206505
66,0.7672068578206505
66,0.7672068578206505
66,0.7672068578206505
66,0.7672068578206505
66,0.7672068578206505
66,0.7672068578206505
66,0.7672068578206505
66,0.7672068578206505
66,0.7672068578206505
66,0.7672068578206505
66,0.7672068578206505
66,0.7672068578206505
66,0.7672068578206505
66,0.7672068578206505
66,0.7672068578206505
66,0.7672068578206505
66,0.7672068578206505
66,0.7672068578206505
66,0.7672068578206505
66,0.7672068578206505
66,0.7672068578206505
66,0.7672068578206505
66,0.7672068578206505
66,0.7672068578206505
66,0.7672068578206505
66,0.7672068578206505
66,0.7672068578206505
66,0.7672068578206505
66,0.7672068578206505
66,0.7672068578206505
66,0.7672068578206505
66,0.7672068578206505
66,0.7672068578206505
66,0.7672068578206505
66,0.7672068578206505
66,0.7672068578206505
66,0.7672068578206505
66,0.7672068578206505
66,0.7672068578206505
66,0.7672068578206505
66,0.7672068578206505
66,0.7672068578206505
66,0.7672068578206505
66,0.7672068578206505
66,0.7672068578206505
66,0.7672068578206505
66,0.7672068578206505
67,0.7672068578206505
67,0.7672068578206505
67,0.7672068578206505
67,0.7672068578206505
67,0.7672068578206505
67,0.7672068578206505
67,0.7672068578206505
67,0.7672068578206505
67,0.7672068578206505
67,0.7672068578206505
67,0.7672068578206505
67,0.7672068578206505
67,0.7672068578206505
67,0.7672068578206505
67,0.7672068578206505
67,0.7672068578206505
67,0.7672068578206505
67,0.7672068578206505
67,0.7672068578206505
67,0.7672068578206505
67,0.7672068578206505
67,0.7672068578206505
67,0.7672068578206505
67,0.7672068578206505
67,0.7672068578206505
67,0.7672068578206505
67,0.7672068578206505
67,0.7672068578206505
67,0.7672068578206505
67,0.7672068578206505
67,0.7672068578206505
67,0.7672068578206505
67,0.7672068578206505
67,0.7672068578206505
67,0.7672068578206505
67,0.7672068578206505
67,0.7672068578206505
67,0.7672068578206505
67,0.7672068578206505
67,0.7672068578206505
67,0.7672068578206505
67,0.7672068578206505
67,0.7672068578206505
67,0.7672068578206505
67,0.7672068578206505
67,0.7672068578206505
67,0.7672068578206505
67,0.7672068578206505
67,0.7672068578206505
67,0.7672068578206505
67,0.7672068578206505
67,0.7672068578206505
67,0.7672068578206505
67,0.7672068578206505
67,0.7672068578206505
68,0.7672068578206505
68,0.7672068578206505
68,0.7672068578206505
68,0.7672068578206505
68,0.7672068578206505
68,0.7672068578206505
68,0.7672068578206505
68,0.7672068578206505
68,0.7672068578206505
68,0.7672068578206505
68,0.7672068578206505
68,0.7672068578206505
68,0.7672068578206505
68,0.7672068578206505
68,0.7672068578206505
68,0.7672068578206505
68,0.7672068578206505
68,0.7672068578206505
68,0.7672068578206505
68,0.7672068578206505
68,0.7672068578206505
68,0.7672068578206505
68,0.7672068578206505
68,0.7672068578206505
68,0.7672068578206505
68,0.7672068578206505
68,0.7672068578206505
68,0.7672068578206505
68,0.7672068578206505
68,0.7672068578206505
68,0.7672068578206505
68,0.7672068578206505
68,0.7672068578206505
68,0.7672068578206505
68,0.7672068578206505
68,0.7672068578206505
68,0.7672068578206505
68,0.7672068578206505
68,0.7672068578206505
68,0.7672068578206505
68,0.7672068578206505
68,0.7672068578206505
68,0.7672068578206505
68,0.7672068578206505
68,0.7672068578206505
68,0.7672068578206505
68,0.7672068578206505
68,0.7672068578206505
68,0.7672068578206505
68,0.7672068578206505
68,0.7672068578206505
68,0.7672068578206505
68,0.7672068578206505
68,0.7672068578206505
68,0.7672068578206505
68,0.7672068578206505
69,0.7672068578206505
69,0.7672068578206505
69,0.7672068578206505
69,0.7672068578206505
69,0.7672068578206505
69,0.7672068578206505
69,0.7672068578206505
69,0.7672068578206505
69,0.7672068578206505
69,0.7672068578206505
69,0.7672068578206505
69,0.7672068578206505
69,0.7672068578206505
69,0.7672068578206505
69,0.7672068578206505
69,0.7672068578206505
69,0.7672068578206505
69,0.7672068578206505
69,0.7672068578206505
69,0.7672068578206505
69,0.7672068578206505
69,0.7672068578206505
69,0.7672068578206505
69,0.7672068578206505
69,0.7672068578206505
69,0.7672068578206505
69,0.7672068578206505
69,0.7672068578206505
69,0.7672068578206505
69,0.7672068578206505
69,0.7672068578206505
69,0.7672068578206505
69,0.7672068578206505
69,0.7672068578206505
69,0.7672068578206505
69,0.7672068578206505
69,0.7672068578206505
69,0.7672068578206505
69,0.7672068578206505
69,0.7672068578206505
69,0.7672068578206505
69,0.7672068578206505
69,0.7672068578206505
69,0.7672068578206505
69,0.7672068578206505
69,0.7672068578206505
69,0.7672068578206505
69,0.7672068578206505
69,0.7672068578206505
69,0.7672068578206505
69,0.7672068578206505
69,0.7672068578206505
69,0.7672068578206505
69,0.7672068578206505
69,0.7672068578206505
70,0.7672068578206505
70,0.7672068578206505
70,0.7672068578206505
70,0.7672068578206505
70,0.7672068578206505
70,0.7672068578206505
70,0.7672068578206505
70,0.7672068578206505
70,0.7672068578206505
70,0.7672068578206505
70,0.7672068578206505
70,0.7672068578206505
70,0.7672068578206505
70,0.7672068578206505
70,0.7672068578206505
70,0.7672068578206505
70,0.7672068578206505
70,0.7672068578206505
70,0.7672068578206505
70,0.7672068578206505
70,0.7672068578206505
70,0.7672068578206505
70,0.7672068578206505
70,0.7672068578206505
70,0.7672068578206505
70,0.7672068578206505
70,0.7672068578206505
70,0.7672068578206505
70,0.7672068578206505
70,0.7672068578206505
70,0.7672068578206505
70,0.7672068578206505
70,0.7672068578206505
70,0.7672068578206505
70,0.7672068578206505
70,0.7672068578206505
70,0.7672068578206505
70,0.7672068578206505
70,0.7672068578206505
70,0.7672068578206505
70,0.7672068578206505
70,0.7672068578206505
70,0.7672068578206505
70,0.7672068578206505
70,0.7672068578206505
70,0.7672068578206505
70,0.7672068578206505
70,0.7672068578206505
70,0.7672068578206505
70,0.7672068578206505
70,0.7672068578206505
70,0.7672068578206505
70,0.7672068578206505
70,0.7672068578206505
70,0.7672068578206505
70,0.7672068578206505
71,0.7672068578206505
71,0.7672068578206505
71,0.7672068578206505
71,0.7672068578206505
71,0.7672068578206505
71,0.7672068578206505
71,0.7672068578206505
71,0.7672068578206505
71,0.7672068578206505
71,0.7672068578206505
71,0.7672068578206505
71,0.7672068578206505
71,0.7672068578206505
71,0.7672068578206505
71,0.7672068578206505
71,0.7672068578206505
71,0.7672068578206505
71,0.7672068578206505
71,0.7672068578206505
71,0.7672068578206505
71,0.7672068578206505
71,0.7672068578206505
71,0.7672068578206505
71,0.7672068578206505
71,0.7672068578206505
71,0.7672068578206505
71,0.7672068578206505
71,0.7672068578206505
71,0.7672068578206505
71,0.7672068578206505
71,0.7672068578206505
71,0.7672068578206505
71,0.7672068578206505
71,0.7672068578206505
71,0.7672068578206505
71,0.7672068578206505
71,0.7672068578206505
71,0.7672068578206505
71,0.7672068578206505
71,0.7672068578206505
71,0.7672068578206505
71,0.7672068578206505
71,0.7672068578206505
71,0.7672068578206505
71,0.7672068578206505
71,0.7672068578206505
71,0.7672068578206505
71,0.7672068578206505
71,0.7672068578206505
71,0.7672068578206505
71,0.7672068578206505
71,0.7672068578206505
71,0.7672068578206505
72,0.7672068578206505
72,0.7672068578206505
72,0.7672068578206505
72,0.7672068578206505
72,0.7672068578206505
72,0.7672068578206505
72,0.7672068578206505
72,0.7672068578206505
72,0.7672068578206505
72,0.7672068578206505
72,0.7672068578206505
72,0.7672068578206505
72,0.7672068578206505
72,0.7672068578206505
72,0.7672068578206505
72,0.7672068578206505
72,0.7672068578206505
72,0.7672068578206505
72,0.7672068578206505
72,0.7672068578206505
72,0.7672068578206505
72,0.7672068578206505
72,0.7672068578206505
72,0.7672068578206505
72,0.7672068578206505
72,0.7672068578206505
72,0.7672068578206505
72,0.7672068578206505
72,0.7672068578206505
72,0.7672068578206505
72,0.7672068578206505
72,0.7672068578206505
72,0.7672068578206505
72,0.7672068578206505
72,0.7672068578206505
72,0.7672068578206505
72,0.7672068578206505
72,0.7672068578206505
72,0.7672068578206505
72,0.7672068578206505
72,0.7672068578206505
72,0.7672068578206505
72,0.7672068578206505
72,0.7672068578206505
72,0.7672068578206505
72,0.7672068578206505
72,0.7672068578206505
72,0.7672068578206505
72,0.7672068578206505
72,0.7672068578206505
72,0.7672068578206505
72,0.7672068578206505
72,0.7672068578206505
72,0.7672068578206505
73,0.7672068578206505
73,0.7672068578206505
73,0.7672068578206505
73,0.7672068578206505
73,0.7672068578206505
73,0.7672068578206505
73,0.7672068578206505
73,0.7672068578206505
73,0.7672068578206505
73,0.7672068578206505
73,0.7672068578206505
73,0.7672068578206505
73,0.7672068578206505
73,0.7672068578206505
73,0.7672068578206505
73,0.7672068578206505
73,0.7672068578206505
73,0.7672068578206505
73,0.7672068578206505
73,0.7672068578206505
73,0.7672068578206505
73,0.7672068578206505
73,0.7672068578206505
73,0.7672068578206505
73,0.7672068578206505
73,0.7672068578206505
73,0.7672068578206505
73,0.7672068578206505
73,0.7672068578206505
73,0.7672068578206505
73,0.7672068578206505
73,0.7672068578206505
73,0.7672068578206505
73,0.7672068578206505
73,0.7672068578206505
73,0.7672068578206505
73,0.7672068578206505
73,0.7672068578206505
73,0.7672068578206505
73,0.7672068578206505
73,0.7672068578206505
73,0.7672068578206505
73,0.7672068578206505
73,0.7672068578206505
73,0.7672068578206505
73,0.7672068578206505
73,0.7672068578206505
73,0.7672068578206505
73,0.7672068578206505
73,0.7672068578206505
73,0.7672068578206505
73,0.7672068578206505
74,0.7672068578206505
74,0.7672068578206505
74,0.7672068578206505
74,0.7672068578206505
74,0.7672068578206505
74,0.7672068578206505
74,0.7672068578206505
74,0.7672068578206505
74,0.7672068578206505
74,0.7672068578206505
74,0.7672068578206505
74,0.7672068578206505
74,0.7672068578206505
74,0.7672068578206505
74,0.7672068578206505
74,0.7672068578206505
74,0.7672068578206505
74,0.7672068578206505
74,0.7672068578206505
74,0.7672068578206505
74,0.7672068578206505
74,0.7672068578206505
74,0.7672068578206505
74,0.7672068578206505
74,0.7672068578206505
74,0.7672068578206505
74,0.7672068578206505
74,0.7672068578206505
74,0.7672068578206505
74,0.7672068578206505
74,0.7672068578206505
74,0.7672068578206505
74,0.7672068578206505
74,0.7672068578206505
74,0.7672068578206505
74,0.7672068578206505
74,0.7672068578206505
74,0.7672068578206505
74,0.7672068578206505
74,0.7672068578206505
74,0.7672068578206505
74,0.7672068578206505
74,0.7672068578206505
74,0.7672068578206505
74,0.7672068578206505
74,0.7672068578206505
74,0.7672068578206505
74,0.7672068578206505
74,0.7672068578206505
74,0.7672068578206505
74,0.7672068578206505
74,0.7672068578206505
74,0.7672068578206505
74,0.7672068578206505
74,0.7672068578206505
75,0.7672068578206505
75,0.7672068578206505
75,0.7672068578206505
75,0.7672068578206505
75,0.7672068578206505
75,0.7672068578206505
75,0.7672068578206505
75,0.7672068578206505
75,0.7672068578206505
75,0.7672068578206505
75,0.7672068578206505
75,0.7672068578206505
75,0.7672068578206505
75,0.7672068578206505
75,0.7672068578206505
75,0.7672068578206505
75,0.7672068578206505
75,0.7672068578206505
75,0.7672068578206505
75,0.7672068578206505
75,0.7672068578206505
75,0.7672068578206505
75,0.7672068578206505
75,0.7672068578206505
75,0.7672068578206505
75,0.7672068578206505
75,0.7672068578206505
75,0.7672068578206505
75,0.7672068578206505
75,0.7672068578206505
75,0.7672068578206505
75,0.7672068578206505
75,0.7672068578206505
75,0.7672068578206505
75,0.7672068578206505
75,0.7672068578206505
75,0.7672068578206505
75,0.7672068578206505
75,0.7672068578206505
75,0.7672068578206505
75,0.7672068578206505
75,0.7672068578206505
75,0.7672068578206505
75,0.7672068578206505
75,0.7672068578206505
75,0.7672068578206505
75,0.7672068578206505
75,0.7672068578206505
75,0.7672068578206505
75,0.7672068578206505
75,0.7672068578206505
75,0.7672068578206505
75,0.7672068578206505
75,0.7672068578206505
75,0.7672068578206505
75,0.7672068578206505
76,0.7672068578206505
76,0.7672068578206505
76,0.7672068578206505
76,0.7672068578206505
76,0.7672068578206505
76,0.7672068578206505
76,0.7672068578206505
76,0.7672068578206505
76,0.7672068578206505
76,0.7672068578206505
76,0.7672068578206505
76,0.7672068578206505
76,0.7672068578206505
76,0.7672068578206505
76,0.7672068578206505
76,0.7672068578206505
76,0.7672068578206505
76,0.7672068578206505
76,0.7672068578206505
76,0.7672068578206505
76,0.7672068578206505
76,0.7672068578206505
76,0.7672068578206505
76,0.7672068578206505
76,0.7672068578206505
76,0.7672068578206505
76,0.7672068578206505
76,0.7672068578206505
76,0.7672068578206505
76,0.7672068578206505
76,0.7672068578206505
76,0.7672068578206505
76,0.7672068578206505
76,0.7672068578206505
76,0.7672068578206505
76,0.7672068578206505
76,0.7672068578206505
76,0.7672068578206505
76,0.7672068578206505
76,0.7672068578206505
76,0.7672068578206505
76,0.7672068578206505
76,0.7672068578206505
76,0.7672068578206505
76,0.7672068578206505
76,0.7672068578206505
76,0.7672068578206505
76,0.7672068578206505
76,0.7672068578206505
76,0.7672068578206505
76,0.7672068578206505
76,0.7672068578206505
76,0.7672068578206505
76,0.7672068578206505
76,0.7672068578206505
76,0.7672068578206505
76,0.7672068578206505
77,0.7672068578206505
77,0.7672068578206505
77,0.7672068578206505
77,0.7672068578206505
77,0.7672068578206505
77,0.7672068578206505
77,0.7672068578206505
77,0.7672068578206505
77,0.7672068578206505
77,0.7672068578206505
77,0.7672068578206505
77,0.7672068578206505
77,0.7672068578206505
77,0.7672068578206505
77,0.7672068578206505
77,0.7672068578206505
77,0.7672068578206505
77,0.7672068578206505
77,0.7672068578206505
77,0.7672068578206505
77,0.7672068578206505
77,0.7672068578206505
77,0.7672068578206505
77,0.7672068578206505
77,0.7672068578206505
77,0.7672068578206505
77,0.7672068578206505
77,0.7672068578206505
77,0.7672068578206505
77,0.7672068578206505
77,0.7672068578206505
77,0.7672068578206505
77,0.7672068578206505
77,0.7672068578206505
77,0.7672068578206505
77,0.7672068578206505
77,0.7672068578206505
77,0.7672068578206505
77,0.7672068578206505
77,0.7672068578206505
77,0.7672068578206505
77,0.7672068578206505
77,0.7672068578206505
77,0.7672068578206505
77,0.7672068578206505
77,0.7672068578206505
77,0.7672068578206505
77,0.7672068578206505
77,0.7672068578206505
77,0.7672068578206505
77,0.7672068578206505
77,0.7672068578206505
77,0.7672068578206505
77,0.7672068578206505
77,0.7672068578206505
77,0.7672068578206505
77,0.7672068578206505
78,0.7672068578206505
78,0.7672068578206505
78,0.7672068578206505
78,0.7672068578206505
78,0.7672068578206505
78,0.7672068578206505
78,0.7672068578206505
78,0.7672068578206505
78,0.7672068578206505
78,0.7672068578206505
78,0.7672068578206505
78,0.7672068578206505
78,0.7672068578206505
78,0.7672068578206505
78,0.7672068578206505
78,0.7672068578206505
78,0.7672068578206505
78,0.7672068578206505
78,0.7672068578206505
78,0.7672068578206505
78,0.7672068578206505
78,0.7672068578206505
78,0.7672068578206505
78,0.7672068578206505
78,0.7672068578206505
78,0.7672068578206505
78,0.7672068578206505
78,0.7672068578206505
78,0.7672068578206505
78,0.7672068578206505
78,0.7672068578206505
78,0.7672068578206505
78,0.7672068578206505
78,0.7672068578206505
78,0.7672068578206505
78,0.7672068578206505
78,0.7672068578206505
78,0.7672068578206505
78,0.7672068578206505
78,0.7672068578206505
78,0.7672068578206505
78,0.7672068578206505
78,0.7672068578206505
78,0.7672068578206505
78,0.7672068578206505
78,0.7672068578206505
78,0.7672068578206505
78,0.7672068578206505
78,0.7672068578206505
78,0.7672068578206505
78,0.7672068578206505
78,0.7672068578206505
78,0.7672068578206505
78,0.7672068578206505
78,0.7672068578206505
78,0.7672068578206505
78,0.7672068578206505
79,0.7672068578206505
79,0.7672068578206505
79,0.7672068578206505
79,0.7672068578206505
79,0.7672068578206505
79,0.7672068578206505
79,0.7672068578206505
79,0.7672068578206505
79,0.7672068578206505
79,0.7672068578206505
79,0.7672068578206505
79,0.7672068578206505
79,0.7672068578206505
79,0.7672068578206505
79,0.7672068578206505
79,0.7672068578206505
79,0.7672068578206505
79,0.7672068578206505
79,0.7672068578206505
79,0.7672068578206505
79,0.7672068578206505
79,0.7672068578206505
79,0.7672068578206505
79,0.7672068578206505
79,0.7672068578206505
79,0.7672068578206505
79,0.7672068578206505
79,0.7672068578206505
79,0.7672068578206505
79,0.7672068578206505
79,0.7672068578206505
79,0.7672068578206505
79,0.7672068578206505
79,0.7672068578206505
79,0.7672068578206505
79,0.7672068578206505
79,0.7672068578206505
79,0.7672068578206505
79,0.7672068578206505
79,0.7672068578206505
79,0.7672068578206505
79,0.7672068578206505
79,0.7672068578206505
79,0.7672068578206505
79,0.7672068578206505
79,0.7672068578206505
79,0.7672068578206505
79,0.7672068578206505
79,0.7672068578206505
79,0.7672068578206505
79,0.7672068578206505
79,0.7672068578206505
79,0.7672068578206505
79,0.7672068578206505
79,0.7672068578206505
79,0.7672068578206505
79,0.7672068578206505
80,0.7672068578206505
