2,0.612023824031463
4,0.612023824031463
5,0.6845502293147999
5,0.6845502293147999
6,0.6845502293147999
7,0.6845502293147999
7,0.6845502293147999
8,0.6845502293147999
9,0.6845502293147999
9,0.6845502293147999
10,0.6845502293147999
11,0.6845502293147999
11,0.6845502293147999
12,0.6845502293147999
12,0.6845502293147999
13,0.6845502293147999
14,0.6845502293147999
14,0.6845502293147999
15,0.6845502293147999
15,0.6845502293147999
16,0.6845502293147999
17,0.6845502293147999
17,0.6845502293147999
18,0.6845502293147999
18,0.6845502293147999
19,0.6845502293147999
19,0.6845502293147999
20,0.6845502293147999
21,0.6845502293147999
21,0.6845502293147999
22,0.6845502293147999
22,0.6845502293147999
23,0.6845502293147999
24,0.6845502293147999
24,0.6845502293147999
25,0.6845502293147999
25,0.6845502293147999
26,0.6845502293147999
27,0.6845502293147999
27,0.6845502293147999
28,0.6845502293147999
29,0.6845502293147999
29,0.6845502293147999
30,0.6845502293147999
30,0.6845502293147999
31,0.6845502293147999
31,0.6845502293147999
32,0.6845502293147999
33,0.6845502293147999
33,0.6845502293147999
34,0.6845502293147999
34,0.6845502293147999
35,0.6845502293147999
35,0.6845502293147999
36,0.6845502293147999
37,0.6845502293147999
37,0.6845502293147999
38,0.6845502293147999
38,0.6845502293147999
39,0.6845502293147999
40,0.6845502293147999
40,0.6845502293147999
41,0.6845502293147999
41,0.6845502293147999
42,0.6845502293147999
43,0.6845502293147999
43,0.6845502293147999
44,0.6845502293147999
45,0.6845502293147999
45,0.6845502293147999
46,0.6845502293147999
46,0.6845502293147999
47,0.6845502293147999
48,0.6845502293147999
48,0.6845502293147999
49,0.6845502293147999
49,0.6845502293147999
50,0.6845502293147999
51,0.6845502293147999
51,0.6845502293147999
52,0.6845502293147999
53,0.6845502293147999
53,0.6845502293147999
54,0.6845502293147999
55,0.6845502293147999
56,0.6845502293147999
56,0.6845502293147999
57,0.6845502293147999
58,0.6845502293147999
58,0.6845502293147999
59,0.6845502293147999
59,0.6845502293147999
60,0.6845502293147999
61,0.6845502293147999
61,0.6845502293147999
62,0.6845502293147999
63,0.6845502293147999
63,0.6845502293147999
64,0.6845502293147999
64,0.6845502293147999
65,0.6845502293147999
66,0.6845502293147999
66,0.6845502293147999
67,0.6845502293147999
67,0.6845502293147999
68,0.6845502293147999
69,0.6845502293147999
69,0.6845502293147999
70,0.6845502293147999
71,0.6845502293147999
71,0.6845502293147999
72,0.6845502293147999
72,0.6845502293147999
73,0.6845502293147999
74,0.6845502293147999
74,0.6845502293147999
75,0.6845502293147999
76,0.6845502293147999
76,0.6845502293147999
77,0.6845502293147999
78,0.6845502293147999
78,0.6845502293147999
79,0.6845502293147999
79,0.6845502293147999
80,0.6845502293147999
81,0.6845502293147999
81,0.6845502293147999
82,0.6845502293147999
83,0.6845502293147999
83,0.6845502293147999
84,0.6845502293147999
84,0.6845502293147999
85,0.6845502293147999
86,0.6845502293147999
86,0.6845502293147999
87,0.6845502293147999
87,0.6845502293147999
88,0.6845502293147999
89,0.6845502293147999
89,0.6845502293147999
90,0.6845502293147999
90,0.6845502293147999
91,0.6845502293147999
91,0.6845502293147999
92,0.6845502293147999
93,0.6845502293147999
93,0.6845502293147999
94,0.6845502293147999
94,0.6845502293147999
95,0.6845502293147999
96,0.6845502293147999
96,0.6845502293147999
97,0.6845502293147999
97,0.6845502293147999
98,0.6845502293147999
98,0.6845502293147999
99,0.6845502293147999
100,0.6845502293147999
100,0.6845502293147999
101,0.6845502293147999
101,0.6845502293147999
102,0.6845502293147999
102,0.6845502293147999
103,0.6845502293147999
103,0.6845502293147999
104,0.6845502293147999
104,0.6845502293147999
105,0.6845502293147999
106,0.6845502293147999
106,0.6845502293147999
107,0.6845502293147999
107,0.6845502293147999
108,0.6845502293147999
109,0.6845502293147999
109,0.6845502293147999
110,0.6845502293147999
110,0.6845502293147999
111,0.6845502293147999
111,0.6845502293147999
112,0.6845502293147999
113,0.6845502293147999
113,0.6845502293147999
114,0.6845502293147999
114,0.6845502293147999
115,0.6845502293147999
115,0.6845502293147999
116,0.6845502293147999
117,0.6845502293147999
117,0.6845502293147999
118,0.6845502293147999
118,0.6845502293147999
119,0.6845502293147999
119,0.6845502293147999
120,0.6845502293147999
121,0.6845502293147999
121,0.6845502293147999
122,0.6845502293147999
122,0.6845502293147999
123,0.6845502293147999
124,0.6845502293147999
124,0.6845502293147999
125,0.6845502293147999
125,0.6845502293147999
126,0.6845502293147999
126,0.6845502293147999
127,0.6845502293147999
128,0.6845502293147999
128,0.6845502293147999
129,0.6845502293147999
129,0.6845502293147999
130,0.6845502293147999
131,0.6845502293147999
131,0.6845502293147999
132,0.6845502293147999
132,0.6845502293147999
133,0.6845502293147999
134,0.6845502293147999
134,0.6845502293147999
135,0.6845502293147999
135,0.6845502293147999
136,0.6845502293147999
136,0.6845502293147999
137,0.6845502293147999
138,0.6845502293147999
138,0.6845502293147999
139,0.6845502293147999
139,0.6845502293147999
140,0.6845502293147999
141,0.6845502293147999
141,0.6845502293147999
142,0.6845502293147999
142,0.6845502293147999
143,0.6845502293147999
143,0.6845502293147999
144,0.6845502293147999
144,0.6845502293147999
145,0.6845502293147999
146,0.6845502293147999
146,0.6845502293147999
147,0.6845502293147999
147,0.6845502293147999
148,0.6845502293147999
148,0.6845502293147999
149,0.6845502293147999
150,0.6845502293147999
