0,0.5363443162007201
1,0.6327368379828957
2,0.6327368379828957
2,0.6327368379828957
3,0.6327368379828957
3,0.6327368379828957
4,0.6327368379828957
5,0.6327368379828957
5,0.6327368379828957
6,0.6327368379828957
6,0.6327368379828957
7,0.6327368379828957
8,0.6327368379828957
8,0.6327368379828957
9,0.6327368379828957
9,0.6327368379828957
10,0.6327368379828957
10,0.6327368379828957
11,0.6327368379828957
12,0.6327368379828957
12,0.6327368379828957
13,0.6327368379828957
13,0.6327368379828957
14,0.6327368379828957
14,0.6327368379828957
15,0.6327368379828957
15,0.6327368379828957
16,0.6327368379828957
16,0.6327368379828957
17,0.6327368379828957
17,0.6327368379828957
18,0.6327368379828957
19,0.6327368379828957
19,0.6327368379828957
20,0.6327368379828957
20,0.6327368379828957
21,0.6327368379828957
21,0.6327368379828957
22,0.6327368379828957
22,0.6327368379828957
23,0.6327368379828957
23,0.6327368379828957
24,0.6327368379828957
24,0.6327368379828957
25,0.6327368379828957
26,0.6327368379828957
26,0.6327368379828957
27,0.6327368379828957
27,0.6327368379828957
28,0.6327368379828957
28,0.6327368379828957
29,0.6327368379828957
29,0.6327368379828957
30,0.6327368379828957
30,0.6327368379828957
31,0.6327368379828957
31,0.6327368379828957
32,0.6327368379828957
33,0.6327368379828957
33,0.6327368379828957
34,0.6327368379828957
34,0.6327368379828957
35,0.6327368379828957
35,0.6327368379828957
36,0.6327368379828957
36,0.6327368379828957
37,0.6327368379828957
37,0.6327368379828957
38,0.6327368379828957
39,0.6327368379828957
39,0.6327368379828957
40,0.6327368379828957
40,0.6327368379828957
41,0.6327368379828957
41,0.6327368379828957
42,0.6327368379828957
43,0.6327368379828957
43,0.6327368379828957
44,0.6327368379828957
44,0.6327368379828957
45,0.6327368379828957
45,0.6327368379828957
46,0.6327368379828957
47,0.6327368379828957
47,0.6327368379828957
48,0.6327368379828957
48,0.6327368379828957
49,0.6327368379828957
49,0.6327368379828957
50,0.6327368379828957
51,0.6327368379828957
51,0.6327368379828957
52,0.6327368379828957
52,0.6327368379828957
53,0.6327368379828957
53,0.6327368379828957
54,0.6327368379828957
54,0.6327368379828957
55,0.6327368379828957
55,0.6327368379828957
56,0.6327368379828957
56,0.6327368379828957
57,0.6327368379828957
57,0.6327368379828957
58,0.6327368379828957
58,0.6327368379828957
59,0.6327368379828957
59,0.6327368379828957
60,0.6327368379828957
60,0.6327368379828957
61,0.6327368379828957
62,0.6327368379828957
62,0.6327368379828957
63,0.6327368379828957
63,0.6327368379828957
64,0.6327368379828957
64,0.6327368379828957
65,0.6327368379828957
66,0.6327368379828957
66,0.6327368379828957
67,0.6327368379828957
67,0.6327368379828957
68,0.6327368379828957
69,0.6327368379828957
69,0.6327368379828957
70,0.6327368379828957
70,0.6327368379828957
71,0.6327368379828957
71,0.6327368379828957
72,0.6327368379828957
72,0.6327368379828957
73,0.6327368379828957
74,0.6327368379828957
74,0.6327368379828957
75,0.6327368379828957
75,0.6327368379828957
76,0.6327368379828957
76,0.6327368379828957
77,0.6327368379828957
77,0.6327368379828957
78,0.6327368379828957
79,0.6327368379828957
79,0.6327368379828957
80,0.6327368379828957
80,0.6327368379828957
81,0.6327368379828957
81,0.6327368379828957
82,0.6327368379828957
83,0.6327368379828957
83,0.6327368379828957
84,0.6327368379828957
84,0.6327368379828957
85,0.6327368379828957
86,0.6327368379828957
86,0.6327368379828957
87,0.6327368379828957
87,0.6327368379828957
88,0.6327368379828957
88,0.6327368379828957
89,0.6327368379828957
90,0.6327368379828957
90,0.6327368379828957
91,0.6327368379828957
91,0.6327368379828957
92,0.6327368379828957
93,0.6327368379828957
93,0.6327368379828957
94,0.6327368379828957
94,0.6327368379828957
95,0.6327368379828957
95,0.6327368379828957
96,0.6327368379828957
97,0.6327368379828957
97,0.6327368379828957
98,0.6327368379828957
98,0.6327368379828957
99,0.6327368379828957
99,0.6327368379828957
100,0.6327368379828957
100,0.6327368379828957
101,0.6327368379828957
102,0.6327368379828957
102,0.6327368379828957
103,0.6327368379828957
103,0.6327368379828957
104,0.6327368379828957
104,0.6327368379828957
105,0.6327368379828957
106,0.6327368379828957
106,0.6327368379828957
107,0.6327368379828957
107,0.6327368379828957
108,0.6327368379828957
108,0.6327368379828957
109,0.6327368379828957
109,0.6327368379828957
110,0.6327368379828957
111,0.6327368379828957
111,0.6327368379828957
112,0.6327368379828957
112,0.6327368379828957
113,0.6327368379828957
113,0.6327368379828957
114,0.6327368379828957
114,0.6327368379828957
115,0.6327368379828957
116,0.6327368379828957
116,0.6327368379828957
117,0.6327368379828957
117,0.6327368379828957
118,0.6327368379828957
119,0.6327368379828957
119,0.6327368379828957
120,0.6327368379828957
121,0.6327368379828957
121,0.6327368379828957
122,0.6327368379828957
122,0.6327368379828957
123,0.6327368379828957
123,0.6327368379828957
124,0.6327368379828957
124,0.6327368379828957
125,0.6327368379828957
125,0.6327368379828957
126,0.6327368379828957
126,0.6327368379828957
127,0.6327368379828957
127,0.6327368379828957
128,0.6327368379828957
128,0.6327368379828957
129,0.6327368379828957
129,0.6327368379828957
130,0.6327368379828957
131,0.6327368379828957
131,0.6327368379828957
132,0.6327368379828957
132,0.6327368379828957
133,0.6327368379828957
133,0.6327368379828957
134,0.6327368379828957
134,0.6327368379828957
135,0.6327368379828957
135,0.6327368379828957
136,0.6327368379828957
136,0.6327368379828957
137,0.6327368379828957
137,0.6327368379828957
138,0.6327368379828957
139,0.6327368379828957
139,0.6327368379828957
140,0.6327368379828957
140,0.6327368379828957
141,0.6327368379828957
141,0.6327368379828957
142,0.6327368379828957
142,0.6327368379828957
143,0.6327368379828957
144,0.6327368379828957
144,0.6327368379828957
145,0.6327368379828957
145,0.6327368379828957
146,0.6327368379828957
146,0.6327368379828957
147,0.6327368379828957
147,0.6327368379828957
148,0.6327368379828957
148,0.6327368379828957
149,0.6327368379828957
149,0.6327368379828957
150,0.6327368379828957
