1,0.6404063101525952
1,0.6404063101525952
2,0.6404063101525952
3,0.6404063101525952
3,0.6404063101525952
4,0.6404063101525952
4,0.6404063101525952
5,0.6404063101525952
5,0.6404063101525952
6,0.6404063101525952
7,0.6404063101525952
7,0.6404063101525952
8,0.6404063101525952
8,0.6404063101525952
9,0.6404063101525952
9,0.6404063101525952
10,0.6404063101525952
11,0.6404063101525952
11,0.6404063101525952
12,0.6404063101525952
12,0.6404063101525952
13,0.6404063101525952
13,0.6404063101525952
14,0.6404063101525952
15,0.6404063101525952
15,0.6404063101525952
16,0.6404063101525952
16,0.6404063101525952
17,0.6404063101525952
18,0.6404063101525952
18,0.6404063101525952
19,0.6404063101525952
19,0.6404063101525952
20,0.6404063101525952
20,0.6404063101525952
21,0.6404063101525952
22,0.6404063101525952
22,0.6404063101525952
23,0.6404063101525952
23,0.6404063101525952
24,0.6404063101525952
24,0.6404063101525952
25,0.6404063101525952
25,0.6404063101525952
26,0.6404063101525952
27,0.6404063101525952
27,0.6404063101525952
28,0.6580449141737702
28,0.6580449141737702
29,0.6580449141737702
29,0.6580449141737702
30,0.6580449141737702
31,0.6663834429794767
31,0.6663834429794767
32,0.6663834429794767
32,0.6663834429794767
33,0.6663834429794767
33,0.6663834429794767
34,0.6663834429794767
34,0.6663834429794767
35,0.6663834429794767
35,0.6663834429794767
36,0.6663834429794767
36,0.6663834429794767
37,0.6663834429794767
37,0.6663834429794767
38,0.6663834429794767
38,0.6663834429794767
39,0.6663834429794767
40,0.6663834429794767
40,0.6663834429794767
41,0.6663834429794767
41,0.6663834429794767
42,0.6663834429794767
42,0.6663834429794767
43,0.6663834429794767
43,0.6663834429794767
44,0.6663834429794767
45,0.6663834429794767
45,0.6663834429794767
46,0.6663834429794767
46,0.6663834429794767
47,0.6663834429794767
47,0.6663834429794767
48,0.6663834429794767
48,0.6663834429794767
49,0.6663834429794767
49,0.6663834429794767
50,0.6663834429794767
50,0.6663834429794767
51,0.6663834429794767
51,0.6663834429794767
52,0.6663834429794767
53,0.6663834429794767
53,0.6663834429794767
54,0.6663834429794767
54,0.6663834429794767
55,0.6663834429794767
55,0.6663834429794767
56,0.6663834429794767
56,0.6663834429794767
57,0.6663834429794767
57,0.6663834429794767
58,0.6663834429794767
58,0.6663834429794767
59,0.6663834429794767
59,0.6663834429794767
60,0.6663834429794767
60,0.6663834429794767
61,0.6663834429794767
61,0.6663834429794767
62,0.6663834429794767
62,0.6663834429794767
63,0.6663834429794767
63,0.6663834429794767
64,0.6663834429794767
64,0.6663834429794767
65,0.6663834429794767
66,0.6663834429794767
66,0.6663834429794767
67,0.6663834429794767
67,0.6663834429794767
68,0.6663834429794767
68,0.6663834429794767
69,0.6663834429794767
69,0.6663834429794767
70,0.6663834429794767
70,0.6663834429794767
71,0.6663834429794767
71,0.6663834429794767
72,0.6663834429794767
73,0.6663834429794767
73,0.6663834429794767
74,0.6663834429794767
74,0.6663834429794767
75,0.6663834429794767
75,0.6663834429794767
76,0.6663834429794767
76,0.6663834429794767
77,0.6663834429794767
77,0.6663834429794767
78,0.6663834429794767
78,0.6663834429794767
79,0.6663834429794767
79,0.6663834429794767
80,0.6663834429794767
80,0.6663834429794767
81,0.6663834429794767
81,0.6663834429794767
82,0.6663834429794767
82,0.6663834429794767
83,0.6663834429794767
84,0.6663834429794767
84,0.6663834429794767
85,0.6663834429794767
85,0.6663834429794767
86,0.6663834429794767
86,0.6663834429794767
87,0.6663834429794767
87,0.6663834429794767
88,0.6663834429794767
88,0.6663834429794767
89,0.6663834429794767
89,0.6663834429794767
90,0.6663834429794767
90,0.6663834429794767
91,0.6663834429794767
91,0.6663834429794767
92,0.6663834429794767
93,0.6663834429794767
93,0.6663834429794767
94,0.6663834429794767
94,0.6663834429794767
95,0.6663834429794767
95,0.6663834429794767
96,0.6663834429794767
97,0.6663834429794767
97,0.6663834429794767
98,0.6663834429794767
98,0.6663834429794767
99,0.6663834429794767
99,0.6663834429794767
100,0.6663834429794767
100,0.6663834429794767
101,0.6663834429794767
101,0.6663834429794767
102,0.6663834429794767
102,0.6663834429794767
103,0.6663834429794767
103,0.6663834429794767
104,0.6663834429794767
104,0.6663834429794767
105,0.6663834429794767
105,0.6663834429794767
106,0.6663834429794767
107,0.6663834429794767
107,0.6663834429794767
108,0.6663834429794767
108,0.6663834429794767
109,0.6663834429794767
109,0.6663834429794767
110,0.6663834429794767
110,0.6663834429794767
111,0.6663834429794767
111,0.6663834429794767
112,0.6663834429794767
112,0.6663834429794767
113,0.6663834429794767
113,0.6663834429794767
114,0.6663834429794767
115,0.6663834429794767
115,0.6663834429794767
116,0.6663834429794767
116,0.6663834429794767
117,0.6663834429794767
117,0.6663834429794767
118,0.6663834429794767
118,0.6663834429794767
119,0.6663834429794767
119,0.6663834429794767
120,0.6663834429794767
120,0.6663834429794767
121,0.6663834429794767
121,0.6663834429794767
122,0.6663834429794767
123,0.6663834429794767
123,0.6663834429794767
124,0.6663834429794767
124,0.6663834429794767
125,0.6663834429794767
125,0.6663834429794767
126,0.6663834429794767
126,0.6663834429794767
127,0.6663834429794767
127,0.6663834429794767
128,0.6663834429794767
128,0.6663834429794767
129,0.6663834429794767
129,0.6663834429794767
130,0.6663834429794767
130,0.6663834429794767
131,0.6663834429794767
131,0.6663834429794767
132,0.6663834429794767
133,0.6663834429794767
133,0.6663834429794767
134,0.6663834429794767
134,0.6663834429794767
135,0.6663834429794767
135,0.6663834429794767
136,0.6663834429794767
136,0.6663834429794767
137,0.6663834429794767
137,0.6663834429794767
138,0.6663834429794767
138,0.6663834429794767
139,0.6663834429794767
139,0.6663834429794767
140,0.6663834429794767
140,0.6663834429794767
141,0.6663834429794767
142,0.6663834429794767
142,0.6663834429794767
143,0.6663834429794767
143,0.6663834429794767
144,0.6663834429794767
144,0.6663834429794767
145,0.6663834429794767
145,0.6663834429794767
146,0.6663834429794767
146,0.6663834429794767
147,0.6663834429794767
147,0.6663834429794767
148,0.6663834429794767
148,0.6663834429794767
149,0.6663834429794767
149,0.6663834429794767
150,0.6663834429794767
