0,0.27380226520661893
0,0.27380226520661893
1,0.33049813716835036
1,0.33049813716835036
2,0.33049813716835036
2,0.33049813716835036
3,0.33049813716835036
3,0.33548097222248946
3,0.33548097222248946
4,0.3387265527498229
4,0.36495307535281096
4,0.36495307535281096
5,0.36495307535281096
5,0.36495307535281096
6,0.36495307535281096
6,0.36495307535281096
6,0.36495307535281096
7,0.36495307535281096
7,0.36495307535281096
8,0.36495307535281096
8,0.36495307535281096
8,0.36495307535281096
9,0.36495307535281096
9,0.36495307535281096
10,0.36495307535281096
10,0.36495307535281096
11,0.36495307535281096
11,0.36495307535281096
11,0.36495307535281096
12,0.36495307535281096
12,0.36495307535281096
12,0.36495307535281096
13,0.36495307535281096
13,0.36495307535281096
14,0.36495307535281096
14,0.36495307535281096
15,0.36495307535281096
15,0.36495307535281096
15,0.36495307535281096
16,0.36495307535281096
16,0.36495307535281096
17,0.36495307535281096
17,0.36495307535281096
17,0.36495307535281096
18,0.36495307535281096
18,0.36495307535281096
18,0.36495307535281096
19,0.36495307535281096
19,0.36495307535281096
20,0.36495307535281096
20,0.36495307535281096
20,0.36495307535281096
21,0.36495307535281096
21,0.36495307535281096
21,0.36495307535281096
22,0.36495307535281096
22,0.36495307535281096
23,0.36495307535281096
23,0.36495307535281096
23,0.36495307535281096
24,0.36495307535281096
24,0.36495307535281096
24,0.36495307535281096
25,0.36495307535281096
25,0.36495307535281096
25,0.36495307535281096
26,0.36495307535281096
26,0.36495307535281096
26,0.36495307535281096
27,0.36495307535281096
27,0.36495307535281096
28,0.36495307535281096
28,0.36495307535281096
28,0.36495307535281096
29,0.36495307535281096
29,0.36495307535281096
29,0.36495307535281096
30,0.36495307535281096
30,0.36495307535281096
30,0.36495307535281096
31,0.36495307535281096
31,0.36495307535281096
32,0.36495307535281096
32,0.36495307535281096
32,0.36495307535281096
33,0.36495307535281096
33,0.36495307535281096
33,0.36495307535281096
34,0.36495307535281096
34,0.36495307535281096
35,0.36495307535281096
35,0.36495307535281096
35,0.36495307535281096
36,0.36495307535281096
36,0.36495307535281096
36,0.36495307535281096
37,0.36495307535281096
37,0.36495307535281096
37,0.36495307535281096
38,0.36495307535281096
38,0.36495307535281096
39,0.36495307535281096
39,0.36495307535281096
39,0.36495307535281096
40,0.36495307535281096
40,0.36495307535281096
40,0.36495307535281096
41,0.36495307535281096
41,0.36495307535281096
42,0.36495307535281096
42,0.36495307535281096
42,0.36495307535281096
43,0.36495307535281096
43,0.36495307535281096
43,0.36495307535281096
44,0.36495307535281096
44,0.36495307535281096
45,0.36495307535281096
45,0.36495307535281096
45,0.36495307535281096
46,0.36495307535281096
46,0.36495307535281096
47,0.36495307535281096
47,0.36495307535281096
47,0.36495307535281096
48,0.36495307535281096
48,0.36495307535281096
48,0.36495307535281096
49,0.36495307535281096
49,0.36495307535281096
50,0.36495307535281096
50,0.36495307535281096
50,0.36495307535281096
51,0.36495307535281096
51,0.36495307535281096
52,0.36495307535281096
52,0.36495307535281096
52,0.36495307535281096
53,0.36495307535281096
53,0.36495307535281096
54,0.36495307535281096
54,0.36495307535281096
54,0.36495307535281096
55,0.36495307535281096
55,0.36495307535281096
56,0.36495307535281096
56,0.36495307535281096
56,0.36495307535281096
57,0.36495307535281096
57,0.36495307535281096
57,0.36495307535281096
58,0.36495307535281096
58,0.36495307535281096
58,0.36495307535281096
59,0.36495307535281096
59,0.36495307535281096
59,0.36495307535281096
60,0.36495307535281096
60,0.36495307535281096
61,0.36495307535281096
61,0.36495307535281096
61,0.36495307535281096
62,0.36495307535281096
62,0.36495307535281096
62,0.36495307535281096
63,0.36495307535281096
63,0.36495307535281096
64,0.36495307535281096
64,0.36495307535281096
64,0.36495307535281096
65,0.36495307535281096
65,0.36495307535281096
65,0.36495307535281096
66,0.36495307535281096
66,0.36495307535281096
66,0.36495307535281096
67,0.36495307535281096
67,0.36495307535281096
68,0.40684199945674226
68,0.40684199945674226
68,0.40684199945674226
69,0.40684199945674226
69,0.40684199945674226
69,0.40684199945674226
70,0.40684199945674226
70,0.40684199945674226
71,0.40684199945674226
71,0.40684199945674226
71,0.40684199945674226
72,0.40684199945674226
72,0.40684199945674226
72,0.40684199945674226
73,0.40684199945674226
73,0.40684199945674226
74,0.40684199945674226
74,0.40684199945674226
74,0.40684199945674226
75,0.40684199945674226
75,0.40684199945674226
75,0.40684199945674226
76,0.40684199945674226
76,0.40684199945674226
76,0.40684199945674226
77,0.40684199945674226
77,0.40684199945674226
77,0.40684199945674226
78,0.40684199945674226
78,0.40684199945674226
79,0.40684199945674226
79,0.40684199945674226
79,0.40684199945674226
80,0.40684199945674226
