2,0.4658451416810381
5,0.4859206280347066
7,0.4859206280347066
9,0.4859206280347066
12,0.4859206280347066
14,0.4859206280347066
16,0.4859206280347066
19,0.4859206280347066
21,0.4859206280347066
23,0.4859206280347066
26,0.4859206280347066
28,0.4859206280347066
30,0.4859206280347066
33,0.4859206280347066
35,0.4859206280347066
37,0.4859206280347066
39,0.4859206280347066
42,0.4859206280347066
44,0.4859206280347066
46,0.4859206280347066
48,0.4859206280347066
50,0.4859206280347066
53,0.4859206280347066
55,0.4859206280347066
57,0.4859206280347066
60,0.4859206280347066
62,0.4859206280347066
65,0.4859206280347066
67,0.4859206280347066
69,0.4859206280347066
71,0.4859206280347066
73,0.4859206280347066
76,0.4859206280347066
78,0.4859206280347066
80,0.4859206280347066
82,0.4859206280347066
85,0.4859206280347066
87,0.4859206280347066
89,0.4859206280347066
91,0.4859206280347066
94,0.4859206280347066
96,0.4859206280347066
98,0.4859206280347066
100,0.4859206280347066
102,0.4859206280347066
104,0.4859206280347066
107,0.4859206280347066
109,0.4859206280347066
111,0.4859206280347066
113,0.4859206280347066
115,0.4859206280347066
118,0.4859206280347066
121,0.4859206280347066
124,0.4859206280347066
126,0.4859206280347066
129,0.4859206280347066
131,0.4859206280347066
133,0.4859206280347066
136,0.4859206280347066
138,0.4859206280347066
140,0.4859206280347066
142,0.4859206280347066
144,0.4859206280347066
147,0.4859206280347066
149,0.4859206280347066
151,0.4859206280347066
153,0.4859206280347066
156,0.4859206280347066
158,0.4859206280347066
161,0.4859206280347066
163,0.4859206280347066
165,0.4859206280347066
168,0.4859206280347066
170,0.4859206280347066
172,0.4859206280347066
174,0.4859206280347066
177,0.4859206280347066
179,0.4859206280347066
181,0.4859206280347066
183,0.4859206280347066
186,0.4859206280347066
188,0.4859206280347066
190,0.4859206280347066
193,0.4859206280347066
196,0.4859206280347066
198,0.4859206280347066
200,0.4859206280347066
202,0.4859206280347066
204,0.4859206280347066
207,0.4859206280347066
209,0.4859206280347066
211,0.4859206280347066
213,0.4859206280347066
215,0.4859206280347066
218,0.4859206280347066
220,0.4859206280347066
222,0.4859206280347066
224,0.4859206280347066
227,0.4859206280347066
229,0.4859206280347066
232,0.4859206280347066
235,0.4859206280347066
237,0.4859206280347066
239,0.4859206280347066
242,0.4859206280347066
244,0.4859206280347066
246,0.4859206280347066
249,0.4859206280347066
252,0.4859206280347066
