0,0.4110034150801516
0,0.4110034150801516
0,0.4110034150801516
0,0.4110034150801516
0,0.4110034150801516
0,0.4110034150801516
0,0.4110034150801516
0,0.4110034150801516
0,0.4110034150801516
0,0.4110034150801516
0,0.4110034150801516
0,0.4110034150801516
0,0.4110034150801516
0,0.4110034150801516
0,0.4110034150801516
0,0.4110034150801516
0,0.4110034150801516
0,0.4110034150801516
0,0.4110034150801516
0,0.4110034150801516
0,0.4110034150801516
0,0.4110034150801516
0,0.4110034150801516
0,0.4110034150801516
0,0.6440302212320863
0,0.6440302212320863
0,0.6440302212320863
0,0.6440302212320863
0,0.6440302212320863
0,0.6440302212320863
0,0.6440302212320863
0,0.6440302212320863
0,0.6440302212320863
0,0.6440302212320863
0,0.6440302212320863
1,0.6440302212320863
1,0.6440302212320863
1,0.6440302212320863
1,0.6440302212320863
1,0.6440302212320863
1,0.6440302212320863
1,0.6440302212320863
1,0.6440302212320863
1,0.6440302212320863
1,0.6440302212320863
1,0.6440302212320863
1,0.6440302212320863
1,0.6440302212320863
1,0.6440302212320863
1,0.687011884668627
1,0.687011884668627
1,0.687011884668627
1,0.687011884668627
1,0.687011884668627
1,0.687011884668627
1,0.687011884668627
1,0.687011884668627
1,0.687011884668627
1,0.687011884668627
1,0.687011884668627
1,0.687011884668627
1,0.687011884668627
1,0.687011884668627
1,0.687011884668627
1,0.687011884668627
1,0.687011884668627
1,0.687011884668627
1,0.687011884668627
1,0.687011884668627
1,0.687011884668627
1,0.687011884668627
1,0.687011884668627
1,0.687011884668627
2,0.687011884668627
2,0.8102738196136365
2,0.8102738196136365
2,0.8102738196136365
2,0.8102738196136365
2,0.8102738196136365
2,0.8102738196136365
2,0.8102738196136365
2,0.8102738196136365
2,0.8102738196136365
2,0.8102738196136365
2,0.8102738196136365
2,0.8102738196136365
2,0.8102738196136365
2,0.8102738196136365
2,0.8102738196136365
2,0.8102738196136365
2,0.8102738196136365
2,0.8102738196136365
2,0.8102738196136365
2,0.8102738196136365
2,0.8102738196136365
2,0.8102738196136365
2,0.8102738196136365
2,0.8102738196136365
2,0.8102738196136365
2,0.846605766772462
2,0.846605766772462
2,0.846605766772462
3,0.846605766772462
3,0.846605766772462
3,0.846605766772462
3,0.846605766772462
3,0.846605766772462
3,0.846605766772462
3,0.846605766772462
3,0.846605766772462
3,0.846605766772462
3,0.846605766772462
3,0.846605766772462
3,0.846605766772462
3,0.846605766772462
3,0.846605766772462
3,0.846605766772462
3,0.846605766772462
3,0.846605766772462
3,0.846605766772462
3,0.846605766772462
3,0.846605766772462
3,0.846605766772462
3,0.846605766772462
3,0.8603576354632494
3,0.8603576354632494
4,0.8603576354632494
4,0.8603576354632494
4,0.8603576354632494
4,0.8603576354632494
4,0.8603576354632494
4,0.8603576354632494
4,0.8603576354632494
4,0.8603576354632494
4,0.8603576354632494
4,0.8603576354632494
4,0.8603576354632494
4,0.8603576354632494
4,0.8603576354632494
4,0.8603576354632494
4,0.8603576354632494
4,0.8603576354632494
4,0.8603576354632494
4,0.8603576354632494
4,0.8603576354632494
4,0.8603576354632494
4,0.8603576354632494
4,0.8603576354632494
4,0.8603576354632494
4,0.8759855145834188
4,0.8759855145834188
4,0.8759855145834188
4,0.8759855145834188
5,0.8759855145834188
5,0.8759855145834188
5,0.8759855145834188
5,0.8759855145834188
5,0.8759855145834188
5,0.8759855145834188
5,0.8759855145834188
5,0.8759855145834188
5,0.8759855145834188
5,0.8759855145834188
5,0.8759855145834188
5,0.8759855145834188
5,0.8759855145834188
5,0.8759855145834188
5,0.8759855145834188
5,0.8759855145834188
5,0.8759855145834188
5,0.8759855145834188
5,0.8759855145834188
5,0.8759855145834188
5,0.8759855145834188
5,0.8759855145834188
5,0.8759855145834188
5,0.8759855145834188
5,0.8759855145834188
5,0.8759855145834188
5,0.8759855145834188
5,0.8759855145834188
5,0.8759855145834188
6,0.8759855145834188
6,0.8759855145834188
6,0.8759855145834188
6,0.8759855145834188
6,0.8759855145834188
6,0.8759855145834188
6,0.8759855145834188
6,0.8759855145834188
6,0.8759855145834188
6,0.8759855145834188
6,0.8759855145834188
6,0.8759855145834188
6,0.8759855145834188
6,0.8759855145834188
6,0.8759855145834188
6,0.8759855145834188
6,0.8759855145834188
6,0.8770158510584027
6,0.8770158510584027
6,0.8770158510584027
6,0.8770158510584027
6,0.8770158510584027
6,0.8770158510584027
6,0.8770158510584027
6,0.8770158510584027
6,0.8770158510584027
6,0.8770158510584027
6,0.8770158510584027
6,0.8770158510584027
6,0.8770158510584027
7,0.8770158510584027
7,0.8770158510584027
7,0.8770158510584027
7,0.8770158510584027
7,0.8770158510584027
7,0.8770158510584027
7,0.8770158510584027
7,0.8770158510584027
7,0.8770158510584027
7,0.8770158510584027
7,0.8770158510584027
7,0.8770158510584027
7,0.8779297944432142
7,0.8779297944432142
7,0.8779297944432142
7,0.8779297944432142
7,0.8779297944432142
7,0.8779297944432142
7,0.8779297944432142
7,0.8779297944432142
7,0.8779297944432142
7,0.8779297944432142
7,0.8779297944432142
7,0.8779297944432142
7,0.8779297944432142
7,0.8779297944432142
7,0.8779297944432142
7,0.8779297944432142
7,0.8779297944432142
7,0.8779297944432142
8,0.8779297944432142
8,0.8779297944432142
8,0.8779297944432142
8,0.8779297944432142
8,0.8779297944432142
8,0.8779297944432142
8,0.8779297944432142
8,0.9023426693483726
8,0.9023426693483726
8,0.9023426693483726
8,0.9023426693483726
8,0.9023426693483726
8,0.9023426693483726
8,0.9023426693483726
8,0.9023426693483726
8,0.9023426693483726
8,0.9023426693483726
8,0.9023426693483726
8,0.9023426693483726
8,0.9023426693483726
8,0.9023426693483726
8,0.9023426693483726
8,0.9023426693483726
8,0.9023426693483726
8,0.9023426693483726
8,0.9023426693483726
8,0.9023426693483726
9,0.9023426693483726
9,0.9023426693483726
9,0.9023426693483726
9,0.9023426693483726
9,0.9023426693483726
9,0.9059000624052094
9,0.9059000624052094
9,0.9059000624052094
9,0.9059000624052094
9,0.9059000624052094
9,0.9059000624052094
9,0.9059000624052094
9,0.9059000624052094
9,0.9059000624052094
9,0.9059000624052094
9,0.9059000624052094
9,0.9059000624052094
9,0.9059000624052094
9,0.9059000624052094
9,0.9059000624052094
9,0.9059000624052094
9,0.9059000624052094
9,0.9059000624052094
9,0.9059000624052094
9,0.9059000624052094
9,0.9059000624052094
9,0.9059000624052094
10,0.9059000624052094
10,0.9059000624052094
10,0.9059000624052094
10,0.9062509651729017
10,0.9062509651729017
10,0.9062509651729017
10,0.9062509651729017
10,0.9062509651729017
10,0.9062509651729017
10,0.9062509651729017
10,0.9062509651729017
10,0.9062509651729017
10,0.9062509651729017
10,0.9062509651729017
10,0.9062509651729017
10,0.9062509651729017
10,0.9062509651729017
10,0.9062509651729017
10,0.9062509651729017
10,0.9062509651729017
10,0.9062509651729017
10,0.9062509651729017
10,0.9062509651729017
10,0.9062509651729017
10,0.9062509651729017
10,0.9062509651729017
10,0.9062509651729017
10,0.9062509651729017
10,0.9104640701936192
11,0.9104640701936192
11,0.9104640701936192
11,0.9104640701936192
11,0.9104640701936192
11,0.9104640701936192
11,0.9104640701936192
11,0.9104640701936192
11,0.9104640701936192
11,0.9104640701936192
11,0.9104640701936192
11,0.9104640701936192
11,0.9104640701936192
11,0.9104640701936192
11,0.9104640701936192
11,0.9104640701936192
11,0.9104640701936192
11,0.9104640701936192
11,0.9104640701936192
11,0.9104640701936192
11,0.9104640701936192
11,0.9104640701936192
11,0.9104640701936192
11,0.9104640701936192
11,0.9104640701936192
11,0.9232004746717509
11,0.9232004746717509
11,0.9232004746717509
11,0.9232004746717509
12,0.9232004746717509
12,0.9232004746717509
12,0.9232004746717509
12,0.9232004746717509
12,0.9232004746717509
12,0.9232004746717509
12,0.9232004746717509
12,0.9232004746717509
12,0.9232004746717509
12,0.9232004746717509
12,0.9232004746717509
12,0.9232004746717509
12,0.9232004746717509
12,0.9232004746717509
12,0.9232004746717509
12,0.9232004746717509
12,0.9232004746717509
12,0.9232004746717509
12,0.9232004746717509
12,0.9232004746717509
12,0.9232004746717509
12,0.9248112339956363
12,0.9248112339956363
12,0.9248112339956363
12,0.9248112339956363
12,0.9248112339956363
12,0.9248112339956363
13,0.9248112339956363
13,0.9248112339956363
13,0.9248112339956363
13,0.9248112339956363
13,0.9248112339956363
13,0.9248112339956363
13,0.9248112339956363
13,0.9248112339956363
13,0.9248112339956363
13,0.9248112339956363
13,0.9248112339956363
13,0.9248112339956363
13,0.9248112339956363
13,0.9248112339956363
13,0.9248112339956363
13,0.9248112339956363
13,0.9248112339956363
13,0.9248112339956363
13,0.9248112339956363
13,0.9284628336202257
13,0.9284628336202257
13,0.9284628336202257
13,0.9284628336202257
13,0.9284628336202257
13,0.9284628336202257
13,0.9284628336202257
13,0.9284628336202257
13,0.9284628336202257
13,0.9284628336202257
14,0.9284628336202257
14,0.9284628336202257
14,0.9284628336202257
14,0.9284628336202257
14,0.9284628336202257
14,0.9284628336202257
14,0.9284628336202257
14,0.9284628336202257
14,0.9284628336202257
14,0.9284628336202257
14,0.9284628336202257
14,0.9284628336202257
14,0.9284628336202257
14,0.9284628336202257
14,0.9284628336202257
14,0.9284628336202257
14,0.9284628336202257
14,0.9284628336202257
14,0.9284628336202257
14,0.9284628336202257
14,0.9284628336202257
14,0.9284628336202257
14,0.9284628336202257
14,0.9284628336202257
14,0.9284628336202257
14,0.9284628336202257
14,0.9284628336202257
15,0.9284628336202257
15,0.9284628336202257
15,0.9284628336202257
15,0.9284628336202257
15,0.9284628336202257
15,0.9284628336202257
15,0.9284628336202257
15,0.9284628336202257
15,0.9284628336202257
15,0.9284628336202257
15,0.9284628336202257
15,0.9284628336202257
15,0.9284628336202257
15,0.9288047178901551
15,0.9288047178901551
15,0.9288047178901551
15,0.9288047178901551
15,0.9288047178901551
15,0.9288047178901551
15,0.9288047178901551
15,0.9288047178901551
15,0.9288047178901551
15,0.9288047178901551
15,0.9288047178901551
15,0.9288047178901551
15,0.9288047178901551
15,0.9288047178901551
16,0.9288047178901551
16,0.9288047178901551
16,0.9288047178901551
16,0.9288047178901551
16,0.9288047178901551
16,0.9288047178901551
16,0.9288047178901551
16,0.9288047178901551
16,0.9288047178901551
16,0.9288047178901551
16,0.9288047178901551
16,0.9288047178901551
16,0.9288047178901551
16,0.9288047178901551
16,0.9288047178901551
16,0.9288047178901551
16,0.9288047178901551
16,0.9288047178901551
16,0.9288047178901551
16,0.9288047178901551
16,0.9288047178901551
16,0.9288047178901551
16,0.9288047178901551
16,0.9288047178901551
16,0.9288047178901551
16,0.9288047178901551
16,0.9288047178901551
16,0.9288047178901551
16,0.9288047178901551
17,0.9288047178901551
17,0.9288047178901551
17,0.9288047178901551
17,0.9288047178901551
17,0.9288047178901551
17,0.9288047178901551
17,0.9288047178901551
17,0.9288047178901551
17,0.9288047178901551
17,0.9288047178901551
17,0.9288047178901551
17,0.9288047178901551
17,0.9288047178901551
17,0.9288047178901551
17,0.9288047178901551
17,0.9288047178901551
17,0.9288047178901551
17,0.9288047178901551
17,0.9288047178901551
17,0.9288047178901551
17,0.9288047178901551
17,0.9288047178901551
17,0.9288047178901551
17,0.9288047178901551
17,0.9288047178901551
17,0.9288047178901551
17,0.9288047178901551
18,0.9288047178901551
18,0.9288047178901551
18,0.9288047178901551
18,0.9288047178901551
18,0.9288047178901551
18,0.9431967192885721
18,0.9431967192885721
18,0.9431967192885721
18,0.9431967192885721
18,0.9431967192885721
18,0.9431967192885721
18,0.9431967192885721
18,0.9431967192885721
18,0.9431967192885721
18,0.9431967192885721
18,0.9431967192885721
18,0.9431967192885721
18,0.9431967192885721
18,0.9431967192885721
18,0.9431967192885721
18,0.9431967192885721
18,0.9431967192885721
18,0.9431967192885721
18,0.9431967192885721
18,0.9431967192885721
18,0.9431967192885721
18,0.9431967192885721
19,0.9431967192885721
19,0.9431967192885721
19,0.9431967192885721
19,0.9502163415107576
19,0.9502163415107576
19,0.9502163415107576
19,0.9502163415107576
19,0.9502163415107576
19,0.9502163415107576
19,0.9502163415107576
19,0.9502163415107576
19,0.9502163415107576
19,0.9502163415107576
19,0.9502163415107576
19,0.9502163415107576
19,0.9502163415107576
19,0.9502163415107576
19,0.9502163415107576
19,0.9502163415107576
19,0.9502163415107576
19,0.9502163415107576
19,0.9502163415107576
19,0.9502163415107576
19,0.9502163415107576
19,0.9502163415107576
19,0.9502163415107576
20,0.9502163415107576
20,0.9502163415107576
20,0.9502163415107576
20,0.9502163415107576
20,0.9502163415107576
20,0.9502163415107576
20,0.9502163415107576
20,0.9502163415107576
20,0.9502163415107576
20,0.9502163415107576
20,0.9502163415107576
20,0.9502163415107576
20,0.9502163415107576
20,0.9502163415107576
20,0.9502163415107576
20,0.9502163415107576
20,0.9502163415107576
20,0.9502163415107576
20,0.9502163415107576
20,0.9502163415107576
20,0.9502163415107576
20,0.9502163415107576
20,0.9502163415107576
20,0.9502163415107576
20,0.9502163415107576
21,0.9502163415107576
21,0.9502163415107576
21,0.9502163415107576
21,0.9502163415107576
21,0.9502163415107576
21,0.9502163415107576
21,0.9502163415107576
21,0.9502163415107576
21,0.9502163415107576
21,0.9502163415107576
21,0.9502163415107576
21,0.9502163415107576
21,0.9502163415107576
21,0.9502163415107576
21,0.9502163415107576
21,0.9502163415107576
21,0.9502163415107576
21,0.9502163415107576
21,0.9502163415107576
21,0.9502163415107576
21,0.9502163415107576
21,0.9502163415107576
21,0.9502163415107576
21,0.9502163415107576
21,0.9502163415107576
21,0.9502163415107576
21,0.9502163415107576
21,0.9502163415107576
22,0.9502163415107576
22,0.9502163415107576
22,0.9502163415107576
22,0.9502163415107576
22,0.9502163415107576
22,0.9502163415107576
22,0.9502163415107576
22,0.9502163415107576
22,0.9502163415107576
22,0.9502163415107576
22,0.9502163415107576
22,0.9502163415107576
22,0.9502163415107576
22,0.9502163415107576
22,0.9502163415107576
22,0.9502163415107576
22,0.9502163415107576
22,0.9502163415107576
22,0.9502163415107576
22,0.9502163415107576
22,0.9502163415107576
22,0.9502163415107576
22,0.9502163415107576
22,0.9502163415107576
22,0.9502163415107576
22,0.9502163415107576
22,0.9502163415107576
23,0.9502163415107576
23,0.9502163415107576
23,0.9502163415107576
23,0.9502163415107576
23,0.9502163415107576
23,0.9502163415107576
23,0.9502163415107576
23,0.9502163415107576
23,0.9502163415107576
23,0.9502163415107576
23,0.9502163415107576
23,0.9502163415107576
23,0.9502163415107576
23,0.9502163415107576
23,0.9502163415107576
23,0.9502163415107576
23,0.9502163415107576
23,0.9502163415107576
23,0.9502163415107576
23,0.9502163415107576
23,0.9502163415107576
23,0.9502163415107576
23,0.9502163415107576
23,0.9502163415107576
23,0.9502163415107576
23,0.9502163415107576
24,0.9502163415107576
24,0.9502163415107576
24,0.9502163415107576
24,0.9502163415107576
24,0.9502163415107576
24,0.9502163415107576
24,0.9502163415107576
24,0.9502163415107576
24,0.9502163415107576
24,0.9502163415107576
24,0.9502163415107576
24,0.9502163415107576
24,0.9502163415107576
24,0.9502163415107576
24,0.9502163415107576
24,0.9502163415107576
24,0.9502163415107576
24,0.9502163415107576
24,0.9502163415107576
24,0.9502163415107576
24,0.9502163415107576
24,0.9675900515704339
24,0.9675900515704339
24,0.9675900515704339
24,0.9675900515704339
25,0.9675900515704339
25,0.9675900515704339
25,0.9675900515704339
25,0.9675900515704339
25,0.9675900515704339
25,0.9675900515704339
25,0.9675900515704339
25,0.9675900515704339
25,0.9675900515704339
25,0.9675900515704339
25,0.9675900515704339
25,0.9675900515704339
25,0.9675900515704339
25,0.9675900515704339
25,0.9675900515704339
25,0.9675900515704339
25,0.9675900515704339
25,0.9675900515704339
25,0.9675900515704339
25,0.9675900515704339
25,0.9675900515704339
25,0.9731139233911724
25,0.9731139233911724
25,0.9731139233911724
25,0.9731139233911724
25,0.9731139233911724
26,0.9731139233911724
26,0.9731139233911724
26,0.9731139233911724
26,0.9731139233911724
26,0.9731139233911724
26,0.9731139233911724
26,0.9731139233911724
26,0.9731139233911724
26,0.9731139233911724
26,0.9731139233911724
26,0.9731139233911724
26,0.9731139233911724
26,0.9731139233911724
26,0.9731139233911724
26,0.9731139233911724
26,0.9731139233911724
26,0.9731139233911724
26,0.9731139233911724
26,0.9731139233911724
26,0.9731139233911724
26,0.9731139233911724
26,0.9731139233911724
26,0.9731139233911724
26,0.9731139233911724
26,0.9731139233911724
26,0.9731139233911724
27,0.9731139233911724
27,0.9731139233911724
27,0.9731139233911724
27,0.9731139233911724
27,0.9731139233911724
27,0.9731139233911724
27,0.9731139233911724
27,0.9731139233911724
27,0.9731139233911724
27,0.9731139233911724
27,0.9731139233911724
27,0.9731139233911724
27,0.9731139233911724
27,0.9731139233911724
27,0.9731139233911724
27,0.9731139233911724
27,0.9731139233911724
27,0.9731139233911724
27,0.9731139233911724
27,0.9731139233911724
27,0.9731139233911724
27,0.9731139233911724
27,0.9731139233911724
27,0.9731139233911724
27,0.9731139233911724
28,0.9731139233911724
28,0.9731139233911724
28,0.9731139233911724
28,0.9731139233911724
28,0.9731139233911724
28,0.9731139233911724
28,0.9731139233911724
28,0.9731139233911724
28,0.9731139233911724
28,0.9731139233911724
28,0.9731139233911724
28,0.9731139233911724
28,0.9731139233911724
28,0.9731139233911724
28,0.9731139233911724
28,0.9731139233911724
28,0.9731139233911724
28,0.9731139233911724
28,0.9731139233911724
28,0.9731139233911724
28,0.9731139233911724
28,0.9731139233911724
28,0.9731139233911724
28,0.9731139233911724
28,0.9731139233911724
28,0.9731139233911724
29,0.9731139233911724
29,0.9731139233911724
29,0.9731139233911724
29,0.9731139233911724
29,0.9731139233911724
29,0.9731139233911724
29,0.9731139233911724
29,0.9731139233911724
29,0.9731139233911724
29,0.9731139233911724
29,0.9731139233911724
29,0.9731139233911724
29,0.9731139233911724
29,0.9731139233911724
29,0.9731139233911724
29,0.9731139233911724
29,0.9731139233911724
29,0.9731139233911724
29,0.9735252037885962
29,0.9735252037885962
29,0.9735252037885962
29,0.9735252037885962
29,0.9735252037885962
29,0.9735252037885962
29,0.9735252037885962
30,0.9735252037885962
30,0.9735252037885962
30,0.9735252037885962
30,0.9735252037885962
30,0.9735252037885962
30,0.9735252037885962
30,0.9735252037885962
30,0.9735252037885962
30,0.9735252037885962
30,0.9735252037885962
30,0.9735252037885962
30,0.9735252037885962
30,0.9735252037885962
30,0.9735252037885962
30,0.9735252037885962
30,0.9735252037885962
30,0.9735252037885962
30,0.9735252037885962
30,0.9752054474926017
30,0.9752054474926017
30,0.9752054474926017
30,0.9752054474926017
30,0.9752054474926017
30,0.9752054474926017
30,0.9752054474926017
30,0.9752054474926017
31,0.9752054474926017
31,0.9752054474926017
31,0.9752054474926017
31,0.9752054474926017
31,0.9752054474926017
31,0.9752054474926017
31,0.9752054474926017
31,0.9752054474926017
31,0.9752054474926017
31,0.9752054474926017
31,0.9752054474926017
31,0.9752054474926017
31,0.9752054474926017
31,0.9752054474926017
31,0.9752054474926017
31,0.9752054474926017
31,0.9752054474926017
31,0.9775661160510706
31,0.9775661160510706
31,0.9775661160510706
31,0.9775661160510706
31,0.9775661160510706
31,0.9775661160510706
31,0.9775661160510706
31,0.9775661160510706
31,0.9775661160510706
32,0.9775661160510706
32,0.9775661160510706
32,0.9775661160510706
32,0.9775661160510706
32,0.9775661160510706
32,0.9775661160510706
32,0.9775661160510706
32,0.9775661160510706
32,0.9775661160510706
32,0.9775661160510706
32,0.9775661160510706
32,0.9775661160510706
32,0.9775661160510706
32,0.9775661160510706
32,0.9775661160510706
32,0.9775661160510706
32,0.9777817429255896
32,0.9777817429255896
32,0.9777817429255896
32,0.9777817429255896
32,0.9777817429255896
32,0.9777817429255896
32,0.9777817429255896
32,0.9777817429255896
32,0.9777817429255896
32,0.9777817429255896
32,0.9777817429255896
32,0.9777817429255896
33,0.9777817429255896
33,0.9777817429255896
33,0.9777817429255896
33,0.9777817429255896
33,0.9777817429255896
33,0.9777817429255896
33,0.9777817429255896
33,0.9777817429255896
33,0.9777817429255896
33,0.9777817429255896
33,0.9777817429255896
33,0.9777817429255896
33,0.9777817429255896
33,0.9777817429255896
33,0.9777817429255896
33,0.9777817429255896
33,0.9777817429255896
33,0.9777817429255896
33,0.9777817429255896
33,0.9777817429255896
33,0.9777817429255896
33,0.9777817429255896
33,0.9777817429255896
33,0.9777817429255896
33,0.9777817429255896
33,0.9777817429255896
33,0.9777817429255896
33,0.9777817429255896
34,0.9777817429255896
34,0.9777817429255896
34,0.9777817429255896
34,0.9777817429255896
34,0.9777817429255896
34,0.9777817429255896
34,0.9777817429255896
34,0.9777817429255896
34,0.9777817429255896
34,0.9777817429255896
34,0.9777817429255896
34,0.9777817429255896
34,0.9777817429255896
34,0.9777817429255896
34,0.9777817429255896
34,0.9777817429255896
34,0.9777817429255896
34,0.9777817429255896
34,0.9777817429255896
34,0.9777817429255896
34,0.9777817429255896
34,0.9777817429255896
34,0.9777817429255896
34,0.9777817429255896
34,0.9777817429255896
34,0.9777817429255896
34,0.9777817429255896
35,0.9777817429255896
35,0.9777817429255896
35,0.9777817429255896
35,0.9777817429255896
35,0.9777817429255896
35,0.9777817429255896
35,0.9777817429255896
35,0.9777817429255896
35,0.9777817429255896
35,0.9777817429255896
35,0.9777817429255896
35,0.9777817429255896
35,0.9777817429255896
35,0.9777817429255896
35,0.9777817429255896
35,0.9777817429255896
35,0.9777817429255896
35,0.9777817429255896
35,0.9777817429255896
35,0.9777817429255896
35,0.9777817429255896
35,0.9777817429255896
35,0.9777817429255896
35,0.9777817429255896
35,0.9777817429255896
35,0.9777817429255896
35,0.9777817429255896
36,0.9777817429255896
36,0.9777817429255896
36,0.9777817429255896
36,0.9777817429255896
36,0.9777817429255896
36,0.9777817429255896
36,0.9777817429255896
36,0.9777817429255896
36,0.9777817429255896
36,0.9777817429255896
36,0.9777817429255896
36,0.9777817429255896
36,0.9777817429255896
36,0.9777817429255896
36,0.9777817429255896
36,0.9777817429255896
36,0.9777817429255896
36,0.9777817429255896
36,0.9777817429255896
36,0.9777817429255896
36,0.9777817429255896
36,0.9777817429255896
36,0.9777817429255896
36,0.9777817429255896
36,0.9777817429255896
36,0.9777817429255896
36,0.9777817429255896
37,0.9777817429255896
37,0.9777817429255896
37,0.9777817429255896
37,0.9777817429255896
37,0.9777817429255896
37,0.9777817429255896
37,0.9777817429255896
37,0.9777817429255896
37,0.9777817429255896
37,0.9777817429255896
37,0.9777817429255896
37,0.9777817429255896
37,0.9777817429255896
37,0.9777817429255896
37,0.9777817429255896
37,0.9777817429255896
37,0.9777817429255896
37,0.9777817429255896
37,0.9777817429255896
37,0.9777817429255896
37,0.9777817429255896
37,0.9777817429255896
37,0.9777817429255896
37,0.9777817429255896
37,0.9777817429255896
37,0.9777817429255896
37,0.9777817429255896
37,0.9777817429255896
38,0.9777817429255896
38,0.9777817429255896
38,0.9777817429255896
38,0.9777817429255896
38,0.9777817429255896
38,0.9777817429255896
38,0.9777817429255896
38,0.9777817429255896
38,0.9777817429255896
38,0.9777817429255896
38,0.9777817429255896
38,0.9777817429255896
38,0.9777817429255896
38,0.9777817429255896
38,0.9777817429255896
38,0.9777817429255896
38,0.9777817429255896
38,0.9777817429255896
38,0.9777817429255896
38,0.9777817429255896
38,0.9777817429255896
38,0.9777817429255896
38,0.9777817429255896
38,0.9777817429255896
38,0.9777817429255896
38,0.9777817429255896
39,0.9779557702889462
39,0.9779557702889462
39,0.9779557702889462
39,0.9779557702889462
39,0.9779557702889462
39,0.9779557702889462
39,0.9779557702889462
39,0.9779557702889462
39,0.9779557702889462
39,0.9779557702889462
39,0.9779557702889462
39,0.9779557702889462
39,0.9779557702889462
39,0.9779557702889462
39,0.9779557702889462
39,0.9779557702889462
39,0.9779557702889462
39,0.9779557702889462
39,0.9779557702889462
39,0.9779557702889462
39,0.9779557702889462
39,0.9779557702889462
39,0.9779557702889462
39,0.9779557702889462
39,0.9779557702889462
40,0.9779557702889462
40,0.9779557702889462
40,0.9779557702889462
40,0.9779557702889462
40,0.9779557702889462
40,0.9779557702889462
40,0.9779557702889462
40,0.9779557702889462
40,0.9779557702889462
40,0.9779557702889462
40,0.9779557702889462
40,0.9779557702889462
40,0.9779557702889462
40,0.9779557702889462
40,0.9779557702889462
40,0.9779557702889462
40,0.9779557702889462
40,0.9779557702889462
40,0.9779557702889462
40,0.9779557702889462
40,0.9779557702889462
40,0.9779557702889462
40,0.9779557702889462
40,0.9779557702889462
40,0.9779557702889462
40,0.9779557702889462
40,0.9779557702889462
41,0.9779557702889462
41,0.9779557702889462
41,0.9779557702889462
41,0.9779557702889462
41,0.9779557702889462
41,0.9779557702889462
41,0.9779557702889462
41,0.9779557702889462
41,0.9779557702889462
41,0.9779557702889462
41,0.9779557702889462
41,0.9779557702889462
41,0.9779557702889462
41,0.9779557702889462
41,0.9779557702889462
41,0.9779557702889462
41,0.9779557702889462
41,0.9779557702889462
41,0.9779557702889462
41,0.9779557702889462
41,0.9779557702889462
41,0.9779557702889462
41,0.9779557702889462
41,0.9784101200424328
41,0.9784101200424328
41,0.9784101200424328
41,0.9784101200424328
42,0.9784101200424328
42,0.9784101200424328
42,0.9784101200424328
42,0.9784101200424328
42,0.9784101200424328
42,0.9784101200424328
42,0.9784101200424328
42,0.9784101200424328
42,0.9784101200424328
42,0.9784101200424328
42,0.9784101200424328
42,0.9784101200424328
42,0.9784101200424328
42,0.9784101200424328
42,0.9784101200424328
42,0.9784101200424328
42,0.9784101200424328
42,0.9784101200424328
42,0.9784101200424328
42,0.9784101200424328
42,0.9784101200424328
42,0.9784101200424328
42,0.9784101200424328
42,0.9784101200424328
42,0.9784101200424328
42,0.9784101200424328
42,0.9784101200424328
43,0.9784101200424328
43,0.9784101200424328
43,0.9784101200424328
43,0.9784101200424328
43,0.9784101200424328
43,0.9784101200424328
43,0.9784101200424328
43,0.9784101200424328
43,0.9784101200424328
43,0.9784101200424328
43,0.9784101200424328
43,0.9784101200424328
43,0.9784101200424328
43,0.9784101200424328
43,0.9784101200424328
43,0.9784101200424328
43,0.9784101200424328
43,0.9784101200424328
43,0.9784101200424328
43,0.9784101200424328
43,0.9784101200424328
43,0.9784101200424328
43,0.9784101200424328
43,0.9784101200424328
43,0.9784101200424328
43,0.9784101200424328
44,0.9784101200424328
44,0.9784101200424328
44,0.9784101200424328
44,0.9784101200424328
44,0.9784101200424328
44,0.9784101200424328
44,0.9784101200424328
44,0.9784101200424328
44,0.9784101200424328
44,0.9784101200424328
44,0.9784101200424328
44,0.9784101200424328
44,0.9784101200424328
44,0.9784101200424328
44,0.9784101200424328
44,0.9784101200424328
44,0.9784101200424328
44,0.9784101200424328
44,0.9784101200424328
44,0.9784101200424328
44,0.9784101200424328
44,0.9784101200424328
44,0.9784101200424328
44,0.9784101200424328
44,0.9784101200424328
44,0.9784101200424328
44,0.9784101200424328
44,0.9784101200424328
45,0.9784101200424328
45,0.9784101200424328
45,0.9784101200424328
45,0.9784101200424328
45,0.9784101200424328
45,0.9784101200424328
45,0.9784101200424328
45,0.9784101200424328
45,0.9784101200424328
45,0.9784101200424328
45,0.9784101200424328
45,0.9784101200424328
45,0.9784101200424328
45,0.9784101200424328
45,0.9784101200424328
45,0.9784101200424328
45,0.9784101200424328
45,0.9784101200424328
45,0.9784101200424328
45,0.9784101200424328
45,0.9784101200424328
45,0.9784101200424328
45,0.9784101200424328
45,0.9784101200424328
45,0.9784101200424328
45,0.9784101200424328
45,0.9784101200424328
46,0.9784101200424328
46,0.9784101200424328
46,0.9784101200424328
46,0.9784101200424328
46,0.9784101200424328
46,0.9784101200424328
46,0.9784101200424328
46,0.9784101200424328
46,0.9784101200424328
46,0.9784101200424328
46,0.9784101200424328
46,0.9784101200424328
46,0.9784101200424328
46,0.9784101200424328
46,0.9784101200424328
46,0.9784101200424328
46,0.9784101200424328
46,0.9784101200424328
46,0.9784101200424328
46,0.9784101200424328
46,0.9784101200424328
46,0.9784101200424328
46,0.9784101200424328
46,0.9784101200424328
46,0.9784101200424328
46,0.9784101200424328
47,0.9784101200424328
47,0.9784101200424328
47,0.9784101200424328
47,0.9784101200424328
47,0.9784101200424328
47,0.9784101200424328
47,0.9784101200424328
47,0.9784101200424328
47,0.9784101200424328
47,0.9784101200424328
47,0.9784101200424328
47,0.9784101200424328
47,0.9784101200424328
47,0.9784101200424328
47,0.9784101200424328
47,0.9784101200424328
47,0.9784101200424328
47,0.9784101200424328
47,0.9784101200424328
47,0.9784101200424328
47,0.9784101200424328
47,0.9784101200424328
47,0.9784101200424328
47,0.9784101200424328
47,0.9784101200424328
47,0.9784101200424328
47,0.9784101200424328
48,0.9784101200424328
48,0.9784101200424328
48,0.9784101200424328
48,0.9784101200424328
48,0.9784101200424328
48,0.9784101200424328
48,0.9784101200424328
48,0.9784101200424328
48,0.9784101200424328
48,0.9784101200424328
48,0.978424796443445
48,0.978424796443445
48,0.978424796443445
48,0.978424796443445
48,0.978424796443445
48,0.978424796443445
48,0.978424796443445
48,0.978424796443445
48,0.978424796443445
48,0.978424796443445
48,0.978424796443445
48,0.978424796443445
48,0.978424796443445
48,0.978424796443445
48,0.978424796443445
48,0.978424796443445
49,0.978424796443445
49,0.978424796443445
49,0.978424796443445
49,0.978424796443445
49,0.978424796443445
49,0.978424796443445
49,0.978424796443445
49,0.978424796443445
49,0.978424796443445
49,0.978424796443445
49,0.978424796443445
49,0.978424796443445
49,0.978424796443445
49,0.978424796443445
49,0.978424796443445
49,0.978424796443445
49,0.978424796443445
49,0.978424796443445
49,0.978424796443445
49,0.978424796443445
49,0.978424796443445
49,0.978424796443445
49,0.978424796443445
49,0.978424796443445
49,0.978424796443445
49,0.978424796443445
49,0.978424796443445
50,0.978424796443445
50,0.978424796443445
50,0.978424796443445
50,0.978424796443445
50,0.978424796443445
50,0.978424796443445
50,0.978424796443445
50,0.978424796443445
50,0.978424796443445
50,0.978424796443445
50,0.978424796443445
50,0.978424796443445
50,0.978424796443445
50,0.978424796443445
50,0.978424796443445
50,0.978424796443445
50,0.978424796443445
50,0.978424796443445
50,0.978424796443445
50,0.978424796443445
50,0.978424796443445
50,0.978424796443445
50,0.978424796443445
50,0.978424796443445
50,0.978424796443445
50,0.978424796443445
50,0.978424796443445
50,0.978424796443445
51,0.978424796443445
51,0.978424796443445
51,0.978424796443445
51,0.978424796443445
51,0.9784394692639694
51,0.9784394692639694
51,0.9784394692639694
51,0.9784394692639694
51,0.9784394692639694
51,0.9784394692639694
51,0.9784394692639694
51,0.9784394692639694
51,0.9784394692639694
51,0.9784394692639694
51,0.9784394692639694
51,0.9784394692639694
51,0.9784394692639694
51,0.9784394692639694
51,0.9784394692639694
51,0.9784394692639694
51,0.9784394692639694
51,0.9784394692639694
51,0.9784394692639694
51,0.9784394692639694
51,0.9784394692639694
51,0.9784394692639694
51,0.9784394692639694
52,0.9784394692639694
52,0.9784394692639694
52,0.9784394692639694
52,0.9784394692639694
52,0.9784394692639694
52,0.9784394692639694
52,0.9784394692639694
52,0.9784394692639694
52,0.9784394692639694
52,0.9784394692639694
52,0.9784394692639694
52,0.9784394692639694
52,0.9784394692639694
52,0.9784394692639694
52,0.9784394692639694
52,0.9784394692639694
52,0.9784394692639694
52,0.9784394692639694
52,0.9784394692639694
52,0.9784394692639694
52,0.9784394692639694
52,0.9784394692639694
52,0.9784394692639694
52,0.9784394692639694
52,0.9784394692639694
52,0.9784394692639694
52,0.9784394692639694
53,0.9784394692639694
53,0.9784394692639694
53,0.9784394692639694
53,0.9784394692639694
53,0.9784394692639694
53,0.9784394692639694
53,0.9784394692639694
53,0.9784394692639694
53,0.9784394692639694
53,0.9784394692639694
53,0.9784394692639694
53,0.9784394692639694
53,0.9784394692639694
53,0.9784394692639694
53,0.9784394692639694
53,0.9784394692639694
53,0.9784394692639694
53,0.9784394692639694
53,0.9784394692639694
53,0.9784394692639694
53,0.9784394692639694
53,0.9784394692639694
53,0.9784394692639694
53,0.9784394692639694
53,0.9784394692639694
54,0.9812639333686074
54,0.9812639333686074
54,0.9812639333686074
54,0.9812639333686074
54,0.9812639333686074
54,0.9812639333686074
54,0.9812639333686074
54,0.9812639333686074
54,0.9812639333686074
54,0.9812639333686074
54,0.9812639333686074
54,0.9812639333686074
54,0.9812639333686074
54,0.9812639333686074
54,0.9812639333686074
54,0.9812639333686074
54,0.9812639333686074
54,0.9812639333686074
54,0.9812639333686074
54,0.9812639333686074
54,0.9812639333686074
54,0.9812639333686074
54,0.9812639333686074
54,0.9812639333686074
54,0.9812639333686074
54,0.9813649780797713
54,0.9813649780797713
55,0.9813649780797713
55,0.9813649780797713
55,0.9813649780797713
55,0.9813649780797713
55,0.9813649780797713
55,0.9813649780797713
55,0.9813649780797713
55,0.9813649780797713
55,0.9813649780797713
55,0.9813649780797713
55,0.9813649780797713
55,0.9813649780797713
55,0.9813649780797713
55,0.9813649780797713
55,0.9813649780797713
55,0.9813649780797713
55,0.9813649780797713
55,0.9813649780797713
55,0.9813649780797713
55,0.9813649780797713
55,0.9813649780797713
55,0.9813649780797713
55,0.9813649780797713
55,0.9836057224773209
55,0.9836057224773209
56,0.9836057224773209
56,0.9836057224773209
56,0.9836057224773209
56,0.9836057224773209
56,0.9836057224773209
56,0.9836057224773209
56,0.9836057224773209
56,0.9836057224773209
56,0.9836057224773209
56,0.9836057224773209
56,0.9836057224773209
56,0.9836057224773209
56,0.9836057224773209
56,0.9836057224773209
56,0.9836057224773209
56,0.9836057224773209
56,0.9836057224773209
56,0.9836057224773209
56,0.9836057224773209
56,0.9836057224773209
56,0.9836057224773209
56,0.9836057224773209
56,0.9836057224773209
57,0.9836057224773209
57,0.9836057224773209
57,0.9836057224773209
57,0.9836057224773209
57,0.9836057224773209
57,0.9836057224773209
57,0.9836057224773209
57,0.9836057224773209
57,0.9836057224773209
57,0.9836057224773209
57,0.9836057224773209
57,0.9836057224773209
57,0.9836057224773209
57,0.9836057224773209
57,0.9836057224773209
57,0.9836057224773209
57,0.9836057224773209
57,0.9836057224773209
57,0.9836057224773209
57,0.9836057224773209
57,0.9836057224773209
57,0.9836057224773209
57,0.9836057224773209
57,0.9836057224773209
57,0.9836057224773209
58,0.9839326954555617
58,0.9839326954555617
58,0.9839326954555617
58,0.9839326954555617
58,0.9839326954555617
58,0.9839326954555617
58,0.9839326954555617
58,0.9839326954555617
58,0.9839326954555617
58,0.9839326954555617
58,0.9839326954555617
58,0.9839326954555617
58,0.9839326954555617
58,0.9839326954555617
58,0.9839326954555617
58,0.9839326954555617
58,0.9839326954555617
58,0.9839326954555617
58,0.9839326954555617
58,0.9839326954555617
58,0.9839326954555617
58,0.9839326954555617
58,0.9839326954555617
58,0.9839326954555617
59,0.9839326954555617
59,0.9839326954555617
59,0.9839326954555617
59,0.9839326954555617
59,0.9839326954555617
59,0.9839326954555617
59,0.9839326954555617
59,0.9839326954555617
59,0.9839326954555617
59,0.9839326954555617
59,0.9839326954555617
59,0.9839326954555617
59,0.9839326954555617
59,0.9839326954555617
59,0.9839326954555617
59,0.9839326954555617
59,0.9839326954555617
59,0.9839326954555617
59,0.9839326954555617
59,0.9839326954555617
59,0.9839326954555617
59,0.9839326954555617
59,0.9839326954555617
59,0.9839326954555617
59,0.9839326954555617
60,0.9839326954555617
60,0.9839326954555617
60,0.9839326954555617
60,0.9839326954555617
60,0.9839326954555617
60,0.9839326954555617
60,0.9839326954555617
60,0.9839326954555617
60,0.9839326954555617
60,0.9839326954555617
60,0.9839326954555617
60,0.9839326954555617
60,0.9839326954555617
60,0.9839326954555617
60,0.9839326954555617
60,0.9839326954555617
60,0.9839326954555617
60,0.9839326954555617
60,0.9839326954555617
60,0.9839326954555617
60,0.9839326954555617
60,0.9839326954555617
60,0.9839326954555617
60,0.9839326954555617
60,0.9839326954555617
60,0.9839326954555617
61,0.9839326954555617
61,0.9839326954555617
61,0.9839326954555617
61,0.9839326954555617
61,0.9839326954555617
61,0.9839326954555617
61,0.9839326954555617
61,0.9839326954555617
61,0.9839326954555617
61,0.9839326954555617
61,0.9839326954555617
61,0.9839326954555617
61,0.9839326954555617
61,0.9839326954555617
61,0.9839326954555617
61,0.9839326954555617
61,0.9839326954555617
61,0.9839326954555617
61,0.9839326954555617
61,0.9839326954555617
61,0.9839326954555617
61,0.9839326954555617
61,0.9839326954555617
61,0.9839326954555617
61,0.9839326954555617
62,0.9839326954555617
62,0.9839326954555617
62,0.9839326954555617
62,0.9839326954555617
62,0.9839326954555617
62,0.9839326954555617
62,0.9839326954555617
62,0.9839326954555617
62,0.9839326954555617
62,0.9839326954555617
62,0.9839326954555617
62,0.9839326954555617
62,0.9839326954555617
62,0.9839326954555617
62,0.9839326954555617
62,0.9839326954555617
62,0.9839326954555617
62,0.9839326954555617
62,0.9839326954555617
62,0.9839326954555617
62,0.9839326954555617
62,0.9839326954555617
62,0.9839326954555617
62,0.9839326954555617
62,0.9839326954555617
63,0.9839806030858596
63,0.9839806030858596
63,0.9839806030858596
63,0.9839806030858596
63,0.9839806030858596
63,0.9839806030858596
63,0.9839806030858596
63,0.9839806030858596
63,0.9839806030858596
63,0.9839806030858596
63,0.9839806030858596
63,0.9839806030858596
63,0.9839806030858596
63,0.9839806030858596
63,0.9839806030858596
63,0.9839806030858596
63,0.9839806030858596
63,0.9839806030858596
63,0.9839806030858596
63,0.9839806030858596
63,0.9839806030858596
63,0.9839806030858596
63,0.9839806030858596
64,0.9839806030858596
64,0.9839806030858596
64,0.9839806030858596
64,0.9839806030858596
64,0.9839806030858596
64,0.9839806030858596
64,0.9839806030858596
64,0.9839806030858596
64,0.9839806030858596
64,0.9839806030858596
64,0.9839806030858596
64,0.9839806030858596
64,0.9839806030858596
64,0.9839806030858596
64,0.9839806030858596
64,0.9839806030858596
64,0.9839806030858596
64,0.9839806030858596
64,0.9839806030858596
64,0.9839806030858596
64,0.9839806030858596
64,0.9839806030858596
64,0.9839806030858596
64,0.9839806030858596
64,0.9839806030858596
64,0.9839806030858596
65,0.9839806030858596
65,0.9839806030858596
65,0.9839806030858596
65,0.9839806030858596
65,0.9839806030858596
65,0.9839806030858596
65,0.9839806030858596
65,0.9839806030858596
65,0.9839806030858596
65,0.9839806030858596
65,0.9839806030858596
65,0.9839806030858596
65,0.9839806030858596
65,0.9839806030858596
65,0.9839806030858596
65,0.9839806030858596
65,0.9839806030858596
65,0.9839806030858596
65,0.9839806030858596
65,0.9839806030858596
65,0.9839806030858596
65,0.9839806030858596
65,0.9839806030858596
65,0.9839806030858596
65,0.9839806030858596
66,0.9839806030858596
66,0.9839806030858596
66,0.9839806030858596
66,0.9839806030858596
66,0.9839806030858596
66,0.9839806030858596
66,0.9839806030858596
66,0.9839806030858596
66,0.9839806030858596
66,0.9839806030858596
66,0.9839806030858596
66,0.9839806030858596
66,0.9839806030858596
66,0.9839806030858596
66,0.9839806030858596
66,0.9839806030858596
66,0.9839806030858596
66,0.9839806030858596
66,0.9839806030858596
66,0.9839806030858596
66,0.9839806030858596
66,0.9839806030858596
66,0.9839806030858596
66,0.9839806030858596
66,0.9839806030858596
66,0.9839806030858596
67,0.9839806030858596
67,0.9839806030858596
67,0.9839806030858596
67,0.9839806030858596
67,0.9839806030858596
67,0.9839806030858596
67,0.9839806030858596
67,0.9839806030858596
67,0.9839806030858596
67,0.9839806030858596
67,0.9839806030858596
67,0.9839806030858596
67,0.9839806030858596
67,0.9839806030858596
67,0.9839806030858596
67,0.9839806030858596
67,0.9839806030858596
67,0.9839806030858596
67,0.9839806030858596
67,0.9839806030858596
67,0.9839806030858596
67,0.9839806030858596
67,0.9839806030858596
67,0.9839806030858596
67,0.9839806030858596
68,0.9839806030858596
68,0.9839806030858596
68,0.9839806030858596
68,0.9839806030858596
68,0.9839806030858596
68,0.9839806030858596
68,0.9839806030858596
68,0.9839806030858596
68,0.9839806030858596
68,0.9839806030858596
68,0.9839806030858596
68,0.9839806030858596
68,0.9839806030858596
68,0.9839806030858596
68,0.9839806030858596
68,0.9839806030858596
68,0.9839806030858596
68,0.9839806030858596
68,0.9839806030858596
68,0.9839806030858596
68,0.9839806030858596
68,0.9839806030858596
68,0.9839806030858596
68,0.9839806030858596
68,0.9839806030858596
69,0.9863208212291963
69,0.9863208212291963
69,0.9863208212291963
69,0.9863208212291963
69,0.9863208212291963
69,0.9863208212291963
69,0.9863208212291963
69,0.9863208212291963
69,0.9863208212291963
69,0.9863208212291963
69,0.9863208212291963
69,0.9863208212291963
69,0.9863208212291963
69,0.9863208212291963
69,0.9863208212291963
69,0.9863208212291963
69,0.9863208212291963
69,0.9863208212291963
69,0.9863208212291963
69,0.9863208212291963
69,0.9863208212291963
69,0.9863208212291963
69,0.9863208212291963
69,0.9863208212291963
69,0.9863208212291963
69,0.9863208212291963
69,0.9863208212291963
70,0.9863208212291963
70,0.9863208212291963
70,0.9863208212291963
70,0.9863208212291963
70,0.9863208212291963
70,0.9863208212291963
70,0.9863208212291963
70,0.9863208212291963
70,0.9863208212291963
70,0.9863208212291963
70,0.9863208212291963
70,0.9863208212291963
70,0.9863208212291963
70,0.9863208212291963
70,0.9863208212291963
70,0.9863208212291963
70,0.9863208212291963
70,0.9863208212291963
70,0.9863208212291963
70,0.9863208212291963
70,0.9863208212291963
70,0.9863208212291963
70,0.9863208212291963
70,0.9863208212291963
70,0.9863208212291963
70,0.9863208212291963
71,0.9863208212291963
71,0.9863208212291963
71,0.9863208212291963
71,0.9863208212291963
71,0.9863208212291963
71,0.9863208212291963
71,0.9863208212291963
71,0.9863208212291963
71,0.9863208212291963
71,0.9863208212291963
71,0.9863208212291963
71,0.9863208212291963
71,0.9863208212291963
71,0.9863208212291963
71,0.9863208212291963
71,0.9863208212291963
71,0.9863208212291963
71,0.9863208212291963
71,0.9863208212291963
71,0.9863208212291963
71,0.9863208212291963
71,0.9863208212291963
71,0.9871069014499826
71,0.9871069014499826
71,0.9871069014499826
72,0.9871069014499826
72,0.9871069014499826
72,0.9871069014499826
72,0.9871069014499826
72,0.9871069014499826
72,0.9871069014499826
72,0.9871069014499826
72,0.9871069014499826
72,0.9871069014499826
72,0.9871069014499826
72,0.9871069014499826
72,0.9871069014499826
72,0.9871069014499826
72,0.9871069014499826
72,0.9871069014499826
72,0.9871069014499826
72,0.9871069014499826
72,0.9871069014499826
72,0.9871069014499826
72,0.9871069014499826
72,0.9871069014499826
72,0.9871069014499826
72,0.9871069014499826
72,0.9871069014499826
72,0.9871069014499826
72,0.9871069014499826
73,0.9871069014499826
73,0.9871069014499826
73,0.9871069014499826
73,0.9871069014499826
73,0.9871069014499826
73,0.9871069014499826
73,0.9871069014499826
73,0.9871069014499826
73,0.9871069014499826
73,0.9871069014499826
73,0.9871069014499826
73,0.9871069014499826
73,0.9871069014499826
73,0.9871069014499826
73,0.9871069014499826
73,0.9871069014499826
73,0.9871069014499826
73,0.9871069014499826
73,0.9871069014499826
73,0.9871069014499826
73,0.9871069014499826
73,0.9871069014499826
73,0.9871069014499826
73,0.9871069014499826
73,0.9871069014499826
73,0.9871069014499826
74,0.9871069014499826
74,0.9871069014499826
74,0.9871069014499826
74,0.9871069014499826
74,0.9871069014499826
74,0.9871069014499826
74,0.9871069014499826
74,0.9871069014499826
74,0.9871069014499826
74,0.9871069014499826
74,0.9871069014499826
74,0.9871069014499826
74,0.9871069014499826
74,0.9871069014499826
74,0.9871069014499826
74,0.9871069014499826
74,0.9871069014499826
74,0.9871069014499826
74,0.9871069014499826
74,0.9871069014499826
74,0.9871069014499826
74,0.9871069014499826
74,0.9871069014499826
74,0.9871069014499826
74,0.9871069014499826
74,0.9871069014499826
74,0.9871069014499826
75,0.9871069014499826
75,0.9871069014499826
75,0.9871069014499826
75,0.9871069014499826
75,0.9871069014499826
75,0.9871069014499826
75,0.9871069014499826
75,0.9871069014499826
75,0.9871069014499826
75,0.9871069014499826
75,0.9871069014499826
75,0.9871069014499826
75,0.9871069014499826
75,0.9871069014499826
75,0.9871069014499826
75,0.9871069014499826
75,0.9871069014499826
75,0.9871069014499826
75,0.9871069014499826
75,0.9871069014499826
75,0.9871069014499826
75,0.9871069014499826
75,0.9871069014499826
75,0.9871069014499826
75,0.9871069014499826
75,0.9871069014499826
76,0.9871069014499826
76,0.9871069014499826
76,0.9871069014499826
76,0.9871069014499826
76,0.9871069014499826
76,0.9871069014499826
76,0.9871069014499826
76,0.9871069014499826
76,0.9871069014499826
76,0.9871069014499826
76,0.9871069014499826
76,0.9871069014499826
76,0.9871069014499826
76,0.9871069014499826
76,0.9871069014499826
76,0.9871069014499826
76,0.9871069014499826
76,0.9871069014499826
76,0.9871069014499826
76,0.9871069014499826
76,0.9871069014499826
76,0.9871069014499826
76,0.9871069014499826
76,0.9871069014499826
76,0.9871069014499826
76,0.9871069014499826
77,0.9871069014499826
77,0.9871069014499826
77,0.9871069014499826
77,0.9871069014499826
77,0.9871069014499826
77,0.9871069014499826
77,0.9871069014499826
77,0.9871069014499826
77,0.9871069014499826
77,0.9871069014499826
77,0.9871069014499826
77,0.9871069014499826
77,0.9871069014499826
77,0.9871069014499826
77,0.9871069014499826
77,0.9871069014499826
77,0.9871069014499826
77,0.9871069014499826
77,0.9871069014499826
77,0.9871069014499826
77,0.9871069014499826
77,0.9871069014499826
77,0.9871069014499826
77,0.9871069014499826
77,0.9871069014499826
77,0.9871069014499826
77,0.9871069014499826
78,0.9871069014499826
78,0.9871069014499826
78,0.9871069014499826
78,0.9871069014499826
78,0.9871069014499826
78,0.9871069014499826
78,0.9871069014499826
78,0.9871069014499826
78,0.9871069014499826
78,0.9871069014499826
78,0.9871069014499826
78,0.9871069014499826
78,0.9871069014499826
78,0.9871069014499826
78,0.9892852603726242
78,0.9892852603726242
78,0.9892852603726242
78,0.9892852603726242
78,0.9892852603726242
78,0.9892852603726242
78,0.9892852603726242
78,0.9892852603726242
78,0.9892852603726242
78,0.9892852603726242
78,0.9892852603726242
78,0.9892852603726242
79,0.9892852603726242
79,0.9892852603726242
79,0.9892852603726242
79,0.9892852603726242
79,0.9892852603726242
79,0.9892852603726242
79,0.9892852603726242
79,0.9892852603726242
79,0.9892852603726242
79,0.9892852603726242
79,0.9892852603726242
79,0.9892852603726242
79,0.9892852603726242
79,0.9892852603726242
79,0.9892852603726242
79,0.9892852603726242
79,0.9892852603726242
79,0.9892852603726242
79,0.9892852603726242
79,0.9892852603726242
79,0.9892852603726242
79,0.9892852603726242
79,0.9892852603726242
79,0.9892852603726242
79,0.9892852603726242
79,0.9892852603726242
79,0.9892852603726242
80,0.9892852603726242
80,0.9892852603726242
80,0.9892852603726242
80,0.9892852603726242
80,0.9892852603726242
80,0.9892852603726242
80,0.9892852603726242
80,0.9892852603726242
80,0.9892852603726242
80,0.9892852603726242
80,0.9892852603726242
80,0.9892852603726242
80,0.9892852603726242
80,0.9892852603726242
80,0.9892852603726242
80,0.9892852603726242
80,0.9892852603726242
80,0.9892852603726242
80,0.9892852603726242
80,0.9892852603726242
80,0.9892852603726242
80,0.9892852603726242
80,0.9892852603726242
80,0.9892852603726242
80,0.9892852603726242
81,0.9892852603726242
81,0.9892852603726242
81,0.9892852603726242
81,0.9892852603726242
81,0.9892852603726242
81,0.9892852603726242
81,0.9892852603726242
81,0.9892852603726242
81,0.9892852603726242
81,0.9892852603726242
81,0.9892852603726242
81,0.9892852603726242
81,0.9892852603726242
81,0.9892852603726242
81,0.9892852603726242
81,0.9892852603726242
81,0.9892852603726242
81,0.9892852603726242
81,0.9892852603726242
81,0.9892852603726242
81,0.9892852603726242
81,0.9892852603726242
81,0.9892852603726242
81,0.9892852603726242
81,0.9892852603726242
81,0.9892852603726242
82,0.9892852603726242
82,0.9892852603726242
82,0.9892852603726242
82,0.9892852603726242
82,0.9892852603726242
82,0.9892852603726242
82,0.9892852603726242
82,0.9892852603726242
82,0.9892852603726242
82,0.9892852603726242
82,0.9892852603726242
82,0.9892852603726242
82,0.9892852603726242
82,0.9892852603726242
82,0.9892852603726242
82,0.9892852603726242
82,0.9892852603726242
82,0.9892852603726242
82,0.9892852603726242
82,0.9892852603726242
82,0.9892852603726242
82,0.9892852603726242
82,0.9892852603726242
82,0.9892852603726242
82,0.9892852603726242
82,0.9892852603726242
83,0.9892852603726242
83,0.9892852603726242
83,0.9892852603726242
83,0.9892852603726242
83,0.9892852603726242
83,0.9892852603726242
83,0.9892852603726242
83,0.9892852603726242
83,0.9892852603726242
83,0.9892852603726242
83,0.9892852603726242
83,0.9892852603726242
83,0.9892852603726242
83,0.9892852603726242
83,0.9892852603726242
83,0.9892852603726242
83,0.9892852603726242
83,0.9892852603726242
83,0.9892852603726242
83,0.9892852603726242
83,0.9892852603726242
83,0.9892852603726242
83,0.9892852603726242
83,0.9892852603726242
83,0.9892852603726242
83,0.9892852603726242
84,0.9892852603726242
84,0.9892852603726242
84,0.9892852603726242
84,0.9892852603726242
84,0.9892852603726242
84,0.9892852603726242
84,0.9892852603726242
84,0.9892852603726242
84,0.9892852603726242
84,0.9892852603726242
84,0.9892852603726242
84,0.9892852603726242
84,0.9892852603726242
84,0.9892852603726242
84,0.9892852603726242
84,0.9892852603726242
84,0.9892852603726242
84,0.9892852603726242
84,0.9892852603726242
84,0.9892852603726242
84,0.9892852603726242
84,0.9892852603726242
84,0.9892852603726242
84,0.9892852603726242
84,0.9892852603726242
84,0.9892852603726242
85,0.9892852603726242
85,0.9892852603726242
85,0.9892852603726242
85,0.9892852603726242
85,0.9892852603726242
85,0.9892852603726242
85,0.9892852603726242
85,0.9892852603726242
85,0.9892852603726242
85,0.9892852603726242
85,0.9892852603726242
85,0.9892852603726242
85,0.9892852603726242
85,0.9892852603726242
85,0.9892852603726242
85,0.9892852603726242
85,0.9892852603726242
85,0.9892852603726242
85,0.9892852603726242
85,0.9892852603726242
85,0.9892852603726242
85,0.9892852603726242
85,0.9892852603726242
85,0.9892852603726242
85,0.9892852603726242
85,0.9892852603726242
85,0.9892852603726242
86,0.9892852603726242
86,0.9892852603726242
86,0.9892852603726242
86,0.9892852603726242
86,0.9892852603726242
86,0.9892852603726242
86,0.9892852603726242
86,0.9892852603726242
86,0.9892852603726242
86,0.9892852603726242
86,0.9892852603726242
86,0.9892852603726242
86,0.9892852603726242
86,0.9892852603726242
86,0.9892852603726242
86,0.9892852603726242
86,0.9892852603726242
86,0.9892852603726242
86,0.9892852603726242
86,0.9892852603726242
86,0.9892852603726242
86,0.9892852603726242
86,0.9892852603726242
86,0.9892852603726242
86,0.9892852603726242
86,0.9892852603726242
87,0.9892852603726242
87,0.9892852603726242
87,0.9892852603726242
87,0.9892852603726242
87,0.9892852603726242
87,0.9892852603726242
87,0.9892852603726242
87,0.9892852603726242
87,0.9892852603726242
87,0.9892852603726242
87,0.9892852603726242
87,0.9892852603726242
87,0.9892852603726242
87,0.9892852603726242
87,0.9892852603726242
87,0.9892852603726242
87,0.9892852603726242
87,0.9892852603726242
87,0.9892852603726242
87,0.9892852603726242
87,0.9892852603726242
87,0.9892852603726242
87,0.9892852603726242
87,0.9892852603726242
87,0.9892852603726242
87,0.9892852603726242
87,0.9892852603726242
88,0.9892852603726242
88,0.9892852603726242
88,0.9892852603726242
88,0.9892852603726242
88,0.9892852603726242
88,0.9892852603726242
88,0.9892852603726242
88,0.9892852603726242
88,0.9892852603726242
88,0.9892852603726242
88,0.9892852603726242
88,0.9892852603726242
88,0.9892852603726242
88,0.9892852603726242
88,0.9892852603726242
88,0.9892852603726242
88,0.9892852603726242
88,0.9892852603726242
88,0.9892852603726242
88,0.9892852603726242
88,0.9892852603726242
88,0.9892852603726242
88,0.9892852603726242
88,0.9892852603726242
88,0.9892852603726242
89,0.9892852603726242
89,0.9892852603726242
89,0.9892852603726242
89,0.9892852603726242
89,0.9892852603726242
89,0.9892852603726242
89,0.9892852603726242
89,0.9892852603726242
89,0.9892852603726242
89,0.9892852603726242
89,0.9892852603726242
89,0.9892852603726242
89,0.9892852603726242
89,0.9892852603726242
89,0.9892852603726242
89,0.9892852603726242
89,0.9892852603726242
89,0.9892852603726242
89,0.9892852603726242
89,0.9892852603726242
89,0.9892852603726242
89,0.9892852603726242
89,0.9892852603726242
89,0.9892852603726242
89,0.9892852603726242
89,0.9892852603726242
89,0.9892852603726242
90,0.9906753625048142
90,0.9906753625048142
90,0.9906753625048142
90,0.9906753625048142
90,0.9906753625048142
90,0.9906753625048142
90,0.9906753625048142
90,0.9906753625048142
90,0.9906753625048142
90,0.9906753625048142
90,0.9906753625048142
90,0.9906753625048142
90,0.9906753625048142
90,0.9906753625048142
90,0.9906753625048142
90,0.9906753625048142
90,0.9906753625048142
90,0.9906753625048142
90,0.9906753625048142
90,0.9906753625048142
90,0.9906753625048142
90,0.9906753625048142
90,0.9906753625048142
90,0.9906753625048142
90,0.9906753625048142
91,0.9906753625048142
91,0.9906753625048142
91,0.9906753625048142
91,0.9906753625048142
91,0.9906753625048142
91,0.9906753625048142
91,0.9906753625048142
91,0.9906753625048142
91,0.9906753625048142
91,0.9906753625048142
91,0.9906753625048142
91,0.9906753625048142
91,0.9906753625048142
91,0.9906753625048142
91,0.9906753625048142
91,0.9906753625048142
91,0.9906753625048142
91,0.9906753625048142
91,0.9906753625048142
91,0.9906753625048142
91,0.9906753625048142
91,0.9906753625048142
91,0.9906753625048142
91,0.9906753625048142
91,0.9906753625048142
91,0.9906753625048142
92,0.9906753625048142
92,0.9906753625048142
92,0.9906753625048142
92,0.9906753625048142
92,0.9906753625048142
92,0.9906753625048142
92,0.9906753625048142
92,0.9906753625048142
92,0.9906753625048142
92,0.9906753625048142
92,0.9906753625048142
92,0.9906753625048142
92,0.9906753625048142
92,0.9906753625048142
92,0.9906753625048142
92,0.9906753625048142
92,0.9906753625048142
92,0.9906753625048142
92,0.9906753625048142
92,0.9906753625048142
92,0.9906753625048142
92,0.9906753625048142
92,0.9906753625048142
92,0.9906753625048142
92,0.9906753625048142
92,0.9906753625048142
93,0.9906753625048142
93,0.9906753625048142
93,0.9906753625048142
93,0.9906753625048142
93,0.9906753625048142
93,0.9906753625048142
93,0.9906753625048142
93,0.9906753625048142
93,0.9906753625048142
93,0.9906753625048142
93,0.9906753625048142
93,0.9906753625048142
93,0.9906753625048142
93,0.9906753625048142
93,0.9906753625048142
93,0.9906753625048142
93,0.9906753625048142
93,0.9906753625048142
93,0.9906753625048142
93,0.9906753625048142
93,0.9906753625048142
93,0.9906753625048142
93,0.9906753625048142
93,0.9909561006394754
93,0.9909561006394754
94,0.9909561006394754
94,0.9909561006394754
94,0.9909561006394754
94,0.9909561006394754
94,0.9909561006394754
94,0.9909561006394754
94,0.9909561006394754
94,0.9909561006394754
94,0.9909561006394754
94,0.9909561006394754
94,0.9909561006394754
94,0.9909561006394754
94,0.9909561006394754
94,0.9909561006394754
94,0.9909561006394754
94,0.9909561006394754
94,0.9909561006394754
94,0.9909561006394754
94,0.9909561006394754
94,0.9909561006394754
94,0.9909561006394754
94,0.9909561006394754
94,0.9909561006394754
94,0.9909561006394754
95,0.9909561006394754
95,0.9909561006394754
95,0.9909561006394754
95,0.9909561006394754
95,0.9909561006394754
95,0.9909561006394754
95,0.9909561006394754
95,0.9909561006394754
95,0.9909561006394754
95,0.9909561006394754
95,0.9909561006394754
95,0.9909561006394754
95,0.9909561006394754
95,0.9909561006394754
95,0.9909561006394754
95,0.9909561006394754
95,0.9909561006394754
95,0.9909561006394754
95,0.9909561006394754
95,0.9909561006394754
95,0.9909561006394754
95,0.9909561006394754
95,0.9909561006394754
96,0.9909561006394754
96,0.9912232180129903
96,0.9912232180129903
96,0.9912232180129903
96,0.9912232180129903
96,0.9912232180129903
96,0.9912232180129903
96,0.9912232180129903
96,0.9912232180129903
96,0.9912232180129903
96,0.9912232180129903
96,0.9912232180129903
96,0.9912232180129903
96,0.9912232180129903
96,0.9912232180129903
96,0.9912232180129903
96,0.9912232180129903
96,0.9912232180129903
96,0.9912232180129903
96,0.9912232180129903
96,0.9912232180129903
96,0.9912232180129903
96,0.9912232180129903
96,0.9912232180129903
96,0.9912232180129903
97,0.9912232180129903
97,0.9912232180129903
97,0.9912232180129903
97,0.9912232180129903
97,0.9912232180129903
97,0.9912232180129903
97,0.9912232180129903
97,0.9912232180129903
97,0.9912232180129903
97,0.9912232180129903
97,0.9912232180129903
97,0.9912232180129903
97,0.9912232180129903
97,0.9912232180129903
97,0.9912232180129903
97,0.9912232180129903
97,0.9912232180129903
97,0.9912232180129903
97,0.9912232180129903
97,0.9912232180129903
97,0.9912232180129903
97,0.9912232180129903
97,0.9912232180129903
97,0.9912232180129903
97,0.9912232180129903
97,0.9912232180129903
98,0.9912232180129903
98,0.9912232180129903
98,0.9912232180129903
98,0.9912232180129903
98,0.9912232180129903
98,0.9912232180129903
98,0.9912232180129903
98,0.9912232180129903
98,0.9912232180129903
98,0.9912232180129903
98,0.9912232180129903
98,0.9912232180129903
98,0.9912232180129903
98,0.9912232180129903
98,0.9912232180129903
98,0.9912232180129903
98,0.9912232180129903
98,0.9912232180129903
98,0.9912232180129903
98,0.9912232180129903
98,0.9912232180129903
98,0.9912232180129903
98,0.9912232180129903
98,0.9912232180129903
98,0.9912232180129903
98,0.9912232180129903
98,0.9912232180129903
99,0.9912232180129903
99,0.9912232180129903
99,0.9912232180129903
99,0.9912232180129903
99,0.9912232180129903
99,0.9912232180129903
99,0.9912232180129903
99,0.9912232180129903
99,0.9912232180129903
99,0.9912232180129903
99,0.9912232180129903
99,0.9912232180129903
99,0.9912232180129903
99,0.9912232180129903
99,0.9912232180129903
99,0.9912232180129903
99,0.9912232180129903
99,0.9912232180129903
99,0.9912232180129903
99,0.9912232180129903
99,0.9912232180129903
99,0.9912232180129903
99,0.9912232180129903
99,0.9912418068370991
99,0.9912418068370991
99,0.9912418068370991
100,0.9912418068370991
100,0.9912418068370991
100,0.9912418068370991
100,0.9912418068370991
100,0.9912418068370991
100,0.9912418068370991
100,0.9912418068370991
100,0.9912418068370991
100,0.9912418068370991
100,0.9912418068370991
100,0.9912418068370991
100,0.9912418068370991
100,0.9912418068370991
100,0.9912418068370991
100,0.9912418068370991
100,0.9912418068370991
100,0.9912418068370991
100,0.9912418068370991
100,0.9912418068370991
100,0.9912418068370991
100,0.9912418068370991
100,0.9912418068370991
100,0.9923289604904745
100,0.9923289604904745
100,0.9923289604904745
100,0.9923289604904745
100,0.9923289604904745
100,0.9923289604904745
101,0.9923289604904745
101,0.9923289604904745
101,0.9923289604904745
101,0.9923289604904745
101,0.9923289604904745
101,0.9923289604904745
101,0.9923289604904745
101,0.9923289604904745
101,0.9923289604904745
101,0.9923289604904745
101,0.9923289604904745
101,0.9923289604904745
101,0.9923289604904745
101,0.9923289604904745
101,0.9923289604904745
101,0.9923289604904745
101,0.9923289604904745
101,0.9923289604904745
101,0.9923289604904745
101,0.9923289604904745
101,0.9923289604904745
101,0.9923289604904745
101,0.9923289604904745
101,0.9923289604904745
101,0.9923289604904745
101,0.9923289604904745
102,0.9923289604904745
102,0.9923289604904745
102,0.9923289604904745
102,0.9923289604904745
102,0.9923289604904745
102,0.9923289604904745
102,0.9923289604904745
102,0.9923289604904745
102,0.9923289604904745
102,0.9923289604904745
102,0.9923289604904745
102,0.9923289604904745
102,0.9923289604904745
102,0.9923289604904745
102,0.9923289604904745
102,0.9923289604904745
102,0.9923289604904745
102,0.9923289604904745
102,0.9923289604904745
102,0.9923289604904745
102,0.9923289604904745
102,0.9923289604904745
102,0.9923289604904745
102,0.9923289604904745
102,0.9923289604904745
103,0.9923289604904745
103,0.9923289604904745
103,0.9923289604904745
103,0.9923289604904745
103,0.9923289604904745
103,0.9923289604904745
103,0.9923289604904745
103,0.9923289604904745
103,0.9923289604904745
103,0.9923289604904745
103,0.9923289604904745
103,0.9923289604904745
103,0.9923289604904745
103,0.9923289604904745
103,0.9923289604904745
103,0.9923289604904745
103,0.9923289604904745
103,0.9923289604904745
103,0.9923289604904745
103,0.9923289604904745
103,0.9923289604904745
103,0.9923289604904745
103,0.9923289604904745
103,0.9923289604904745
103,0.9923289604904745
103,0.9923289604904745
104,0.9923289604904745
104,0.9923289604904745
104,0.9923289604904745
104,0.9923289604904745
104,0.9923289604904745
104,0.9923289604904745
104,0.9923289604904745
104,0.9923289604904745
104,0.9923289604904745
104,0.9923289604904745
104,0.9923289604904745
104,0.9923289604904745
104,0.9923289604904745
104,0.9923289604904745
104,0.9923289604904745
104,0.9923289604904745
104,0.9923289604904745
104,0.9923289604904745
104,0.9923289604904745
104,0.9923289604904745
104,0.9923289604904745
104,0.9923289604904745
104,0.9923289604904745
104,0.9923289604904745
104,0.9923289604904745
104,0.9923289604904745
104,0.9923289604904745
105,0.9923289604904745
105,0.9923289604904745
105,0.9923289604904745
105,0.9923289604904745
105,0.9923289604904745
105,0.9923289604904745
105,0.9923289604904745
105,0.9923289604904745
105,0.9923289604904745
105,0.9923289604904745
105,0.9923289604904745
105,0.9923289604904745
105,0.9923289604904745
105,0.9923289604904745
105,0.9923289604904745
105,0.9923289604904745
105,0.9923289604904745
105,0.9923289604904745
105,0.9923289604904745
105,0.9923289604904745
105,0.9923289604904745
105,0.9923289604904745
105,0.9923289604904745
105,0.9923289604904745
105,0.9923289604904745
105,0.9923289604904745
105,0.9923289604904745
106,0.9923289604904745
106,0.9923289604904745
106,0.9923289604904745
106,0.9923289604904745
106,0.9923289604904745
106,0.9923289604904745
106,0.9923289604904745
106,0.9923289604904745
106,0.9923289604904745
106,0.9923289604904745
106,0.9923289604904745
106,0.9923289604904745
106,0.9923289604904745
106,0.9926605364606212
106,0.9926605364606212
106,0.9926605364606212
106,0.9926605364606212
106,0.9926605364606212
106,0.9926605364606212
106,0.9926605364606212
106,0.9926605364606212
106,0.9926605364606212
106,0.9926605364606212
106,0.9926605364606212
106,0.9926605364606212
106,0.9926605364606212
107,0.9926605364606212
107,0.9926605364606212
107,0.9926605364606212
107,0.9926605364606212
107,0.9926605364606212
107,0.9926605364606212
107,0.9926605364606212
107,0.9926605364606212
107,0.9926605364606212
107,0.9926605364606212
107,0.9926605364606212
107,0.9926605364606212
107,0.9926605364606212
107,0.9926605364606212
107,0.9926605364606212
107,0.9926605364606212
107,0.9926605364606212
107,0.9926605364606212
107,0.9926605364606212
107,0.9926605364606212
107,0.9926605364606212
107,0.9926605364606212
107,0.9926605364606212
107,0.9926605364606212
107,0.9926605364606212
108,0.9926605364606212
108,0.9926605364606212
108,0.9926605364606212
108,0.9926605364606212
108,0.9926605364606212
108,0.9926605364606212
108,0.9926605364606212
108,0.9926605364606212
108,0.9926605364606212
108,0.9926605364606212
108,0.9926605364606212
108,0.9926605364606212
108,0.9926605364606212
108,0.9926605364606212
108,0.9926605364606212
108,0.9926605364606212
108,0.9926605364606212
108,0.9926605364606212
108,0.9926605364606212
108,0.9926605364606212
108,0.9926605364606212
108,0.9926605364606212
108,0.9926605364606212
108,0.9926605364606212
108,0.9926605364606212
108,0.9926605364606212
108,0.9926605364606212
108,0.9926605364606212
108,0.9926605364606212
109,0.9926605364606212
109,0.9926605364606212
109,0.9926605364606212
109,0.9926605364606212
109,0.9926605364606212
109,0.9926605364606212
109,0.9926605364606212
109,0.9926605364606212
109,0.9926605364606212
109,0.9926605364606212
109,0.9926605364606212
109,0.9926605364606212
109,0.9926605364606212
109,0.9926605364606212
109,0.9926605364606212
109,0.9926605364606212
109,0.9926605364606212
109,0.9926605364606212
109,0.9926605364606212
109,0.9926605364606212
109,0.9926605364606212
109,0.9926605364606212
109,0.9926605364606212
109,0.9926605364606212
109,0.9926605364606212
109,0.9926605364606212
109,0.9926605364606212
109,0.9926605364606212
110,0.9926605364606212
110,0.9926605364606212
110,0.9926605364606212
110,0.9926605364606212
110,0.9926605364606212
110,0.9932044476693375
110,0.9932044476693375
110,0.9932044476693375
110,0.9932044476693375
110,0.9932044476693375
110,0.9932044476693375
110,0.9932044476693375
110,0.9932044476693375
110,0.9932044476693375
110,0.9932044476693375
110,0.9932044476693375
110,0.9932044476693375
110,0.9932044476693375
110,0.9932044476693375
110,0.9932044476693375
110,0.9932044476693375
110,0.9932044476693375
110,0.9932044476693375
110,0.9932044476693375
110,0.9932044476693375
110,0.9932044476693375
111,0.9932044476693375
111,0.9932044476693375
111,0.9932044476693375
111,0.9932044476693375
111,0.9933516564890041
111,0.9933516564890041
111,0.9933516564890041
111,0.9933516564890041
111,0.9933516564890041
111,0.9933516564890041
111,0.9933516564890041
111,0.9933516564890041
111,0.9933516564890041
111,0.9933516564890041
111,0.9933516564890041
111,0.9933516564890041
111,0.9933516564890041
111,0.9933516564890041
111,0.9933516564890041
111,0.9933516564890041
111,0.9933516564890041
111,0.9933516564890041
111,0.9933516564890041
111,0.9933516564890041
111,0.9933516564890041
112,0.9933516564890041
112,0.9933516564890041
112,0.9933516564890041
112,0.9933516564890041
112,0.9933516564890041
112,0.9933516564890041
112,0.9933516564890041
112,0.9933516564890041
112,0.9933516564890041
112,0.9933516564890041
112,0.9933516564890041
112,0.9933516564890041
112,0.9933516564890041
112,0.9933516564890041
112,0.9933516564890041
112,0.9933516564890041
112,0.9933516564890041
112,0.9933516564890041
112,0.9933516564890041
112,0.9933516564890041
112,0.9933516564890041
112,0.9933516564890041
112,0.9933516564890041
112,0.9933516564890041
112,0.9933516564890041
112,0.9933516564890041
112,0.9933516564890041
113,0.9933516564890041
113,0.9933516564890041
113,0.9933516564890041
113,0.9933516564890041
113,0.9933516564890041
113,0.9933516564890041
113,0.9933516564890041
113,0.9933516564890041
113,0.9933516564890041
113,0.9933516564890041
113,0.9933516564890041
113,0.9933516564890041
113,0.9933516564890041
113,0.9933516564890041
113,0.9933516564890041
113,0.9933516564890041
113,0.9933516564890041
113,0.9933516564890041
113,0.9933516564890041
113,0.9933516564890041
113,0.9933516564890041
113,0.9933516564890041
113,0.9933516564890041
113,0.9933516564890041
114,0.9933516564890041
114,0.9933516564890041
114,0.9933516564890041
114,0.9933516564890041
114,0.9933516564890041
114,0.9933516564890041
114,0.9933516564890041
114,0.9933516564890041
114,0.9933516564890041
114,0.9933516564890041
114,0.9933516564890041
114,0.9933516564890041
114,0.9933516564890041
114,0.9933516564890041
114,0.9933516564890041
114,0.9933516564890041
114,0.9933516564890041
114,0.9933516564890041
114,0.9933516564890041
114,0.9933516564890041
114,0.9933516564890041
114,0.9933516564890041
114,0.9933516564890041
114,0.9933516564890041
114,0.9933516564890041
114,0.9933516564890041
114,0.9933516564890041
115,0.9933516564890041
115,0.9933516564890041
115,0.9933516564890041
115,0.9933516564890041
115,0.9933516564890041
115,0.9933516564890041
115,0.9933516564890041
115,0.9933516564890041
115,0.9933516564890041
115,0.9933516564890041
115,0.9933516564890041
115,0.9933516564890041
115,0.9933516564890041
115,0.9933516564890041
115,0.9933516564890041
115,0.9933516564890041
115,0.9933516564890041
115,0.9933516564890041
115,0.9933516564890041
115,0.9933516564890041
115,0.9933516564890041
115,0.9933516564890041
115,0.9933516564890041
115,0.9933516564890041
116,0.9933516564890041
116,0.9933516564890041
116,0.9933516564890041
116,0.9933516564890041
116,0.9933516564890041
116,0.9933516564890041
116,0.9933516564890041
116,0.9933516564890041
116,0.9933516564890041
116,0.9933516564890041
116,0.9933516564890041
116,0.9933516564890041
116,0.9933516564890041
116,0.9933516564890041
116,0.9933516564890041
116,0.9933516564890041
116,0.9933516564890041
116,0.9933516564890041
116,0.9933516564890041
116,0.9933516564890041
116,0.9933516564890041
116,0.9933516564890041
116,0.9933516564890041
116,0.9933516564890041
117,0.9933516564890041
117,0.9933516564890041
117,0.9933516564890041
117,0.9933516564890041
117,0.9933516564890041
117,0.9933516564890041
117,0.9933516564890041
117,0.9933516564890041
117,0.9933516564890041
117,0.9933516564890041
117,0.9933516564890041
117,0.9933516564890041
117,0.9933516564890041
117,0.9933516564890041
117,0.9933516564890041
117,0.9933516564890041
117,0.9933516564890041
117,0.9933516564890041
117,0.9933516564890041
117,0.9933516564890041
117,0.9933516564890041
117,0.9933516564890041
117,0.9933516564890041
117,0.9933516564890041
118,0.9933516564890041
118,0.9933516564890041
118,0.9933516564890041
118,0.9933516564890041
118,0.9933516564890041
118,0.9933516564890041
118,0.9933516564890041
118,0.9933516564890041
118,0.9933516564890041
118,0.9933516564890041
118,0.9933516564890041
118,0.9933516564890041
118,0.9933516564890041
118,0.9933516564890041
118,0.9933516564890041
118,0.9933516564890041
118,0.9933516564890041
118,0.9933516564890041
118,0.9933516564890041
118,0.9933516564890041
118,0.9933516564890041
118,0.9933516564890041
118,0.9933516564890041
119,0.9933516564890041
119,0.9933516564890041
119,0.9933516564890041
119,0.9933516564890041
119,0.9933516564890041
119,0.9933516564890041
119,0.9933516564890041
119,0.9933516564890041
119,0.9933516564890041
119,0.9933516564890041
119,0.9933516564890041
119,0.9933516564890041
119,0.9933516564890041
119,0.9933516564890041
119,0.9933516564890041
119,0.9933516564890041
119,0.9933516564890041
119,0.9933516564890041
119,0.9933516564890041
119,0.9933516564890041
119,0.9933516564890041
119,0.9933516564890041
119,0.9933516564890041
119,0.9933516564890041
119,0.9933516564890041
119,0.9933516564890041
120,0.9933516564890041
120,0.9933516564890041
120,0.9933516564890041
120,0.9933516564890041
120,0.9933516564890041
120,0.9933516564890041
120,0.9933516564890041
120,0.9933516564890041
120,0.9933516564890041
120,0.9933516564890041
120,0.9933516564890041
120,0.9933516564890041
120,0.9933516564890041
120,0.9933516564890041
120,0.9933516564890041
120,0.9933516564890041
120,0.9933516564890041
120,0.9933516564890041
120,0.9933516564890041
120,0.9933516564890041
120,0.9933516564890041
120,0.9933516564890041
120,0.9933516564890041
120,0.9933516564890041
120,0.9933516564890041
121,0.9933516564890041
121,0.9933516564890041
121,0.9933516564890041
121,0.9933516564890041
121,0.9933516564890041
121,0.9933516564890041
121,0.9933516564890041
121,0.9933516564890041
121,0.9933516564890041
121,0.9933516564890041
121,0.9933516564890041
121,0.9933516564890041
121,0.9933516564890041
121,0.9933516564890041
121,0.9933516564890041
121,0.9933516564890041
121,0.9933516564890041
121,0.9933516564890041
121,0.9933516564890041
121,0.9933516564890041
122,0.9933516564890041
122,0.9933516564890041
122,0.9933516564890041
122,0.9933516564890041
122,0.9933516564890041
122,0.9933516564890041
122,0.9933516564890041
122,0.9933516564890041
122,0.9933516564890041
122,0.9933516564890041
122,0.9933516564890041
122,0.9933516564890041
122,0.9933516564890041
122,0.9933516564890041
122,0.9933516564890041
122,0.9933516564890041
122,0.9933516564890041
122,0.9933516564890041
122,0.9933516564890041
122,0.9933516564890041
122,0.9933516564890041
122,0.9933516564890041
122,0.9933516564890041
123,0.9933516564890041
123,0.9933516564890041
123,0.9933516564890041
123,0.9933516564890041
123,0.9933516564890041
123,0.9933516564890041
123,0.9933516564890041
123,0.9933516564890041
123,0.9933516564890041
123,0.9933516564890041
123,0.9933516564890041
123,0.9933516564890041
123,0.9933516564890041
123,0.9933516564890041
123,0.9933516564890041
123,0.9933516564890041
123,0.9933516564890041
123,0.9933516564890041
123,0.9933516564890041
123,0.9933516564890041
123,0.9933516564890041
124,0.9933516564890041
124,0.9933516564890041
124,0.9933516564890041
124,0.9933516564890041
124,0.9933516564890041
124,0.9933516564890041
124,0.9933516564890041
124,0.9933516564890041
124,0.9933516564890041
124,0.9933516564890041
124,0.9933516564890041
124,0.9933516564890041
124,0.9933516564890041
124,0.9933516564890041
124,0.9933516564890041
124,0.9933516564890041
124,0.9933516564890041
124,0.9933516564890041
124,0.9933516564890041
124,0.9933516564890041
124,0.9933516564890041
124,0.9933516564890041
124,0.9933516564890041
124,0.9933516564890041
124,0.9933516564890041
125,0.9933516564890041
125,0.9933516564890041
125,0.9933516564890041
125,0.9933516564890041
125,0.9933516564890041
125,0.9933516564890041
125,0.9933516564890041
125,0.9933516564890041
125,0.9933516564890041
125,0.9933516564890041
125,0.9933516564890041
125,0.9933516564890041
125,0.9933516564890041
125,0.9933516564890041
125,0.9933516564890041
125,0.9933516564890041
125,0.9933516564890041
125,0.9933516564890041
125,0.9933516564890041
125,0.9933516564890041
125,0.9933516564890041
125,0.9933516564890041
126,0.9933516564890041
126,0.9933516564890041
126,0.9933516564890041
126,0.9933516564890041
126,0.9933516564890041
126,0.9933516564890041
126,0.9933516564890041
126,0.9933516564890041
126,0.9933516564890041
126,0.9933516564890041
126,0.9933516564890041
126,0.9933516564890041
126,0.9933516564890041
126,0.9933516564890041
126,0.9933516564890041
126,0.9933516564890041
126,0.9933516564890041
126,0.9933516564890041
126,0.9933516564890041
126,0.9933516564890041
126,0.9933516564890041
126,0.9933516564890041
126,0.9933516564890041
126,0.9933516564890041
126,0.9933516564890041
127,0.9933516564890041
127,0.9933516564890041
127,0.9933516564890041
127,0.9933516564890041
127,0.9933516564890041
127,0.9933516564890041
127,0.9933516564890041
127,0.9933516564890041
127,0.9933516564890041
127,0.9933516564890041
127,0.9933516564890041
127,0.9933516564890041
127,0.9933516564890041
127,0.9933516564890041
127,0.9933516564890041
127,0.9933516564890041
127,0.9933516564890041
127,0.9933516564890041
127,0.9933516564890041
127,0.9933516564890041
127,0.9933516564890041
127,0.9933516564890041
127,0.9933516564890041
127,0.9933516564890041
127,0.9933516564890041
127,0.9933516564890041
128,0.9933516564890041
128,0.9933516564890041
128,0.9933516564890041
128,0.9933516564890041
128,0.9933516564890041
128,0.9933516564890041
128,0.9933516564890041
128,0.9933516564890041
128,0.9933516564890041
128,0.9933516564890041
128,0.9933516564890041
128,0.9933516564890041
128,0.9933516564890041
128,0.9933516564890041
128,0.9933516564890041
128,0.9933516564890041
128,0.9933516564890041
128,0.9933516564890041
128,0.9933516564890041
128,0.9933516564890041
128,0.9933516564890041
128,0.9933516564890041
128,0.9933516564890041
128,0.9933516564890041
128,0.9933516564890041
128,0.9933516564890041
128,0.9933516564890041
129,0.9933516564890041
129,0.9933516564890041
129,0.9933516564890041
129,0.9933516564890041
129,0.9933516564890041
129,0.9933516564890041
129,0.9933516564890041
129,0.9933516564890041
129,0.9933516564890041
129,0.9933516564890041
129,0.9933516564890041
129,0.9933516564890041
129,0.9933516564890041
129,0.9933516564890041
129,0.9933516564890041
129,0.9933516564890041
129,0.9933516564890041
129,0.9933516564890041
129,0.9933516564890041
129,0.9933516564890041
129,0.9933516564890041
129,0.9933516564890041
129,0.9933516564890041
129,0.9933516564890041
129,0.9933516564890041
130,0.9933516564890041
130,0.9933516564890041
130,0.9933516564890041
130,0.9933516564890041
130,0.9933516564890041
130,0.9933516564890041
130,0.9933516564890041
130,0.9933516564890041
130,0.9933516564890041
130,0.9933516564890041
130,0.9933516564890041
130,0.9933516564890041
130,0.9933516564890041
130,0.9933516564890041
130,0.9933516564890041
130,0.9933516564890041
130,0.9933516564890041
130,0.9933516564890041
130,0.9933516564890041
130,0.9933516564890041
130,0.9933516564890041
130,0.9933516564890041
130,0.9933516564890041
130,0.9933516564890041
130,0.9933516564890041
130,0.9933516564890041
130,0.9933516564890041
131,0.9933516564890041
131,0.9933516564890041
131,0.9933516564890041
131,0.9933516564890041
131,0.9933516564890041
131,0.9933516564890041
131,0.9933516564890041
131,0.9933516564890041
131,0.9933516564890041
131,0.9933516564890041
131,0.9933516564890041
131,0.9933516564890041
131,0.9933516564890041
131,0.9933516564890041
131,0.9942201963636369
131,0.9942201963636369
131,0.9942201963636369
131,0.9942201963636369
131,0.9942201963636369
131,0.9942201963636369
131,0.9942201963636369
131,0.9942201963636369
131,0.9942201963636369
131,0.9942201963636369
131,0.9942201963636369
132,0.9942201963636369
132,0.9942201963636369
132,0.9942201963636369
132,0.9942201963636369
132,0.9942201963636369
132,0.9942201963636369
132,0.9942201963636369
132,0.9942201963636369
132,0.9942201963636369
132,0.9942201963636369
132,0.9942201963636369
132,0.9942201963636369
132,0.9942201963636369
132,0.9942201963636369
132,0.9942201963636369
132,0.9942201963636369
132,0.9942201963636369
132,0.9942201963636369
132,0.9942201963636369
132,0.9942201963636369
132,0.9942201963636369
132,0.9942201963636369
132,0.9942201963636369
132,0.9942201963636369
133,0.9942201963636369
133,0.9942201963636369
133,0.9942201963636369
133,0.9942201963636369
133,0.9942201963636369
133,0.9942201963636369
133,0.9942201963636369
133,0.9942201963636369
133,0.9942201963636369
133,0.9942201963636369
133,0.9942201963636369
133,0.9942201963636369
133,0.9942201963636369
133,0.9942201963636369
133,0.9942201963636369
133,0.9944490614648778
133,0.9944490614648778
133,0.9944490614648778
134,0.9944490614648778
134,0.9944490614648778
134,0.9944490614648778
134,0.9944490614648778
134,0.9944490614648778
134,0.9944490614648778
134,0.9944490614648778
134,0.9944490614648778
134,0.9944490614648778
134,0.9944490614648778
134,0.9944490614648778
134,0.9944490614648778
134,0.9944490614648778
134,0.9944490614648778
134,0.9944490614648778
134,0.9944490614648778
134,0.9944490614648778
134,0.9944490614648778
134,0.9944490614648778
134,0.9944490614648778
134,0.9944490614648778
134,0.9944490614648778
134,0.9944490614648778
134,0.9944490614648778
134,0.9944490614648778
134,0.9944490614648778
135,0.9944490614648778
135,0.9944490614648778
135,0.9944490614648778
135,0.9944490614648778
135,0.9944490614648778
135,0.9944490614648778
135,0.9944490614648778
135,0.9944490614648778
135,0.9944490614648778
135,0.9944490614648778
135,0.9944490614648778
135,0.9944490614648778
135,0.9944490614648778
135,0.9944490614648778
135,0.9944490614648778
135,0.9944490614648778
135,0.9944490614648778
135,0.9944490614648778
135,0.9944490614648778
135,0.9944490614648778
135,0.9944490614648778
135,0.9944490614648778
135,0.9944490614648778
135,0.9944490614648778
135,0.9944490614648778
135,0.9944490614648778
135,0.9944490614648778
136,0.9944490614648778
136,0.9944490614648778
136,0.9944490614648778
136,0.9944490614648778
136,0.9944490614648778
136,0.9944490614648778
136,0.9944490614648778
136,0.9944490614648778
136,0.9944490614648778
136,0.9944490614648778
136,0.9944490614648778
136,0.9944490614648778
136,0.9944490614648778
136,0.9944490614648778
136,0.9944490614648778
136,0.9944490614648778
136,0.9944490614648778
136,0.9944490614648778
136,0.9944490614648778
136,0.9944490614648778
136,0.9944490614648778
136,0.9944490614648778
136,0.9944490614648778
136,0.9944490614648778
136,0.9944490614648778
136,0.9944490614648778
137,0.9944490614648778
137,0.9944490614648778
137,0.9944490614648778
137,0.9944490614648778
137,0.9944490614648778
137,0.9944490614648778
137,0.9944490614648778
137,0.9944490614648778
137,0.9944490614648778
137,0.9944490614648778
137,0.9944490614648778
137,0.9944490614648778
137,0.9944490614648778
137,0.9944490614648778
137,0.9944490614648778
137,0.9944490614648778
137,0.9944490614648778
137,0.9944490614648778
137,0.9944490614648778
137,0.9944490614648778
137,0.9944490614648778
137,0.9944490614648778
137,0.9944490614648778
137,0.9944490614648778
137,0.9944490614648778
137,0.9944490614648778
138,0.9944490614648778
138,0.9944490614648778
138,0.9944490614648778
138,0.9944490614648778
138,0.9944490614648778
138,0.9944490614648778
138,0.9944490614648778
138,0.9944490614648778
138,0.9944490614648778
138,0.9944490614648778
138,0.9944490614648778
138,0.9944490614648778
138,0.9944490614648778
138,0.9944490614648778
138,0.9944490614648778
138,0.9944490614648778
138,0.9944490614648778
138,0.9944490614648778
138,0.9944490614648778
138,0.9944490614648778
138,0.9944490614648778
138,0.9944490614648778
138,0.9944490614648778
138,0.9944490614648778
139,0.9944490614648778
139,0.9944490614648778
139,0.9944490614648778
139,0.9944490614648778
139,0.9944490614648778
139,0.9944490614648778
139,0.9944490614648778
139,0.9944490614648778
139,0.9944490614648778
139,0.9944490614648778
139,0.9944490614648778
139,0.9944490614648778
139,0.9944490614648778
139,0.9944490614648778
139,0.9944490614648778
139,0.9944490614648778
139,0.9944490614648778
139,0.9944490614648778
139,0.9944490614648778
139,0.9944490614648778
139,0.9944490614648778
139,0.9944490614648778
139,0.9944490614648778
139,0.9944490614648778
140,0.9944490614648778
140,0.9944490614648778
140,0.9944490614648778
140,0.9944490614648778
140,0.9944490614648778
140,0.9944490614648778
140,0.9944490614648778
140,0.9944490614648778
140,0.9944490614648778
140,0.9944490614648778
140,0.9944490614648778
140,0.9944490614648778
140,0.9944490614648778
140,0.9944490614648778
140,0.9944490614648778
140,0.9944490614648778
140,0.9944490614648778
140,0.9944490614648778
140,0.9944490614648778
140,0.9944490614648778
140,0.9944490614648778
140,0.9944490614648778
140,0.9944490614648778
140,0.9944490614648778
140,0.9944490614648778
140,0.9944490614648778
141,0.9944490614648778
141,0.9944490614648778
141,0.9944490614648778
141,0.9944490614648778
141,0.9944490614648778
141,0.9944490614648778
141,0.9944490614648778
141,0.9944490614648778
141,0.9944490614648778
141,0.9944490614648778
141,0.9944490614648778
141,0.9944490614648778
141,0.9944490614648778
141,0.9944490614648778
141,0.9944490614648778
141,0.9944490614648778
141,0.9944490614648778
141,0.9944490614648778
141,0.9944490614648778
141,0.9944490614648778
141,0.9944490614648778
141,0.9944490614648778
141,0.9944490614648778
141,0.9944490614648778
141,0.9944490614648778
141,0.9944490614648778
141,0.9944490614648778
141,0.9944490614648778
141,0.9944490614648778
142,0.9944490614648778
142,0.9944490614648778
142,0.9944490614648778
142,0.9944490614648778
142,0.9944490614648778
142,0.9944490614648778
142,0.9944490614648778
142,0.9944490614648778
142,0.9944490614648778
142,0.9944490614648778
142,0.9944490614648778
142,0.9944490614648778
142,0.9944490614648778
142,0.9944490614648778
142,0.9944490614648778
142,0.9944490614648778
142,0.9944490614648778
142,0.9944490614648778
142,0.9944490614648778
142,0.9944490614648778
142,0.9944490614648778
142,0.9944490614648778
142,0.9944490614648778
142,0.9944490614648778
142,0.9944490614648778
142,0.9944490614648778
142,0.9944490614648778
142,0.9944490614648778
143,0.9944490614648778
143,0.9944490614648778
143,0.9944490614648778
143,0.9944490614648778
143,0.9944490614648778
143,0.9944490614648778
143,0.9944490614648778
143,0.9944490614648778
143,0.9944490614648778
143,0.9944490614648778
143,0.9944490614648778
143,0.9944490614648778
143,0.9944490614648778
143,0.9944490614648778
143,0.9944490614648778
143,0.9944490614648778
143,0.9944490614648778
143,0.9944490614648778
143,0.9944490614648778
143,0.9944490614648778
143,0.9944490614648778
143,0.9944490614648778
143,0.9944490614648778
143,0.9944490614648778
143,0.9944490614648778
143,0.9944490614648778
143,0.9944490614648778
144,0.9944490614648778
144,0.9944490614648778
144,0.9944490614648778
144,0.9944490614648778
144,0.9944490614648778
144,0.9944490614648778
144,0.9944490614648778
144,0.9944490614648778
144,0.9944490614648778
144,0.9944490614648778
144,0.9944490614648778
144,0.9944490614648778
144,0.9944490614648778
144,0.9944490614648778
144,0.9944490614648778
144,0.9944490614648778
144,0.9944490614648778
144,0.9944490614648778
144,0.9944490614648778
144,0.9944490614648778
144,0.9944490614648778
144,0.9944490614648778
144,0.9944490614648778
144,0.9944490614648778
144,0.9944490614648778
144,0.9944490614648778
144,0.9944490614648778
144,0.9944490614648778
144,0.9944490614648778
145,0.9944490614648778
145,0.9944490614648778
145,0.9944490614648778
145,0.9944490614648778
145,0.9944490614648778
145,0.9945044215092628
145,0.9945044215092628
145,0.9945044215092628
145,0.9945044215092628
145,0.9945044215092628
145,0.9945044215092628
145,0.9945044215092628
145,0.9945044215092628
145,0.9945044215092628
145,0.9945044215092628
145,0.9945044215092628
145,0.9945044215092628
145,0.9945044215092628
145,0.9945044215092628
145,0.9945044215092628
145,0.9945044215092628
145,0.9945044215092628
145,0.9945044215092628
145,0.9945044215092628
145,0.9945044215092628
145,0.9945044215092628
146,0.9945044215092628
146,0.9945044215092628
146,0.9945044215092628
146,0.9945044215092628
146,0.9945044215092628
146,0.9945044215092628
146,0.9945044215092628
146,0.9945044215092628
146,0.9945044215092628
146,0.9945044215092628
146,0.9945044215092628
146,0.9945044215092628
146,0.9945044215092628
146,0.9945044215092628
146,0.9945044215092628
146,0.9945044215092628
146,0.9945044215092628
146,0.9945044215092628
146,0.9945044215092628
146,0.9945044215092628
146,0.9945044215092628
146,0.9945044215092628
146,0.9945044215092628
146,0.9945044215092628
146,0.9945044215092628
146,0.9945044215092628
146,0.9945044215092628
147,0.9945044215092628
147,0.9945044215092628
147,0.9945044215092628
147,0.9945044215092628
147,0.9945044215092628
147,0.9945044215092628
147,0.9945044215092628
147,0.9945044215092628
147,0.9945044215092628
147,0.9945044215092628
147,0.9945044215092628
147,0.9945044215092628
147,0.9945044215092628
147,0.9945044215092628
147,0.9945044215092628
147,0.9945044215092628
147,0.9945044215092628
147,0.9945044215092628
147,0.9945044215092628
147,0.9945044215092628
147,0.9945044215092628
147,0.9945044215092628
147,0.9945044215092628
147,0.9945044215092628
147,0.9945044215092628
147,0.9945044215092628
147,0.9945044215092628
147,0.9947812087648364
148,0.9947812087648364
148,0.9947812087648364
148,0.9947812087648364
148,0.9947812087648364
148,0.9947812087648364
148,0.9947812087648364
148,0.9947812087648364
148,0.9947812087648364
148,0.9947812087648364
148,0.9947812087648364
148,0.9947812087648364
148,0.9947812087648364
148,0.9947812087648364
148,0.9947812087648364
148,0.9947812087648364
148,0.9947812087648364
148,0.9947812087648364
148,0.9947812087648364
148,0.9947812087648364
148,0.9947812087648364
148,0.9947812087648364
148,0.9947812087648364
148,0.9947812087648364
148,0.9947812087648364
148,0.9947812087648364
148,0.9947812087648364
148,0.9947812087648364
149,0.9947812087648364
149,0.9947812087648364
149,0.9947812087648364
149,0.9947812087648364
149,0.9947812087648364
149,0.9947812087648364
149,0.9947812087648364
149,0.9947812087648364
149,0.9947812087648364
149,0.9947812087648364
149,0.9947812087648364
149,0.9947812087648364
149,0.9947812087648364
149,0.9947812087648364
149,0.9947812087648364
149,0.9947812087648364
149,0.9947812087648364
149,0.9947812087648364
149,0.9947812087648364
149,0.9947812087648364
149,0.9947812087648364
149,0.9947812087648364
149,0.9948980917009432
149,0.9948980917009432
149,0.9948980917009432
149,0.9948980917009432
149,0.9948980917009432
150,0.9948980917009432
