0,0.4852064803585847
0,0.4852064803585847
0,0.4852064803585847
0,0.4852064803585847
0,0.4852064803585847
0,0.4852064803585847
0,0.4852064803585847
0,0.4852064803585847
0,0.4852064803585847
0,0.4852064803585847
0,0.4852064803585847
0,0.4852064803585847
0,0.4852064803585847
0,0.4852064803585847
0,0.4852064803585847
0,0.4852064803585847
0,0.4852064803585847
0,0.4852064803585847
0,0.4852064803585847
0,0.4852064803585847
0,0.4852064803585847
0,0.4852064803585847
0,0.4852064803585847
0,0.4852064803585847
0,0.7408418086855497
0,0.7408418086855497
0,0.7408418086855497
0,0.7408418086855497
0,0.7408418086855497
0,0.7408418086855497
0,0.7408418086855497
0,0.7408418086855497
1,0.7408418086855497
1,0.7408418086855497
1,0.7408418086855497
1,0.7408418086855497
1,0.7408418086855497
1,0.7408418086855497
1,0.7408418086855497
1,0.7408418086855497
1,0.7408418086855497
1,0.7408418086855497
1,0.7408418086855497
1,0.7408418086855497
1,0.7408418086855497
1,0.7408418086855497
1,0.7408418086855497
1,0.7408418086855497
1,0.7408418086855497
1,0.8104095270577331
1,0.8104095270577331
1,0.8104095270577331
1,0.8104095270577331
1,0.8104095270577331
1,0.8104095270577331
1,0.8104095270577331
1,0.8104095270577331
1,0.8104095270577331
1,0.8104095270577331
1,0.8104095270577331
1,0.8104095270577331
1,0.8104095270577331
1,0.8104095270577331
1,0.8104095270577331
1,0.8104095270577331
1,0.8104095270577331
1,0.8104095270577331
2,0.8104095270577331
2,0.8104095270577331
2,0.8104095270577331
2,0.8104095270577331
2,0.8104095270577331
2,0.8104095270577331
2,0.8104095270577331
2,0.8191050203463186
2,0.8191050203463186
2,0.8191050203463186
2,0.8191050203463186
2,0.8191050203463186
2,0.8191050203463186
2,0.8191050203463186
2,0.8191050203463186
2,0.8191050203463186
2,0.8191050203463186
2,0.8191050203463186
2,0.8191050203463186
2,0.8191050203463186
2,0.8191050203463186
2,0.8191050203463186
2,0.8191050203463186
2,0.8191050203463186
2,0.8191050203463186
2,0.8191050203463186
2,0.8191050203463186
2,0.8191050203463186
2,0.8191050203463186
2,0.8191050203463186
2,0.8191050203463186
2,0.8191050203463186
2,0.8229888655850036
2,0.8229888655850036
3,0.8229888655850036
3,0.8229888655850036
3,0.8229888655850036
3,0.8229888655850036
3,0.8229888655850036
3,0.8229888655850036
3,0.8229888655850036
3,0.8229888655850036
3,0.8229888655850036
3,0.8229888655850036
3,0.8229888655850036
3,0.8229888655850036
3,0.8229888655850036
3,0.8229888655850036
3,0.8229888655850036
3,0.8229888655850036
3,0.8229888655850036
3,0.8229888655850036
3,0.8229888655850036
3,0.8229888655850036
3,0.8229888655850036
3,0.8229888655850036
3,0.8229888655850036
3,0.8229888655850036
3,0.8229888655850036
3,0.8229888655850036
3,0.8229888655850036
3,0.8229888655850036
3,0.8229888655850036
3,0.8229888655850036
3,0.8229888655850036
3,0.8229888655850036
3,0.8229888655850036
3,0.8229888655850036
3,0.8229888655850036
4,0.8229888655850036
4,0.8229888655850036
4,0.8229888655850036
4,0.8229888655850036
4,0.8229888655850036
4,0.8229888655850036
4,0.8229888655850036
4,0.8229888655850036
4,0.8229888655850036
4,0.8229888655850036
4,0.8229888655850036
4,0.8229888655850036
4,0.8229888655850036
4,0.8388551118995956
4,0.8388551118995956
4,0.8388551118995956
4,0.8388551118995956
4,0.8388551118995956
4,0.8388551118995956
4,0.8388551118995956
4,0.8388551118995956
4,0.8388551118995956
4,0.8388551118995956
4,0.8388551118995956
4,0.8388551118995956
4,0.8388551118995956
4,0.8388551118995956
4,0.8388551118995956
4,0.8388551118995956
4,0.8388551118995956
4,0.8388551118995956
4,0.8388551118995956
4,0.8388551118995956
4,0.8388551118995956
5,0.8388551118995956
5,0.8388551118995956
5,0.8388551118995956
5,0.8388551118995956
5,0.8554164275106403
5,0.8554164275106403
5,0.8554164275106403
5,0.8554164275106403
5,0.8554164275106403
5,0.8554164275106403
5,0.8554164275106403
5,0.8554164275106403
5,0.8554164275106403
5,0.8554164275106403
5,0.8554164275106403
5,0.8554164275106403
5,0.8554164275106403
5,0.8554164275106403
5,0.8554164275106403
5,0.8554164275106403
5,0.8554164275106403
5,0.8554164275106403
5,0.8554164275106403
5,0.8554164275106403
5,0.8554164275106403
5,0.8554164275106403
5,0.8554164275106403
5,0.8554164275106403
5,0.8554164275106403
5,0.8619921101588427
5,0.8619921101588427
5,0.8619921101588427
5,0.8619921101588427
5,0.8619921101588427
6,0.8619921101588427
6,0.8619921101588427
6,0.8619921101588427
6,0.8619921101588427
6,0.8619921101588427
6,0.8619921101588427
6,0.8619921101588427
6,0.8619921101588427
6,0.8619921101588427
6,0.8619921101588427
6,0.8619921101588427
6,0.8619921101588427
6,0.8619921101588427
6,0.8619921101588427
6,0.8619921101588427
6,0.8619921101588427
6,0.8619921101588427
6,0.8619921101588427
6,0.8619921101588427
6,0.8619921101588427
6,0.8619921101588427
6,0.8619921101588427
6,0.8619921101588427
6,0.8619921101588427
6,0.8619921101588427
6,0.8619921101588427
6,0.8619921101588427
6,0.8619921101588427
6,0.8619921101588427
6,0.8619921101588427
7,0.8619921101588427
7,0.8619921101588427
7,0.8619921101588427
7,0.8619921101588427
7,0.8619921101588427
7,0.8619921101588427
7,0.8619921101588427
7,0.8619921101588427
7,0.8619921101588427
7,0.8619921101588427
7,0.8619921101588427
7,0.8619921101588427
7,0.8619921101588427
7,0.8619921101588427
7,0.8619921101588427
7,0.8742311367088181
7,0.8742311367088181
7,0.8742311367088181
7,0.8742311367088181
7,0.8742311367088181
7,0.8742311367088181
7,0.8742311367088181
7,0.8742311367088181
7,0.8742311367088181
7,0.8742311367088181
7,0.8742311367088181
7,0.8742311367088181
7,0.8742311367088181
8,0.8742311367088181
8,0.8742311367088181
8,0.8742311367088181
8,0.8742311367088181
8,0.8742311367088181
8,0.8742311367088181
8,0.8742311367088181
8,0.8742311367088181
8,0.8742311367088181
8,0.8742311367088181
8,0.8742311367088181
8,0.8742311367088181
8,0.8832902586612867
8,0.8832902586612867
8,0.8832902586612867
8,0.8832902586612867
8,0.8832902586612867
8,0.8832902586612867
8,0.8832902586612867
8,0.8832902586612867
8,0.8832902586612867
8,0.8832902586612867
8,0.8832902586612867
8,0.8832902586612867
8,0.8832902586612867
8,0.8832902586612867
8,0.8832902586612867
9,0.8832902586612867
9,0.8832902586612867
9,0.8832902586612867
9,0.8832902586612867
9,0.8832902586612867
9,0.8832902586612867
9,0.8832902586612867
9,0.8832902586612867
9,0.8832902586612867
9,0.8832902586612867
9,0.9101025539482913
9,0.9101025539482913
9,0.9101025539482913
9,0.9101025539482913
9,0.9101025539482913
9,0.9101025539482913
9,0.9101025539482913
9,0.9101025539482913
9,0.9101025539482913
9,0.9101025539482913
9,0.9101025539482913
9,0.9101025539482913
9,0.9101025539482913
9,0.9101025539482913
9,0.9101025539482913
10,0.9101025539482913
10,0.9101025539482913
10,0.9101025539482913
10,0.9101025539482913
10,0.9101025539482913
10,0.9101025539482913
10,0.9101025539482913
10,0.9101025539482913
10,0.9101025539482913
10,0.9101025539482913
10,0.9130755600893723
10,0.9130755600893723
10,0.9130755600893723
10,0.9130755600893723
10,0.9130755600893723
10,0.9130755600893723
10,0.9130755600893723
10,0.9130755600893723
10,0.9130755600893723
10,0.9130755600893723
10,0.9130755600893723
10,0.9130755600893723
10,0.9130755600893723
10,0.9130755600893723
10,0.9130755600893723
11,0.9130755600893723
11,0.9130755600893723
11,0.9130755600893723
11,0.9130755600893723
11,0.9130755600893723
11,0.9130755600893723
11,0.9130755600893723
11,0.9130755600893723
11,0.9130755600893723
11,0.9130755600893723
11,0.9212357696652397
11,0.9212357696652397
11,0.9212357696652397
11,0.9212357696652397
11,0.9212357696652397
11,0.9212357696652397
11,0.9212357696652397
11,0.9212357696652397
11,0.9212357696652397
11,0.9212357696652397
11,0.9212357696652397
11,0.9212357696652397
11,0.9212357696652397
11,0.9212357696652397
11,0.9212357696652397
11,0.9212357696652397
11,0.9212357696652397
12,0.9212357696652397
12,0.9212357696652397
12,0.9212357696652397
12,0.9212357696652397
12,0.9212357696652397
12,0.9212357696652397
12,0.9212357696652397
12,0.9212357696652397
12,0.9212357696652397
12,0.9212357696652397
12,0.9212357696652397
12,0.9212357696652397
12,0.9212357696652397
12,0.9212357696652397
12,0.9212357696652397
12,0.9212357696652397
12,0.9212357696652397
12,0.9212357696652397
12,0.9212357696652397
12,0.9212357696652397
12,0.9212357696652397
12,0.9212357696652397
12,0.9212357696652397
12,0.9212357696652397
13,0.9212357696652397
13,0.9212357696652397
13,0.9212357696652397
13,0.9212357696652397
13,0.9212357696652397
13,0.9212357696652397
13,0.9212357696652397
13,0.9212357696652397
13,0.9212357696652397
13,0.922725695151662
13,0.922725695151662
13,0.922725695151662
13,0.922725695151662
13,0.922725695151662
13,0.922725695151662
13,0.922725695151662
13,0.922725695151662
13,0.922725695151662
13,0.922725695151662
13,0.922725695151662
13,0.922725695151662
13,0.922725695151662
13,0.922725695151662
13,0.922725695151662
13,0.922725695151662
13,0.922725695151662
14,0.922725695151662
14,0.922725695151662
14,0.922725695151662
14,0.922725695151662
14,0.922725695151662
14,0.922725695151662
14,0.922725695151662
14,0.922725695151662
14,0.9256277178386737
14,0.9256277178386737
14,0.9256277178386737
14,0.9256277178386737
14,0.9256277178386737
14,0.9256277178386737
14,0.9256277178386737
14,0.9256277178386737
14,0.9256277178386737
14,0.9256277178386737
14,0.9256277178386737
14,0.9256277178386737
14,0.9256277178386737
14,0.9256277178386737
14,0.9256277178386737
14,0.9256277178386737
14,0.9256277178386737
14,0.9256277178386737
14,0.9256277178386737
15,0.9256277178386737
15,0.9256277178386737
15,0.9256277178386737
15,0.9256277178386737
15,0.9256277178386737
15,0.9256277178386737
15,0.9256277178386737
15,0.9256277178386737
15,0.9256277178386737
15,0.9256277178386737
15,0.9256277178386737
15,0.9256277178386737
15,0.9256277178386737
15,0.9256277178386737
15,0.9256277178386737
15,0.9256277178386737
15,0.9256277178386737
15,0.9256277178386737
15,0.9256277178386737
15,0.9256277178386737
15,0.9256277178386737
15,0.9256277178386737
15,0.9256277178386737
15,0.9256277178386737
15,0.9256277178386737
16,0.9256277178386737
16,0.9256277178386737
16,0.9256277178386737
16,0.9256277178386737
16,0.9256277178386737
16,0.9256277178386737
16,0.9336646108252121
16,0.9336646108252121
16,0.9336646108252121
16,0.9336646108252121
16,0.9336646108252121
16,0.9336646108252121
16,0.9336646108252121
16,0.9336646108252121
16,0.9336646108252121
16,0.9336646108252121
16,0.9336646108252121
16,0.9336646108252121
16,0.9336646108252121
16,0.9336646108252121
16,0.9336646108252121
16,0.9336646108252121
16,0.9336646108252121
16,0.9336646108252121
17,0.9336646108252121
17,0.9336646108252121
17,0.9336646108252121
17,0.9336646108252121
17,0.9336646108252121
17,0.9336646108252121
17,0.9336646108252121
17,0.9362761983684125
17,0.9362761983684125
17,0.9362761983684125
17,0.9362761983684125
17,0.9362761983684125
17,0.9362761983684125
17,0.9362761983684125
17,0.9362761983684125
17,0.9362761983684125
17,0.9362761983684125
17,0.9362761983684125
17,0.9362761983684125
17,0.9362761983684125
17,0.9362761983684125
17,0.9362761983684125
17,0.9362761983684125
17,0.9362761983684125
17,0.9362761983684125
18,0.9362761983684125
18,0.9362761983684125
18,0.9362761983684125
18,0.9362761983684125
18,0.9362761983684125
18,0.9362761983684125
18,0.9362761983684125
18,0.9488823014113095
18,0.9488823014113095
18,0.9488823014113095
18,0.9488823014113095
18,0.9488823014113095
18,0.9488823014113095
18,0.9488823014113095
18,0.9488823014113095
18,0.9488823014113095
18,0.9488823014113095
18,0.9488823014113095
18,0.9488823014113095
18,0.9488823014113095
18,0.9488823014113095
18,0.9488823014113095
18,0.9488823014113095
18,0.9488823014113095
18,0.9488823014113095
18,0.9488823014113095
19,0.9488823014113095
19,0.9488823014113095
19,0.9488823014113095
19,0.9488823014113095
19,0.9488823014113095
19,0.9488823014113095
19,0.9488823014113095
19,0.9488823014113095
19,0.9488823014113095
19,0.9488823014113095
19,0.9488823014113095
19,0.9488823014113095
19,0.9488823014113095
19,0.9488823014113095
19,0.9488823014113095
19,0.9488823014113095
19,0.9488823014113095
19,0.9488823014113095
19,0.9488823014113095
19,0.9488823014113095
19,0.9488823014113095
19,0.9488823014113095
19,0.9488823014113095
19,0.9488823014113095
19,0.9488823014113095
20,0.9488823014113095
20,0.9488823014113095
20,0.9488823014113095
20,0.9488823014113095
20,0.9488823014113095
20,0.9488823014113095
20,0.9588736289425476
20,0.9588736289425476
20,0.9588736289425476
20,0.9588736289425476
20,0.9588736289425476
20,0.9588736289425476
20,0.9588736289425476
20,0.9588736289425476
20,0.9588736289425476
20,0.9588736289425476
20,0.9588736289425476
20,0.9588736289425476
20,0.9588736289425476
20,0.9588736289425476
20,0.9588736289425476
20,0.9588736289425476
20,0.9588736289425476
20,0.9588736289425476
20,0.9588736289425476
21,0.9588736289425476
21,0.9588736289425476
21,0.9588736289425476
21,0.9588736289425476
21,0.9588736289425476
21,0.9588736289425476
21,0.9588736289425476
21,0.9588736289425476
21,0.9588736289425476
21,0.9588736289425476
21,0.9588736289425476
21,0.9588736289425476
21,0.9588736289425476
21,0.9588736289425476
21,0.9588736289425476
21,0.9588736289425476
21,0.9588736289425476
21,0.9588736289425476
21,0.9588736289425476
21,0.9588736289425476
21,0.9588736289425476
21,0.9588736289425476
21,0.9588736289425476
21,0.9588736289425476
22,0.9588736289425476
22,0.9588736289425476
22,0.9588736289425476
22,0.9588736289425476
22,0.9588736289425476
22,0.9588736289425476
22,0.9588736289425476
22,0.9588736289425476
22,0.9588736289425476
22,0.9588736289425476
22,0.9588736289425476
22,0.9588736289425476
22,0.9588736289425476
22,0.9588736289425476
22,0.9588736289425476
22,0.9588736289425476
22,0.9588736289425476
22,0.9588736289425476
22,0.9588736289425476
22,0.9588736289425476
22,0.9588736289425476
22,0.9588736289425476
22,0.9588736289425476
22,0.9588736289425476
22,0.9588736289425476
22,0.9588736289425476
23,0.9588736289425476
23,0.9588736289425476
23,0.9588736289425476
23,0.9588736289425476
23,0.9588736289425476
23,0.9588736289425476
23,0.9588736289425476
23,0.9588736289425476
23,0.9588736289425476
23,0.9588736289425476
23,0.9588736289425476
23,0.9588736289425476
23,0.9588736289425476
23,0.9588736289425476
23,0.9588736289425476
23,0.9588736289425476
23,0.9588736289425476
23,0.9588736289425476
23,0.9588736289425476
23,0.9588736289425476
23,0.9588736289425476
23,0.9588736289425476
23,0.9588736289425476
23,0.9588736289425476
23,0.9588736289425476
24,0.9588736289425476
24,0.9588736289425476
24,0.9588736289425476
24,0.9588736289425476
24,0.9588736289425476
24,0.9588736289425476
24,0.9614721552497301
24,0.9614721552497301
24,0.9614721552497301
24,0.9614721552497301
24,0.9614721552497301
24,0.9614721552497301
24,0.9614721552497301
24,0.9614721552497301
24,0.9614721552497301
24,0.9614721552497301
24,0.9614721552497301
24,0.9614721552497301
24,0.9614721552497301
24,0.9614721552497301
24,0.9614721552497301
24,0.9614721552497301
24,0.9614721552497301
24,0.9614721552497301
24,0.9614721552497301
25,0.9614721552497301
25,0.9614721552497301
25,0.9614721552497301
25,0.9614721552497301
25,0.9614721552497301
25,0.9614721552497301
25,0.9617405192672028
25,0.9617405192672028
25,0.9617405192672028
25,0.9617405192672028
25,0.9617405192672028
25,0.9617405192672028
25,0.9617405192672028
25,0.9617405192672028
25,0.9617405192672028
25,0.9617405192672028
25,0.9617405192672028
25,0.9617405192672028
25,0.9617405192672028
25,0.9617405192672028
25,0.9617405192672028
25,0.9617405192672028
25,0.9617405192672028
25,0.9617405192672028
25,0.9617405192672028
26,0.9617405192672028
26,0.9617405192672028
26,0.9617405192672028
26,0.9617405192672028
26,0.9617405192672028
26,0.9617405192672028
26,0.9617405192672028
26,0.9617405192672028
26,0.9617405192672028
26,0.9617405192672028
26,0.9617405192672028
26,0.9617405192672028
26,0.9617405192672028
26,0.9617405192672028
26,0.9617405192672028
26,0.9617405192672028
26,0.9617405192672028
26,0.9617405192672028
26,0.9617405192672028
26,0.9617405192672028
26,0.9617405192672028
26,0.9617405192672028
26,0.9617405192672028
26,0.9617405192672028
26,0.9617405192672028
26,0.9617405192672028
27,0.9617405192672028
27,0.9617405192672028
27,0.9617405192672028
27,0.9617405192672028
27,0.9617405192672028
27,0.9619512037673971
27,0.9619512037673971
27,0.9619512037673971
27,0.9619512037673971
27,0.9619512037673971
27,0.9619512037673971
27,0.9619512037673971
27,0.9619512037673971
27,0.9619512037673971
27,0.9619512037673971
27,0.9619512037673971
27,0.9619512037673971
27,0.9619512037673971
27,0.9619512037673971
27,0.9619512037673971
27,0.9619512037673971
27,0.9619512037673971
27,0.9619512037673971
27,0.9619512037673971
27,0.9619512037673971
27,0.9619512037673971
28,0.9619512037673971
28,0.9619512037673971
28,0.9619512037673971
28,0.9619512037673971
28,0.9619512037673971
28,0.9619512037673971
28,0.9619512037673971
28,0.9619512037673971
28,0.9619512037673971
28,0.9619512037673971
28,0.9619512037673971
28,0.9619512037673971
28,0.9619512037673971
28,0.9619512037673971
28,0.9619512037673971
28,0.9619512037673971
28,0.9619512037673971
28,0.9619512037673971
28,0.9619512037673971
28,0.9619512037673971
28,0.9619512037673971
28,0.9619512037673971
28,0.9619512037673971
28,0.9619512037673971
28,0.9619512037673971
29,0.9619512037673971
29,0.9619512037673971
29,0.9619512037673971
29,0.9619512037673971
29,0.9637374101988013
29,0.9637374101988013
29,0.9637374101988013
29,0.9637374101988013
29,0.9637374101988013
29,0.9637374101988013
29,0.9637374101988013
29,0.9637374101988013
29,0.9637374101988013
29,0.9637374101988013
29,0.9637374101988013
29,0.9637374101988013
29,0.9637374101988013
29,0.9637374101988013
29,0.9637374101988013
29,0.9637374101988013
29,0.9637374101988013
29,0.9637374101988013
29,0.9637374101988013
29,0.9637374101988013
29,0.9637374101988013
29,0.9637374101988013
30,0.9637374101988013
30,0.9637374101988013
30,0.9637374101988013
30,0.9637374101988013
30,0.9637374101988013
30,0.9637374101988013
30,0.9637374101988013
30,0.9637374101988013
30,0.9637374101988013
30,0.9637374101988013
30,0.9637374101988013
30,0.9637374101988013
30,0.9637374101988013
30,0.9637374101988013
30,0.9637374101988013
30,0.9637374101988013
30,0.9637374101988013
30,0.9637374101988013
30,0.9637374101988013
30,0.9637374101988013
30,0.9637374101988013
30,0.9637374101988013
30,0.9637374101988013
30,0.9637374101988013
30,0.9637374101988013
31,0.9637374101988013
31,0.9637374101988013
31,0.9637374101988013
31,0.9637374101988013
31,0.9637374101988013
31,0.9637374101988013
31,0.9637374101988013
31,0.9637374101988013
31,0.9637374101988013
31,0.9637374101988013
31,0.9637374101988013
31,0.9637374101988013
31,0.9637374101988013
31,0.9637374101988013
31,0.9637374101988013
31,0.9637374101988013
31,0.9637374101988013
31,0.9637374101988013
31,0.9637374101988013
31,0.9637374101988013
31,0.9637374101988013
31,0.9637374101988013
31,0.9637374101988013
31,0.9637374101988013
31,0.9637374101988013
31,0.9637374101988013
31,0.9637374101988013
32,0.9637374101988013
32,0.9637374101988013
32,0.9637374101988013
32,0.9637374101988013
32,0.9637374101988013
32,0.9637374101988013
32,0.9637374101988013
32,0.9637374101988013
32,0.9637374101988013
32,0.9637374101988013
32,0.9637374101988013
32,0.9637374101988013
32,0.9637374101988013
32,0.9637374101988013
32,0.9637374101988013
32,0.9637374101988013
32,0.9637374101988013
32,0.9637374101988013
32,0.9637374101988013
32,0.9637374101988013
32,0.9637374101988013
32,0.9637374101988013
32,0.9637374101988013
32,0.9637374101988013
32,0.9637374101988013
32,0.9637374101988013
33,0.9637374101988013
33,0.9637374101988013
33,0.9637374101988013
33,0.9637374101988013
33,0.9637374101988013
33,0.9637374101988013
33,0.9637374101988013
33,0.9637374101988013
33,0.9637374101988013
33,0.9637374101988013
33,0.9637374101988013
33,0.9637374101988013
33,0.9637374101988013
33,0.9637374101988013
33,0.9637374101988013
33,0.9637374101988013
33,0.9637374101988013
33,0.9637374101988013
33,0.9637374101988013
33,0.9637374101988013
33,0.9637374101988013
33,0.9637374101988013
33,0.9637374101988013
33,0.9637374101988013
33,0.9637374101988013
33,0.9637374101988013
33,0.9637374101988013
34,0.9637374101988013
34,0.9637374101988013
34,0.9637374101988013
34,0.9637374101988013
34,0.9637374101988013
34,0.9637374101988013
34,0.9637374101988013
34,0.9637374101988013
34,0.9637374101988013
34,0.9637374101988013
34,0.9637374101988013
34,0.9637374101988013
34,0.9637374101988013
34,0.9637374101988013
34,0.9637374101988013
34,0.9637374101988013
34,0.9637374101988013
34,0.9637374101988013
34,0.9637374101988013
34,0.9637374101988013
34,0.9637374101988013
34,0.9637374101988013
34,0.9637374101988013
35,0.9637374101988013
35,0.9637374101988013
35,0.9637374101988013
35,0.9637374101988013
35,0.9637374101988013
35,0.9637374101988013
35,0.9637374101988013
35,0.9637374101988013
35,0.9637374101988013
35,0.9637374101988013
35,0.9637374101988013
36,0.9637374101988013
36,0.9637374101988013
36,0.9637374101988013
36,0.9637374101988013
36,0.9637374101988013
36,0.9637374101988013
36,0.9637374101988013
36,0.9637374101988013
36,0.9637374101988013
36,0.9637374101988013
36,0.9637374101988013
36,0.9637374101988013
36,0.9637374101988013
36,0.9637374101988013
36,0.9637374101988013
36,0.9637374101988013
36,0.9637374101988013
36,0.9637374101988013
36,0.9637374101988013
36,0.9637374101988013
36,0.9637374101988013
36,0.9637374101988013
36,0.9637374101988013
37,0.9637374101988013
37,0.9637374101988013
37,0.9637374101988013
37,0.9637374101988013
37,0.9637374101988013
37,0.9637374101988013
37,0.9637374101988013
37,0.9637374101988013
37,0.9637374101988013
37,0.9637374101988013
37,0.9637374101988013
37,0.9637374101988013
37,0.9637374101988013
37,0.9637374101988013
37,0.9637374101988013
37,0.9637374101988013
37,0.9637374101988013
37,0.9637374101988013
37,0.9637374101988013
37,0.9637374101988013
37,0.9637374101988013
37,0.9637374101988013
37,0.9637374101988013
37,0.9637374101988013
37,0.9637374101988013
37,0.9637374101988013
38,0.9637374101988013
38,0.9637374101988013
38,0.9637374101988013
38,0.9637374101988013
38,0.9637374101988013
38,0.9637374101988013
38,0.9637374101988013
38,0.9637374101988013
38,0.9637374101988013
38,0.9637374101988013
38,0.9637374101988013
38,0.9637374101988013
38,0.9637374101988013
38,0.9637374101988013
38,0.9637374101988013
38,0.9637374101988013
38,0.9637374101988013
38,0.9637374101988013
38,0.9637374101988013
38,0.9637374101988013
38,0.9637374101988013
38,0.9637374101988013
38,0.9637374101988013
38,0.9637374101988013
38,0.9637374101988013
38,0.9637374101988013
39,0.9637374101988013
39,0.9637374101988013
39,0.9637374101988013
39,0.9637374101988013
39,0.9637374101988013
39,0.9637374101988013
39,0.9637374101988013
39,0.9637374101988013
39,0.9637374101988013
39,0.9637374101988013
39,0.9637374101988013
39,0.9637374101988013
39,0.9637374101988013
39,0.9637374101988013
39,0.9637374101988013
39,0.9637374101988013
39,0.9637374101988013
39,0.9637374101988013
39,0.9637374101988013
39,0.9637374101988013
39,0.9637374101988013
39,0.9637374101988013
39,0.9637374101988013
39,0.9637374101988013
39,0.9637374101988013
39,0.9637374101988013
40,0.9637374101988013
40,0.9637374101988013
40,0.9637374101988013
40,0.9637374101988013
40,0.9637374101988013
40,0.9637374101988013
40,0.9637374101988013
40,0.9637374101988013
40,0.9637374101988013
40,0.9637374101988013
40,0.9637374101988013
40,0.9637374101988013
40,0.9637374101988013
40,0.9647787899865075
40,0.9647787899865075
40,0.9647787899865075
40,0.9647787899865075
40,0.9647787899865075
40,0.9647787899865075
40,0.9647787899865075
40,0.9647787899865075
40,0.9647787899865075
40,0.9647787899865075
40,0.9647787899865075
40,0.9647787899865075
40,0.9647787899865075
40,0.9647787899865075
41,0.9647787899865075
41,0.9647787899865075
41,0.9647787899865075
41,0.9647787899865075
41,0.9647787899865075
41,0.9647787899865075
41,0.9647787899865075
41,0.9647787899865075
41,0.9647787899865075
41,0.9647787899865075
41,0.9647787899865075
41,0.9657395299395026
41,0.9657395299395026
41,0.9657395299395026
41,0.9657395299395026
41,0.9657395299395026
41,0.9657395299395026
41,0.9657395299395026
41,0.9657395299395026
41,0.9657395299395026
41,0.9657395299395026
41,0.9657395299395026
41,0.9657395299395026
41,0.9657395299395026
41,0.9657395299395026
42,0.9657395299395026
42,0.9657395299395026
42,0.9657395299395026
42,0.9657395299395026
42,0.9657395299395026
42,0.9657395299395026
42,0.9657395299395026
42,0.9657395299395026
42,0.9657395299395026
42,0.9657395299395026
42,0.9657395299395026
42,0.9657395299395026
42,0.9657395299395026
42,0.9657395299395026
42,0.9657395299395026
42,0.9657395299395026
42,0.9657395299395026
42,0.9657395299395026
42,0.9657395299395026
42,0.9657395299395026
42,0.9657395299395026
42,0.9657395299395026
42,0.9657395299395026
42,0.9657395299395026
42,0.9657395299395026
42,0.9657395299395026
43,0.9657395299395026
43,0.9657395299395026
43,0.9657395299395026
43,0.9657395299395026
43,0.9657395299395026
43,0.9657395299395026
43,0.9657395299395026
43,0.9657395299395026
43,0.9657395299395026
43,0.9657395299395026
43,0.9657395299395026
43,0.9657395299395026
43,0.9657395299395026
43,0.9657395299395026
43,0.9657395299395026
43,0.9657395299395026
43,0.9657395299395026
43,0.9657395299395026
43,0.9657395299395026
43,0.9657395299395026
43,0.9657395299395026
43,0.9657395299395026
43,0.9657395299395026
43,0.9657395299395026
43,0.9657395299395026
44,0.9657395299395026
44,0.9657395299395026
44,0.9657395299395026
44,0.9657395299395026
44,0.9657395299395026
44,0.9657395299395026
44,0.9657395299395026
44,0.9657395299395026
44,0.9657395299395026
44,0.9657395299395026
44,0.9662484392244844
44,0.9662484392244844
44,0.9662484392244844
44,0.9662484392244844
44,0.9662484392244844
44,0.9662484392244844
44,0.9662484392244844
44,0.9662484392244844
44,0.9662484392244844
44,0.9662484392244844
44,0.9662484392244844
44,0.9662484392244844
44,0.9662484392244844
44,0.9662484392244844
44,0.9662484392244844
44,0.9662484392244844
45,0.9662484392244844
45,0.9662484392244844
45,0.9662484392244844
45,0.9662484392244844
45,0.9662484392244844
45,0.9662484392244844
45,0.9662484392244844
45,0.9662484392244844
45,0.9662484392244844
45,0.9696296940263024
45,0.9696296940263024
45,0.9696296940263024
45,0.9696296940263024
45,0.9696296940263024
45,0.9696296940263024
45,0.9696296940263024
45,0.9696296940263024
45,0.9696296940263024
45,0.9696296940263024
45,0.9696296940263024
45,0.9696296940263024
45,0.9696296940263024
45,0.9696296940263024
45,0.9696296940263024
45,0.9696296940263024
45,0.9696296940263024
46,0.9696296940263024
46,0.9696296940263024
46,0.9696296940263024
46,0.9696296940263024
46,0.9696296940263024
46,0.9696296940263024
46,0.9696296940263024
46,0.9696296940263024
46,0.9696296940263024
46,0.9696296940263024
46,0.9696296940263024
46,0.9696296940263024
46,0.9696296940263024
46,0.9696296940263024
46,0.9696296940263024
46,0.9696296940263024
46,0.9696296940263024
46,0.9696296940263024
46,0.9696296940263024
46,0.9696296940263024
46,0.9696296940263024
46,0.9696296940263024
46,0.9696296940263024
46,0.9696296940263024
46,0.9696296940263024
46,0.9696296940263024
46,0.9696296940263024
47,0.9696296940263024
47,0.9696296940263024
47,0.9696296940263024
47,0.9696296940263024
47,0.9696296940263024
47,0.9696296940263024
47,0.9696359463646604
47,0.9696359463646604
47,0.9696359463646604
47,0.9696359463646604
47,0.9696359463646604
47,0.9696359463646604
47,0.9696359463646604
47,0.9696359463646604
47,0.9696359463646604
47,0.9696359463646604
47,0.9696359463646604
47,0.9696359463646604
47,0.9696359463646604
47,0.9696359463646604
47,0.9696359463646604
47,0.9696359463646604
47,0.9696359463646604
47,0.9696359463646604
47,0.9696359463646604
48,0.9696359463646604
48,0.9696359463646604
48,0.9696359463646604
48,0.9696359463646604
48,0.9696359463646604
48,0.9696359463646604
48,0.9696359463646604
48,0.9696359463646604
48,0.9696359463646604
48,0.9696359463646604
48,0.9696359463646604
48,0.9696359463646604
48,0.9696359463646604
48,0.9696359463646604
48,0.9696359463646604
48,0.9696359463646604
48,0.9696359463646604
48,0.9696359463646604
48,0.9696359463646604
48,0.9696359463646604
48,0.9696359463646604
48,0.9696359463646604
48,0.9696359463646604
48,0.9696359463646604
48,0.9696359463646604
48,0.9696359463646604
49,0.9696359463646604
49,0.9696359463646604
49,0.9696359463646604
49,0.9696359463646604
49,0.9696359463646604
49,0.9696359463646604
49,0.9696359463646604
49,0.9696359463646604
49,0.9696359463646604
49,0.9696359463646604
49,0.9696359463646604
49,0.9696359463646604
49,0.9696359463646604
49,0.9696359463646604
49,0.9696359463646604
49,0.9696359463646604
49,0.9696359463646604
49,0.9696359463646604
49,0.9696359463646604
49,0.9696359463646604
49,0.9696359463646604
49,0.9696359463646604
49,0.9696359463646604
49,0.9696359463646604
49,0.9696359463646604
50,0.9696359463646604
50,0.9696359463646604
50,0.9696359463646604
50,0.9696359463646604
50,0.9696359463646604
50,0.9698043065454586
50,0.9698043065454586
50,0.9698043065454586
50,0.9698043065454586
50,0.9698043065454586
50,0.9698043065454586
50,0.9698043065454586
50,0.9698043065454586
50,0.9698043065454586
50,0.9698043065454586
50,0.9698043065454586
50,0.9698043065454586
50,0.9698043065454586
50,0.9698043065454586
50,0.9698043065454586
50,0.9698043065454586
50,0.9698043065454586
50,0.9698043065454586
50,0.9698043065454586
50,0.9698043065454586
51,0.9698043065454586
51,0.9698043065454586
51,0.9698043065454586
51,0.9698043065454586
51,0.9698043065454586
51,0.9713629953071194
51,0.9713629953071194
51,0.9713629953071194
51,0.9713629953071194
51,0.9713629953071194
51,0.9713629953071194
51,0.9713629953071194
51,0.9713629953071194
51,0.9713629953071194
51,0.9713629953071194
51,0.9713629953071194
51,0.9713629953071194
51,0.9713629953071194
51,0.9713629953071194
51,0.9713629953071194
51,0.9713629953071194
51,0.9713629953071194
51,0.9713629953071194
51,0.9713629953071194
51,0.9713629953071194
52,0.9713629953071194
52,0.9713629953071194
52,0.9713629953071194
52,0.9713629953071194
52,0.9713629953071194
52,0.9713629953071194
52,0.9713629953071194
52,0.9713629953071194
52,0.9713629953071194
52,0.9713629953071194
52,0.9713629953071194
52,0.9713629953071194
52,0.9713629953071194
52,0.9713629953071194
52,0.9713629953071194
52,0.9713629953071194
52,0.9713629953071194
52,0.9713629953071194
52,0.9713629953071194
52,0.9713629953071194
52,0.9713629953071194
52,0.9713629953071194
52,0.9713629953071194
52,0.9713629953071194
52,0.9713629953071194
53,0.9713629953071194
53,0.9713629953071194
53,0.9713629953071194
53,0.9713629953071194
53,0.9713629953071194
53,0.9713629953071194
53,0.9713629953071194
53,0.9713629953071194
53,0.9713629953071194
53,0.9713629953071194
53,0.9713629953071194
53,0.9713629953071194
53,0.9713629953071194
53,0.9713629953071194
53,0.9713629953071194
53,0.9713629953071194
53,0.9713629953071194
53,0.9713629953071194
53,0.9713629953071194
53,0.9713629953071194
53,0.9713629953071194
53,0.9713629953071194
53,0.9713629953071194
53,0.9713629953071194
53,0.9713629953071194
54,0.9713629953071194
54,0.9713629953071194
54,0.9713629953071194
54,0.9713629953071194
54,0.9713629953071194
54,0.9735081098333971
54,0.9735081098333971
54,0.9735081098333971
54,0.9735081098333971
54,0.9735081098333971
54,0.9735081098333971
54,0.9735081098333971
54,0.9735081098333971
54,0.9735081098333971
54,0.9735081098333971
54,0.9735081098333971
54,0.9735081098333971
54,0.9735081098333971
54,0.9735081098333971
54,0.9735081098333971
54,0.9735081098333971
54,0.9735081098333971
54,0.9735081098333971
54,0.9735081098333971
55,0.9735081098333971
55,0.9735081098333971
55,0.9735081098333971
55,0.9735081098333971
55,0.9735081098333971
55,0.9735081098333971
55,0.9735081098333971
55,0.9735081098333971
55,0.9735081098333971
55,0.9735081098333971
55,0.9735081098333971
55,0.9735081098333971
55,0.9735081098333971
55,0.9735081098333971
55,0.9735081098333971
55,0.9735081098333971
55,0.9735081098333971
55,0.9735081098333971
55,0.9735081098333971
55,0.9735081098333971
55,0.9735081098333971
55,0.9735081098333971
55,0.9735081098333971
55,0.9735081098333971
56,0.9735081098333971
56,0.9735081098333971
56,0.9735081098333971
56,0.9735081098333971
56,0.9735081098333971
56,0.9735081098333971
56,0.9735081098333971
56,0.9735081098333971
56,0.9735081098333971
56,0.9735081098333971
56,0.9735081098333971
56,0.9735081098333971
56,0.9735081098333971
56,0.9735081098333971
56,0.9735081098333971
56,0.9735081098333971
56,0.9735081098333971
56,0.9735081098333971
56,0.9735081098333971
56,0.9735081098333971
56,0.9735081098333971
56,0.9735081098333971
56,0.9735081098333971
56,0.9735081098333971
57,0.9735081098333971
57,0.9735081098333971
57,0.9735081098333971
57,0.9735081098333971
57,0.9735081098333971
57,0.9735081098333971
57,0.9735081098333971
57,0.9735081098333971
57,0.9735081098333971
57,0.9735081098333971
57,0.9735081098333971
57,0.9735081098333971
57,0.9735081098333971
57,0.9735081098333971
57,0.9735081098333971
57,0.9735081098333971
57,0.9735081098333971
57,0.9735081098333971
57,0.9735081098333971
57,0.9735081098333971
57,0.9735081098333971
57,0.9735081098333971
57,0.9735081098333971
57,0.9735081098333971
57,0.9735081098333971
58,0.9735081098333971
58,0.9735081098333971
58,0.9735081098333971
58,0.9735081098333971
58,0.9735081098333971
58,0.9735081098333971
58,0.9735081098333971
58,0.9735081098333971
58,0.9735081098333971
58,0.9735081098333971
58,0.9735081098333971
58,0.9735081098333971
58,0.9735081098333971
58,0.9735081098333971
58,0.9735081098333971
58,0.9735081098333971
58,0.9735081098333971
58,0.9735081098333971
58,0.9735081098333971
58,0.9735081098333971
58,0.9735081098333971
58,0.9735081098333971
58,0.9735081098333971
58,0.9735081098333971
59,0.9735081098333971
59,0.9735081098333971
59,0.9735081098333971
59,0.9735081098333971
59,0.9735081098333971
59,0.9735081098333971
59,0.9735081098333971
59,0.9735081098333971
59,0.9735081098333971
59,0.9735081098333971
59,0.9735081098333971
59,0.9735081098333971
59,0.9735081098333971
59,0.9735081098333971
59,0.9735081098333971
59,0.9735081098333971
59,0.9735081098333971
59,0.9735081098333971
59,0.9735081098333971
59,0.9735081098333971
59,0.9735081098333971
59,0.9735081098333971
59,0.9735081098333971
59,0.9735081098333971
59,0.9735081098333971
60,0.9735081098333971
60,0.9735081098333971
60,0.9735081098333971
60,0.9735081098333971
60,0.9735081098333971
60,0.9735081098333971
60,0.9735081098333971
60,0.9735081098333971
60,0.9735081098333971
60,0.9735081098333971
60,0.9735081098333971
60,0.9735081098333971
60,0.9735081098333971
60,0.9735081098333971
60,0.9735081098333971
60,0.9735081098333971
60,0.9735081098333971
60,0.9735081098333971
60,0.9735081098333971
60,0.9735081098333971
60,0.9735081098333971
60,0.9735081098333971
60,0.9735081098333971
60,0.9735081098333971
61,0.9735081098333971
61,0.9735081098333971
61,0.9735081098333971
61,0.9735081098333971
61,0.9735081098333971
61,0.9735081098333971
61,0.9735081098333971
61,0.9735081098333971
61,0.9735081098333971
61,0.9735081098333971
61,0.9735081098333971
61,0.9735081098333971
61,0.9735081098333971
61,0.9735081098333971
61,0.9735081098333971
61,0.9735081098333971
61,0.9735081098333971
61,0.9735081098333971
61,0.9735081098333971
61,0.9735081098333971
61,0.9735081098333971
61,0.9735081098333971
61,0.9735081098333971
61,0.9735081098333971
62,0.9735081098333971
62,0.9735081098333971
62,0.9735081098333971
62,0.9735081098333971
62,0.9735081098333971
62,0.9735081098333971
62,0.9735081098333971
62,0.9735081098333971
62,0.9735081098333971
62,0.9735081098333971
62,0.9735081098333971
62,0.9735081098333971
62,0.9735081098333971
62,0.9735081098333971
62,0.9735081098333971
62,0.9735081098333971
62,0.9735081098333971
62,0.9735081098333971
62,0.9735081098333971
62,0.9735081098333971
62,0.9735081098333971
62,0.9735081098333971
62,0.9735081098333971
62,0.9735081098333971
62,0.9735081098333971
62,0.9735081098333971
63,0.9735081098333971
63,0.9735081098333971
63,0.9735081098333971
63,0.9735081098333971
63,0.9735081098333971
63,0.9735081098333971
63,0.9735081098333971
63,0.9735081098333971
63,0.9735081098333971
63,0.9735081098333971
63,0.9736917808041606
63,0.9736917808041606
63,0.9736917808041606
63,0.9736917808041606
63,0.9736917808041606
63,0.9736917808041606
63,0.9736917808041606
63,0.9736917808041606
63,0.9736917808041606
63,0.9736917808041606
63,0.9736917808041606
63,0.9736917808041606
63,0.9736917808041606
63,0.9736917808041606
63,0.9736917808041606
64,0.9736917808041606
64,0.9736917808041606
64,0.9736917808041606
64,0.9736917808041606
64,0.9736917808041606
64,0.9736917808041606
64,0.9736917808041606
64,0.9736917808041606
64,0.9736917808041606
64,0.9736917808041606
64,0.9736917808041606
64,0.9736917808041606
64,0.9736917808041606
64,0.9736917808041606
64,0.9736917808041606
64,0.9736917808041606
64,0.9736917808041606
64,0.9736917808041606
64,0.9736917808041606
64,0.9736917808041606
64,0.9736917808041606
64,0.9736917808041606
64,0.9736917808041606
64,0.9736917808041606
64,0.9736917808041606
65,0.9736917808041606
65,0.9736917808041606
65,0.9736917808041606
65,0.9736917808041606
65,0.9736917808041606
65,0.9736917808041606
65,0.9736917808041606
65,0.9736917808041606
65,0.9736917808041606
65,0.9736917808041606
65,0.9736917808041606
65,0.9736917808041606
65,0.9736917808041606
65,0.9736917808041606
65,0.9736917808041606
65,0.9736917808041606
65,0.9736917808041606
65,0.9736917808041606
65,0.9736917808041606
65,0.9736917808041606
65,0.9736917808041606
65,0.9736917808041606
65,0.9736917808041606
65,0.9736917808041606
65,0.9736917808041606
66,0.9736917808041606
66,0.9736917808041606
66,0.9736917808041606
66,0.9736917808041606
66,0.9736917808041606
66,0.9736917808041606
66,0.9736917808041606
66,0.9736917808041606
66,0.9736917808041606
66,0.9736917808041606
66,0.9744792016320802
66,0.9744792016320802
66,0.9744792016320802
66,0.9744792016320802
66,0.9744792016320802
66,0.9744792016320802
66,0.9744792016320802
66,0.9744792016320802
66,0.9744792016320802
66,0.9744792016320802
66,0.9744792016320802
66,0.9744792016320802
66,0.9744792016320802
66,0.9744792016320802
67,0.9744792016320802
67,0.9744792016320802
67,0.9744792016320802
67,0.9744792016320802
67,0.9744792016320802
67,0.9744792016320802
67,0.9744792016320802
67,0.9744792016320802
67,0.9744792016320802
67,0.9744792016320802
67,0.9744792016320802
67,0.9744792016320802
67,0.9744792016320802
67,0.9744792016320802
67,0.9744792016320802
67,0.9744792016320802
67,0.9744792016320802
67,0.9744792016320802
67,0.9744792016320802
67,0.9744792016320802
67,0.9744792016320802
67,0.9744792016320802
67,0.9744792016320802
67,0.9744792016320802
67,0.9744792016320802
68,0.9744792016320802
68,0.9744792016320802
68,0.9744792016320802
68,0.9744792016320802
68,0.9744792016320802
68,0.9744792016320802
68,0.9744792016320802
68,0.9744792016320802
68,0.9744792016320802
68,0.9744792016320802
68,0.9744792016320802
68,0.9746389002835477
68,0.9746389002835477
68,0.9746389002835477
68,0.9746389002835477
68,0.9746389002835477
68,0.9746389002835477
68,0.9746389002835477
68,0.9746389002835477
68,0.9746389002835477
68,0.9746389002835477
68,0.9746389002835477
68,0.9746389002835477
68,0.9746389002835477
68,0.9746389002835477
68,0.9746389002835477
69,0.9746389002835477
69,0.9746389002835477
69,0.9746389002835477
69,0.9746389002835477
69,0.9746389002835477
69,0.9746389002835477
69,0.9746389002835477
69,0.9746389002835477
69,0.9746389002835477
69,0.9746389002835477
69,0.9746389002835477
69,0.9746389002835477
69,0.9746389002835477
69,0.9746389002835477
69,0.9746389002835477
69,0.9746389002835477
69,0.9746389002835477
69,0.9746389002835477
69,0.9746389002835477
69,0.9746389002835477
69,0.9746389002835477
69,0.9746389002835477
69,0.9746389002835477
69,0.9746389002835477
69,0.9746389002835477
69,0.9746389002835477
70,0.9746389002835477
70,0.9746389002835477
70,0.9746389002835477
70,0.9746389002835477
70,0.9746389002835477
70,0.9746389002835477
70,0.9746389002835477
70,0.9746389002835477
70,0.9746389002835477
70,0.9746389002835477
70,0.9746389002835477
70,0.9746389002835477
70,0.9746389002835477
70,0.9746389002835477
70,0.9746389002835477
70,0.9746389002835477
70,0.9746389002835477
70,0.9746389002835477
70,0.9746389002835477
70,0.9746389002835477
70,0.9746389002835477
70,0.9746389002835477
70,0.9746389002835477
70,0.9746389002835477
70,0.9746389002835477
71,0.9746389002835477
71,0.9746389002835477
71,0.9746389002835477
71,0.9746389002835477
71,0.9746389002835477
71,0.9746389002835477
71,0.9746389002835477
71,0.9746389002835477
71,0.9746389002835477
71,0.9746389002835477
71,0.9746389002835477
71,0.9746389002835477
71,0.9746389002835477
71,0.9746389002835477
71,0.9746389002835477
71,0.9746389002835477
71,0.9746389002835477
71,0.9746389002835477
71,0.9746389002835477
71,0.9746389002835477
71,0.9746389002835477
71,0.9746389002835477
71,0.9746389002835477
71,0.9746389002835477
71,0.9746389002835477
71,0.9746389002835477
72,0.9746389002835477
72,0.9746389002835477
72,0.9746389002835477
72,0.9746389002835477
72,0.9746389002835477
72,0.9746389002835477
72,0.9746389002835477
72,0.9746389002835477
72,0.9746389002835477
72,0.9746389002835477
72,0.9746389002835477
72,0.9746389002835477
72,0.9746389002835477
72,0.9746389002835477
72,0.9746389002835477
72,0.9746389002835477
72,0.9746389002835477
72,0.9746389002835477
72,0.9746389002835477
72,0.9746389002835477
72,0.9746389002835477
72,0.9746389002835477
72,0.9746389002835477
72,0.9746389002835477
72,0.9746389002835477
72,0.9746389002835477
73,0.9746389002835477
73,0.9746389002835477
73,0.9746389002835477
73,0.9746389002835477
73,0.9746389002835477
73,0.9746389002835477
73,0.9746389002835477
73,0.9746389002835477
73,0.9746389002835477
73,0.9746389002835477
73,0.9746389002835477
73,0.9746389002835477
73,0.9746389002835477
73,0.9746389002835477
73,0.9746389002835477
73,0.9746389002835477
73,0.9746389002835477
73,0.9746389002835477
73,0.9746389002835477
73,0.9746389002835477
73,0.9746389002835477
73,0.9746389002835477
73,0.9746389002835477
73,0.9746389002835477
73,0.9746389002835477
74,0.9746389002835477
74,0.9746389002835477
74,0.9746389002835477
74,0.9746389002835477
74,0.9746389002835477
74,0.9746389002835477
74,0.9746389002835477
74,0.9747715726362425
74,0.9747715726362425
74,0.9747715726362425
74,0.9747715726362425
74,0.9747715726362425
74,0.9747715726362425
74,0.9747715726362425
74,0.9747715726362425
74,0.9747715726362425
74,0.9747715726362425
74,0.9747715726362425
74,0.9747715726362425
74,0.9747715726362425
74,0.9747715726362425
74,0.9747715726362425
74,0.9747715726362425
74,0.9747715726362425
75,0.9747715726362425
75,0.9747715726362425
75,0.9747715726362425
75,0.9747715726362425
75,0.9747715726362425
75,0.9747715726362425
75,0.9747715726362425
75,0.9747715726362425
75,0.9747715726362425
75,0.9747715726362425
75,0.9747715726362425
75,0.9747715726362425
75,0.9747715726362425
75,0.9747715726362425
75,0.9747715726362425
75,0.9747715726362425
75,0.9747715726362425
75,0.9747715726362425
75,0.9747715726362425
75,0.9747715726362425
75,0.9747715726362425
75,0.9747715726362425
75,0.9747715726362425
75,0.9747715726362425
75,0.9747715726362425
76,0.9747715726362425
76,0.9747715726362425
76,0.9747715726362425
76,0.9747715726362425
76,0.9747715726362425
76,0.9747715726362425
76,0.9747715726362425
76,0.9747715726362425
76,0.9747715726362425
76,0.9747715726362425
76,0.9747715726362425
76,0.9747715726362425
76,0.9747715726362425
76,0.9747715726362425
76,0.9747715726362425
76,0.9747715726362425
76,0.9747715726362425
76,0.9747715726362425
76,0.9747715726362425
76,0.9747715726362425
76,0.9747715726362425
76,0.9747715726362425
76,0.9747715726362425
76,0.9747715726362425
76,0.9747715726362425
77,0.9747715726362425
77,0.9747715726362425
77,0.9747715726362425
77,0.9747715726362425
77,0.9747715726362425
77,0.9747715726362425
77,0.9747715726362425
77,0.9747715726362425
77,0.9747823119605963
77,0.9747823119605963
77,0.9747823119605963
77,0.9747823119605963
77,0.9747823119605963
77,0.9747823119605963
77,0.9747823119605963
77,0.9747823119605963
77,0.9747823119605963
77,0.9747823119605963
77,0.9747823119605963
77,0.9747823119605963
77,0.9747823119605963
77,0.9747823119605963
77,0.9747823119605963
77,0.9747823119605963
77,0.9747823119605963
77,0.9747823119605963
78,0.9747823119605963
78,0.9747823119605963
78,0.9747823119605963
78,0.9747823119605963
78,0.9747823119605963
78,0.9747823119605963
78,0.9747823119605963
78,0.9747823119605963
78,0.9747823119605963
78,0.9747823119605963
78,0.9747823119605963
78,0.9747823119605963
78,0.9747823119605963
78,0.9747823119605963
78,0.9747823119605963
78,0.9747823119605963
78,0.9747823119605963
78,0.9747823119605963
78,0.9747823119605963
78,0.9747823119605963
78,0.9747823119605963
78,0.9747823119605963
78,0.9747823119605963
78,0.9747823119605963
78,0.9747823119605963
79,0.9747823119605963
79,0.9747823119605963
79,0.9747823119605963
79,0.9747823119605963
79,0.9747823119605963
79,0.9747823119605963
79,0.9747823119605963
79,0.9747823119605963
79,0.9747823119605963
79,0.9747823119605963
79,0.9747823119605963
79,0.9747823119605963
79,0.9747823119605963
79,0.9747823119605963
79,0.9747823119605963
79,0.9747823119605963
79,0.9747823119605963
79,0.9747823119605963
79,0.9747823119605963
79,0.9747823119605963
79,0.9747823119605963
79,0.9747823119605963
79,0.9747823119605963
79,0.9747823119605963
79,0.9747823119605963
80,0.9747823119605963
80,0.9747823119605963
80,0.9747823119605963
80,0.9747823119605963
80,0.9747823119605963
80,0.9747823119605963
80,0.9747823119605963
80,0.9759099660917633
80,0.9759099660917633
80,0.9759099660917633
80,0.9759099660917633
80,0.9759099660917633
80,0.9759099660917633
80,0.9759099660917633
80,0.9759099660917633
80,0.9759099660917633
80,0.9759099660917633
80,0.9759099660917633
80,0.9759099660917633
80,0.9759099660917633
80,0.9759099660917633
80,0.9759099660917633
80,0.9759099660917633
80,0.9759099660917633
81,0.9759099660917633
81,0.9759099660917633
81,0.9759099660917633
81,0.9759099660917633
81,0.9759099660917633
81,0.9759099660917633
81,0.9759099660917633
81,0.9759099660917633
81,0.9759099660917633
81,0.9759099660917633
81,0.9759099660917633
81,0.9759099660917633
81,0.9759099660917633
81,0.9759099660917633
81,0.9759099660917633
81,0.9759099660917633
81,0.9759099660917633
81,0.9759099660917633
81,0.9759099660917633
81,0.9759099660917633
81,0.9759099660917633
81,0.9759099660917633
81,0.9759099660917633
81,0.9759099660917633
81,0.9759099660917633
82,0.9759099660917633
82,0.9759099660917633
82,0.9759099660917633
82,0.9759099660917633
82,0.9759099660917633
82,0.9759099660917633
82,0.9759099660917633
82,0.9759099660917633
82,0.9759099660917633
82,0.9759099660917633
82,0.9759099660917633
82,0.9759099660917633
82,0.9759099660917633
82,0.9759099660917633
82,0.9759099660917633
82,0.9759099660917633
82,0.9759099660917633
82,0.9759099660917633
82,0.9759099660917633
82,0.9759099660917633
82,0.9759099660917633
82,0.9759099660917633
82,0.9759099660917633
82,0.9759099660917633
83,0.9759099660917633
83,0.9759099660917633
83,0.9759099660917633
83,0.9759099660917633
83,0.9759099660917633
83,0.9759099660917633
83,0.9759099660917633
83,0.9759099660917633
83,0.9759099660917633
83,0.9759099660917633
83,0.9759099660917633
83,0.9759099660917633
83,0.9759099660917633
83,0.9759099660917633
83,0.9759099660917633
83,0.9759099660917633
83,0.9759099660917633
83,0.9759099660917633
83,0.9759099660917633
83,0.9759099660917633
83,0.9759099660917633
83,0.9759099660917633
83,0.9759099660917633
83,0.9759099660917633
84,0.9759099660917633
84,0.9759099660917633
84,0.9759099660917633
84,0.9759099660917633
84,0.9759099660917633
84,0.9759099660917633
84,0.9759099660917633
84,0.9759099660917633
84,0.9759099660917633
84,0.9759099660917633
84,0.9777959270025586
84,0.9777959270025586
84,0.9777959270025586
84,0.9777959270025586
84,0.9777959270025586
84,0.9777959270025586
84,0.9777959270025586
84,0.9777959270025586
84,0.9777959270025586
84,0.9777959270025586
84,0.9777959270025586
84,0.9777959270025586
84,0.9777959270025586
84,0.9777959270025586
85,0.9777959270025586
85,0.9777959270025586
85,0.9777959270025586
85,0.9777959270025586
85,0.9777959270025586
85,0.9777959270025586
85,0.9777959270025586
85,0.9777959270025586
85,0.9777959270025586
85,0.9777959270025586
85,0.9777959270025586
85,0.9777959270025586
85,0.9777959270025586
85,0.9777959270025586
85,0.9777959270025586
85,0.9777959270025586
85,0.9777959270025586
85,0.9777959270025586
85,0.9777959270025586
85,0.9777959270025586
85,0.9777959270025586
85,0.9777959270025586
85,0.9777959270025586
85,0.9777959270025586
86,0.9777959270025586
86,0.9777959270025586
86,0.9777959270025586
86,0.9777959270025586
86,0.9777959270025586
86,0.9777959270025586
86,0.9777959270025586
86,0.9777959270025586
86,0.9777959270025586
86,0.9777959270025586
86,0.9777959270025586
86,0.9777959270025586
86,0.9777959270025586
86,0.9777959270025586
86,0.9777959270025586
86,0.9777959270025586
86,0.9777959270025586
86,0.9777959270025586
86,0.9777959270025586
86,0.9777959270025586
86,0.9777959270025586
86,0.9777959270025586
86,0.9777959270025586
86,0.9777959270025586
86,0.9777959270025586
87,0.9777959270025586
87,0.9777959270025586
87,0.9777959270025586
87,0.9777959270025586
87,0.9777959270025586
87,0.9777959270025586
87,0.9777959270025586
87,0.9777959270025586
87,0.9777959270025586
87,0.9777959270025586
87,0.9777959270025586
87,0.9777959270025586
87,0.9777959270025586
87,0.9777959270025586
87,0.9777959270025586
87,0.9777959270025586
87,0.9777959270025586
87,0.9777959270025586
87,0.9777959270025586
87,0.9777959270025586
87,0.9777959270025586
87,0.9777959270025586
87,0.9777959270025586
87,0.9777959270025586
87,0.9777959270025586
88,0.9777959270025586
88,0.9777959270025586
88,0.9777959270025586
88,0.9777959270025586
88,0.9777959270025586
88,0.9777959270025586
88,0.9777959270025586
88,0.9777959270025586
88,0.9777959270025586
88,0.9777959270025586
88,0.9777959270025586
88,0.9777959270025586
88,0.9800344850897532
88,0.9800344850897532
88,0.9800344850897532
88,0.9800344850897532
88,0.9800344850897532
88,0.9800344850897532
88,0.9800344850897532
88,0.9800344850897532
88,0.9800344850897532
88,0.9800344850897532
88,0.9800344850897532
88,0.9800344850897532
89,0.9800344850897532
89,0.9800344850897532
89,0.9800344850897532
89,0.9800344850897532
89,0.9800344850897532
89,0.9800344850897532
89,0.9800344850897532
89,0.9800344850897532
89,0.9800344850897532
89,0.9800344850897532
89,0.9800344850897532
89,0.9800344850897532
89,0.9800344850897532
89,0.9801463964501479
89,0.9801463964501479
89,0.9801463964501479
89,0.9801463964501479
89,0.9801463964501479
89,0.9801463964501479
89,0.9801463964501479
89,0.9801463964501479
89,0.9801463964501479
89,0.9801463964501479
89,0.9801463964501479
89,0.9801463964501479
90,0.9801463964501479
90,0.9801463964501479
90,0.9801463964501479
90,0.9801463964501479
90,0.9801463964501479
90,0.9801463964501479
90,0.9801463964501479
90,0.9801463964501479
90,0.9801463964501479
90,0.9801463964501479
90,0.9801463964501479
90,0.9801463964501479
90,0.9801463964501479
90,0.9801463964501479
90,0.9801463964501479
90,0.9801463964501479
90,0.9801463964501479
90,0.9801463964501479
90,0.9801463964501479
90,0.9801463964501479
90,0.9801463964501479
90,0.9801463964501479
90,0.9801463964501479
90,0.9801463964501479
90,0.9801463964501479
91,0.9801463964501479
91,0.9801463964501479
91,0.9801463964501479
91,0.9801463964501479
91,0.9801463964501479
91,0.9801463964501479
91,0.9801463964501479
91,0.9801463964501479
91,0.9801463964501479
91,0.9801463964501479
91,0.9801463964501479
91,0.9801463964501479
91,0.9801463964501479
91,0.9801463964501479
91,0.9801463964501479
91,0.9801463964501479
91,0.9801463964501479
91,0.9801463964501479
91,0.9801463964501479
91,0.9801463964501479
91,0.9801463964501479
91,0.9801463964501479
91,0.9801463964501479
91,0.9801463964501479
91,0.9801463964501479
92,0.9801463964501479
92,0.9801463964501479
92,0.9801463964501479
92,0.9801463964501479
92,0.9801463964501479
92,0.9801463964501479
92,0.9801463964501479
92,0.9801463964501479
92,0.9801463964501479
92,0.9801463964501479
92,0.9801463964501479
92,0.9801463964501479
92,0.9801463964501479
92,0.9801463964501479
92,0.9801463964501479
92,0.9801463964501479
92,0.9801463964501479
92,0.9801463964501479
92,0.9801463964501479
92,0.9801463964501479
92,0.9801463964501479
92,0.9801463964501479
93,0.9801463964501479
93,0.9801463964501479
93,0.9801463964501479
93,0.9801463964501479
93,0.9801463964501479
93,0.9801463964501479
93,0.9801463964501479
93,0.9801463964501479
93,0.9801463964501479
93,0.9801463964501479
93,0.9801463964501479
93,0.9801463964501479
93,0.9801463964501479
93,0.9801463964501479
93,0.9801463964501479
93,0.9801463964501479
93,0.98016299029005
93,0.98016299029005
93,0.98016299029005
93,0.98016299029005
93,0.98016299029005
93,0.98016299029005
93,0.98016299029005
93,0.98016299029005
93,0.98016299029005
94,0.98016299029005
94,0.98016299029005
94,0.98016299029005
94,0.98016299029005
94,0.98016299029005
94,0.98016299029005
94,0.98016299029005
94,0.98016299029005
94,0.98016299029005
94,0.98016299029005
94,0.98016299029005
94,0.98016299029005
94,0.98016299029005
94,0.98016299029005
94,0.98016299029005
94,0.98016299029005
94,0.98016299029005
94,0.98016299029005
94,0.98016299029005
94,0.98016299029005
94,0.98016299029005
94,0.98016299029005
94,0.98016299029005
94,0.98016299029005
94,0.98016299029005
95,0.98016299029005
95,0.98016299029005
95,0.98016299029005
95,0.98016299029005
95,0.98016299029005
95,0.98016299029005
95,0.98016299029005
95,0.98016299029005
95,0.98016299029005
95,0.98016299029005
95,0.98016299029005
95,0.98016299029005
95,0.98016299029005
95,0.98016299029005
95,0.98016299029005
95,0.98016299029005
95,0.9809083922275431
95,0.9809083922275431
95,0.9809083922275431
95,0.9809083922275431
95,0.9809083922275431
95,0.9809083922275431
95,0.9809083922275431
95,0.9809083922275431
96,0.9809083922275431
96,0.9809083922275431
96,0.9809083922275431
96,0.9809083922275431
96,0.9809083922275431
96,0.9809083922275431
96,0.9809083922275431
96,0.9809083922275431
96,0.9809083922275431
96,0.9809083922275431
96,0.9809083922275431
96,0.9809083922275431
96,0.9809083922275431
96,0.9809083922275431
96,0.9809083922275431
96,0.9809083922275431
96,0.9809083922275431
96,0.9809083922275431
96,0.9809083922275431
96,0.9809083922275431
96,0.9809083922275431
96,0.9809083922275431
96,0.9809083922275431
96,0.9809083922275431
96,0.9809083922275431
97,0.9809083922275431
97,0.9809083922275431
97,0.9809083922275431
97,0.9809083922275431
97,0.9809083922275431
97,0.9809083922275431
97,0.9809083922275431
97,0.9809083922275431
97,0.9809083922275431
97,0.9809083922275431
97,0.9809083922275431
97,0.9809083922275431
97,0.9809083922275431
97,0.9809083922275431
97,0.9809083922275431
97,0.9809083922275431
97,0.9809083922275431
97,0.9809083922275431
97,0.9809083922275431
97,0.9809083922275431
97,0.9809083922275431
97,0.9809083922275431
97,0.9809083922275431
97,0.9809083922275431
98,0.9809083922275431
98,0.9809083922275431
98,0.9809083922275431
98,0.9809083922275431
98,0.9809083922275431
98,0.9809083922275431
98,0.9809083922275431
98,0.9809083922275431
98,0.9809083922275431
98,0.9809083922275431
98,0.9809083922275431
98,0.9809083922275431
98,0.9809083922275431
98,0.9809083922275431
98,0.9809083922275431
98,0.9809083922275431
98,0.9809083922275431
98,0.9809083922275431
98,0.9816729542599822
98,0.9816729542599822
98,0.9816729542599822
98,0.9816729542599822
98,0.9816729542599822
98,0.9816729542599822
98,0.9816729542599822
99,0.9816729542599822
99,0.9816729542599822
99,0.9816729542599822
99,0.9816729542599822
99,0.9816729542599822
99,0.9816729542599822
99,0.9816729542599822
99,0.9816729542599822
99,0.9816729542599822
99,0.9816729542599822
99,0.9816729542599822
99,0.9816729542599822
99,0.9816729542599822
99,0.9816729542599822
99,0.9816729542599822
99,0.9816729542599822
99,0.9816729542599822
99,0.9816729542599822
99,0.9820368512310895
99,0.9820368512310895
99,0.9820368512310895
99,0.9820368512310895
99,0.9820368512310895
99,0.9820368512310895
99,0.9820368512310895
99,0.9820368512310895
100,0.9820368512310895
100,0.9820368512310895
100,0.9820368512310895
100,0.9820368512310895
100,0.9820368512310895
100,0.9820368512310895
100,0.9820368512310895
100,0.9820368512310895
100,0.9820368512310895
100,0.9820368512310895
100,0.9820368512310895
100,0.9820368512310895
100,0.9820368512310895
100,0.9820368512310895
100,0.9820368512310895
100,0.9820368512310895
100,0.9820368512310895
100,0.9820368512310895
100,0.9820368512310895
100,0.9820368512310895
100,0.9820368512310895
100,0.9820368512310895
100,0.9820368512310895
100,0.9820368512310895
101,0.9820368512310895
101,0.9820368512310895
101,0.9820368512310895
101,0.9820368512310895
101,0.9820368512310895
101,0.9820368512310895
101,0.9820368512310895
101,0.9820368512310895
101,0.9820368512310895
101,0.9820368512310895
101,0.9820368512310895
101,0.9820368512310895
101,0.9820368512310895
101,0.9820368512310895
101,0.9820368512310895
101,0.9820368512310895
101,0.9820368512310895
101,0.9820368512310895
101,0.9820632169798079
101,0.9820632169798079
101,0.9820632169798079
101,0.9820632169798079
101,0.9820632169798079
101,0.9820632169798079
101,0.9820632169798079
102,0.9820632169798079
102,0.9820632169798079
102,0.9820632169798079
102,0.9820632169798079
102,0.9820632169798079
102,0.9820632169798079
102,0.9820632169798079
102,0.9820632169798079
102,0.9820632169798079
102,0.9820632169798079
102,0.9820632169798079
102,0.9820632169798079
102,0.9820632169798079
102,0.9820632169798079
102,0.9820632169798079
102,0.9820632169798079
102,0.9820632169798079
102,0.9820632169798079
102,0.9820632169798079
102,0.9820632169798079
102,0.9820632169798079
102,0.9820632169798079
102,0.9820632169798079
102,0.9820632169798079
103,0.9820632169798079
103,0.9820632169798079
103,0.9820632169798079
103,0.9820632169798079
103,0.9820632169798079
103,0.9820632169798079
103,0.9820632169798079
103,0.9820632169798079
103,0.9820632169798079
103,0.9820632169798079
103,0.9820632169798079
103,0.9820632169798079
103,0.9820632169798079
103,0.9820632169798079
103,0.9820632169798079
103,0.9820632169798079
103,0.9820632169798079
103,0.9820632169798079
103,0.9820632169798079
103,0.9820632169798079
103,0.9820632169798079
103,0.9820632169798079
103,0.9820632169798079
103,0.9820632169798079
103,0.9820632169798079
104,0.9820632169798079
104,0.9820632169798079
104,0.9820632169798079
104,0.9820632169798079
104,0.9820632169798079
104,0.9820632169798079
104,0.9820632169798079
104,0.9820632169798079
104,0.9820632169798079
104,0.9820632169798079
104,0.9820632169798079
104,0.9820632169798079
104,0.9820632169798079
104,0.9820632169798079
104,0.9820632169798079
104,0.9820632169798079
104,0.9820632169798079
104,0.9820632169798079
104,0.9820632169798079
104,0.9820632169798079
104,0.9820632169798079
104,0.9820632169798079
104,0.9820632169798079
104,0.9820632169798079
105,0.9820632169798079
105,0.9820632169798079
105,0.9820632169798079
105,0.9820632169798079
105,0.9820632169798079
105,0.9820632169798079
105,0.9820632169798079
105,0.9820632169798079
105,0.9820632169798079
105,0.9820632169798079
105,0.9820632169798079
105,0.9820632169798079
105,0.9820632169798079
105,0.9820632169798079
105,0.9820632169798079
105,0.9820632169798079
105,0.9820632169798079
105,0.9820632169798079
105,0.9820632169798079
105,0.9820632169798079
105,0.9820632169798079
105,0.9820632169798079
105,0.9820632169798079
105,0.9820632169798079
106,0.9820632169798079
106,0.9820632169798079
106,0.9820632169798079
106,0.9820632169798079
106,0.9820632169798079
106,0.9820632169798079
106,0.9820632169798079
106,0.9820632169798079
106,0.9820632169798079
106,0.9820632169798079
106,0.9820632169798079
106,0.9820632169798079
106,0.9820632169798079
106,0.9820632169798079
106,0.9820632169798079
106,0.9820632169798079
106,0.9820632169798079
106,0.9820632169798079
106,0.9820632169798079
106,0.9820632169798079
106,0.9820632169798079
106,0.9825127623174986
106,0.9825127623174986
106,0.9825127623174986
107,0.9825127623174986
107,0.9825127623174986
107,0.9825127623174986
107,0.9825127623174986
107,0.9825127623174986
107,0.9825127623174986
107,0.9825127623174986
107,0.9825127623174986
107,0.9825127623174986
107,0.9825127623174986
107,0.9825127623174986
107,0.9825127623174986
107,0.9825127623174986
107,0.9825127623174986
107,0.9825127623174986
107,0.9825127623174986
107,0.9825127623174986
107,0.9825127623174986
107,0.9825127623174986
107,0.9825127623174986
107,0.9825127623174986
107,0.9825127623174986
107,0.9825127623174986
108,0.9825127623174986
108,0.9825127623174986
108,0.9825127623174986
108,0.9825127623174986
108,0.9825127623174986
108,0.9825127623174986
108,0.9825127623174986
108,0.9825127623174986
108,0.9825127623174986
108,0.9825127623174986
108,0.9825127623174986
108,0.9825127623174986
108,0.9825127623174986
108,0.9825127623174986
108,0.9825127623174986
108,0.9825127623174986
108,0.9825127623174986
108,0.9825127623174986
108,0.9825127623174986
108,0.9825127623174986
108,0.9825127623174986
108,0.9825127623174986
108,0.9825127623174986
108,0.9825127623174986
109,0.9825127623174986
109,0.9825127623174986
109,0.9825127623174986
109,0.9825127623174986
109,0.9825127623174986
109,0.9825127623174986
109,0.9825127623174986
109,0.9825127623174986
109,0.9825127623174986
109,0.9825127623174986
109,0.9825127623174986
109,0.9825127623174986
109,0.9825127623174986
109,0.9825127623174986
109,0.9825127623174986
109,0.9825127623174986
109,0.9825127623174986
109,0.9825127623174986
109,0.9825127623174986
109,0.9825127623174986
109,0.9825127623174986
109,0.9825127623174986
109,0.9825127623174986
109,0.9825127623174986
110,0.9825127623174986
110,0.9825127623174986
110,0.9825127623174986
110,0.9825127623174986
110,0.9825127623174986
110,0.9825127623174986
110,0.9825127623174986
110,0.9825127623174986
110,0.9825127623174986
110,0.9825127623174986
110,0.9825127623174986
110,0.9825127623174986
110,0.9825127623174986
110,0.9825127623174986
110,0.9825127623174986
110,0.9825127623174986
110,0.9825127623174986
110,0.9825127623174986
110,0.9825127623174986
110,0.9825127623174986
110,0.9825127623174986
110,0.9825127623174986
110,0.9825127623174986
110,0.9825127623174986
111,0.9825127623174986
111,0.9825127623174986
111,0.9825584184908833
111,0.9825584184908833
111,0.9825584184908833
111,0.9825584184908833
111,0.9825584184908833
111,0.9825584184908833
111,0.9825584184908833
111,0.9825584184908833
111,0.9825584184908833
111,0.9825584184908833
111,0.9825584184908833
111,0.9825584184908833
111,0.9825584184908833
111,0.9825584184908833
111,0.9825584184908833
111,0.9825584184908833
111,0.9825584184908833
111,0.9825584184908833
111,0.9825584184908833
111,0.9825584184908833
111,0.9825584184908833
111,0.9825584184908833
111,0.9825584184908833
112,0.9825584184908833
112,0.9825584184908833
112,0.9834849602571402
112,0.9834849602571402
112,0.9834849602571402
112,0.9834849602571402
112,0.9834849602571402
112,0.9834849602571402
112,0.9834849602571402
112,0.9834849602571402
112,0.9834849602571402
112,0.9834849602571402
112,0.9834849602571402
112,0.9834849602571402
112,0.9834849602571402
112,0.9834849602571402
112,0.9834849602571402
112,0.9834849602571402
112,0.9834849602571402
112,0.9834849602571402
112,0.9834849602571402
112,0.9834849602571402
112,0.9834849602571402
112,0.9834849602571402
112,0.9834849602571402
113,0.9834849602571402
113,0.9834849602571402
113,0.9834849602571402
113,0.9834849602571402
113,0.9834849602571402
113,0.9834849602571402
113,0.9834849602571402
113,0.9834849602571402
113,0.9834849602571402
113,0.9834849602571402
113,0.9834849602571402
113,0.9834849602571402
113,0.9834849602571402
113,0.9834849602571402
113,0.9834849602571402
113,0.9834849602571402
113,0.9834849602571402
113,0.9834849602571402
113,0.9834849602571402
113,0.9834849602571402
113,0.9834849602571402
113,0.9834849602571402
113,0.9834849602571402
113,0.9834849602571402
113,0.9834849602571402
114,0.9834849602571402
114,0.9834849602571402
114,0.9834849602571402
114,0.9834849602571402
114,0.9834849602571402
114,0.9834849602571402
114,0.9834849602571402
114,0.9834849602571402
114,0.9834849602571402
114,0.9834849602571402
114,0.9834849602571402
114,0.9834849602571402
114,0.9834849602571402
114,0.9834849602571402
114,0.9834849602571402
114,0.9834849602571402
114,0.9834849602571402
114,0.9834849602571402
114,0.9834849602571402
114,0.9834849602571402
114,0.9834849602571402
114,0.9834849602571402
114,0.9834849602571402
115,0.9834849602571402
115,0.9834849602571402
115,0.9834849602571402
115,0.9834849602571402
115,0.9834849602571402
115,0.9834849602571402
115,0.9834849602571402
115,0.9834849602571402
115,0.9834849602571402
115,0.9834849602571402
115,0.9834849602571402
115,0.9834849602571402
115,0.9834849602571402
115,0.9834849602571402
115,0.9834849602571402
115,0.9834849602571402
115,0.9834849602571402
115,0.9834849602571402
115,0.9834849602571402
115,0.9834849602571402
115,0.9834849602571402
115,0.9834849602571402
115,0.9834849602571402
115,0.9834849602571402
116,0.9834849602571402
116,0.9834849602571402
116,0.9834849602571402
116,0.9834849602571402
116,0.9834849602571402
116,0.9834849602571402
116,0.9834849602571402
116,0.9834849602571402
116,0.9834849602571402
116,0.9834849602571402
116,0.9834849602571402
116,0.9834849602571402
116,0.9834849602571402
116,0.9834849602571402
116,0.9834849602571402
116,0.9834849602571402
116,0.9834849602571402
116,0.9834849602571402
116,0.9834849602571402
116,0.9834849602571402
116,0.9834849602571402
116,0.9834849602571402
116,0.9834849602571402
116,0.9834849602571402
117,0.9834849602571402
117,0.9834849602571402
117,0.9834849602571402
117,0.9834849602571402
117,0.9834849602571402
117,0.9834849602571402
117,0.9834849602571402
117,0.9834849602571402
117,0.9834849602571402
117,0.9834849602571402
117,0.9834849602571402
117,0.9834849602571402
117,0.9834849602571402
117,0.9834849602571402
117,0.9834849602571402
117,0.9834849602571402
117,0.9834849602571402
117,0.9834849602571402
117,0.9834849602571402
117,0.9834849602571402
117,0.9834849602571402
117,0.9834849602571402
117,0.9834849602571402
117,0.9834849602571402
118,0.9834849602571402
118,0.9834849602571402
118,0.9834849602571402
118,0.9834849602571402
118,0.9834849602571402
118,0.9834849602571402
118,0.9834849602571402
118,0.9835122160458166
118,0.9835122160458166
118,0.9835122160458166
118,0.9835122160458166
118,0.9835122160458166
118,0.9835122160458166
118,0.9835122160458166
118,0.9835122160458166
118,0.9835122160458166
118,0.9835122160458166
118,0.9835122160458166
118,0.9835122160458166
118,0.9835122160458166
118,0.9835122160458166
118,0.9835122160458166
118,0.9835122160458166
119,0.9835122160458166
119,0.9835122160458166
119,0.9835122160458166
119,0.9835122160458166
119,0.9835122160458166
119,0.9835122160458166
119,0.9835122160458166
119,0.9835122160458166
119,0.9835122160458166
119,0.9835122160458166
119,0.9835122160458166
119,0.9835122160458166
119,0.9835122160458166
119,0.9835122160458166
119,0.9835122160458166
119,0.9835122160458166
119,0.9835122160458166
119,0.9835122160458166
119,0.9835122160458166
119,0.9835122160458166
119,0.9835122160458166
119,0.9835122160458166
119,0.9835122160458166
119,0.9835122160458166
119,0.9835122160458166
120,0.9835122160458166
120,0.9835122160458166
120,0.9835122160458166
120,0.9835122160458166
120,0.9835122160458166
120,0.9835122160458166
120,0.9835122160458166
120,0.9835122160458166
120,0.9835122160458166
120,0.984309849944417
120,0.984309849944417
120,0.984309849944417
120,0.984309849944417
120,0.984309849944417
120,0.984309849944417
120,0.984309849944417
120,0.984309849944417
120,0.984309849944417
120,0.984309849944417
120,0.984309849944417
120,0.984309849944417
120,0.984309849944417
120,0.984309849944417
120,0.984309849944417
120,0.984309849944417
121,0.984309849944417
121,0.984309849944417
121,0.984309849944417
121,0.984309849944417
121,0.984309849944417
121,0.984309849944417
121,0.984309849944417
121,0.984309849944417
121,0.984309849944417
121,0.984309849944417
121,0.984309849944417
121,0.984309849944417
121,0.984309849944417
121,0.984309849944417
121,0.984309849944417
121,0.984309849944417
121,0.984309849944417
121,0.984309849944417
121,0.984309849944417
121,0.984309849944417
121,0.984309849944417
121,0.984309849944417
121,0.984309849944417
121,0.984309849944417
122,0.984309849944417
122,0.984309849944417
122,0.984309849944417
122,0.984309849944417
122,0.984309849944417
122,0.984309849944417
122,0.984309849944417
122,0.984309849944417
122,0.984309849944417
122,0.984309849944417
122,0.984309849944417
122,0.984309849944417
122,0.984309849944417
122,0.984309849944417
122,0.984309849944417
122,0.984309849944417
122,0.984309849944417
122,0.984309849944417
122,0.984309849944417
122,0.984309849944417
122,0.984309849944417
122,0.984309849944417
122,0.984309849944417
123,0.984309849944417
123,0.984309849944417
123,0.984309849944417
123,0.984309849944417
123,0.984309849944417
123,0.984309849944417
123,0.984309849944417
123,0.984309849944417
123,0.984309849944417
123,0.984309849944417
123,0.984309849944417
123,0.984309849944417
123,0.984309849944417
123,0.984309849944417
123,0.984309849944417
123,0.984309849944417
123,0.984309849944417
123,0.984309849944417
123,0.984309849944417
123,0.984309849944417
123,0.984309849944417
123,0.984309849944417
123,0.984309849944417
123,0.984309849944417
124,0.984309849944417
124,0.984309849944417
124,0.984309849944417
124,0.984309849944417
124,0.984309849944417
124,0.984309849944417
124,0.984309849944417
124,0.984309849944417
124,0.984309849944417
124,0.984309849944417
124,0.984309849944417
124,0.984309849944417
124,0.984309849944417
124,0.9845893432114061
124,0.9845893432114061
124,0.9845893432114061
124,0.9845893432114061
124,0.9845893432114061
124,0.9845893432114061
124,0.9845893432114061
124,0.9845893432114061
124,0.9845893432114061
124,0.9845893432114061
124,0.9845893432114061
125,0.9845893432114061
125,0.9845893432114061
125,0.9845893432114061
125,0.9845893432114061
125,0.9845893432114061
125,0.9845893432114061
125,0.9845893432114061
125,0.9845893432114061
125,0.9845893432114061
125,0.9845893432114061
125,0.9845893432114061
125,0.9845893432114061
125,0.9845893432114061
125,0.9845893432114061
125,0.9845893432114061
125,0.9845893432114061
125,0.9845893432114061
125,0.9845893432114061
125,0.9845893432114061
125,0.9845893432114061
125,0.9845893432114061
125,0.9845893432114061
125,0.9845893432114061
125,0.9845893432114061
125,0.9845893432114061
126,0.9845893432114061
126,0.9845893432114061
126,0.9845893432114061
126,0.9845893432114061
126,0.9845893432114061
126,0.9845893432114061
126,0.9845893432114061
126,0.9845893432114061
126,0.9845893432114061
126,0.9845893432114061
126,0.9845893432114061
126,0.9845893432114061
126,0.9845893432114061
126,0.9845893432114061
126,0.9845893432114061
126,0.9845893432114061
126,0.9845893432114061
126,0.9845893432114061
126,0.9845893432114061
126,0.9845893432114061
126,0.9845893432114061
126,0.9845893432114061
126,0.9845893432114061
127,0.9845893432114061
127,0.9845893432114061
127,0.9845893432114061
127,0.9845893432114061
127,0.9845893432114061
127,0.9845893432114061
127,0.9845893432114061
127,0.9845893432114061
127,0.9845893432114061
127,0.9845893432114061
127,0.9845893432114061
127,0.9845893432114061
127,0.9845893432114061
127,0.9845893432114061
127,0.9845893432114061
127,0.9845893432114061
127,0.9845893432114061
127,0.9845893432114061
127,0.9845893432114061
127,0.9845893432114061
127,0.9845893432114061
127,0.9845893432114061
127,0.9845893432114061
127,0.9845893432114061
128,0.9845893432114061
128,0.9845893432114061
128,0.9845893432114061
128,0.9845893432114061
128,0.9845893432114061
128,0.9845893432114061
128,0.9845893432114061
128,0.9845893432114061
128,0.9845893432114061
128,0.9845893432114061
128,0.9845893432114061
128,0.9845893432114061
128,0.9845893432114061
128,0.9845893432114061
128,0.9845893432114061
128,0.9845893432114061
128,0.9845893432114061
128,0.9845893432114061
128,0.9845893432114061
128,0.9845893432114061
128,0.9845893432114061
128,0.9845893432114061
128,0.9845893432114061
128,0.9845893432114061
129,0.9845893432114061
129,0.9845893432114061
129,0.9845893432114061
129,0.9845893432114061
129,0.9845893432114061
129,0.9845893432114061
129,0.9845893432114061
129,0.9845893432114061
129,0.9845893432114061
129,0.9845893432114061
129,0.9845893432114061
129,0.9845893432114061
129,0.9845893432114061
129,0.9845893432114061
129,0.9845893432114061
129,0.9845893432114061
129,0.9845893432114061
129,0.9845893432114061
129,0.9845893432114061
129,0.9845893432114061
129,0.9845893432114061
129,0.9845893432114061
129,0.9845893432114061
130,0.9845893432114061
130,0.9845893432114061
130,0.9845893432114061
130,0.9845893432114061
130,0.9845893432114061
130,0.9845893432114061
130,0.9845893432114061
130,0.9845893432114061
130,0.9845893432114061
130,0.9845893432114061
130,0.9845893432114061
130,0.9845893432114061
130,0.9845893432114061
130,0.9845893432114061
130,0.9845893432114061
130,0.9845893432114061
130,0.9845893432114061
130,0.9845893432114061
130,0.9845893432114061
130,0.9845893432114061
130,0.9845893432114061
130,0.9845893432114061
130,0.9845893432114061
130,0.9845893432114061
130,0.9845893432114061
131,0.9845893432114061
131,0.9845893432114061
131,0.9845893432114061
131,0.9845893432114061
131,0.9845893432114061
131,0.9845893432114061
131,0.9845893432114061
131,0.9845893432114061
131,0.9845893432114061
131,0.9845893432114061
131,0.9845893432114061
131,0.9845893432114061
131,0.9845893432114061
131,0.9845893432114061
131,0.9845893432114061
131,0.9845893432114061
131,0.9845893432114061
131,0.9845893432114061
131,0.9845893432114061
131,0.9845893432114061
131,0.9845893432114061
131,0.9845893432114061
131,0.9845893432114061
131,0.9845893432114061
132,0.9845893432114061
132,0.9845893432114061
132,0.9845893432114061
132,0.9845893432114061
132,0.9845893432114061
132,0.9845893432114061
132,0.9845893432114061
132,0.9845893432114061
132,0.9845893432114061
132,0.9845893432114061
132,0.9845893432114061
132,0.9845893432114061
132,0.9845893432114061
132,0.9845893432114061
132,0.9845893432114061
132,0.9845893432114061
132,0.9845893432114061
132,0.9845893432114061
132,0.9845893432114061
132,0.9845893432114061
132,0.9845893432114061
132,0.9845893432114061
132,0.9845893432114061
132,0.9845893432114061
133,0.9845893432114061
133,0.9845893432114061
133,0.9845893432114061
133,0.9845893432114061
133,0.9845893432114061
133,0.9845893432114061
133,0.9845893432114061
133,0.9845893432114061
133,0.9845893432114061
133,0.9845893432114061
133,0.9845893432114061
133,0.9845893432114061
133,0.9845893432114061
133,0.9845893432114061
133,0.9845893432114061
133,0.9845893432114061
133,0.9845893432114061
133,0.9845893432114061
133,0.9845893432114061
133,0.9845893432114061
133,0.9845893432114061
133,0.9845893432114061
133,0.9845893432114061
133,0.9845893432114061
133,0.9845893432114061
133,0.9845893432114061
134,0.9845893432114061
134,0.9845893432114061
134,0.9845893432114061
134,0.9845893432114061
134,0.9845893432114061
134,0.9845893432114061
134,0.9845893432114061
134,0.9845893432114061
134,0.9845893432114061
134,0.9845893432114061
134,0.9845893432114061
134,0.9845893432114061
134,0.9845893432114061
134,0.9845893432114061
134,0.9845893432114061
134,0.9845893432114061
134,0.9845893432114061
134,0.9845893432114061
134,0.9845893432114061
134,0.9845893432114061
134,0.9845893432114061
134,0.9845893432114061
134,0.9845893432114061
134,0.9845893432114061
134,0.9845893432114061
135,0.9845893432114061
135,0.9845893432114061
135,0.9845893432114061
135,0.9845893432114061
135,0.9845893432114061
135,0.9845893432114061
135,0.9845893432114061
135,0.9845893432114061
135,0.9845893432114061
135,0.9845893432114061
135,0.9845893432114061
135,0.9845893432114061
135,0.9845893432114061
135,0.9845893432114061
135,0.9845893432114061
135,0.9845893432114061
135,0.9845893432114061
135,0.9845893432114061
135,0.9845893432114061
135,0.9845893432114061
135,0.9845893432114061
135,0.9845893432114061
135,0.9845893432114061
135,0.9845893432114061
136,0.9845893432114061
136,0.9845893432114061
136,0.9845893432114061
136,0.9845893432114061
136,0.9845893432114061
136,0.9845893432114061
136,0.9845893432114061
136,0.9845893432114061
136,0.9845893432114061
136,0.9845893432114061
136,0.9845893432114061
136,0.9845893432114061
136,0.9845893432114061
136,0.9845893432114061
136,0.9845893432114061
136,0.9845893432114061
136,0.9845893432114061
136,0.9845893432114061
136,0.9845893432114061
136,0.9845893432114061
136,0.9845893432114061
136,0.9845893432114061
137,0.9845893432114061
137,0.9845893432114061
137,0.9845893432114061
137,0.9845893432114061
137,0.9845893432114061
137,0.9845893432114061
137,0.9845893432114061
137,0.9845893432114061
137,0.9845893432114061
137,0.9845893432114061
137,0.9845893432114061
137,0.9845893432114061
137,0.9845893432114061
137,0.9845893432114061
137,0.9845893432114061
137,0.9845893432114061
137,0.9845893432114061
137,0.9845893432114061
137,0.9845893432114061
137,0.9845893432114061
137,0.9845893432114061
137,0.9845893432114061
137,0.9845893432114061
137,0.9845893432114061
138,0.9845893432114061
138,0.9845893432114061
138,0.9845893432114061
138,0.9845893432114061
138,0.9845893432114061
138,0.9845893432114061
138,0.9845893432114061
138,0.9845893432114061
138,0.9845893432114061
138,0.9845893432114061
138,0.9845893432114061
138,0.9845893432114061
138,0.9845893432114061
138,0.9845893432114061
138,0.9845893432114061
138,0.9845893432114061
138,0.9845893432114061
138,0.9845893432114061
138,0.9845893432114061
138,0.9845893432114061
138,0.9845893432114061
138,0.9845893432114061
138,0.9845893432114061
138,0.9845893432114061
139,0.9845893432114061
139,0.9845893432114061
139,0.9845893432114061
139,0.9845893432114061
139,0.9845893432114061
139,0.9845893432114061
139,0.9845893432114061
139,0.9845893432114061
139,0.9845893432114061
139,0.9845893432114061
139,0.9845893432114061
139,0.9845893432114061
139,0.9845893432114061
139,0.9845893432114061
139,0.9845893432114061
139,0.9845893432114061
139,0.9845893432114061
139,0.9845893432114061
139,0.9845893432114061
139,0.9845893432114061
139,0.9845893432114061
139,0.9845893432114061
139,0.9845893432114061
139,0.9845893432114061
140,0.9845893432114061
140,0.9845893432114061
140,0.9845893432114061
140,0.9845969633396003
140,0.9845969633396003
140,0.9845969633396003
140,0.9845969633396003
140,0.9845969633396003
140,0.9845969633396003
140,0.9845969633396003
140,0.9845969633396003
140,0.9845969633396003
140,0.9845969633396003
140,0.9845969633396003
140,0.9845969633396003
140,0.9845969633396003
140,0.9845969633396003
140,0.9845969633396003
140,0.9845969633396003
140,0.9845969633396003
140,0.9845969633396003
140,0.9845969633396003
140,0.9845969633396003
140,0.9845969633396003
140,0.9845969633396003
141,0.9845969633396003
141,0.9845969633396003
141,0.9845969633396003
141,0.9845969633396003
141,0.9845969633396003
141,0.9845969633396003
141,0.9845969633396003
141,0.9845969633396003
141,0.9845969633396003
141,0.9845969633396003
141,0.9845969633396003
141,0.9845969633396003
141,0.9845969633396003
141,0.9845969633396003
141,0.9845969633396003
141,0.9845969633396003
141,0.9845969633396003
141,0.9845969633396003
141,0.9845969633396003
141,0.9845969633396003
141,0.9845969633396003
141,0.9845969633396003
141,0.9845969633396003
141,0.9845969633396003
142,0.9845969633396003
142,0.9845969633396003
142,0.9845969633396003
142,0.9845969633396003
142,0.9845969633396003
142,0.9845969633396003
142,0.9845969633396003
142,0.9845969633396003
142,0.9845969633396003
142,0.9845969633396003
142,0.9845969633396003
142,0.9845969633396003
142,0.9845969633396003
142,0.9845969633396003
142,0.9845969633396003
142,0.9845969633396003
142,0.9845969633396003
142,0.9845969633396003
142,0.9845969633396003
142,0.9845969633396003
142,0.9845969633396003
142,0.9845969633396003
142,0.9845969633396003
142,0.9845969633396003
143,0.9845969633396003
143,0.9845969633396003
143,0.9845969633396003
143,0.9845969633396003
143,0.9845969633396003
143,0.9845969633396003
143,0.9845969633396003
143,0.9845969633396003
143,0.9845969633396003
143,0.9845969633396003
143,0.9845969633396003
143,0.9845969633396003
143,0.9845969633396003
143,0.9845969633396003
143,0.9845969633396003
143,0.9845969633396003
143,0.9845969633396003
143,0.9845969633396003
143,0.9845969633396003
143,0.9845969633396003
143,0.9845969633396003
143,0.9845969633396003
143,0.9845969633396003
143,0.9845969633396003
144,0.9845969633396003
144,0.9845969633396003
144,0.9845969633396003
144,0.9845969633396003
144,0.9845969633396003
144,0.9845969633396003
144,0.9845969633396003
144,0.9845969633396003
144,0.9845969633396003
144,0.9845969633396003
144,0.9845969633396003
144,0.9845969633396003
144,0.9845969633396003
144,0.9845969633396003
144,0.9845969633396003
144,0.9845969633396003
144,0.9845969633396003
144,0.9845969633396003
144,0.9845969633396003
144,0.9845969633396003
144,0.9845969633396003
144,0.9845969633396003
144,0.9845969633396003
145,0.9845969633396003
145,0.9845969633396003
145,0.9845969633396003
145,0.9845969633396003
145,0.9845969633396003
145,0.9845969633396003
145,0.9845969633396003
145,0.9845969633396003
145,0.9845969633396003
145,0.9845969633396003
145,0.9845969633396003
145,0.9845969633396003
145,0.9845969633396003
145,0.9845969633396003
145,0.9845969633396003
145,0.9845969633396003
145,0.9845969633396003
145,0.9845969633396003
145,0.9845969633396003
145,0.9845969633396003
145,0.9845969633396003
145,0.9845969633396003
146,0.9845969633396003
146,0.9845969633396003
146,0.9845969633396003
146,0.9845969633396003
146,0.9845969633396003
146,0.9845969633396003
146,0.9845969633396003
146,0.9845969633396003
146,0.9845969633396003
146,0.9845969633396003
146,0.9845969633396003
146,0.9845969633396003
146,0.9845969633396003
146,0.9845969633396003
146,0.9845969633396003
146,0.9845969633396003
146,0.9845969633396003
146,0.9845969633396003
146,0.9845969633396003
146,0.9845969633396003
147,0.9845969633396003
147,0.9845969633396003
147,0.9845969633396003
147,0.9845969633396003
147,0.9845969633396003
147,0.9845969633396003
147,0.9845969633396003
147,0.9845969633396003
147,0.9845969633396003
147,0.9845969633396003
147,0.9845969633396003
147,0.9845969633396003
147,0.9845969633396003
147,0.9845969633396003
147,0.9845969633396003
147,0.9845969633396003
147,0.9845969633396003
147,0.9845969633396003
147,0.9845969633396003
147,0.9845969633396003
147,0.9845969633396003
147,0.9845969633396003
147,0.9845969633396003
148,0.9845969633396003
148,0.9845969633396003
148,0.9845969633396003
148,0.9845969633396003
148,0.9845969633396003
148,0.9845969633396003
148,0.9845969633396003
148,0.9845969633396003
148,0.9845969633396003
148,0.9845969633396003
148,0.9845969633396003
148,0.9845969633396003
148,0.9845969633396003
148,0.9845969633396003
148,0.9845969633396003
148,0.9845969633396003
148,0.9845969633396003
148,0.9845969633396003
148,0.9845969633396003
148,0.9845969633396003
148,0.9845969633396003
148,0.9845969633396003
148,0.9845969633396003
149,0.9845969633396003
149,0.9845969633396003
149,0.9845969633396003
149,0.9845969633396003
149,0.9845969633396003
149,0.9845969633396003
149,0.9845969633396003
149,0.9845969633396003
149,0.9845969633396003
149,0.9845969633396003
149,0.9845969633396003
149,0.9845969633396003
149,0.9845969633396003
149,0.9845969633396003
149,0.9845969633396003
149,0.9845969633396003
149,0.9845969633396003
149,0.9845969633396003
149,0.9845969633396003
149,0.9845969633396003
149,0.9845969633396003
149,0.9845969633396003
149,0.9845969633396003
149,0.9845969633396003
150,0.9845969633396003
