0,0.4299289716852317
0,0.4299289716852317
0,0.4299289716852317
0,0.4299289716852317
0,0.4299289716852317
0,0.4299289716852317
0,0.4299289716852317
0,0.4299289716852317
0,0.4299289716852317
0,0.4299289716852317
0,0.4299289716852317
0,0.4299289716852317
0,0.4299289716852317
0,0.4299289716852317
0,0.4299289716852317
0,0.4299289716852317
0,0.4299289716852317
0,0.4299289716852317
0,0.4299289716852317
0,0.4299289716852317
0,0.4299289716852317
0,0.4299289716852317
0,0.4299289716852317
0,0.4299289716852317
0,0.7542304937730421
0,0.7542304937730421
0,0.7542304937730421
0,0.7542304937730421
0,0.7542304937730421
0,0.7542304937730421
0,0.7542304937730421
1,0.7542304937730421
1,0.7542304937730421
1,0.7542304937730421
1,0.7542304937730421
1,0.7542304937730421
1,0.7542304937730421
1,0.7542304937730421
1,0.7542304937730421
1,0.7542304937730421
1,0.7542304937730421
1,0.7542304937730421
1,0.7542304937730421
1,0.7542304937730421
1,0.7542304937730421
1,0.7542304937730421
1,0.7542304937730421
1,0.7542304937730421
1,0.7542304937730421
1,0.7825615763713306
1,0.7825615763713306
1,0.7825615763713306
1,0.7825615763713306
1,0.7825615763713306
1,0.7825615763713306
1,0.7825615763713306
1,0.7825615763713306
1,0.7825615763713306
1,0.7825615763713306
1,0.7825615763713306
1,0.7825615763713306
1,0.7825615763713306
1,0.7825615763713306
1,0.7825615763713306
1,0.7825615763713306
2,0.7825615763713306
2,0.7825615763713306
2,0.7825615763713306
2,0.7825615763713306
2,0.7825615763713306
2,0.7825615763713306
2,0.7825615763713306
2,0.7825615763713306
2,0.7825615763713306
2,0.8440406247193946
2,0.8440406247193946
2,0.8440406247193946
2,0.8440406247193946
2,0.8440406247193946
2,0.8440406247193946
2,0.8440406247193946
2,0.8440406247193946
2,0.8440406247193946
2,0.8440406247193946
2,0.8440406247193946
2,0.8440406247193946
2,0.8440406247193946
2,0.8440406247193946
2,0.8440406247193946
2,0.8440406247193946
2,0.8440406247193946
2,0.8440406247193946
2,0.8440406247193946
3,0.8440406247193946
3,0.8440406247193946
3,0.8440406247193946
3,0.8440406247193946
3,0.8440406247193946
3,0.8440406247193946
3,0.8487220905313062
3,0.8487220905313062
3,0.8487220905313062
3,0.8487220905313062
3,0.8487220905313062
3,0.8487220905313062
3,0.8487220905313062
3,0.8487220905313062
3,0.8487220905313062
3,0.8487220905313062
3,0.8487220905313062
3,0.8487220905313062
3,0.8487220905313062
3,0.8487220905313062
3,0.8487220905313062
3,0.8487220905313062
3,0.8487220905313062
3,0.8487220905313062
3,0.8487220905313062
3,0.8487220905313062
3,0.8487220905313062
3,0.8487220905313062
3,0.8487220905313062
4,0.8487220905313062
4,0.8487220905313062
4,0.8743958689627621
4,0.8743958689627621
4,0.8743958689627621
4,0.8743958689627621
4,0.8743958689627621
4,0.8743958689627621
4,0.8743958689627621
4,0.8743958689627621
4,0.8743958689627621
4,0.8743958689627621
4,0.8743958689627621
4,0.8743958689627621
4,0.8743958689627621
4,0.8743958689627621
4,0.8743958689627621
4,0.8743958689627621
4,0.8743958689627621
4,0.8743958689627621
4,0.8743958689627621
4,0.8743958689627621
4,0.8743958689627621
4,0.8743958689627621
4,0.8743958689627621
4,0.8743958689627621
5,0.8743958689627621
5,0.8881043359988547
5,0.8881043359988547
5,0.8881043359988547
5,0.8881043359988547
5,0.8881043359988547
5,0.8881043359988547
5,0.8881043359988547
5,0.8881043359988547
5,0.8881043359988547
5,0.8881043359988547
5,0.8881043359988547
5,0.8881043359988547
5,0.8881043359988547
5,0.8881043359988547
5,0.8881043359988547
5,0.8881043359988547
5,0.8881043359988547
5,0.8881043359988547
5,0.8881043359988547
5,0.8881043359988547
5,0.8881043359988547
5,0.8881043359988547
5,0.8881043359988547
5,0.8881043359988547
5,0.8881043359988547
6,0.9061594347332157
6,0.9061594347332157
6,0.9061594347332157
6,0.9061594347332157
6,0.9061594347332157
6,0.9061594347332157
6,0.9061594347332157
6,0.9061594347332157
6,0.9061594347332157
6,0.9061594347332157
6,0.9061594347332157
6,0.9061594347332157
6,0.9061594347332157
6,0.9061594347332157
6,0.9061594347332157
6,0.9061594347332157
6,0.9061594347332157
6,0.9061594347332157
6,0.9061594347332157
6,0.9061594347332157
6,0.9061594347332157
6,0.9061594347332157
6,0.9061594347332157
6,0.9061594347332157
6,0.9061594347332157
6,0.907331094309681
7,0.907331094309681
7,0.907331094309681
7,0.907331094309681
7,0.907331094309681
7,0.907331094309681
7,0.907331094309681
7,0.907331094309681
7,0.907331094309681
7,0.907331094309681
7,0.907331094309681
7,0.907331094309681
7,0.907331094309681
7,0.907331094309681
7,0.907331094309681
7,0.907331094309681
7,0.907331094309681
7,0.907331094309681
7,0.907331094309681
7,0.907331094309681
7,0.907331094309681
7,0.907331094309681
7,0.907331094309681
7,0.907331094309681
7,0.907331094309681
7,0.907331094309681
8,0.907331094309681
8,0.907331094309681
8,0.907331094309681
8,0.907331094309681
8,0.907331094309681
8,0.907331094309681
8,0.907331094309681
8,0.907331094309681
8,0.907331094309681
8,0.907331094309681
8,0.907331094309681
8,0.907331094309681
8,0.907331094309681
8,0.907331094309681
8,0.907331094309681
8,0.907331094309681
8,0.907331094309681
8,0.907331094309681
8,0.907331094309681
8,0.907331094309681
8,0.907331094309681
8,0.907331094309681
8,0.907331094309681
8,0.907331094309681
8,0.919078857851527
9,0.919078857851527
9,0.919078857851527
9,0.919078857851527
9,0.919078857851527
9,0.919078857851527
9,0.919078857851527
9,0.919078857851527
9,0.919078857851527
9,0.919078857851527
9,0.919078857851527
9,0.919078857851527
9,0.919078857851527
9,0.919078857851527
9,0.919078857851527
9,0.919078857851527
9,0.919078857851527
9,0.919078857851527
9,0.919078857851527
9,0.919078857851527
9,0.919078857851527
9,0.919078857851527
9,0.919078857851527
9,0.919078857851527
10,0.919078857851527
10,0.9254042390686178
10,0.9254042390686178
10,0.9254042390686178
10,0.9254042390686178
10,0.9254042390686178
10,0.9254042390686178
10,0.9254042390686178
10,0.9254042390686178
10,0.9254042390686178
10,0.9254042390686178
10,0.9254042390686178
10,0.9254042390686178
10,0.9254042390686178
10,0.9254042390686178
10,0.9254042390686178
10,0.9254042390686178
10,0.9254042390686178
10,0.9254042390686178
10,0.9254042390686178
10,0.9254042390686178
10,0.9254042390686178
10,0.9254042390686178
10,0.9254042390686178
11,0.9254042390686178
11,0.9254042390686178
11,0.9313255652684723
11,0.9313255652684723
11,0.9313255652684723
11,0.9313255652684723
11,0.9313255652684723
11,0.9313255652684723
11,0.9313255652684723
11,0.9313255652684723
11,0.9313255652684723
11,0.9313255652684723
11,0.9313255652684723
11,0.9313255652684723
11,0.9313255652684723
11,0.9313255652684723
11,0.9313255652684723
11,0.9313255652684723
11,0.9313255652684723
11,0.9313255652684723
11,0.9313255652684723
11,0.9313255652684723
11,0.9313255652684723
11,0.9313255652684723
11,0.9313255652684723
11,0.9313255652684723
12,0.9313255652684723
12,0.9314585954459362
12,0.9314585954459362
12,0.9314585954459362
12,0.9314585954459362
12,0.9314585954459362
12,0.9314585954459362
12,0.9314585954459362
12,0.9314585954459362
12,0.9314585954459362
12,0.9314585954459362
12,0.9314585954459362
12,0.9314585954459362
12,0.9314585954459362
12,0.9314585954459362
12,0.9314585954459362
12,0.9314585954459362
12,0.9314585954459362
12,0.9314585954459362
12,0.9314585954459362
12,0.9314585954459362
12,0.9314585954459362
12,0.9314585954459362
12,0.9314585954459362
12,0.9314585954459362
12,0.9314585954459362
13,0.9463266303581893
13,0.9463266303581893
13,0.9463266303581893
13,0.9463266303581893
13,0.9463266303581893
13,0.9463266303581893
13,0.9463266303581893
13,0.9463266303581893
13,0.9463266303581893
13,0.9463266303581893
13,0.9463266303581893
13,0.9463266303581893
13,0.9463266303581893
13,0.9463266303581893
13,0.9463266303581893
13,0.9463266303581893
13,0.9463266303581893
13,0.9463266303581893
13,0.9463266303581893
13,0.9463266303581893
13,0.9463266303581893
13,0.9463266303581893
13,0.9463266303581893
13,0.9463266303581893
13,0.9463266303581893
14,0.9486565715069404
14,0.9486565715069404
14,0.9486565715069404
14,0.9486565715069404
14,0.9486565715069404
14,0.9486565715069404
14,0.9486565715069404
14,0.9486565715069404
14,0.9486565715069404
14,0.9486565715069404
14,0.9486565715069404
14,0.9486565715069404
14,0.9486565715069404
14,0.9486565715069404
14,0.9486565715069404
14,0.9486565715069404
14,0.9486565715069404
14,0.9486565715069404
14,0.9486565715069404
14,0.9486565715069404
14,0.9486565715069404
14,0.9486565715069404
14,0.9486565715069404
14,0.9486565715069404
14,0.9486565715069404
14,0.9521069378056791
14,0.9521069378056791
15,0.9521069378056791
15,0.9521069378056791
15,0.9521069378056791
15,0.9521069378056791
15,0.9521069378056791
15,0.9521069378056791
15,0.9521069378056791
15,0.9521069378056791
15,0.9521069378056791
15,0.9521069378056791
15,0.9521069378056791
15,0.9521069378056791
15,0.9521069378056791
15,0.9521069378056791
15,0.9521069378056791
15,0.9521069378056791
15,0.9521069378056791
15,0.9521069378056791
15,0.9521069378056791
15,0.9521069378056791
15,0.9521069378056791
15,0.9521069378056791
15,0.9521069378056791
15,0.9543786136448091
15,0.9543786136448091
15,0.9543786136448091
16,0.9543786136448091
16,0.9543786136448091
16,0.9543786136448091
16,0.9543786136448091
16,0.9543786136448091
16,0.9543786136448091
16,0.9543786136448091
16,0.9543786136448091
16,0.9543786136448091
16,0.9543786136448091
16,0.9543786136448091
16,0.9543786136448091
16,0.9543786136448091
16,0.9543786136448091
16,0.9543786136448091
16,0.9543786136448091
16,0.9543786136448091
16,0.9543786136448091
16,0.9543786136448091
16,0.9543786136448091
16,0.9543786136448091
16,0.9543786136448091
16,0.9543786136448091
16,0.9543786136448091
16,0.9543786136448091
16,0.9543786136448091
16,0.9543786136448091
17,0.9543786136448091
17,0.9543786136448091
17,0.9543786136448091
17,0.9543786136448091
17,0.9543786136448091
17,0.9543786136448091
17,0.9543786136448091
17,0.9543786136448091
17,0.9543786136448091
17,0.9543786136448091
17,0.9543786136448091
17,0.9543786136448091
17,0.9543786136448091
17,0.9543786136448091
17,0.9543786136448091
17,0.9543786136448091
17,0.9543786136448091
17,0.9543786136448091
17,0.9543786136448091
17,0.9543786136448091
17,0.9543786136448091
17,0.9543786136448091
17,0.9543786136448091
17,0.9543786136448091
17,0.9543786136448091
17,0.9543786136448091
18,0.9543786136448091
18,0.9543786136448091
18,0.9543786136448091
18,0.9543786136448091
18,0.9543786136448091
18,0.9543786136448091
18,0.9543786136448091
18,0.9543786136448091
18,0.9543786136448091
18,0.9543786136448091
18,0.9543786136448091
18,0.9543786136448091
18,0.9543786136448091
18,0.9543786136448091
18,0.9543786136448091
18,0.9543786136448091
18,0.9543786136448091
18,0.9543786136448091
18,0.9543786136448091
18,0.9583332118469889
18,0.9583332118469889
18,0.9583332118469889
18,0.9583332118469889
18,0.9583332118469889
18,0.9583332118469889
18,0.9583332118469889
18,0.9583332118469889
19,0.9583332118469889
19,0.9583332118469889
19,0.9583332118469889
19,0.9583332118469889
19,0.9583332118469889
19,0.9583332118469889
19,0.9583332118469889
19,0.9583332118469889
19,0.9583332118469889
19,0.9583332118469889
19,0.9583332118469889
19,0.9583332118469889
19,0.9583332118469889
19,0.9583332118469889
19,0.9583332118469889
19,0.9583332118469889
19,0.9583332118469889
19,0.9583332118469889
19,0.9583332118469889
19,0.9583332118469889
19,0.9583332118469889
19,0.9583332118469889
19,0.9583332118469889
19,0.9583332118469889
19,0.9583332118469889
19,0.9583332118469889
19,0.9583332118469889
20,0.9583332118469889
20,0.9583332118469889
20,0.9583332118469889
20,0.9583332118469889
20,0.9583332118469889
20,0.9583332118469889
20,0.9583332118469889
20,0.9583332118469889
20,0.9583332118469889
20,0.9583332118469889
20,0.9583332118469889
20,0.9583332118469889
20,0.9583332118469889
20,0.9583332118469889
20,0.9583332118469889
20,0.9583332118469889
20,0.9583332118469889
20,0.9583332118469889
20,0.9583332118469889
20,0.9583332118469889
20,0.9583332118469889
20,0.9583332118469889
20,0.9583332118469889
20,0.9583332118469889
20,0.9583332118469889
20,0.9583332118469889
21,0.9583332118469889
21,0.9583332118469889
21,0.9583332118469889
21,0.9583332118469889
21,0.9583332118469889
21,0.9583332118469889
21,0.9583332118469889
21,0.9583332118469889
21,0.9583332118469889
21,0.9583332118469889
21,0.9583332118469889
21,0.9583332118469889
21,0.9583332118469889
21,0.9583332118469889
21,0.9617915858899526
21,0.9617915858899526
21,0.9617915858899526
21,0.9617915858899526
21,0.9617915858899526
21,0.9617915858899526
21,0.9617915858899526
21,0.9617915858899526
21,0.9617915858899526
21,0.9617915858899526
21,0.9617915858899526
21,0.9617915858899526
21,0.9617915858899526
22,0.9617915858899526
22,0.9617915858899526
22,0.9617915858899526
22,0.9617915858899526
22,0.9617915858899526
22,0.9617915858899526
22,0.9617915858899526
22,0.9617915858899526
22,0.9617915858899526
22,0.9617915858899526
22,0.9617915858899526
22,0.9617915858899526
22,0.9617915858899526
22,0.9617915858899526
22,0.9617915858899526
22,0.9617915858899526
22,0.9617915858899526
22,0.9617915858899526
22,0.9617915858899526
22,0.9617915858899526
22,0.9617915858899526
22,0.9617915858899526
22,0.9617915858899526
22,0.9617915858899526
22,0.9617915858899526
22,0.9617915858899526
22,0.9617915858899526
22,0.9617915858899526
22,0.9617915858899526
23,0.9617915858899526
23,0.9617915858899526
23,0.9617915858899526
23,0.9617915858899526
23,0.9617915858899526
23,0.9617915858899526
23,0.9617915858899526
23,0.9617915858899526
23,0.9617915858899526
23,0.9617915858899526
23,0.9617915858899526
23,0.9617915858899526
23,0.9617915858899526
23,0.9617915858899526
23,0.9617915858899526
23,0.9617915858899526
23,0.9617915858899526
23,0.9617915858899526
23,0.9617915858899526
23,0.9617915858899526
23,0.9617915858899526
23,0.9617915858899526
23,0.9617915858899526
23,0.9617915858899526
23,0.9617915858899526
23,0.9617915858899526
23,0.9617915858899526
23,0.9617915858899526
24,0.9617915858899526
24,0.9617915858899526
24,0.9617915858899526
24,0.9617915858899526
24,0.9617915858899526
24,0.9626050392851496
24,0.9626050392851496
24,0.9626050392851496
24,0.9626050392851496
24,0.9626050392851496
24,0.9626050392851496
24,0.9626050392851496
24,0.9626050392851496
24,0.9626050392851496
24,0.9626050392851496
24,0.9626050392851496
24,0.9626050392851496
24,0.9626050392851496
24,0.9626050392851496
24,0.9626050392851496
24,0.9626050392851496
24,0.9626050392851496
24,0.9626050392851496
24,0.9626050392851496
24,0.9626050392851496
24,0.9626050392851496
24,0.9626050392851496
24,0.9626050392851496
24,0.9626050392851496
25,0.9626050392851496
25,0.9626050392851496
25,0.9626050392851496
25,0.9626050392851496
25,0.9626050392851496
25,0.9626050392851496
25,0.9626050392851496
25,0.9626050392851496
25,0.9626050392851496
25,0.9626050392851496
25,0.9626050392851496
25,0.9626050392851496
25,0.9626050392851496
25,0.9626050392851496
25,0.9626050392851496
25,0.9626050392851496
25,0.9626050392851496
25,0.9626050392851496
25,0.9626050392851496
25,0.9626050392851496
25,0.9626050392851496
25,0.9626050392851496
25,0.9626050392851496
25,0.9626050392851496
25,0.9626050392851496
25,0.9626050392851496
25,0.9661641176828358
25,0.9661641176828358
26,0.9661641176828358
26,0.9661641176828358
26,0.9661641176828358
26,0.9661641176828358
26,0.9661641176828358
26,0.9661641176828358
26,0.9661641176828358
26,0.9661641176828358
26,0.9661641176828358
26,0.9661641176828358
26,0.9661641176828358
26,0.9661641176828358
26,0.9661641176828358
26,0.9661641176828358
26,0.9661641176828358
26,0.9661641176828358
26,0.9661641176828358
26,0.9661641176828358
26,0.9661641176828358
26,0.9661641176828358
26,0.9661641176828358
26,0.9661641176828358
26,0.9661641176828358
26,0.9705464048193985
26,0.9705464048193985
26,0.9705464048193985
26,0.9705464048193985
26,0.9705464048193985
26,0.9705464048193985
27,0.9705464048193985
27,0.9705464048193985
27,0.9705464048193985
27,0.9705464048193985
27,0.9705464048193985
27,0.9705464048193985
27,0.9705464048193985
27,0.9705464048193985
27,0.9705464048193985
27,0.9705464048193985
27,0.9705464048193985
27,0.9705464048193985
27,0.9705464048193985
27,0.9705464048193985
27,0.9705464048193985
27,0.9705464048193985
27,0.9705464048193985
27,0.9705464048193985
27,0.9705464048193985
27,0.9705464048193985
27,0.9705464048193985
27,0.9705464048193985
27,0.9705464048193985
27,0.9705464048193985
27,0.9705464048193985
27,0.9705464048193985
27,0.9705464048193985
28,0.9705464048193985
28,0.9705464048193985
28,0.9705464048193985
28,0.9705464048193985
28,0.9705464048193985
28,0.9705464048193985
28,0.9705464048193985
28,0.9705464048193985
28,0.9705464048193985
28,0.9705464048193985
28,0.9705464048193985
28,0.9705464048193985
28,0.9705464048193985
28,0.9705464048193985
28,0.9705464048193985
28,0.9705464048193985
28,0.9705464048193985
28,0.9705464048193985
28,0.9705464048193985
28,0.9705464048193985
28,0.9705464048193985
28,0.9705464048193985
28,0.9705464048193985
28,0.9705464048193985
28,0.9705464048193985
28,0.9705464048193985
28,0.9705464048193985
28,0.9705464048193985
29,0.9705464048193985
29,0.9705464048193985
29,0.9705464048193985
29,0.9705464048193985
29,0.9705464048193985
29,0.9705464048193985
29,0.9705464048193985
29,0.9705464048193985
29,0.9705464048193985
29,0.9705464048193985
29,0.9705464048193985
29,0.9705464048193985
29,0.9705464048193985
29,0.9705464048193985
29,0.9753415844226199
29,0.9753415844226199
29,0.9753415844226199
29,0.9753415844226199
29,0.9753415844226199
29,0.9753415844226199
29,0.9753415844226199
29,0.9753415844226199
29,0.9753415844226199
29,0.9753415844226199
29,0.9753415844226199
29,0.9753415844226199
29,0.9753415844226199
29,0.9753415844226199
29,0.9753415844226199
30,0.9753415844226199
30,0.9753415844226199
30,0.9753415844226199
30,0.9753415844226199
30,0.9753415844226199
30,0.9753415844226199
30,0.9753415844226199
30,0.9753415844226199
30,0.9753415844226199
30,0.9753415844226199
30,0.9770165068717814
30,0.9770165068717814
30,0.9770165068717814
30,0.9770165068717814
30,0.9770165068717814
30,0.9770165068717814
30,0.9770165068717814
30,0.9770165068717814
30,0.9770165068717814
30,0.9770165068717814
30,0.9770165068717814
30,0.9770165068717814
30,0.9770165068717814
30,0.9770165068717814
30,0.9770165068717814
30,0.9770165068717814
30,0.9770165068717814
30,0.9770165068717814
31,0.9770165068717814
31,0.9770165068717814
31,0.9770165068717814
31,0.9770165068717814
31,0.9770165068717814
31,0.9770165068717814
31,0.9770165068717814
31,0.9780463821765175
31,0.9780463821765175
31,0.9780463821765175
31,0.9780463821765175
31,0.9780463821765175
31,0.9780463821765175
31,0.9780463821765175
31,0.9780463821765175
31,0.9780463821765175
31,0.9780463821765175
31,0.9780463821765175
31,0.9780463821765175
31,0.9780463821765175
31,0.9780463821765175
31,0.9780463821765175
31,0.9780463821765175
31,0.9780463821765175
31,0.9780463821765175
31,0.9780463821765175
31,0.9780463821765175
31,0.9780463821765175
32,0.9780463821765175
32,0.9780463821765175
32,0.9780463821765175
32,0.9780463821765175
32,0.9781715756316186
32,0.9781715756316186
32,0.9781715756316186
32,0.9781715756316186
32,0.9781715756316186
32,0.9781715756316186
32,0.9781715756316186
32,0.9781715756316186
32,0.9781715756316186
32,0.9781715756316186
32,0.9781715756316186
32,0.9781715756316186
32,0.9781715756316186
32,0.9781715756316186
32,0.9781715756316186
32,0.9781715756316186
32,0.9781715756316186
32,0.9781715756316186
32,0.9781715756316186
32,0.9781715756316186
32,0.9781715756316186
32,0.9781715756316186
32,0.9781715756316186
32,0.9781715756316186
33,0.9781715756316186
33,0.9781715756316186
33,0.9781715756316186
33,0.9781715756316186
33,0.9781715756316186
33,0.9781715756316186
33,0.9781715756316186
33,0.9781715756316186
33,0.9781715756316186
33,0.9781715756316186
33,0.9781715756316186
33,0.9781715756316186
33,0.9781715756316186
33,0.9781715756316186
33,0.9781715756316186
33,0.9781715756316186
33,0.9781715756316186
33,0.9781715756316186
33,0.9781715756316186
33,0.9781715756316186
33,0.9781715756316186
33,0.9781715756316186
33,0.9781715756316186
33,0.9781715756316186
33,0.9781715756316186
33,0.9781715756316186
33,0.9781715756316186
33,0.9781715756316186
33,0.9781715756316186
34,0.9781715756316186
34,0.9781715756316186
34,0.9781715756316186
34,0.9781715756316186
34,0.9781715756316186
34,0.9781715756316186
34,0.9781715756316186
34,0.9781715756316186
34,0.9781715756316186
34,0.9781715756316186
34,0.9781715756316186
34,0.9781715756316186
34,0.9781715756316186
34,0.9781715756316186
34,0.9781715756316186
34,0.9781715756316186
34,0.9781715756316186
34,0.9781715756316186
34,0.9781715756316186
34,0.9781715756316186
34,0.9781715756316186
34,0.9781715756316186
34,0.9781715756316186
34,0.9781715756316186
34,0.9781715756316186
34,0.9781715756316186
34,0.9781715756316186
34,0.9781715756316186
35,0.9781715756316186
35,0.9781715756316186
35,0.9781715756316186
35,0.9781715756316186
35,0.9781715756316186
35,0.9781715756316186
35,0.9781715756316186
35,0.9781715756316186
35,0.9781715756316186
35,0.9781715756316186
35,0.9781715756316186
35,0.9781715756316186
35,0.9781715756316186
35,0.9781715756316186
35,0.9781715756316186
35,0.9781715756316186
35,0.9781715756316186
35,0.9781715756316186
35,0.9781715756316186
35,0.9788367726029916
35,0.9788367726029916
35,0.9788367726029916
35,0.9788367726029916
35,0.9788367726029916
35,0.9788367726029916
35,0.9788367726029916
36,0.9788367726029916
36,0.9788367726029916
36,0.9788367726029916
36,0.9788367726029916
36,0.9788367726029916
36,0.9788367726029916
36,0.9788367726029916
36,0.9788367726029916
36,0.9788367726029916
36,0.9788367726029916
36,0.9788367726029916
36,0.9788367726029916
36,0.9788367726029916
36,0.9788367726029916
36,0.9788367726029916
36,0.9788367726029916
36,0.9788367726029916
36,0.9788367726029916
36,0.9788367726029916
36,0.9788367726029916
36,0.9788367726029916
36,0.9788367726029916
36,0.9788367726029916
36,0.9788367726029916
36,0.9788367726029916
36,0.9788367726029916
37,0.9788367726029916
37,0.9788367726029916
37,0.9788367726029916
37,0.9788367726029916
37,0.9788367726029916
37,0.9788367726029916
37,0.9788367726029916
37,0.9788367726029916
37,0.9788367726029916
37,0.9788367726029916
37,0.9788367726029916
37,0.9788367726029916
37,0.9788367726029916
37,0.9788367726029916
37,0.9788367726029916
37,0.9788367726029916
37,0.9788367726029916
37,0.9788367726029916
37,0.9788367726029916
37,0.9788367726029916
37,0.9788367726029916
37,0.9788367726029916
37,0.9788367726029916
37,0.9788367726029916
37,0.9788367726029916
37,0.9788367726029916
38,0.9788367726029916
38,0.9788367726029916
38,0.9788367726029916
38,0.9788367726029916
38,0.9788367726029916
38,0.9788367726029916
38,0.9788367726029916
38,0.9788367726029916
38,0.9788367726029916
38,0.9788367726029916
38,0.9788367726029916
38,0.9788367726029916
38,0.9788367726029916
38,0.9788367726029916
38,0.9788367726029916
38,0.9788367726029916
38,0.9788367726029916
38,0.9788367726029916
38,0.9788367726029916
38,0.9788367726029916
38,0.9788367726029916
38,0.9788367726029916
38,0.9788367726029916
38,0.9788367726029916
38,0.9788367726029916
38,0.9788367726029916
38,0.9788367726029916
39,0.9788367726029916
39,0.9788367726029916
39,0.9788367726029916
39,0.9788367726029916
39,0.9788367726029916
39,0.9788367726029916
39,0.9788367726029916
39,0.9788367726029916
39,0.9788367726029916
39,0.9788367726029916
39,0.9788367726029916
39,0.9788367726029916
39,0.9788367726029916
39,0.9788367726029916
39,0.9788367726029916
39,0.9788367726029916
39,0.9788367726029916
39,0.9788367726029916
39,0.9788367726029916
39,0.9788367726029916
39,0.9788367726029916
39,0.9788367726029916
39,0.9788367726029916
39,0.9788367726029916
39,0.9788367726029916
39,0.9788367726029916
39,0.9788367726029916
40,0.9788367726029916
40,0.9788367726029916
40,0.9788367726029916
40,0.9788367726029916
40,0.9788367726029916
40,0.9788367726029916
40,0.9788367726029916
40,0.9788367726029916
40,0.9788367726029916
40,0.9788367726029916
40,0.9788367726029916
40,0.9788367726029916
40,0.9820877672907787
40,0.9820877672907787
40,0.9820877672907787
40,0.9820877672907787
40,0.9820877672907787
40,0.9820877672907787
40,0.9820877672907787
40,0.9820877672907787
40,0.9820877672907787
40,0.9820877672907787
40,0.9820877672907787
40,0.9820877672907787
40,0.9820877672907787
40,0.9820877672907787
40,0.9820877672907787
41,0.9820877672907787
41,0.9820877672907787
41,0.9820877672907787
41,0.9820877672907787
41,0.9820877672907787
41,0.9820877672907787
41,0.9820877672907787
41,0.9820877672907787
41,0.9820877672907787
41,0.9820877672907787
41,0.9820877672907787
41,0.9820877672907787
41,0.9820877672907787
41,0.9820877672907787
41,0.9820877672907787
41,0.9820877672907787
41,0.9820877672907787
41,0.9820877672907787
41,0.9820877672907787
41,0.9820877672907787
41,0.9820877672907787
41,0.9820877672907787
41,0.9820877672907787
41,0.9820877672907787
41,0.9820877672907787
41,0.9820877672907787
41,0.9820877672907787
42,0.9820877672907787
42,0.9820877672907787
42,0.9820877672907787
42,0.9820877672907787
42,0.9820877672907787
42,0.9820877672907787
42,0.9820877672907787
42,0.9820877672907787
42,0.9834701095286579
42,0.9834701095286579
42,0.9834701095286579
42,0.9834701095286579
42,0.9834701095286579
42,0.9834701095286579
42,0.9834701095286579
42,0.9834701095286579
42,0.9834701095286579
42,0.9834701095286579
42,0.9834701095286579
42,0.9834701095286579
42,0.9834701095286579
42,0.9834701095286579
42,0.9834701095286579
42,0.9834701095286579
42,0.9834701095286579
42,0.9834701095286579
42,0.9834701095286579
43,0.9834701095286579
43,0.9834701095286579
43,0.9834701095286579
43,0.9834701095286579
43,0.9834701095286579
43,0.9834701095286579
43,0.9834701095286579
43,0.9834701095286579
43,0.9834701095286579
43,0.9834701095286579
43,0.9834701095286579
43,0.9834701095286579
43,0.9834701095286579
43,0.9834701095286579
43,0.9834701095286579
43,0.9834701095286579
43,0.9834701095286579
43,0.9834701095286579
43,0.9834701095286579
43,0.9834701095286579
43,0.9834701095286579
43,0.9834701095286579
43,0.9834701095286579
43,0.9834701095286579
43,0.9834701095286579
43,0.9834701095286579
43,0.9834701095286579
44,0.9834701095286579
44,0.9834701095286579
44,0.9834701095286579
44,0.9834701095286579
44,0.9834701095286579
44,0.9834701095286579
44,0.9834701095286579
44,0.9834701095286579
44,0.9834701095286579
44,0.9834701095286579
44,0.9834701095286579
44,0.9834701095286579
44,0.9834701095286579
44,0.9834701095286579
44,0.9834701095286579
44,0.9834701095286579
44,0.9834701095286579
44,0.9834701095286579
44,0.9834701095286579
44,0.9834701095286579
44,0.9834701095286579
44,0.9834701095286579
44,0.9834701095286579
44,0.9834701095286579
44,0.9834701095286579
44,0.9834701095286579
44,0.9834701095286579
45,0.9834701095286579
45,0.9834701095286579
45,0.9834701095286579
45,0.9834701095286579
45,0.9834701095286579
45,0.9834701095286579
45,0.9834701095286579
45,0.9834701095286579
45,0.9834701095286579
45,0.9834701095286579
45,0.9834701095286579
45,0.9834701095286579
45,0.9834701095286579
45,0.9834701095286579
45,0.9834701095286579
45,0.9834701095286579
45,0.9834701095286579
45,0.9834701095286579
45,0.9834701095286579
45,0.9834701095286579
45,0.9834701095286579
45,0.9834701095286579
45,0.9834701095286579
45,0.9834701095286579
45,0.9834701095286579
45,0.9834701095286579
46,0.9834701095286579
46,0.9834701095286579
46,0.9834701095286579
46,0.9834701095286579
46,0.9834701095286579
46,0.9834701095286579
46,0.9834701095286579
46,0.9834701095286579
46,0.9834701095286579
46,0.9834701095286579
46,0.9834701095286579
46,0.9834701095286579
46,0.9834701095286579
46,0.9834701095286579
46,0.9834701095286579
46,0.9834701095286579
46,0.9834701095286579
46,0.9834701095286579
46,0.9834701095286579
46,0.9834701095286579
46,0.9834701095286579
46,0.9834701095286579
46,0.9834701095286579
46,0.9834701095286579
46,0.9834701095286579
46,0.9834701095286579
46,0.9834701095286579
47,0.9834701095286579
47,0.9834701095286579
47,0.9834701095286579
47,0.9834701095286579
47,0.9834701095286579
47,0.9834701095286579
47,0.9834701095286579
47,0.9834701095286579
47,0.9834701095286579
47,0.9834701095286579
47,0.9834701095286579
47,0.9834701095286579
47,0.9834701095286579
47,0.9834701095286579
47,0.9834701095286579
47,0.9834701095286579
47,0.9834701095286579
47,0.9834701095286579
47,0.9834701095286579
47,0.9834701095286579
47,0.9834701095286579
47,0.9834701095286579
47,0.9834701095286579
47,0.9834701095286579
47,0.9834701095286579
47,0.9834701095286579
47,0.9834701095286579
47,0.9834701095286579
48,0.9834701095286579
48,0.9834701095286579
48,0.9834701095286579
48,0.9834701095286579
48,0.9834701095286579
48,0.9834701095286579
48,0.9834701095286579
48,0.9834701095286579
48,0.9834701095286579
48,0.9834701095286579
48,0.9834701095286579
48,0.9834701095286579
48,0.9834701095286579
48,0.9834701095286579
48,0.9834701095286579
48,0.9834701095286579
48,0.9834701095286579
48,0.9834701095286579
48,0.9834701095286579
48,0.9834701095286579
48,0.9834701095286579
48,0.9834701095286579
48,0.9834701095286579
48,0.9834701095286579
48,0.9834701095286579
48,0.9834701095286579
49,0.9834701095286579
49,0.9834701095286579
49,0.9834701095286579
49,0.9834701095286579
49,0.9834701095286579
49,0.9834701095286579
49,0.9834701095286579
49,0.9834701095286579
49,0.9834701095286579
49,0.9834701095286579
49,0.9834701095286579
49,0.9834701095286579
49,0.9834701095286579
49,0.9834701095286579
49,0.9834701095286579
49,0.9834701095286579
49,0.9834701095286579
49,0.9834701095286579
49,0.9834701095286579
49,0.9834701095286579
49,0.9834701095286579
49,0.9834701095286579
49,0.9834701095286579
49,0.9834701095286579
49,0.9834701095286579
49,0.9834701095286579
49,0.9834701095286579
50,0.9834701095286579
50,0.9834701095286579
50,0.9834701095286579
50,0.9834701095286579
50,0.9834701095286579
50,0.9834701095286579
50,0.9834701095286579
50,0.9834701095286579
50,0.9834701095286579
50,0.9834701095286579
50,0.9834701095286579
50,0.9834701095286579
50,0.9834701095286579
50,0.9834701095286579
50,0.9834701095286579
50,0.9834701095286579
50,0.9834701095286579
50,0.9834701095286579
50,0.9834701095286579
50,0.9834701095286579
50,0.9834701095286579
50,0.9834701095286579
50,0.9834701095286579
50,0.9834701095286579
50,0.9834701095286579
50,0.9834701095286579
51,0.9834701095286579
51,0.9834701095286579
51,0.9834701095286579
51,0.9834701095286579
51,0.9834701095286579
51,0.9834701095286579
51,0.9834701095286579
51,0.9834701095286579
51,0.9834701095286579
51,0.9834701095286579
51,0.9834701095286579
51,0.9834701095286579
51,0.9834701095286579
51,0.9834701095286579
51,0.9834701095286579
51,0.9834701095286579
51,0.9834701095286579
51,0.9834701095286579
51,0.9834701095286579
51,0.9834701095286579
51,0.9834701095286579
51,0.9834701095286579
51,0.9834701095286579
51,0.9834701095286579
51,0.9834701095286579
51,0.9834701095286579
52,0.9834701095286579
52,0.9834701095286579
52,0.9834701095286579
52,0.9834701095286579
52,0.9834701095286579
52,0.9834701095286579
52,0.9834701095286579
52,0.9834701095286579
52,0.9834701095286579
52,0.9834701095286579
52,0.9834701095286579
52,0.9834701095286579
52,0.9834701095286579
52,0.9834701095286579
52,0.9834701095286579
52,0.9834701095286579
52,0.9859160238417725
52,0.9859160238417725
52,0.9859160238417725
52,0.9859160238417725
52,0.9859160238417725
52,0.9859160238417725
52,0.9859160238417725
52,0.9859160238417725
52,0.9859160238417725
52,0.9859160238417725
53,0.9859160238417725
53,0.9859160238417725
53,0.9859160238417725
53,0.9859160238417725
53,0.9859160238417725
53,0.9859160238417725
53,0.9859160238417725
53,0.9859160238417725
53,0.9859160238417725
53,0.9859160238417725
53,0.9859160238417725
53,0.9859160238417725
53,0.9859160238417725
53,0.9859160238417725
53,0.9859160238417725
53,0.9865996120308629
53,0.9865996120308629
53,0.9865996120308629
53,0.9865996120308629
53,0.9865996120308629
53,0.9865996120308629
53,0.9865996120308629
53,0.9865996120308629
53,0.9865996120308629
53,0.9865996120308629
53,0.9865996120308629
53,0.9865996120308629
53,0.9865996120308629
54,0.9865996120308629
54,0.9865996120308629
54,0.9865996120308629
54,0.9865996120308629
54,0.9865996120308629
54,0.9865996120308629
54,0.9865996120308629
54,0.9865996120308629
54,0.9865996120308629
54,0.9865996120308629
54,0.9865996120308629
54,0.9865996120308629
54,0.9866244417391109
54,0.9866244417391109
54,0.9866244417391109
54,0.9866244417391109
54,0.9866244417391109
54,0.9866244417391109
54,0.9866244417391109
54,0.9866244417391109
54,0.9866244417391109
54,0.9866244417391109
54,0.9866244417391109
54,0.9866244417391109
54,0.9866244417391109
54,0.9866244417391109
54,0.9866244417391109
55,0.9866244417391109
55,0.9866244417391109
55,0.9866244417391109
55,0.9866244417391109
55,0.9866244417391109
55,0.9866244417391109
55,0.9866244417391109
55,0.9866244417391109
55,0.9866244417391109
55,0.9866244417391109
55,0.9866244417391109
55,0.9866244417391109
55,0.9866244417391109
55,0.9866244417391109
55,0.9866244417391109
55,0.9866244417391109
55,0.9866244417391109
55,0.9866244417391109
55,0.9866244417391109
55,0.9866244417391109
55,0.9866244417391109
55,0.9866244417391109
55,0.9866244417391109
55,0.9866244417391109
55,0.9866244417391109
55,0.9866244417391109
56,0.9866244417391109
56,0.9866244417391109
56,0.9866244417391109
56,0.9866244417391109
56,0.9866244417391109
56,0.9866244417391109
56,0.9866244417391109
56,0.9866244417391109
56,0.9866244417391109
56,0.9866244417391109
56,0.9866244417391109
56,0.9866244417391109
56,0.9866244417391109
56,0.9866244417391109
56,0.9866244417391109
56,0.9866244417391109
56,0.9866244417391109
56,0.9866244417391109
56,0.9866244417391109
56,0.9866244417391109
56,0.9866244417391109
56,0.9866244417391109
56,0.9866244417391109
56,0.9866244417391109
57,0.9866244417391109
57,0.9866244417391109
57,0.9866244417391109
57,0.9866244417391109
57,0.9866244417391109
57,0.9866244417391109
57,0.9866244417391109
57,0.9866244417391109
57,0.9866244417391109
57,0.9866244417391109
57,0.986657967430443
57,0.986657967430443
57,0.986657967430443
57,0.986657967430443
57,0.986657967430443
57,0.986657967430443
57,0.986657967430443
57,0.986657967430443
57,0.986657967430443
57,0.986657967430443
57,0.986657967430443
57,0.986657967430443
57,0.986657967430443
57,0.986657967430443
57,0.986657967430443
57,0.986657967430443
57,0.986657967430443
58,0.986657967430443
58,0.986657967430443
58,0.986657967430443
58,0.986657967430443
58,0.986657967430443
58,0.986657967430443
58,0.986657967430443
58,0.986657967430443
58,0.986657967430443
58,0.986657967430443
58,0.986657967430443
58,0.986657967430443
58,0.986657967430443
58,0.986657967430443
58,0.986657967430443
58,0.986657967430443
58,0.986657967430443
58,0.986657967430443
58,0.986657967430443
58,0.986657967430443
58,0.986657967430443
58,0.986657967430443
58,0.986657967430443
58,0.986657967430443
58,0.986657967430443
58,0.986657967430443
58,0.986657967430443
58,0.986657967430443
59,0.986657967430443
59,0.986657967430443
59,0.986657967430443
59,0.986657967430443
59,0.986657967430443
59,0.9867807773332158
59,0.9867807773332158
59,0.9867807773332158
59,0.9867807773332158
59,0.9867807773332158
59,0.9867807773332158
59,0.9867807773332158
59,0.9867807773332158
59,0.9867807773332158
59,0.9867807773332158
59,0.9867807773332158
59,0.9867807773332158
59,0.9867807773332158
59,0.9867807773332158
59,0.9867807773332158
59,0.9867807773332158
59,0.9867807773332158
59,0.9867807773332158
59,0.9867807773332158
59,0.9867807773332158
59,0.9867807773332158
60,0.9867807773332158
60,0.9867807773332158
60,0.9867807773332158
60,0.9867807773332158
60,0.9869164261593787
60,0.9869164261593787
60,0.9869164261593787
60,0.9869164261593787
60,0.9869164261593787
60,0.9869164261593787
60,0.9869164261593787
60,0.9869164261593787
60,0.9869164261593787
60,0.9869164261593787
60,0.9869164261593787
60,0.9869164261593787
60,0.9869164261593787
60,0.9869164261593787
60,0.9869164261593787
60,0.9869164261593787
60,0.9869164261593787
60,0.9869164261593787
60,0.9869164261593787
60,0.9869164261593787
60,0.9869164261593787
60,0.9869164261593787
60,0.9869164261593787
61,0.9869164261593787
61,0.9869164261593787
61,0.9869164261593787
61,0.9869164261593787
61,0.9869164261593787
61,0.9869164261593787
61,0.9869164261593787
61,0.9869164261593787
61,0.9869164261593787
61,0.9869164261593787
61,0.9869164261593787
61,0.9869164261593787
61,0.9869164261593787
61,0.9869164261593787
61,0.9869164261593787
61,0.9869164261593787
61,0.9869164261593787
61,0.9869164261593787
61,0.9869164261593787
61,0.9869164261593787
61,0.9869164261593787
61,0.9869164261593787
61,0.9869164261593787
61,0.9869164261593787
61,0.9869164261593787
61,0.9869164261593787
61,0.9869164261593787
62,0.9869164261593787
62,0.9869164261593787
62,0.9869164261593787
62,0.9869164261593787
62,0.9869164261593787
62,0.9869164261593787
62,0.9869164261593787
62,0.9869164261593787
62,0.9869164261593787
62,0.9869164261593787
62,0.9869164261593787
62,0.9869164261593787
62,0.9869164261593787
62,0.9869164261593787
62,0.9869164261593787
62,0.9869164261593787
62,0.9869164261593787
62,0.9869164261593787
62,0.9869164261593787
62,0.9869164261593787
62,0.9869164261593787
62,0.9869164261593787
62,0.9869164261593787
62,0.9869164261593787
62,0.9869164261593787
62,0.9869164261593787
62,0.9869164261593787
62,0.9869164261593787
63,0.9869164261593787
63,0.9869164261593787
63,0.9869164261593787
63,0.9869164261593787
63,0.9869164261593787
63,0.9869164261593787
63,0.9869164261593787
63,0.9869164261593787
63,0.9869164261593787
63,0.9869164261593787
63,0.9869164261593787
63,0.9869164261593787
63,0.9869164261593787
63,0.9869164261593787
63,0.9869164261593787
63,0.9869164261593787
63,0.9869164261593787
63,0.9869164261593787
63,0.9869164261593787
63,0.9869164261593787
63,0.9869164261593787
63,0.9869164261593787
63,0.9869164261593787
63,0.9869164261593787
63,0.9869164261593787
63,0.9869164261593787
63,0.9869164261593787
64,0.9869164261593787
64,0.9869164261593787
64,0.9869164261593787
64,0.9869164261593787
64,0.9869164261593787
64,0.9869164261593787
64,0.9869164261593787
64,0.9869164261593787
64,0.9869164261593787
64,0.9869164261593787
64,0.9869164261593787
64,0.9869164261593787
64,0.9869164261593787
64,0.9869164261593787
64,0.9869164261593787
64,0.9869164261593787
64,0.9869164261593787
64,0.9869164261593787
64,0.9869164261593787
64,0.9869164261593787
64,0.9873388364424467
64,0.9873388364424467
64,0.9873388364424467
64,0.9873388364424467
64,0.9873388364424467
64,0.9873388364424467
65,0.9873388364424467
65,0.9873388364424467
65,0.9873388364424467
65,0.9873388364424467
65,0.9873388364424467
65,0.9873388364424467
65,0.9873388364424467
65,0.9873388364424467
65,0.9873388364424467
65,0.9873388364424467
65,0.9873388364424467
65,0.9873388364424467
65,0.9873388364424467
65,0.9873388364424467
65,0.9873388364424467
65,0.9873388364424467
65,0.9873388364424467
65,0.9873388364424467
65,0.9873388364424467
65,0.987469385837411
65,0.987469385837411
65,0.987469385837411
65,0.987469385837411
65,0.987469385837411
65,0.987469385837411
65,0.987469385837411
65,0.987469385837411
66,0.987469385837411
66,0.987469385837411
66,0.987469385837411
66,0.987469385837411
66,0.987469385837411
66,0.987469385837411
66,0.987469385837411
66,0.987469385837411
66,0.987469385837411
66,0.987469385837411
66,0.987469385837411
66,0.987469385837411
66,0.987469385837411
66,0.987469385837411
66,0.987469385837411
66,0.987469385837411
66,0.987469385837411
66,0.987469385837411
66,0.987469385837411
66,0.987469385837411
66,0.987469385837411
66,0.987469385837411
66,0.987469385837411
66,0.987469385837411
66,0.987469385837411
66,0.987469385837411
67,0.987469385837411
67,0.987469385837411
67,0.987469385837411
67,0.987469385837411
67,0.987469385837411
67,0.987469385837411
67,0.987469385837411
67,0.987469385837411
67,0.987469385837411
67,0.987469385837411
67,0.987469385837411
67,0.987469385837411
67,0.987469385837411
67,0.987469385837411
67,0.987469385837411
67,0.987469385837411
67,0.987469385837411
67,0.987469385837411
67,0.987469385837411
67,0.987469385837411
67,0.987469385837411
67,0.987469385837411
67,0.987469385837411
67,0.987469385837411
67,0.987469385837411
68,0.987469385837411
68,0.987469385837411
68,0.987469385837411
68,0.987469385837411
68,0.987469385837411
68,0.987469385837411
68,0.987469385837411
68,0.987469385837411
68,0.987469385837411
68,0.987469385837411
68,0.987469385837411
68,0.987469385837411
68,0.987469385837411
68,0.987469385837411
68,0.987469385837411
68,0.987469385837411
68,0.987469385837411
68,0.987469385837411
68,0.987469385837411
68,0.987469385837411
68,0.987469385837411
68,0.987469385837411
68,0.987469385837411
68,0.987469385837411
68,0.987469385837411
68,0.987469385837411
68,0.987469385837411
68,0.987469385837411
69,0.987469385837411
69,0.987469385837411
69,0.987469385837411
69,0.987469385837411
69,0.987469385837411
69,0.987469385837411
69,0.987469385837411
69,0.987469385837411
69,0.987469385837411
69,0.987469385837411
69,0.987469385837411
69,0.987469385837411
69,0.987469385837411
69,0.987469385837411
69,0.987469385837411
69,0.987469385837411
69,0.987469385837411
69,0.987469385837411
69,0.987469385837411
69,0.987469385837411
69,0.987469385837411
69,0.987469385837411
69,0.987469385837411
69,0.987469385837411
69,0.987469385837411
69,0.987469385837411
69,0.987469385837411
69,0.987469385837411
70,0.987469385837411
70,0.987469385837411
70,0.987469385837411
70,0.987469385837411
70,0.987469385837411
70,0.987469385837411
70,0.987469385837411
70,0.987469385837411
70,0.987469385837411
70,0.987469385837411
70,0.987469385837411
70,0.987469385837411
70,0.987469385837411
70,0.987469385837411
70,0.987469385837411
70,0.987469385837411
70,0.987469385837411
70,0.987469385837411
70,0.987469385837411
70,0.987469385837411
70,0.987469385837411
70,0.987469385837411
70,0.987469385837411
70,0.987469385837411
70,0.987469385837411
70,0.987469385837411
70,0.987469385837411
70,0.987469385837411
71,0.987469385837411
71,0.987469385837411
71,0.987469385837411
71,0.987469385837411
71,0.987469385837411
71,0.987469385837411
71,0.987469385837411
71,0.987469385837411
71,0.987469385837411
71,0.987469385837411
71,0.987469385837411
71,0.987469385837411
71,0.987469385837411
71,0.987469385837411
71,0.987469385837411
71,0.987469385837411
71,0.987469385837411
71,0.987469385837411
71,0.987469385837411
71,0.987469385837411
71,0.987469385837411
71,0.987469385837411
71,0.987469385837411
71,0.987469385837411
71,0.987469385837411
71,0.987469385837411
71,0.987469385837411
71,0.987469385837411
72,0.987469385837411
72,0.987469385837411
72,0.987469385837411
72,0.987469385837411
72,0.987469385837411
72,0.987469385837411
72,0.987469385837411
72,0.987469385837411
72,0.987469385837411
72,0.987469385837411
72,0.987469385837411
72,0.987469385837411
72,0.987469385837411
72,0.987469385837411
72,0.987469385837411
72,0.987469385837411
72,0.987469385837411
72,0.987469385837411
72,0.987469385837411
72,0.987469385837411
72,0.987469385837411
72,0.987469385837411
72,0.987469385837411
72,0.987469385837411
72,0.987469385837411
72,0.987469385837411
72,0.987469385837411
72,0.987469385837411
73,0.987469385837411
73,0.9889375222432878
73,0.9889375222432878
73,0.9889375222432878
73,0.9889375222432878
73,0.9889375222432878
73,0.9889375222432878
73,0.9889375222432878
73,0.9889375222432878
73,0.9889375222432878
73,0.9889375222432878
73,0.9889375222432878
73,0.9889375222432878
73,0.9889375222432878
73,0.9889375222432878
73,0.9889375222432878
73,0.9889375222432878
73,0.9889375222432878
73,0.9889375222432878
73,0.9889375222432878
73,0.9889375222432878
73,0.9889375222432878
73,0.9889375222432878
73,0.9889375222432878
73,0.9889375222432878
73,0.9889375222432878
73,0.9889375222432878
73,0.9889375222432878
74,0.9889375222432878
74,0.9889375222432878
74,0.9889375222432878
74,0.9889375222432878
74,0.9889375222432878
74,0.9889375222432878
74,0.9889375222432878
74,0.9889375222432878
74,0.9889375222432878
74,0.9889375222432878
74,0.9889375222432878
74,0.9889375222432878
74,0.9889375222432878
74,0.9889375222432878
74,0.9889375222432878
74,0.9889375222432878
74,0.9889375222432878
74,0.9889375222432878
74,0.9889375222432878
74,0.9889375222432878
74,0.9889375222432878
74,0.9889375222432878
74,0.9889375222432878
74,0.9889375222432878
74,0.9889375222432878
74,0.9889375222432878
74,0.9889375222432878
75,0.9889375222432878
75,0.9889375222432878
75,0.9889375222432878
75,0.9889375222432878
75,0.9889375222432878
75,0.9889375222432878
75,0.9889375222432878
75,0.9889375222432878
75,0.9889375222432878
75,0.9889375222432878
75,0.9889375222432878
75,0.9889375222432878
75,0.9889375222432878
75,0.9889375222432878
75,0.9889375222432878
75,0.9889375222432878
75,0.9889375222432878
75,0.9889375222432878
75,0.9889375222432878
75,0.9889375222432878
75,0.9889375222432878
75,0.9896399445658203
75,0.9896399445658203
75,0.9896399445658203
75,0.9896399445658203
75,0.9896399445658203
75,0.9896399445658203
75,0.9896399445658203
76,0.9896399445658203
76,0.9896399445658203
76,0.9896399445658203
76,0.9896399445658203
76,0.9896399445658203
76,0.9896399445658203
76,0.9896399445658203
76,0.9896399445658203
76,0.9896399445658203
76,0.9896399445658203
76,0.9896399445658203
76,0.9896399445658203
76,0.9896399445658203
76,0.9896399445658203
76,0.9896399445658203
76,0.9896399445658203
76,0.9896399445658203
76,0.9896399445658203
76,0.9896419293041111
76,0.9896419293041111
76,0.9896419293041111
76,0.9896419293041111
76,0.9896419293041111
76,0.9896419293041111
76,0.9896419293041111
76,0.9896419293041111
76,0.9896419293041111
76,0.9896419293041111
77,0.9896419293041111
77,0.9896419293041111
77,0.9896419293041111
77,0.9896419293041111
77,0.9896419293041111
77,0.9896419293041111
77,0.9896419293041111
77,0.9896419293041111
77,0.9896419293041111
77,0.9896419293041111
77,0.9896419293041111
77,0.9896419293041111
77,0.9896419293041111
77,0.9896419293041111
77,0.9896419293041111
77,0.9896419293041111
77,0.9896419293041111
77,0.9896419293041111
77,0.9896419293041111
77,0.9896419293041111
77,0.9896419293041111
77,0.9896419293041111
77,0.9896419293041111
77,0.9896419293041111
77,0.9896419293041111
77,0.9896419293041111
77,0.9896419293041111
78,0.9896419293041111
78,0.9896419293041111
78,0.9896419293041111
78,0.9896419293041111
78,0.9896419293041111
78,0.9896419293041111
78,0.9896419293041111
78,0.9896419293041111
78,0.9896419293041111
78,0.9896419293041111
78,0.9896419293041111
78,0.9896419293041111
78,0.9896419293041111
78,0.9896419293041111
78,0.9896419293041111
78,0.9896419293041111
78,0.9896419293041111
78,0.9896419293041111
78,0.9896419293041111
78,0.9896419293041111
78,0.9896419293041111
78,0.9896419293041111
78,0.9896419293041111
78,0.9896419293041111
78,0.9896419293041111
78,0.9896419293041111
78,0.9896419293041111
78,0.9896419293041111
79,0.9896419293041111
79,0.9896419293041111
79,0.9896419293041111
79,0.9896419293041111
79,0.9896419293041111
79,0.9896419293041111
79,0.9896419293041111
79,0.9896419293041111
79,0.9896419293041111
79,0.9896419293041111
79,0.9896419293041111
79,0.9896419293041111
79,0.9896419293041111
79,0.9896419293041111
79,0.9896419293041111
79,0.9896419293041111
79,0.9896419293041111
79,0.9896419293041111
79,0.9896419293041111
79,0.9896419293041111
79,0.9896419293041111
79,0.9896419293041111
79,0.9896419293041111
79,0.9896419293041111
79,0.9896419293041111
79,0.9896419293041111
79,0.9896419293041111
79,0.9896419293041111
80,0.9896419293041111
80,0.9896419293041111
80,0.9896419293041111
80,0.9896419293041111
80,0.9896419293041111
80,0.9896419293041111
80,0.9896419293041111
80,0.989670032001412
80,0.989670032001412
80,0.989670032001412
80,0.989670032001412
80,0.989670032001412
80,0.989670032001412
80,0.989670032001412
80,0.989670032001412
80,0.989670032001412
80,0.989670032001412
80,0.989670032001412
80,0.989670032001412
80,0.989670032001412
80,0.989670032001412
80,0.989670032001412
80,0.989670032001412
80,0.989670032001412
80,0.989670032001412
80,0.989670032001412
80,0.989670032001412
80,0.989670032001412
81,0.989670032001412
81,0.989670032001412
81,0.989670032001412
81,0.989670032001412
81,0.9896700347676343
81,0.9896700347676343
81,0.9896700347676343
81,0.9896700347676343
81,0.9896700347676343
81,0.9896700347676343
81,0.9896700347676343
81,0.9896700347676343
81,0.9896700347676343
81,0.9896700347676343
81,0.9896700347676343
81,0.9896700347676343
81,0.9896700347676343
81,0.9896700347676343
81,0.9896700347676343
81,0.9896700347676343
81,0.9896700347676343
81,0.9896700347676343
81,0.9896700347676343
81,0.9896700347676343
81,0.9896700347676343
81,0.9896700347676343
81,0.9896700347676343
81,0.9896700347676343
82,0.9896700347676343
82,0.9896700347676343
82,0.9896700347676343
82,0.9896700347676343
82,0.9896700347676343
82,0.9896700347676343
82,0.9896700347676343
82,0.9896700347676343
82,0.9896700347676343
82,0.9896700347676343
82,0.9896700347676343
82,0.9896700347676343
82,0.9896700347676343
82,0.9896700347676343
82,0.9896700347676343
82,0.9896700347676343
82,0.9896700347676343
82,0.9896700347676343
82,0.9896700347676343
82,0.9896700347676343
82,0.9896700347676343
82,0.9896700347676343
82,0.9896700347676343
82,0.9896700347676343
82,0.9896700347676343
82,0.9896700347676343
82,0.9896700347676343
82,0.9896700347676343
83,0.9896700347676343
83,0.9896700347676343
83,0.9896700347676343
83,0.9896700347676343
83,0.9896700347676343
83,0.9896700347676343
83,0.9896700347676343
83,0.9896700347676343
83,0.9896700347676343
83,0.9896700347676343
83,0.9896700347676343
83,0.9896700347676343
83,0.9896700347676343
83,0.9896700347676343
83,0.9896700347676343
83,0.9896700347676343
83,0.9896700347676343
83,0.9896700347676343
83,0.9896700347676343
83,0.9896700347676343
83,0.9896700347676343
83,0.9896700347676343
83,0.9896700347676343
83,0.9896700347676343
83,0.9896700347676343
83,0.9896700347676343
83,0.9896700347676343
83,0.9896700347676343
84,0.9896700347676343
84,0.9896700347676343
84,0.9896700347676343
84,0.9896700347676343
84,0.9896700347676343
84,0.9896700347676343
84,0.9896700347676343
84,0.9896700347676343
84,0.9896700347676343
84,0.9896700347676343
84,0.9896700347676343
84,0.9896700347676343
84,0.9896700347676343
84,0.9896700347676343
84,0.9896700347676343
84,0.9896700347676343
84,0.9896700347676343
84,0.9896700347676343
84,0.9896700347676343
84,0.9896700347676343
84,0.9896700347676343
84,0.9896700347676343
84,0.9896700347676343
84,0.9896700347676343
84,0.9896700347676343
84,0.9896700347676343
84,0.9896700347676343
84,0.9896700347676343
85,0.9896700347676343
85,0.9896700347676343
85,0.9896700347676343
85,0.9896700347676343
85,0.9896700347676343
85,0.9896700347676343
85,0.9896700347676343
85,0.9896700347676343
85,0.9896700347676343
85,0.9896700347676343
85,0.9896700347676343
85,0.9896700347676343
85,0.9896700347676343
85,0.9896700347676343
85,0.9896700347676343
85,0.9896700347676343
85,0.9896700347676343
85,0.9899309511822804
85,0.9899309511822804
85,0.9899309511822804
85,0.9899309511822804
85,0.9899309511822804
85,0.9899309511822804
85,0.9899309511822804
85,0.9899309511822804
85,0.9899309511822804
85,0.9899309511822804
85,0.9899309511822804
86,0.9899309511822804
86,0.9899309511822804
86,0.9899309511822804
86,0.9899309511822804
86,0.9899309511822804
86,0.9899309511822804
86,0.9899309511822804
86,0.9899309511822804
86,0.9899309511822804
86,0.9899309511822804
86,0.9899309511822804
86,0.9899309511822804
86,0.9899309511822804
86,0.9899309511822804
86,0.9899309511822804
86,0.9899309511822804
86,0.9899309511822804
86,0.9899309511822804
86,0.9899309511822804
86,0.9899309511822804
86,0.9899309511822804
86,0.9899309511822804
86,0.9899309511822804
86,0.9899309511822804
86,0.9899309511822804
86,0.9899309511822804
86,0.9899309511822804
86,0.9899309511822804
87,0.9899309511822804
87,0.9899309511822804
87,0.9899309511822804
87,0.9899309511822804
87,0.9899309511822804
87,0.9899309511822804
87,0.9899309511822804
87,0.9899309511822804
87,0.9899309511822804
87,0.9899309511822804
87,0.9899309511822804
87,0.9899372480063304
87,0.9899372480063304
87,0.9899372480063304
87,0.9899372480063304
87,0.9899372480063304
87,0.9899372480063304
87,0.9899372480063304
87,0.9899372480063304
87,0.9899372480063304
87,0.9899372480063304
87,0.9899372480063304
87,0.9899372480063304
87,0.9899372480063304
87,0.9899372480063304
87,0.9899372480063304
87,0.9899372480063304
88,0.9899372480063304
88,0.9899372480063304
88,0.9899372480063304
88,0.9899372480063304
88,0.9899372480063304
88,0.9899372480063304
88,0.9899372480063304
88,0.9899372480063304
88,0.9899372480063304
88,0.9899372480063304
88,0.9899372480063304
88,0.9899372480063304
88,0.9899372480063304
88,0.9899372480063304
88,0.9899372480063304
88,0.9899372480063304
88,0.9899372480063304
88,0.9899372480063304
88,0.9899372480063304
88,0.9899372480063304
88,0.9899372480063304
88,0.9899372480063304
88,0.9899372480063304
88,0.9899372480063304
88,0.9899372480063304
88,0.9899372480063304
88,0.9899372480063304
88,0.9899372480063304
89,0.9899372480063304
89,0.9899372480063304
89,0.9899372480063304
89,0.9899372480063304
89,0.9899372480063304
89,0.9899372480063304
89,0.9899372480063304
89,0.9899372480063304
89,0.9899372480063304
89,0.9899372480063304
89,0.9899372480063304
89,0.9899372480063304
89,0.9899372480063304
89,0.9899372480063304
89,0.9899372480063304
89,0.9899372480063304
89,0.9899372480063304
89,0.9899372480063304
89,0.9899372480063304
89,0.9899372480063304
89,0.9899372480063304
89,0.9899372480063304
89,0.9899372480063304
89,0.9899372480063304
89,0.9899372480063304
89,0.9899372480063304
89,0.9899372480063304
89,0.9899372480063304
90,0.9899372480063304
90,0.9899372480063304
90,0.9899372480063304
90,0.9899372480063304
90,0.9899372480063304
90,0.9899372480063304
90,0.9899372480063304
90,0.9899372480063304
90,0.9899372480063304
90,0.9899372480063304
90,0.9899372480063304
90,0.9899372480063304
90,0.9899372480063304
90,0.9899372480063304
90,0.9899372480063304
90,0.9899372480063304
90,0.9899372480063304
90,0.9899372480063304
90,0.9899372480063304
90,0.9899372480063304
90,0.9899372480063304
90,0.9899372480063304
90,0.9899372480063304
90,0.9899372480063304
90,0.9899372480063304
90,0.9899372480063304
90,0.9899372480063304
90,0.9899372480063304
91,0.9899580204454769
91,0.9899580204454769
91,0.9899580204454769
91,0.9899580204454769
91,0.9899580204454769
91,0.9899580204454769
91,0.9899580204454769
91,0.9899580204454769
91,0.9899580204454769
91,0.9899580204454769
91,0.9899580204454769
91,0.9899580204454769
91,0.9899580204454769
91,0.9899580204454769
91,0.9899580204454769
91,0.9899580204454769
91,0.9899580204454769
91,0.9899580204454769
91,0.9899580204454769
91,0.9899580204454769
91,0.9899580204454769
91,0.9899580204454769
91,0.9899580204454769
91,0.9899580204454769
91,0.9899580204454769
91,0.9907460256002136
91,0.9907460256002136
91,0.9907460256002136
92,0.9907460256002136
92,0.9907460256002136
92,0.9907460256002136
92,0.9907460256002136
92,0.9907460256002136
92,0.9907460256002136
92,0.9907460256002136
92,0.9907460256002136
92,0.9907460256002136
92,0.9907460256002136
92,0.9907460256002136
92,0.9907460256002136
92,0.9907460256002136
92,0.9907460256002136
92,0.9907460256002136
92,0.9907460256002136
92,0.9907460256002136
92,0.9907460256002136
92,0.9907460256002136
92,0.9907460256002136
92,0.9907460256002136
92,0.9907460256002136
92,0.9907460256002136
92,0.9907460256002136
92,0.9907460256002136
92,0.9907460256002136
92,0.9907460256002136
92,0.9907460256002136
93,0.9907460256002136
93,0.9907460256002136
93,0.9907460256002136
93,0.9907460256002136
93,0.9907460256002136
93,0.9907460256002136
93,0.9907460256002136
93,0.9907460256002136
93,0.9907460256002136
93,0.9907460256002136
93,0.9907460256002136
93,0.9907460256002136
93,0.9907460256002136
93,0.9907460256002136
93,0.9907460256002136
93,0.9907460256002136
93,0.9907460256002136
93,0.9907460256002136
93,0.9907460256002136
93,0.9907460256002136
93,0.9907460256002136
93,0.9907460256002136
93,0.9907460256002136
93,0.9907460256002136
93,0.9907460256002136
93,0.9907460256002136
93,0.9907460256002136
93,0.9907460256002136
94,0.9907460256002136
94,0.9907460256002136
94,0.9907460256002136
94,0.9907460256002136
94,0.9907460256002136
94,0.9907460256002136
94,0.9907460256002136
94,0.9907460256002136
94,0.9907460256002136
94,0.9907460256002136
94,0.9907460256002136
94,0.9907460256002136
94,0.9907460256002136
94,0.9907460256002136
94,0.9907460256002136
94,0.9907460256002136
94,0.9907460256002136
94,0.9907460256002136
94,0.9907460256002136
94,0.9907460256002136
94,0.9907460256002136
94,0.9907460256002136
94,0.9907460256002136
94,0.9907460256002136
94,0.9907460256002136
94,0.9907460256002136
94,0.9907460256002136
94,0.9907460256002136
95,0.9907460256002136
95,0.9907460256002136
95,0.9907460256002136
95,0.9907460256002136
95,0.9907460256002136
95,0.9907460256002136
95,0.9907460256002136
95,0.9907460256002136
95,0.9907460256002136
95,0.9907460256002136
95,0.9907460256002136
95,0.9907460256002136
95,0.9907460256002136
95,0.9907460256002136
95,0.9907460256002136
95,0.9907460256002136
95,0.9907460256002136
95,0.9907460256002136
95,0.9907460256002136
95,0.9907460256002136
95,0.9907460256002136
95,0.9907460256002136
95,0.9907460256002136
95,0.9907460256002136
95,0.9907460256002136
95,0.9907460256002136
95,0.9907460256002136
95,0.9907460256002136
96,0.9907460256002136
96,0.9907460256002136
96,0.9907460256002136
96,0.9907460256002136
96,0.9907460256002136
96,0.9907460256002136
96,0.9907460256002136
96,0.9907460256002136
96,0.9907460256002136
96,0.9907460256002136
96,0.9907460256002136
96,0.9907460256002136
96,0.9907460256002136
96,0.9907460256002136
96,0.9907460256002136
96,0.9907460256002136
96,0.9907460256002136
96,0.9907460256002136
96,0.9907460256002136
96,0.9907460256002136
96,0.9907460256002136
96,0.9907460256002136
96,0.9907460256002136
96,0.9907460256002136
96,0.9907460256002136
96,0.9907460256002136
96,0.9907460256002136
96,0.9907460256002136
97,0.9907460256002136
97,0.9907460256002136
97,0.9907460256002136
97,0.9907460256002136
97,0.9907460256002136
97,0.9907460256002136
97,0.9907460256002136
97,0.9907460256002136
97,0.9907460256002136
97,0.9907460256002136
97,0.9907460256002136
97,0.9907460256002136
97,0.9907460256002136
97,0.9907460256002136
97,0.9907460256002136
97,0.9907460256002136
97,0.9907460256002136
97,0.9907460256002136
97,0.9907460256002136
97,0.9907460256002136
97,0.9907460256002136
97,0.9907460256002136
97,0.9907460256002136
97,0.9907460256002136
97,0.9907460256002136
97,0.9907460256002136
97,0.9907460256002136
97,0.9907460256002136
97,0.9907460256002136
98,0.9907460256002136
98,0.9907460256002136
98,0.9907460256002136
98,0.9907460256002136
98,0.9907460256002136
98,0.9907460256002136
98,0.9907460256002136
98,0.9907460256002136
98,0.9907460256002136
98,0.9907460256002136
98,0.9907460256002136
98,0.9907460256002136
98,0.9907460256002136
98,0.9907460256002136
98,0.9907460256002136
98,0.9907460256002136
98,0.9907460256002136
98,0.9907460256002136
98,0.9907460256002136
98,0.9907460256002136
98,0.9907460256002136
98,0.9907460256002136
98,0.9907460256002136
98,0.9907460256002136
98,0.9907460256002136
98,0.9907460256002136
98,0.9907460256002136
99,0.9907460256002136
99,0.9907460256002136
99,0.9907460256002136
99,0.9907460256002136
99,0.9907460256002136
99,0.9907460256002136
99,0.9907460256002136
99,0.9907460256002136
99,0.9907460256002136
99,0.9907460256002136
99,0.9907460256002136
99,0.9907460256002136
99,0.9907460256002136
99,0.9907460256002136
99,0.9907460256002136
99,0.9907460256002136
99,0.9907460256002136
99,0.9907460256002136
99,0.9907460256002136
99,0.9907460256002136
99,0.9907460256002136
99,0.9907460256002136
99,0.9907460256002136
99,0.9907460256002136
99,0.9907460256002136
99,0.9907460256002136
99,0.9907460256002136
99,0.9907460256002136
99,0.9907460256002136
100,0.9907460256002136
100,0.9907460256002136
100,0.9907460256002136
100,0.9907460256002136
100,0.9907460256002136
100,0.9907460256002136
100,0.9907460256002136
100,0.9907460256002136
100,0.9907460256002136
100,0.9907460256002136
100,0.9907460256002136
100,0.9907460256002136
100,0.9907460256002136
100,0.9907460256002136
100,0.9907460256002136
100,0.9907460256002136
100,0.9907460256002136
100,0.9907460256002136
100,0.9907460256002136
100,0.9907460256002136
100,0.9907460256002136
100,0.9907460256002136
100,0.9907460256002136
100,0.9907460256002136
100,0.9907460256002136
100,0.9907460256002136
100,0.9907460256002136
100,0.9907460256002136
101,0.9907460256002136
101,0.9907460256002136
101,0.9907460256002136
101,0.9907460256002136
101,0.9907460256002136
101,0.9907460256002136
101,0.9907460256002136
101,0.9907460256002136
101,0.9907460256002136
101,0.9907460256002136
101,0.9907460256002136
101,0.9907460256002136
101,0.9907460256002136
101,0.9907460256002136
101,0.9907460256002136
101,0.9907460256002136
101,0.9907460256002136
101,0.9907460256002136
101,0.9907460256002136
101,0.9907460256002136
101,0.9907460256002136
101,0.9907460256002136
101,0.9907460256002136
101,0.9907460256002136
101,0.9907460256002136
101,0.9907460256002136
101,0.9907460256002136
101,0.9907460256002136
101,0.9907460256002136
102,0.9907460256002136
102,0.9907460256002136
102,0.9907460256002136
102,0.9907460256002136
102,0.9907460256002136
102,0.9907460256002136
102,0.9907460256002136
102,0.9907460256002136
102,0.9907460256002136
102,0.9907460256002136
102,0.9907460256002136
102,0.9907460256002136
102,0.9907460256002136
102,0.9907460256002136
102,0.9907460256002136
102,0.9907460256002136
102,0.9907460256002136
102,0.9907460256002136
102,0.9907460256002136
102,0.9907460256002136
102,0.9907460256002136
102,0.9907460256002136
102,0.9907460256002136
102,0.9907460256002136
102,0.9907460256002136
102,0.9907460256002136
102,0.9907460256002136
102,0.9907460256002136
103,0.9907460256002136
103,0.9907460256002136
103,0.9907460256002136
103,0.9907460256002136
103,0.9907460256002136
103,0.9907460256002136
103,0.9907460256002136
103,0.9907460256002136
103,0.9907460256002136
103,0.9907460256002136
103,0.9907460256002136
103,0.9907460256002136
103,0.9907460256002136
103,0.9907460256002136
103,0.9907460256002136
103,0.9907460256002136
103,0.9907460256002136
103,0.9907460256002136
103,0.9907460256002136
103,0.9907460256002136
103,0.9907460256002136
103,0.9907460256002136
103,0.9907460256002136
103,0.9907460256002136
103,0.9907460256002136
103,0.9907460256002136
103,0.9907460256002136
103,0.9907460256002136
103,0.9907460256002136
104,0.9907460256002136
104,0.9907460256002136
104,0.9907460256002136
104,0.9907460256002136
104,0.9907460256002136
104,0.9907460256002136
104,0.9907460256002136
104,0.9907460256002136
104,0.9907460256002136
104,0.9907460256002136
104,0.9907460256002136
104,0.9907460256002136
104,0.9907460256002136
104,0.9907460256002136
104,0.9907460256002136
104,0.9907460256002136
104,0.9907460256002136
104,0.9907460256002136
104,0.9907460256002136
104,0.9907460256002136
104,0.9907460256002136
104,0.9907460256002136
104,0.9907460256002136
104,0.9907460256002136
104,0.9907460256002136
104,0.9907460256002136
104,0.9907460256002136
104,0.9907460256002136
105,0.9907460256002136
105,0.9907460256002136
105,0.9907460256002136
105,0.9907460256002136
105,0.9907460256002136
105,0.9907460256002136
105,0.9907460256002136
105,0.9907460256002136
105,0.9907460256002136
105,0.9907460256002136
105,0.9907460256002136
105,0.9907460256002136
105,0.9907460256002136
105,0.9907460256002136
105,0.9907460256002136
105,0.9907460256002136
105,0.9907460256002136
105,0.9907460256002136
105,0.9907460256002136
105,0.9907460256002136
105,0.9907460256002136
105,0.9907460256002136
105,0.9907460256002136
105,0.9907460256002136
105,0.9907460256002136
105,0.9907460256002136
105,0.9907460256002136
105,0.9907460256002136
106,0.9907460256002136
106,0.9907460256002136
106,0.9907460256002136
106,0.9907460256002136
106,0.9907460256002136
106,0.9907460256002136
106,0.9907460256002136
106,0.9907460256002136
106,0.9907460256002136
106,0.9907460256002136
106,0.9907460256002136
106,0.9907460256002136
106,0.9907460256002136
106,0.9907460256002136
106,0.9907460256002136
106,0.9907460256002136
106,0.9907460256002136
106,0.9907460256002136
106,0.9907460256002136
106,0.9907460256002136
106,0.9907460256002136
106,0.9907460256002136
106,0.9907460256002136
106,0.9907460256002136
106,0.9907460256002136
106,0.9907460256002136
106,0.9907460256002136
106,0.9907460256002136
107,0.9907460256002136
107,0.9907460256002136
107,0.9907460256002136
107,0.9907460256002136
107,0.9907460256002136
107,0.9907460256002136
107,0.9907460256002136
107,0.9907460256002136
107,0.9907460256002136
107,0.9907460256002136
107,0.9907460256002136
107,0.9907460256002136
107,0.9907460256002136
107,0.9907460256002136
107,0.9907460256002136
107,0.9907460256002136
107,0.9907460256002136
107,0.9907460256002136
107,0.9907460256002136
107,0.9907460256002136
107,0.9907460256002136
107,0.9907460256002136
107,0.9907460256002136
107,0.9907460256002136
107,0.9907460256002136
107,0.9907460256002136
107,0.9907460256002136
107,0.9907460256002136
107,0.9907460256002136
108,0.9907460256002136
108,0.9907460256002136
108,0.9907460256002136
108,0.9907460256002136
108,0.9907460256002136
108,0.9907460256002136
108,0.9907460256002136
108,0.9907460256002136
108,0.9907460256002136
108,0.9907460256002136
108,0.9907460256002136
108,0.9907460256002136
108,0.9907460256002136
108,0.9907460256002136
108,0.9907460256002136
108,0.9907460256002136
108,0.9907460256002136
108,0.9907460256002136
108,0.9907460256002136
108,0.9907460256002136
108,0.9907460256002136
108,0.9907460256002136
108,0.9907460256002136
108,0.9907460256002136
108,0.9907460256002136
108,0.9907460256002136
108,0.9907460256002136
108,0.9907460256002136
109,0.9907460256002136
109,0.9907460256002136
109,0.9907460256002136
109,0.9907460256002136
109,0.9907460256002136
109,0.9907460256002136
109,0.9907460256002136
109,0.9907460256002136
109,0.9907460256002136
109,0.9907460256002136
109,0.9907460256002136
109,0.9907460256002136
109,0.9907460256002136
109,0.9907460256002136
109,0.9907460256002136
109,0.9907460256002136
109,0.9907460256002136
109,0.9907460256002136
109,0.9907460256002136
109,0.9907460256002136
109,0.9907460256002136
109,0.9907460256002136
109,0.9907460256002136
109,0.9907460256002136
109,0.9907460256002136
109,0.9907460256002136
109,0.9907460256002136
109,0.9907460256002136
110,0.9907460256002136
110,0.9907460256002136
110,0.9907460256002136
110,0.9907460256002136
110,0.9907460256002136
110,0.9907460256002136
110,0.9907460256002136
110,0.9907460256002136
110,0.9907460256002136
110,0.9907460256002136
110,0.9907460256002136
110,0.9907460256002136
110,0.9907460256002136
110,0.9907460256002136
110,0.9907460256002136
110,0.9907460256002136
110,0.9907460256002136
110,0.9907460256002136
110,0.9907460256002136
110,0.9907460256002136
110,0.9907460256002136
110,0.9907460256002136
110,0.9907460256002136
110,0.9907460256002136
110,0.9907460256002136
110,0.9907460256002136
110,0.9907460256002136
110,0.9907460256002136
111,0.9907460256002136
111,0.9907460256002136
111,0.9907460256002136
111,0.9907460256002136
111,0.9907460256002136
111,0.9907460256002136
111,0.9907460256002136
111,0.9907460256002136
111,0.9907460256002136
111,0.9907460256002136
111,0.9907460256002136
111,0.9907460256002136
111,0.9907460256002136
111,0.9907460256002136
111,0.9907460256002136
111,0.9907460256002136
111,0.9907460256002136
111,0.9907460256002136
111,0.9907460256002136
111,0.9907460256002136
111,0.9907460256002136
111,0.9907460256002136
111,0.9907460256002136
111,0.9907460256002136
111,0.9907460256002136
111,0.9907460256002136
111,0.9907460256002136
111,0.9907460256002136
112,0.9907460256002136
112,0.9907460256002136
112,0.9907460256002136
112,0.9907460256002136
112,0.9907460256002136
112,0.9907460256002136
112,0.9907460256002136
112,0.9907460256002136
112,0.9907460256002136
112,0.9907460256002136
112,0.9907460256002136
112,0.9907460256002136
112,0.9907460256002136
112,0.9907460256002136
112,0.9907460256002136
112,0.9907460256002136
112,0.9907460256002136
112,0.9907460256002136
112,0.9907460256002136
112,0.9907460256002136
112,0.9907460256002136
112,0.9907460256002136
112,0.9907460256002136
112,0.9907460256002136
112,0.9907460256002136
112,0.9907460256002136
112,0.9907460256002136
112,0.9907460256002136
112,0.9907460256002136
113,0.9907460256002136
113,0.9907460256002136
113,0.9907460256002136
113,0.9907460256002136
113,0.9907460256002136
113,0.9907460256002136
113,0.9907460256002136
113,0.9907460256002136
113,0.9907460256002136
113,0.9907460256002136
113,0.9907460256002136
113,0.9907460256002136
113,0.9907460256002136
113,0.9907460256002136
113,0.9907460256002136
113,0.9907460256002136
113,0.9907460256002136
113,0.9907460256002136
113,0.9907460256002136
113,0.9907460256002136
113,0.9907460256002136
113,0.9907460256002136
113,0.9907460256002136
113,0.9907460256002136
113,0.9907460256002136
113,0.9907460256002136
113,0.9907460256002136
114,0.9907460256002136
114,0.9907460256002136
114,0.9907460256002136
114,0.9907460256002136
114,0.9907460256002136
114,0.9907460256002136
114,0.9907460256002136
114,0.9907460256002136
114,0.9907460256002136
114,0.9907460256002136
114,0.9907460256002136
114,0.9907460256002136
114,0.9907460256002136
114,0.9907460256002136
114,0.9907460256002136
114,0.9907460256002136
114,0.9907460256002136
114,0.9907460256002136
114,0.9907460256002136
114,0.9907460256002136
114,0.9907460256002136
114,0.9907460256002136
114,0.9907460256002136
114,0.9907460256002136
114,0.9907460256002136
114,0.9907460256002136
114,0.9907460256002136
114,0.9907460256002136
115,0.9907460256002136
115,0.9907460256002136
115,0.9907460256002136
115,0.9907460256002136
115,0.9907460256002136
115,0.9907460256002136
115,0.9907460256002136
115,0.9907460256002136
115,0.9907460256002136
115,0.9907460256002136
115,0.9907460256002136
115,0.9907460256002136
115,0.9907460256002136
115,0.9907460256002136
115,0.9907460256002136
115,0.9907460256002136
115,0.9907460256002136
115,0.9907460256002136
115,0.9907460256002136
115,0.9907460256002136
115,0.9907460256002136
115,0.9907460256002136
115,0.9907460256002136
115,0.9907460256002136
115,0.9917810951476101
115,0.9917810951476101
115,0.9917810951476101
115,0.9917810951476101
116,0.9917810951476101
116,0.9917810951476101
116,0.9917810951476101
116,0.9917810951476101
116,0.9917810951476101
116,0.9917810951476101
116,0.9917810951476101
116,0.9917810951476101
116,0.9917810951476101
116,0.9917810951476101
116,0.9917810951476101
116,0.9917810951476101
116,0.9917810951476101
116,0.9917810951476101
116,0.9917810951476101
116,0.9917810951476101
116,0.9917810951476101
116,0.9917810951476101
116,0.9917810951476101
116,0.9917810951476101
116,0.9917810951476101
116,0.9918026474340731
116,0.9918026474340731
116,0.9918026474340731
116,0.9918026474340731
116,0.9918026474340731
116,0.9918026474340731
117,0.9918026474340731
117,0.9918026474340731
117,0.9918026474340731
117,0.9918026474340731
117,0.9918026474340731
117,0.9918026474340731
117,0.9918026474340731
117,0.9918026474340731
117,0.9918026474340731
117,0.9918026474340731
117,0.9918026474340731
117,0.9918026474340731
117,0.9918026474340731
117,0.9918026474340731
117,0.9918026474340731
117,0.9918026474340731
117,0.9918026474340731
117,0.9918026474340731
117,0.9918026474340731
117,0.9918026474340731
117,0.9918026474340731
117,0.9918026474340731
117,0.9918026474340731
117,0.9918026474340731
117,0.9918026474340731
117,0.9918026474340731
117,0.9918026474340731
118,0.9918026474340731
118,0.9918026474340731
118,0.9918026474340731
118,0.9918026474340731
118,0.9918026474340731
118,0.9918026474340731
118,0.9918026474340731
118,0.9918026474340731
118,0.9918026474340731
118,0.9918026474340731
118,0.9918026474340731
118,0.9918026474340731
118,0.9918026474340731
118,0.9918026474340731
118,0.9918026474340731
118,0.9918026474340731
118,0.9918026474340731
118,0.9920159313383897
118,0.9920159313383897
118,0.9920159313383897
118,0.9920159313383897
118,0.9920159313383897
118,0.9920159313383897
118,0.9920159313383897
118,0.9920159313383897
118,0.9920159313383897
118,0.9920159313383897
118,0.9920159313383897
119,0.9920159313383897
119,0.9920159313383897
119,0.9920159313383897
119,0.9920159313383897
119,0.9920159313383897
119,0.9920159313383897
119,0.9920159313383897
119,0.9920159313383897
119,0.9920159313383897
119,0.9920159313383897
119,0.9920159313383897
119,0.9920159313383897
119,0.9920159313383897
119,0.9920159313383897
119,0.9920159313383897
119,0.9920159313383897
119,0.9920159313383897
119,0.9920159313383897
119,0.9920159313383897
119,0.9920159313383897
119,0.9920159313383897
119,0.9920159313383897
119,0.9920159313383897
119,0.9920159313383897
119,0.9920159313383897
119,0.9920159313383897
119,0.9920159313383897
119,0.9920159313383897
120,0.9920159313383897
120,0.9920159313383897
120,0.9920159313383897
120,0.9920159313383897
120,0.9920159313383897
120,0.9920159313383897
120,0.9920159313383897
120,0.9920159313383897
120,0.9920159313383897
120,0.9920159313383897
120,0.9920159313383897
120,0.9920159313383897
120,0.9920159313383897
120,0.9920159313383897
120,0.9920159313383897
120,0.9920159313383897
120,0.9920159313383897
120,0.9920159313383897
120,0.9920159313383897
120,0.9920159313383897
120,0.9920159313383897
120,0.9920159313383897
120,0.9920159313383897
120,0.9920159313383897
120,0.9920159313383897
120,0.9920159313383897
120,0.9920159313383897
121,0.9920159313383897
121,0.9920159313383897
121,0.9920159313383897
121,0.9920159313383897
121,0.9920159313383897
121,0.9920159313383897
121,0.9920159313383897
121,0.9920159313383897
121,0.9920159313383897
121,0.992016414562577
121,0.992016414562577
121,0.992016414562577
121,0.992016414562577
121,0.992016414562577
121,0.992016414562577
121,0.992016414562577
121,0.992016414562577
121,0.992016414562577
121,0.992016414562577
121,0.992016414562577
121,0.992016414562577
121,0.992016414562577
121,0.992016414562577
121,0.992016414562577
121,0.992016414562577
121,0.992016414562577
121,0.992016414562577
121,0.992016414562577
122,0.992016414562577
122,0.992016414562577
122,0.992016414562577
122,0.992016414562577
122,0.992016414562577
122,0.992016414562577
122,0.992016414562577
122,0.992016414562577
122,0.992016414562577
122,0.992016414562577
122,0.992016414562577
122,0.992016414562577
122,0.992016414562577
122,0.992016414562577
122,0.992016414562577
122,0.992016414562577
122,0.992016414562577
122,0.992016414562577
122,0.992016414562577
122,0.992016414562577
122,0.992016414562577
122,0.992016414562577
122,0.992016414562577
122,0.992016414562577
122,0.992016414562577
122,0.992016414562577
122,0.992016414562577
122,0.992016414562577
123,0.992016414562577
123,0.992016414562577
123,0.992016414562577
123,0.992016414562577
123,0.992016414562577
123,0.992016414562577
123,0.992016414562577
123,0.992016414562577
123,0.992016414562577
123,0.992016414562577
123,0.992016414562577
123,0.992016414562577
123,0.992016414562577
123,0.992016414562577
123,0.992016414562577
123,0.992016414562577
123,0.992016414562577
123,0.992016414562577
123,0.992016414562577
123,0.992016414562577
123,0.992016414562577
123,0.992016414562577
123,0.992016414562577
123,0.992016414562577
123,0.992016414562577
123,0.992016414562577
123,0.992016414562577
123,0.992016414562577
124,0.992016414562577
124,0.992016414562577
124,0.992016414562577
124,0.992016414562577
124,0.992016414562577
124,0.992016414562577
124,0.992016414562577
124,0.992016414562577
124,0.992016414562577
124,0.992016414562577
124,0.992016414562577
124,0.992016414562577
124,0.992016414562577
124,0.992016414562577
124,0.992016414562577
124,0.992016414562577
124,0.992016414562577
124,0.992016414562577
124,0.992016414562577
124,0.992016414562577
124,0.992016414562577
124,0.992016414562577
124,0.992016414562577
124,0.992016414562577
124,0.992016414562577
124,0.9923938603673044
124,0.9923938603673044
124,0.9923938603673044
125,0.9923938603673044
125,0.9923938603673044
125,0.9923938603673044
125,0.9923938603673044
125,0.9923938603673044
125,0.9923938603673044
125,0.9923938603673044
125,0.9923938603673044
125,0.9923938603673044
125,0.9923938603673044
125,0.9923938603673044
125,0.9923938603673044
125,0.9923938603673044
125,0.9923938603673044
125,0.9923938603673044
125,0.9923938603673044
125,0.9923938603673044
125,0.9923938603673044
125,0.9923938603673044
125,0.9923938603673044
125,0.9923938603673044
125,0.9923938603673044
125,0.9923938603673044
125,0.9923938603673044
125,0.9923938603673044
125,0.9923938603673044
125,0.9923938603673044
126,0.9923938603673044
126,0.9923938603673044
126,0.9923938603673044
126,0.9923938603673044
126,0.9923938603673044
126,0.9923938603673044
126,0.9923938603673044
126,0.9923938603673044
126,0.9923938603673044
126,0.9923938603673044
126,0.9923938603673044
126,0.9923938603673044
126,0.9923938603673044
126,0.9923938603673044
126,0.9923938603673044
126,0.9923938603673044
126,0.9923938603673044
126,0.9923938603673044
126,0.9923938603673044
126,0.9923938603673044
126,0.9923938603673044
126,0.9923938603673044
126,0.9923938603673044
126,0.9923938603673044
126,0.9923938603673044
126,0.9923938603673044
126,0.9923938603673044
126,0.9923938603673044
127,0.9923938603673044
127,0.9923938603673044
127,0.9923938603673044
127,0.9923938603673044
127,0.9923938603673044
127,0.9923938603673044
127,0.9923938603673044
127,0.9923938603673044
127,0.9923938603673044
127,0.9923938603673044
127,0.9923938603673044
127,0.9923938603673044
127,0.9923938603673044
127,0.9923938603673044
127,0.9923938603673044
127,0.9923938603673044
127,0.9923938603673044
127,0.9923938603673044
127,0.9923938603673044
127,0.9923938603673044
127,0.9923938603673044
127,0.9923938603673044
127,0.9923938603673044
127,0.9923938603673044
127,0.9923938603673044
127,0.9923938603673044
127,0.9923938603673044
127,0.9923938603673044
128,0.9923938603673044
128,0.9923938603673044
128,0.9923938603673044
128,0.9923938603673044
128,0.9923938603673044
128,0.9923938603673044
128,0.9923938603673044
128,0.9923938603673044
128,0.9923938603673044
128,0.9923938603673044
128,0.9923938603673044
128,0.9923938603673044
128,0.9923938603673044
128,0.9923938603673044
128,0.9923938603673044
128,0.9923938603673044
128,0.9923938603673044
128,0.9923938603673044
128,0.9923938603673044
128,0.9923938603673044
128,0.9923938603673044
128,0.9923938603673044
128,0.9923938603673044
128,0.9923938603673044
128,0.9923938603673044
128,0.9923938603673044
128,0.9923938603673044
128,0.9923938603673044
129,0.9923938603673044
129,0.9923938603673044
129,0.9923938603673044
129,0.9923938603673044
129,0.9923938603673044
129,0.9923938603673044
129,0.9923938603673044
129,0.9923938603673044
129,0.9923938603673044
129,0.9923938603673044
129,0.9923938603673044
129,0.9923938603673044
129,0.9923938603673044
129,0.9923938603673044
129,0.9923938603673044
129,0.9923938603673044
129,0.9923938603673044
129,0.9923938603673044
129,0.9923938603673044
129,0.9923938603673044
129,0.9923938603673044
129,0.9923938603673044
129,0.9923938603673044
129,0.9923938603673044
129,0.9923938603673044
129,0.9923938603673044
129,0.9923938603673044
130,0.9923938603673044
130,0.9923938603673044
130,0.9923938603673044
130,0.9923938603673044
130,0.9923938603673044
130,0.9923938603673044
130,0.9923938603673044
130,0.9923938603673044
130,0.9923938603673044
130,0.9923938603673044
130,0.9923938603673044
130,0.9923938603673044
130,0.9923938603673044
130,0.9923938603673044
130,0.9923938603673044
130,0.9923938603673044
130,0.9923938603673044
130,0.9923938603673044
130,0.9923938603673044
130,0.9923938603673044
130,0.9923938603673044
130,0.9923938603673044
130,0.9923938603673044
130,0.9923938603673044
130,0.9923938603673044
130,0.9923938603673044
130,0.9923938603673044
130,0.9923938603673044
131,0.9923938603673044
131,0.9923938603673044
131,0.9923938603673044
131,0.9923938603673044
131,0.9923938603673044
131,0.9923938603673044
131,0.9923938603673044
131,0.9923938603673044
131,0.9923938603673044
131,0.9923938603673044
131,0.9923938603673044
131,0.9923938603673044
131,0.9923938603673044
131,0.9923938603673044
131,0.9923938603673044
131,0.9923938603673044
131,0.9923938603673044
131,0.9923938603673044
131,0.9923938603673044
131,0.9923938603673044
131,0.9923938603673044
131,0.9923938603673044
131,0.9923938603673044
131,0.9923938603673044
131,0.9923938603673044
131,0.9923938603673044
131,0.9923938603673044
131,0.9923938603673044
132,0.9923938603673044
132,0.9923938603673044
132,0.9923938603673044
132,0.9926232671054921
132,0.9926232671054921
132,0.9926232671054921
132,0.9926232671054921
132,0.9926232671054921
132,0.9926232671054921
132,0.9926232671054921
132,0.9926232671054921
132,0.9926232671054921
132,0.9926232671054921
132,0.9926232671054921
132,0.9926232671054921
132,0.9926232671054921
132,0.9926232671054921
132,0.9926232671054921
132,0.9926232671054921
132,0.9926232671054921
132,0.9926232671054921
132,0.9926232671054921
132,0.9926232671054921
132,0.9926232671054921
132,0.9926232671054921
132,0.9926232671054921
132,0.9926232671054921
132,0.9926232671054921
132,0.9926232671054921
133,0.9926232671054921
133,0.9926232671054921
133,0.9926232671054921
133,0.9926232671054921
133,0.9926232671054921
133,0.9926232671054921
133,0.9926232671054921
133,0.9926232671054921
133,0.9926232671054921
133,0.9926232671054921
133,0.9926232671054921
133,0.9926232671054921
133,0.9926232671054921
133,0.9926232671054921
133,0.9926232671054921
133,0.9926232671054921
133,0.9926232671054921
133,0.9926232671054921
133,0.9926232671054921
133,0.9926232671054921
133,0.9926232671054921
133,0.9926232671054921
133,0.9926232671054921
133,0.9926232671054921
133,0.9926232671054921
133,0.9926232671054921
133,0.9926232671054921
133,0.9926232671054921
133,0.9926232671054921
134,0.9926232671054921
134,0.9926232671054921
134,0.9926232671054921
134,0.9926232671054921
134,0.9926232671054921
134,0.9926232671054921
134,0.9926232671054921
134,0.9926232671054921
134,0.9926232671054921
134,0.9926232671054921
134,0.9926232671054921
134,0.9926232671054921
134,0.9926232671054921
134,0.9926232671054921
134,0.9926232671054921
134,0.9926232671054921
134,0.9926232671054921
134,0.9926232671054921
134,0.9926232671054921
134,0.9926232671054921
134,0.9926232671054921
134,0.9926232671054921
134,0.9926232671054921
134,0.9926232671054921
134,0.9926232671054921
134,0.9926232671054921
134,0.9926232671054921
134,0.9926232671054921
134,0.9926232671054921
135,0.9926232671054921
135,0.9926232671054921
135,0.9926232671054921
135,0.9926232671054921
135,0.9926232671054921
135,0.9926232671054921
135,0.9926232671054921
135,0.9926232671054921
135,0.9926232671054921
135,0.9926232671054921
135,0.9926232671054921
135,0.9926232671054921
135,0.9926232671054921
135,0.9926232671054921
135,0.9926232671054921
135,0.9926232671054921
135,0.9926232671054921
135,0.9926232671054921
135,0.9926232671054921
135,0.9926232671054921
135,0.9926232671054921
135,0.9926232671054921
135,0.9926232671054921
135,0.9926232671054921
135,0.9926232671054921
135,0.9926232671054921
135,0.9926232671054921
135,0.9926232671054921
135,0.9926232671054921
136,0.9926232671054921
136,0.9926232671054921
136,0.9926232671054921
136,0.9926232671054921
136,0.9926232671054921
136,0.9926232671054921
136,0.9926232671054921
136,0.9926232671054921
136,0.9926232671054921
136,0.9926232671054921
136,0.9926232671054921
136,0.9926232671054921
136,0.9926232671054921
136,0.9926232671054921
136,0.9926232671054921
136,0.9926232671054921
136,0.9926232671054921
136,0.9926232671054921
136,0.9926232671054921
136,0.9926232671054921
136,0.9926232671054921
136,0.9926232671054921
136,0.9926232671054921
136,0.9926232671054921
136,0.9926232671054921
136,0.9926232671054921
136,0.9926232671054921
136,0.9926232671054921
136,0.9926232671054921
137,0.9926232671054921
137,0.9926232671054921
137,0.9926232671054921
137,0.9926232671054921
137,0.9926232671054921
137,0.9926232671054921
137,0.9926232671054921
137,0.9926232671054921
137,0.9926232671054921
137,0.9926232671054921
137,0.9926232671054921
137,0.9926232671054921
137,0.9926232671054921
137,0.9926232671054921
137,0.9926232671054921
137,0.9926232671054921
137,0.9926232671054921
137,0.9926232671054921
137,0.9926232671054921
137,0.9926232671054921
137,0.9926232671054921
137,0.9926232671054921
137,0.9926232671054921
137,0.9926232671054921
137,0.9926232671054921
137,0.9926232671054921
137,0.9926232671054921
137,0.9926232671054921
137,0.9926232671054921
138,0.9926232671054921
138,0.9926232671054921
138,0.9926232671054921
138,0.9926232671054921
138,0.9926232671054921
138,0.9926232671054921
138,0.9926232671054921
138,0.9926232671054921
138,0.9926232671054921
138,0.9926232671054921
138,0.9926232671054921
138,0.9926232671054921
138,0.9926232671054921
138,0.9926232671054921
138,0.9926232671054921
138,0.9926232671054921
138,0.9926232671054921
138,0.9926232671054921
138,0.9926232671054921
138,0.9926232671054921
138,0.9926232671054921
138,0.9926232671054921
138,0.9926232671054921
138,0.9926232671054921
138,0.9926232671054921
138,0.9926232671054921
138,0.9926232671054921
138,0.9926232671054921
139,0.9926232671054921
139,0.9926400172878741
139,0.9926400172878741
139,0.9926400172878741
139,0.9926400172878741
139,0.9926400172878741
139,0.9926400172878741
139,0.9926400172878741
139,0.9926400172878741
139,0.9926400172878741
139,0.9926400172878741
139,0.9926400172878741
139,0.9926400172878741
139,0.9926400172878741
139,0.9926400172878741
139,0.9926400172878741
139,0.9926400172878741
139,0.9926400172878741
139,0.9926400172878741
139,0.9926400172878741
139,0.9926400172878741
139,0.9926400172878741
139,0.9926400172878741
139,0.9926400172878741
139,0.9926400172878741
139,0.9926400172878741
139,0.9926400172878741
139,0.9926400172878741
139,0.9926400172878741
140,0.9926400172878741
140,0.9926400172878741
140,0.9926400172878741
140,0.9926400172878741
140,0.9926400172878741
140,0.9926400172878741
140,0.9926400172878741
140,0.9926400172878741
140,0.9926400172878741
140,0.9926400172878741
140,0.9926400172878741
140,0.9926400172878741
140,0.9926400172878741
140,0.9926400172878741
140,0.9926400172878741
140,0.9926400172878741
140,0.9926400172878741
140,0.9926400172878741
140,0.9926400172878741
140,0.9926400172878741
140,0.9926400172878741
140,0.9926400172878741
140,0.9926400172878741
140,0.9926400172878741
140,0.9926400172878741
140,0.9926400172878741
140,0.9926400172878741
140,0.9926400172878741
140,0.9926400172878741
141,0.9926400172878741
141,0.9926400172878741
141,0.9926400172878741
141,0.9926400172878741
141,0.9926400172878741
141,0.9926400172878741
141,0.9926400172878741
141,0.9926400172878741
141,0.9926400172878741
141,0.9926400172878741
141,0.9926400172878741
141,0.9926400172878741
141,0.9926400172878741
141,0.9926400172878741
141,0.9926400172878741
141,0.9926400172878741
141,0.9926400172878741
141,0.9926400172878741
141,0.9926400172878741
141,0.9926400172878741
141,0.9926400172878741
141,0.9926400172878741
141,0.9926400172878741
141,0.9926400172878741
141,0.9926400172878741
141,0.9926400172878741
141,0.9926400172878741
141,0.9926400172878741
141,0.9926400172878741
142,0.9926400172878741
142,0.9926400172878741
142,0.9926400172878741
142,0.9926400172878741
142,0.9926400172878741
142,0.9926400172878741
142,0.9926400172878741
142,0.9926400172878741
142,0.9926400172878741
142,0.9926400172878741
142,0.9926400172878741
142,0.9926400172878741
142,0.9926400172878741
142,0.9926400172878741
142,0.9926400172878741
142,0.9926400172878741
142,0.9926400172878741
142,0.9926400172878741
142,0.9926400172878741
142,0.9926400172878741
142,0.9926400172878741
142,0.9926400172878741
142,0.9926400172878741
142,0.9926400172878741
142,0.9926400172878741
142,0.9926400172878741
142,0.9926400172878741
142,0.9926400172878741
142,0.9926400172878741
143,0.9926400172878741
143,0.9926400172878741
143,0.9926400172878741
143,0.9926400172878741
143,0.9926400172878741
143,0.9926400172878741
143,0.9926400172878741
143,0.9926400172878741
143,0.9926400172878741
143,0.9926400172878741
143,0.9926887701352418
143,0.9926887701352418
143,0.9926887701352418
143,0.9926887701352418
143,0.9926887701352418
143,0.9926887701352418
143,0.9926887701352418
143,0.9926887701352418
143,0.9926887701352418
143,0.9926887701352418
143,0.9926887701352418
143,0.9926887701352418
143,0.9926887701352418
143,0.9926887701352418
143,0.9926887701352418
143,0.9926887701352418
143,0.9926887701352418
143,0.9926887701352418
143,0.9926887701352418
144,0.9926887701352418
144,0.9926887701352418
144,0.9926887701352418
144,0.9926887701352418
144,0.9926887701352418
144,0.9926887701352418
144,0.9926942755255395
144,0.9926942755255395
144,0.9926942755255395
144,0.9926942755255395
144,0.9926942755255395
144,0.9926942755255395
144,0.9926942755255395
144,0.9926942755255395
144,0.9926942755255395
144,0.9926942755255395
144,0.9926942755255395
144,0.9926942755255395
144,0.9926942755255395
144,0.9926942755255395
144,0.9926942755255395
144,0.9926942755255395
144,0.9926942755255395
144,0.9926942755255395
144,0.9926942755255395
144,0.9926942755255395
144,0.9926942755255395
144,0.9926942755255395
144,0.9926942755255395
145,0.9926942755255395
145,0.9926942755255395
145,0.9926942755255395
145,0.9926942755255395
145,0.9926942755255395
145,0.9926942755255395
145,0.9926942755255395
145,0.9926942755255395
145,0.9926942755255395
145,0.9926942755255395
145,0.9926942755255395
145,0.9926942755255395
145,0.9926942755255395
145,0.9926942755255395
145,0.9926942755255395
145,0.9926942755255395
145,0.9926942755255395
145,0.9926942755255395
145,0.9926942755255395
145,0.9926942755255395
145,0.9926942755255395
145,0.9926942755255395
145,0.9926942755255395
145,0.9926942755255395
145,0.9926942755255395
145,0.9926942755255395
145,0.9926942755255395
145,0.9926942755255395
145,0.9926942755255395
146,0.9926942755255395
146,0.9926942755255395
146,0.9926942755255395
146,0.9926942755255395
146,0.9926942755255395
146,0.9926942755255395
146,0.9926942755255395
146,0.9926942755255395
146,0.9926942755255395
146,0.9926942755255395
146,0.9926942755255395
146,0.9926942755255395
146,0.9926942755255395
146,0.9926942755255395
146,0.9926942755255395
146,0.9926942755255395
146,0.9926942755255395
146,0.9926942755255395
146,0.9926942755255395
146,0.9926942755255395
146,0.9926942755255395
146,0.9926942755255395
146,0.9926942755255395
146,0.9927746155299328
146,0.9927746155299328
146,0.9927746155299328
146,0.9927746155299328
146,0.9927746155299328
146,0.9927746155299328
147,0.9927746155299328
147,0.9927746155299328
147,0.9927746155299328
147,0.9927746155299328
147,0.9927746155299328
147,0.9927746155299328
147,0.9927746155299328
147,0.9927746155299328
147,0.9927746155299328
147,0.9927746155299328
147,0.9927746155299328
147,0.9927746155299328
147,0.9927746155299328
147,0.9927746155299328
147,0.9927746155299328
147,0.9927746155299328
147,0.9927746155299328
147,0.9927746155299328
147,0.9927746155299328
147,0.9927746155299328
147,0.9927746155299328
147,0.9927746155299328
147,0.9927746155299328
147,0.9927746155299328
147,0.9927746155299328
147,0.9927746155299328
147,0.9927746155299328
147,0.9927746155299328
148,0.9927746155299328
148,0.9927746155299328
148,0.9927746155299328
148,0.9927746155299328
148,0.9927746155299328
148,0.9927746155299328
148,0.9927746155299328
148,0.9927746155299328
148,0.9927746155299328
148,0.9927746155299328
148,0.9927746155299328
148,0.9927746155299328
148,0.9927746155299328
148,0.9927746155299328
148,0.9927746155299328
148,0.9927746155299328
148,0.9927746155299328
148,0.9927746155299328
148,0.9927746155299328
148,0.9927746155299328
148,0.9927746155299328
148,0.9927746155299328
148,0.9927746155299328
148,0.9927746155299328
148,0.9927746155299328
148,0.9927746155299328
148,0.9927746155299328
148,0.9927746155299328
149,0.9927746155299328
149,0.9927746155299328
149,0.9927746155299328
149,0.9927746155299328
149,0.9927746155299328
149,0.9927746155299328
149,0.9927746155299328
149,0.9927746155299328
149,0.9927746155299328
149,0.9927746155299328
149,0.9927746155299328
149,0.9927746155299328
149,0.9927746155299328
149,0.9933824351818871
149,0.9933824351818871
149,0.9933824351818871
149,0.9933824351818871
149,0.9933824351818871
149,0.9933824351818871
149,0.9933824351818871
149,0.9933824351818871
149,0.9933824351818871
149,0.9933824351818871
149,0.9933824351818871
149,0.9933824351818871
149,0.9933824351818871
149,0.9933824351818871
149,0.9933824351818871
149,0.9933824351818871
150,0.9933824351818871
