0,0.5943414322484321
0,0.5943414322484321
0,0.6649288534714807
1,0.6649288534714807
1,0.6649288534714807
1,0.6649288534714807
1,0.6649288534714807
1,0.6649288534714807
1,0.6649288534714807
2,0.6649288534714807
2,0.6649288534714807
2,0.6649288534714807
2,0.6649288534714807
2,0.6649288534714807
3,0.6649288534714807
3,0.6649288534714807
3,0.6649288534714807
3,0.6649288534714807
3,0.6649288534714807
3,0.6649288534714807
4,0.6649288534714807
4,0.6649288534714807
4,0.6649288534714807
4,0.6649288534714807
4,0.6649288534714807
5,0.6649288534714807
5,0.6649288534714807
5,0.6649288534714807
5,0.6649288534714807
5,0.6649288534714807
5,0.6649288534714807
6,0.6649288534714807
6,0.6649288534714807
6,0.6649288534714807
6,0.6649288534714807
6,0.6649288534714807
6,0.6649288534714807
7,0.6649288534714807
7,0.6649288534714807
7,0.6649288534714807
7,0.6649288534714807
7,0.6649288534714807
7,0.6649288534714807
8,0.6649288534714807
8,0.6649288534714807
8,0.6649288534714807
8,0.6649288534714807
8,0.6649288534714807
8,0.6649288534714807
9,0.6649288534714807
9,0.6649288534714807
9,0.6649288534714807
9,0.6649288534714807
9,0.6649288534714807
9,0.6649288534714807
10,0.6649288534714807
10,0.6649288534714807
10,0.6649288534714807
10,0.6649288534714807
10,0.6649288534714807
11,0.6649288534714807
11,0.6649288534714807
11,0.6649288534714807
11,0.6649288534714807
11,0.6649288534714807
11,0.6649288534714807
12,0.6649288534714807
12,0.6649288534714807
12,0.6649288534714807
12,0.6649288534714807
12,0.6649288534714807
12,0.6649288534714807
13,0.6649288534714807
13,0.6649288534714807
13,0.6649288534714807
13,0.6649288534714807
13,0.6649288534714807
14,0.6649288534714807
14,0.6649288534714807
14,0.6649288534714807
14,0.6649288534714807
14,0.6649288534714807
14,0.6649288534714807
15,0.6649288534714807
15,0.6649288534714807
15,0.6649288534714807
15,0.6649288534714807
15,0.6649288534714807
15,0.6649288534714807
16,0.6649288534714807
16,0.6649288534714807
16,0.6649288534714807
16,0.6649288534714807
16,0.6649288534714807
16,0.6649288534714807
17,0.6649288534714807
17,0.6649288534714807
17,0.6649288534714807
17,0.6649288534714807
17,0.6649288534714807
18,0.6649288534714807
18,0.6649288534714807
18,0.6649288534714807
18,0.6649288534714807
18,0.6649288534714807
18,0.6649288534714807
19,0.6649288534714807
19,0.6649288534714807
19,0.6649288534714807
19,0.6649288534714807
19,0.6649288534714807
19,0.6649288534714807
20,0.6649288534714807
20,0.6649288534714807
20,0.6649288534714807
20,0.6649288534714807
20,0.6649288534714807
21,0.6649288534714807
21,0.6649288534714807
21,0.6649288534714807
21,0.6649288534714807
21,0.6649288534714807
21,0.6649288534714807
22,0.6649288534714807
22,0.6649288534714807
22,0.6649288534714807
22,0.6649288534714807
22,0.6649288534714807
22,0.6649288534714807
23,0.6649288534714807
23,0.6649288534714807
23,0.6649288534714807
23,0.6649288534714807
23,0.6649288534714807
23,0.6649288534714807
23,0.6649288534714807
24,0.6649288534714807
24,0.6649288534714807
24,0.6649288534714807
24,0.6649288534714807
24,0.6649288534714807
24,0.6649288534714807
25,0.6649288534714807
25,0.6649288534714807
25,0.6649288534714807
25,0.6649288534714807
25,0.6649288534714807
25,0.6649288534714807
26,0.6649288534714807
26,0.6649288534714807
26,0.6649288534714807
26,0.6649288534714807
26,0.6649288534714807
26,0.6649288534714807
27,0.6649288534714807
27,0.6649288534714807
27,0.6649288534714807
27,0.6649288534714807
27,0.6649288534714807
27,0.6649288534714807
28,0.6649288534714807
28,0.6649288534714807
28,0.6649288534714807
28,0.6649288534714807
28,0.6649288534714807
28,0.6649288534714807
29,0.6649288534714807
29,0.6649288534714807
29,0.6649288534714807
29,0.6649288534714807
29,0.6649288534714807
29,0.6649288534714807
30,0.6649288534714807
30,0.6649288534714807
30,0.6649288534714807
30,0.6649288534714807
30,0.6649288534714807
30,0.6649288534714807
31,0.6649288534714807
31,0.6649288534714807
31,0.6649288534714807
31,0.6649288534714807
31,0.6649288534714807
32,0.6649288534714807
32,0.6649288534714807
32,0.6649288534714807
32,0.6649288534714807
32,0.6649288534714807
32,0.6649288534714807
33,0.6649288534714807
33,0.6649288534714807
33,0.6649288534714807
33,0.6649288534714807
33,0.6649288534714807
33,0.6649288534714807
34,0.6649288534714807
34,0.6649288534714807
34,0.6649288534714807
34,0.6649288534714807
34,0.6649288534714807
34,0.6649288534714807
35,0.6649288534714807
35,0.6649288534714807
35,0.6649288534714807
35,0.6649288534714807
35,0.6649288534714807
35,0.6649288534714807
36,0.6649288534714807
36,0.6649288534714807
36,0.6649288534714807
36,0.6649288534714807
36,0.6649288534714807
36,0.6649288534714807
37,0.6649288534714807
37,0.6649288534714807
37,0.6649288534714807
37,0.6649288534714807
37,0.6649288534714807
37,0.6649288534714807
38,0.6649288534714807
38,0.6649288534714807
38,0.6649288534714807
38,0.6649288534714807
38,0.6649288534714807
38,0.6649288534714807
39,0.6649288534714807
39,0.6649288534714807
39,0.6649288534714807
39,0.6649288534714807
39,0.6649288534714807
39,0.6649288534714807
40,0.6649288534714807
40,0.6649288534714807
40,0.6649288534714807
40,0.6649288534714807
40,0.6649288534714807
41,0.6649288534714807
41,0.6649288534714807
41,0.6649288534714807
41,0.6649288534714807
41,0.6649288534714807
41,0.6649288534714807
42,0.6649288534714807
42,0.6649288534714807
42,0.6649288534714807
42,0.6649288534714807
42,0.6649288534714807
42,0.6649288534714807
43,0.6649288534714807
43,0.6649288534714807
43,0.6649288534714807
43,0.6649288534714807
43,0.6649288534714807
43,0.6649288534714807
43,0.6649288534714807
44,0.6649288534714807
44,0.6649288534714807
44,0.6649288534714807
44,0.6649288534714807
44,0.6649288534714807
44,0.6649288534714807
45,0.6649288534714807
45,0.6649288534714807
45,0.6649288534714807
45,0.6649288534714807
45,0.6649288534714807
45,0.6649288534714807
46,0.6649288534714807
46,0.6649288534714807
46,0.6649288534714807
46,0.6649288534714807
46,0.6649288534714807
46,0.6649288534714807
47,0.6649288534714807
47,0.6649288534714807
47,0.6649288534714807
47,0.6649288534714807
47,0.6649288534714807
47,0.6649288534714807
48,0.6649288534714807
48,0.6649288534714807
48,0.6649288534714807
48,0.6649288534714807
48,0.6649288534714807
48,0.6649288534714807
49,0.6649288534714807
49,0.6649288534714807
49,0.6649288534714807
49,0.6649288534714807
49,0.6649288534714807
49,0.6649288534714807
50,0.6649288534714807
50,0.6649288534714807
50,0.6649288534714807
50,0.6649288534714807
50,0.6649288534714807
50,0.6649288534714807
51,0.6649288534714807
51,0.6649288534714807
51,0.6649288534714807
51,0.6649288534714807
51,0.6649288534714807
51,0.6649288534714807
52,0.6649288534714807
52,0.6649288534714807
52,0.6649288534714807
52,0.6649288534714807
52,0.6649288534714807
53,0.6649288534714807
53,0.6649288534714807
53,0.6649288534714807
53,0.6649288534714807
53,0.6649288534714807
53,0.6649288534714807
54,0.6649288534714807
54,0.6649288534714807
54,0.6649288534714807
54,0.6649288534714807
54,0.6649288534714807
55,0.6649288534714807
55,0.6649288534714807
55,0.6649288534714807
55,0.6649288534714807
55,0.6649288534714807
55,0.6649288534714807
56,0.6649288534714807
56,0.6649288534714807
56,0.6649288534714807
56,0.6649288534714807
56,0.6649288534714807
57,0.6649288534714807
57,0.6649288534714807
57,0.6649288534714807
57,0.6649288534714807
57,0.6649288534714807
57,0.6649288534714807
57,0.6649288534714807
58,0.6649288534714807
58,0.6649288534714807
58,0.6649288534714807
58,0.6649288534714807
58,0.6649288534714807
58,0.6649288534714807
59,0.6649288534714807
59,0.6649288534714807
59,0.6649288534714807
59,0.6649288534714807
59,0.6649288534714807
60,0.6649288534714807
60,0.6649288534714807
60,0.6649288534714807
60,0.6649288534714807
60,0.6649288534714807
60,0.6649288534714807
61,0.6649288534714807
61,0.6649288534714807
61,0.6649288534714807
61,0.6649288534714807
61,0.6649288534714807
61,0.6649288534714807
62,0.6649288534714807
62,0.6649288534714807
62,0.6649288534714807
62,0.6649288534714807
62,0.6649288534714807
62,0.6649288534714807
63,0.6649288534714807
63,0.6649288534714807
63,0.6649288534714807
63,0.6649288534714807
63,0.6649288534714807
63,0.6649288534714807
64,0.6649288534714807
64,0.6649288534714807
64,0.6649288534714807
64,0.6649288534714807
64,0.6649288534714807
64,0.6649288534714807
65,0.6649288534714807
65,0.6649288534714807
65,0.6649288534714807
65,0.6649288534714807
65,0.6649288534714807
65,0.6649288534714807
66,0.6649288534714807
66,0.6649288534714807
66,0.6649288534714807
66,0.6649288534714807
66,0.6649288534714807
66,0.6649288534714807
67,0.6649288534714807
67,0.6649288534714807
67,0.6649288534714807
67,0.6649288534714807
67,0.6649288534714807
67,0.6649288534714807
68,0.6649288534714807
68,0.6649288534714807
68,0.6649288534714807
68,0.6649288534714807
68,0.6649288534714807
68,0.6649288534714807
69,0.6649288534714807
69,0.6649288534714807
69,0.6649288534714807
69,0.6649288534714807
69,0.6649288534714807
69,0.6649288534714807
70,0.6649288534714807
70,0.6649288534714807
70,0.6649288534714807
70,0.6649288534714807
70,0.6649288534714807
70,0.6649288534714807
71,0.6649288534714807
71,0.6649288534714807
71,0.6649288534714807
71,0.6649288534714807
71,0.6649288534714807
71,0.6649288534714807
71,0.6649288534714807
72,0.6649288534714807
72,0.6649288534714807
72,0.6649288534714807
72,0.6649288534714807
72,0.6649288534714807
72,0.6649288534714807
73,0.6649288534714807
73,0.6649288534714807
73,0.6649288534714807
73,0.6649288534714807
73,0.6649288534714807
73,0.6649288534714807
74,0.6649288534714807
74,0.6649288534714807
74,0.6649288534714807
74,0.6649288534714807
74,0.6649288534714807
74,0.6649288534714807
75,0.6649288534714807
75,0.6649288534714807
75,0.6649288534714807
75,0.6649288534714807
75,0.6649288534714807
75,0.6649288534714807
76,0.6649288534714807
76,0.6649288534714807
76,0.6649288534714807
76,0.6649288534714807
76,0.6649288534714807
76,0.6649288534714807
77,0.6649288534714807
77,0.6649288534714807
77,0.6649288534714807
77,0.6649288534714807
77,0.6649288534714807
77,0.6649288534714807
78,0.6649288534714807
78,0.6649288534714807
78,0.6649288534714807
78,0.6649288534714807
78,0.6649288534714807
78,0.6649288534714807
79,0.6649288534714807
79,0.6649288534714807
79,0.6649288534714807
79,0.6649288534714807
79,0.6649288534714807
79,0.6649288534714807
80,0.6649288534714807
80,0.6649288534714807
80,0.6649288534714807
80,0.6649288534714807
80,0.6649288534714807
81,0.6649288534714807
81,0.6649288534714807
81,0.6649288534714807
81,0.6649288534714807
81,0.6649288534714807
81,0.6649288534714807
82,0.6649288534714807
82,0.6649288534714807
82,0.6649288534714807
82,0.6649288534714807
82,0.6649288534714807
82,0.6649288534714807
83,0.6649288534714807
83,0.6649288534714807
83,0.6649288534714807
83,0.6649288534714807
83,0.6649288534714807
83,0.6649288534714807
84,0.6649288534714807
84,0.6649288534714807
84,0.6649288534714807
84,0.6649288534714807
84,0.6649288534714807
85,0.6649288534714807
85,0.6649288534714807
85,0.6649288534714807
85,0.6649288534714807
85,0.6649288534714807
85,0.6649288534714807
86,0.6649288534714807
86,0.6649288534714807
86,0.6649288534714807
86,0.6649288534714807
86,0.6649288534714807
86,0.6649288534714807
87,0.6649288534714807
87,0.6649288534714807
87,0.6649288534714807
87,0.6649288534714807
87,0.6649288534714807
88,0.6649288534714807
88,0.6649288534714807
88,0.6649288534714807
88,0.6649288534714807
88,0.6649288534714807
89,0.6649288534714807
89,0.6649288534714807
89,0.6649288534714807
89,0.6649288534714807
89,0.6649288534714807
89,0.6649288534714807
90,0.6649288534714807
90,0.6649288534714807
90,0.6649288534714807
90,0.6649288534714807
90,0.6649288534714807
90,0.6649288534714807
91,0.6649288534714807
91,0.6649288534714807
91,0.6649288534714807
91,0.6649288534714807
91,0.6649288534714807
91,0.6649288534714807
92,0.6649288534714807
92,0.6649288534714807
92,0.6649288534714807
92,0.6649288534714807
92,0.6649288534714807
92,0.6649288534714807
93,0.6649288534714807
93,0.6649288534714807
93,0.6649288534714807
93,0.6649288534714807
93,0.6649288534714807
93,0.6649288534714807
94,0.6649288534714807
94,0.6649288534714807
94,0.6649288534714807
94,0.6649288534714807
94,0.6649288534714807
94,0.6649288534714807
95,0.6649288534714807
95,0.6649288534714807
95,0.6649288534714807
95,0.6649288534714807
95,0.6649288534714807
95,0.6649288534714807
96,0.6649288534714807
96,0.6649288534714807
96,0.6649288534714807
96,0.6649288534714807
96,0.6649288534714807
96,0.6649288534714807
97,0.6649288534714807
97,0.6649288534714807
97,0.6649288534714807
97,0.6649288534714807
97,0.6649288534714807
97,0.6649288534714807
98,0.6649288534714807
98,0.6649288534714807
98,0.6649288534714807
98,0.6649288534714807
98,0.6649288534714807
98,0.6649288534714807
99,0.6649288534714807
99,0.6649288534714807
99,0.6649288534714807
99,0.6649288534714807
99,0.6649288534714807
99,0.6649288534714807
100,0.6649288534714807
