0,0.6489727254056843
0,0.6489727254056843
0,0.6489727254056843
0,0.6489727254056843
1,0.6489727254056843
1,0.6489727254056843
1,0.6489727254056843
1,0.6489727254056843
1,0.6489727254056843
2,0.6489727254056843
2,0.6489727254056843
2,0.6489727254056843
2,0.6489727254056843
2,0.6489727254056843
2,0.6489727254056843
3,0.6489727254056843
3,0.6489727254056843
3,0.6489727254056843
3,0.6489727254056843
3,0.6489727254056843
3,0.6489727254056843
4,0.6489727254056843
4,0.6489727254056843
4,0.6489727254056843
4,0.6489727254056843
4,0.6489727254056843
4,0.6489727254056843
5,0.6489727254056843
5,0.6489727254056843
5,0.6489727254056843
5,0.6489727254056843
5,0.6489727254056843
5,0.6489727254056843
6,0.6489727254056843
6,0.6489727254056843
6,0.6489727254056843
6,0.6489727254056843
6,0.6489727254056843
6,0.6489727254056843
7,0.6489727254056843
7,0.6489727254056843
7,0.6489727254056843
7,0.6489727254056843
7,0.6489727254056843
8,0.6489727254056843
8,0.6489727254056843
8,0.6489727254056843
8,0.6489727254056843
8,0.6489727254056843
8,0.6489727254056843
9,0.6489727254056843
9,0.6489727254056843
9,0.6489727254056843
9,0.6489727254056843
9,0.6489727254056843
9,0.6489727254056843
10,0.6489727254056843
10,0.6489727254056843
10,0.6489727254056843
10,0.6489727254056843
10,0.6489727254056843
10,0.6489727254056843
11,0.6489727254056843
11,0.6489727254056843
11,0.6489727254056843
11,0.6489727254056843
11,0.6489727254056843
11,0.6489727254056843
12,0.6489727254056843
12,0.6489727254056843
12,0.6489727254056843
12,0.6489727254056843
12,0.6489727254056843
12,0.6489727254056843
13,0.6489727254056843
13,0.6489727254056843
13,0.6489727254056843
13,0.6489727254056843
13,0.6489727254056843
13,0.6489727254056843
14,0.6489727254056843
14,0.6489727254056843
14,0.6489727254056843
14,0.6489727254056843
14,0.6489727254056843
14,0.6489727254056843
14,0.6489727254056843
15,0.6489727254056843
15,0.6489727254056843
15,0.6489727254056843
15,0.6489727254056843
15,0.6489727254056843
15,0.6489727254056843
16,0.6489727254056843
16,0.6489727254056843
16,0.6489727254056843
16,0.6489727254056843
16,0.6489727254056843
16,0.6489727254056843
16,0.6489727254056843
17,0.6489727254056843
17,0.6489727254056843
17,0.6489727254056843
17,0.6489727254056843
17,0.6489727254056843
17,0.6489727254056843
18,0.6489727254056843
18,0.6489727254056843
18,0.6489727254056843
18,0.6489727254056843
18,0.6489727254056843
18,0.6489727254056843
18,0.6489727254056843
19,0.6489727254056843
19,0.6489727254056843
19,0.6489727254056843
19,0.6489727254056843
19,0.6489727254056843
19,0.6489727254056843
20,0.6489727254056843
20,0.6489727254056843
20,0.6489727254056843
20,0.6489727254056843
20,0.6489727254056843
20,0.6489727254056843
21,0.6489727254056843
21,0.6489727254056843
21,0.6489727254056843
21,0.6489727254056843
21,0.6489727254056843
21,0.6489727254056843
21,0.6489727254056843
22,0.6489727254056843
22,0.6489727254056843
22,0.6489727254056843
22,0.6489727254056843
22,0.6489727254056843
22,0.6489727254056843
23,0.6489727254056843
23,0.6489727254056843
23,0.6489727254056843
23,0.6489727254056843
23,0.6489727254056843
23,0.6489727254056843
24,0.6489727254056843
24,0.6489727254056843
24,0.6489727254056843
24,0.6489727254056843
24,0.6489727254056843
24,0.6489727254056843
25,0.6489727254056843
25,0.6489727254056843
25,0.6489727254056843
25,0.6489727254056843
25,0.6489727254056843
25,0.6489727254056843
26,0.6489727254056843
26,0.6489727254056843
26,0.6489727254056843
26,0.6489727254056843
26,0.6489727254056843
26,0.6489727254056843
27,0.6489727254056843
27,0.6489727254056843
27,0.6489727254056843
27,0.6489727254056843
27,0.6489727254056843
27,0.6489727254056843
28,0.6489727254056843
28,0.6489727254056843
28,0.6489727254056843
28,0.6489727254056843
28,0.6489727254056843
28,0.6489727254056843
29,0.6489727254056843
29,0.6489727254056843
29,0.6489727254056843
29,0.6489727254056843
29,0.6489727254056843
29,0.6489727254056843
30,0.6489727254056843
30,0.6489727254056843
30,0.6489727254056843
30,0.6489727254056843
30,0.6489727254056843
30,0.6489727254056843
31,0.6489727254056843
31,0.6489727254056843
31,0.6489727254056843
31,0.6489727254056843
31,0.6489727254056843
31,0.6489727254056843
32,0.6489727254056843
32,0.6489727254056843
32,0.6489727254056843
32,0.6489727254056843
32,0.6489727254056843
32,0.6489727254056843
32,0.6489727254056843
33,0.6489727254056843
33,0.6489727254056843
33,0.6489727254056843
33,0.6489727254056843
33,0.6489727254056843
33,0.6489727254056843
34,0.6489727254056843
34,0.6489727254056843
34,0.6489727254056843
34,0.6489727254056843
34,0.6489727254056843
34,0.6489727254056843
35,0.6489727254056843
35,0.6489727254056843
35,0.6489727254056843
35,0.6489727254056843
35,0.6489727254056843
35,0.6489727254056843
35,0.6489727254056843
36,0.6489727254056843
36,0.6489727254056843
36,0.6489727254056843
36,0.6489727254056843
36,0.6489727254056843
36,0.6489727254056843
37,0.6489727254056843
37,0.6489727254056843
37,0.6489727254056843
37,0.6489727254056843
37,0.6489727254056843
37,0.6489727254056843
37,0.6489727254056843
38,0.6489727254056843
38,0.6489727254056843
38,0.6489727254056843
38,0.6489727254056843
38,0.6489727254056843
38,0.6489727254056843
39,0.6489727254056843
39,0.6489727254056843
39,0.6489727254056843
39,0.6489727254056843
39,0.6489727254056843
39,0.6489727254056843
39,0.6489727254056843
40,0.6489727254056843
40,0.6489727254056843
40,0.6489727254056843
40,0.6489727254056843
40,0.6489727254056843
40,0.6489727254056843
41,0.6489727254056843
41,0.6489727254056843
41,0.6489727254056843
41,0.6489727254056843
41,0.6489727254056843
41,0.6489727254056843
42,0.6489727254056843
42,0.6489727254056843
42,0.6489727254056843
42,0.6489727254056843
42,0.6489727254056843
42,0.6489727254056843
42,0.6489727254056843
43,0.6489727254056843
43,0.6489727254056843
43,0.6489727254056843
43,0.6489727254056843
43,0.6489727254056843
43,0.6489727254056843
44,0.6489727254056843
44,0.6489727254056843
44,0.6489727254056843
44,0.6489727254056843
44,0.6489727254056843
44,0.6489727254056843
44,0.6489727254056843
45,0.6489727254056843
45,0.6489727254056843
45,0.6489727254056843
45,0.6489727254056843
45,0.6489727254056843
45,0.6489727254056843
46,0.6489727254056843
46,0.6489727254056843
46,0.6489727254056843
46,0.6489727254056843
46,0.6489727254056843
46,0.6489727254056843
47,0.6489727254056843
47,0.6489727254056843
47,0.6489727254056843
47,0.6489727254056843
47,0.6489727254056843
47,0.6489727254056843
48,0.6489727254056843
48,0.6489727254056843
48,0.6489727254056843
48,0.6489727254056843
48,0.6489727254056843
48,0.6489727254056843
49,0.6489727254056843
49,0.6489727254056843
49,0.6489727254056843
49,0.6489727254056843
49,0.6489727254056843
49,0.6489727254056843
49,0.6489727254056843
50,0.6489727254056843
50,0.6489727254056843
50,0.6489727254056843
50,0.6489727254056843
50,0.6489727254056843
50,0.6489727254056843
51,0.6489727254056843
51,0.6489727254056843
51,0.6489727254056843
51,0.6489727254056843
51,0.6489727254056843
51,0.6489727254056843
51,0.6489727254056843
52,0.6489727254056843
52,0.6489727254056843
52,0.6489727254056843
52,0.6489727254056843
52,0.6489727254056843
52,0.6489727254056843
53,0.6489727254056843
53,0.6489727254056843
53,0.6489727254056843
53,0.6489727254056843
53,0.6489727254056843
53,0.6489727254056843
54,0.6489727254056843
54,0.6489727254056843
54,0.6489727254056843
54,0.6489727254056843
54,0.6489727254056843
54,0.6489727254056843
54,0.6489727254056843
55,0.6489727254056843
55,0.6489727254056843
55,0.6489727254056843
55,0.6489727254056843
55,0.6489727254056843
55,0.6489727254056843
56,0.6489727254056843
56,0.6489727254056843
56,0.6489727254056843
56,0.6489727254056843
56,0.6489727254056843
56,0.6489727254056843
57,0.6489727254056843
57,0.6489727254056843
57,0.6489727254056843
57,0.6489727254056843
57,0.6489727254056843
57,0.6489727254056843
58,0.6489727254056843
58,0.6489727254056843
58,0.6489727254056843
58,0.6489727254056843
58,0.6489727254056843
58,0.6489727254056843
59,0.6489727254056843
59,0.6489727254056843
59,0.6489727254056843
59,0.6489727254056843
59,0.6489727254056843
59,0.6489727254056843
60,0.6489727254056843
60,0.6489727254056843
60,0.6489727254056843
60,0.6489727254056843
60,0.6489727254056843
60,0.6489727254056843
61,0.6489727254056843
61,0.6489727254056843
61,0.6489727254056843
61,0.6489727254056843
61,0.6489727254056843
61,0.6489727254056843
62,0.6489727254056843
62,0.6489727254056843
62,0.6489727254056843
62,0.6489727254056843
62,0.6489727254056843
62,0.6489727254056843
63,0.6489727254056843
63,0.6489727254056843
63,0.6489727254056843
63,0.6489727254056843
63,0.6489727254056843
63,0.6489727254056843
64,0.6489727254056843
64,0.6489727254056843
64,0.6489727254056843
64,0.6489727254056843
64,0.6489727254056843
64,0.6489727254056843
64,0.6489727254056843
65,0.6489727254056843
65,0.6489727254056843
65,0.6489727254056843
65,0.6489727254056843
65,0.6489727254056843
65,0.6489727254056843
66,0.6489727254056843
66,0.6489727254056843
66,0.6489727254056843
66,0.6489727254056843
66,0.6489727254056843
66,0.6489727254056843
67,0.6489727254056843
67,0.6489727254056843
67,0.6489727254056843
67,0.6489727254056843
67,0.6489727254056843
67,0.6489727254056843
68,0.6489727254056843
68,0.6489727254056843
68,0.6489727254056843
68,0.6489727254056843
68,0.6489727254056843
68,0.6489727254056843
69,0.6489727254056843
69,0.6489727254056843
69,0.6489727254056843
69,0.6489727254056843
69,0.6489727254056843
69,0.6489727254056843
70,0.6489727254056843
70,0.6489727254056843
70,0.6489727254056843
70,0.6489727254056843
70,0.6489727254056843
70,0.6489727254056843
71,0.6489727254056843
71,0.6489727254056843
71,0.6489727254056843
71,0.6489727254056843
71,0.6489727254056843
71,0.6489727254056843
72,0.6489727254056843
72,0.6489727254056843
72,0.6489727254056843
72,0.6489727254056843
72,0.6489727254056843
72,0.6489727254056843
73,0.6489727254056843
73,0.6489727254056843
73,0.6489727254056843
73,0.6489727254056843
73,0.6489727254056843
73,0.6489727254056843
74,0.6489727254056843
74,0.6489727254056843
74,0.6489727254056843
74,0.6489727254056843
74,0.6489727254056843
74,0.6489727254056843
74,0.6489727254056843
75,0.6489727254056843
75,0.6489727254056843
75,0.6489727254056843
75,0.6489727254056843
75,0.6489727254056843
75,0.6489727254056843
76,0.6489727254056843
76,0.6489727254056843
76,0.6489727254056843
76,0.6489727254056843
76,0.6489727254056843
76,0.6489727254056843
77,0.6489727254056843
77,0.6489727254056843
77,0.6489727254056843
77,0.6489727254056843
77,0.6489727254056843
77,0.6489727254056843
78,0.6489727254056843
78,0.6489727254056843
78,0.6489727254056843
78,0.6489727254056843
78,0.6489727254056843
78,0.6489727254056843
79,0.6489727254056843
79,0.6489727254056843
79,0.6489727254056843
79,0.6489727254056843
79,0.6489727254056843
79,0.6489727254056843
80,0.6489727254056843
80,0.6489727254056843
80,0.6489727254056843
80,0.6489727254056843
80,0.6489727254056843
80,0.6489727254056843
81,0.6489727254056843
81,0.6489727254056843
81,0.6489727254056843
81,0.6489727254056843
81,0.6489727254056843
81,0.6489727254056843
81,0.6489727254056843
82,0.6489727254056843
82,0.6489727254056843
82,0.6489727254056843
82,0.6489727254056843
82,0.6489727254056843
82,0.6489727254056843
83,0.6489727254056843
83,0.6489727254056843
83,0.6489727254056843
83,0.6489727254056843
83,0.6489727254056843
83,0.6489727254056843
83,0.6489727254056843
84,0.6489727254056843
84,0.6489727254056843
84,0.6489727254056843
84,0.6489727254056843
84,0.6489727254056843
84,0.6489727254056843
85,0.6489727254056843
85,0.6489727254056843
85,0.6489727254056843
85,0.6489727254056843
85,0.6489727254056843
85,0.6489727254056843
86,0.6489727254056843
86,0.6489727254056843
86,0.6489727254056843
86,0.6489727254056843
86,0.6489727254056843
86,0.6489727254056843
87,0.6489727254056843
87,0.6489727254056843
87,0.6489727254056843
87,0.6489727254056843
87,0.6489727254056843
87,0.6489727254056843
88,0.6489727254056843
88,0.6489727254056843
88,0.6489727254056843
88,0.6489727254056843
88,0.6489727254056843
88,0.6489727254056843
89,0.6489727254056843
89,0.6489727254056843
89,0.6489727254056843
89,0.6489727254056843
89,0.6489727254056843
89,0.6489727254056843
90,0.6489727254056843
90,0.6489727254056843
90,0.6489727254056843
90,0.6489727254056843
90,0.6489727254056843
90,0.6489727254056843
91,0.6489727254056843
91,0.6489727254056843
91,0.6489727254056843
91,0.6489727254056843
91,0.6489727254056843
91,0.6489727254056843
92,0.6489727254056843
92,0.6489727254056843
92,0.6489727254056843
92,0.6489727254056843
92,0.6489727254056843
92,0.6489727254056843
93,0.6489727254056843
93,0.6489727254056843
93,0.6489727254056843
93,0.6489727254056843
93,0.6489727254056843
93,0.6489727254056843
94,0.6489727254056843
94,0.6489727254056843
94,0.6489727254056843
94,0.6489727254056843
94,0.6489727254056843
94,0.6489727254056843
95,0.6489727254056843
95,0.6489727254056843
95,0.6489727254056843
95,0.6489727254056843
95,0.6489727254056843
95,0.6489727254056843
96,0.6489727254056843
96,0.6489727254056843
96,0.6489727254056843
96,0.6489727254056843
96,0.6489727254056843
96,0.6489727254056843
97,0.6489727254056843
97,0.6489727254056843
97,0.6489727254056843
97,0.6489727254056843
97,0.6489727254056843
97,0.6489727254056843
98,0.6489727254056843
98,0.6489727254056843
98,0.6489727254056843
98,0.6489727254056843
98,0.6489727254056843
98,0.6489727254056843
99,0.6489727254056843
99,0.6489727254056843
99,0.6489727254056843
99,0.6489727254056843
99,0.6489727254056843
99,0.6489727254056843
100,0.6489727254056843
