0,0.47998906856070905
0,0.47998906856070905
0,0.47998906856070905
0,0.47998906856070905
0,0.47998906856070905
0,0.47998906856070905
0,0.47998906856070905
0,0.47998906856070905
0,0.47998906856070905
0,0.47998906856070905
0,0.47998906856070905
0,0.47998906856070905
0,0.47998906856070905
0,0.47998906856070905
0,0.47998906856070905
0,0.47998906856070905
0,0.47998906856070905
0,0.47998906856070905
0,0.47998906856070905
0,0.47998906856070905
0,0.47998906856070905
0,0.47998906856070905
0,0.47998906856070905
1,0.47998906856070905
1,0.6825766247911219
1,0.6825766247911219
1,0.6825766247911219
1,0.6825766247911219
1,0.6825766247911219
1,0.6825766247911219
1,0.6825766247911219
1,0.6825766247911219
1,0.6825766247911219
1,0.6825766247911219
1,0.6825766247911219
1,0.6825766247911219
1,0.6825766247911219
1,0.6825766247911219
1,0.6825766247911219
1,0.6825766247911219
1,0.6825766247911219
1,0.6825766247911219
1,0.6825766247911219
1,0.6825766247911219
2,0.6825766247911219
2,0.6825766247911219
2,0.6825766247911219
2,0.6825766247911219
2,0.6825766247911219
2,0.8054724085051164
2,0.8054724085051164
2,0.8054724085051164
2,0.8054724085051164
2,0.8054724085051164
2,0.8054724085051164
2,0.8054724085051164
2,0.8054724085051164
2,0.8054724085051164
2,0.8054724085051164
2,0.8054724085051164
2,0.8054724085051164
2,0.8054724085051164
3,0.8054724085051164
3,0.8054724085051164
3,0.8054724085051164
3,0.8054724085051164
3,0.8054724085051164
3,0.8054724085051164
3,0.8054724085051164
3,0.8054724085051164
3,0.8054724085051164
3,0.8054724085051164
3,0.8054724085051164
3,0.8054724085051164
3,0.855085000424634
3,0.855085000424634
3,0.855085000424634
3,0.855085000424634
3,0.855085000424634
3,0.855085000424634
4,0.855085000424634
4,0.855085000424634
4,0.855085000424634
4,0.855085000424634
4,0.855085000424634
4,0.855085000424634
4,0.855085000424634
4,0.855085000424634
4,0.855085000424634
4,0.855085000424634
4,0.855085000424634
4,0.855085000424634
4,0.855085000424634
4,0.855085000424634
4,0.855085000424634
4,0.855085000424634
4,0.855085000424634
4,0.855085000424634
4,0.855085000424634
5,0.855085000424634
5,0.855085000424634
5,0.855085000424634
5,0.855085000424634
5,0.855085000424634
5,0.855085000424634
5,0.855085000424634
5,0.855085000424634
5,0.855085000424634
5,0.855085000424634
5,0.855085000424634
5,0.855085000424634
5,0.855085000424634
5,0.855085000424634
5,0.855085000424634
5,0.855085000424634
5,0.855085000424634
5,0.855085000424634
5,0.855085000424634
6,0.855085000424634
6,0.855085000424634
6,0.855085000424634
6,0.855085000424634
6,0.855085000424634
6,0.855085000424634
6,0.8648940558283835
6,0.8648940558283835
6,0.8648940558283835
6,0.8648940558283835
6,0.8648940558283835
6,0.8648940558283835
6,0.8648940558283835
6,0.8648940558283835
6,0.8648940558283835
6,0.8648940558283835
6,0.8648940558283835
6,0.8648940558283835
6,0.8648940558283835
7,0.8648940558283835
7,0.8648940558283835
7,0.8648940558283835
7,0.8648940558283835
7,0.8648940558283835
7,0.8648940558283835
7,0.8648940558283835
7,0.8648940558283835
7,0.8648940558283835
7,0.8648940558283835
7,0.8648940558283835
7,0.8648940558283835
7,0.8843191843972249
7,0.8843191843972249
7,0.8843191843972249
7,0.8843191843972249
7,0.8843191843972249
7,0.8843191843972249
8,0.8843191843972249
8,0.8843191843972249
8,0.8843191843972249
8,0.8843191843972249
8,0.8843191843972249
8,0.8843191843972249
8,0.8843191843972249
8,0.8843191843972249
8,0.8843191843972249
8,0.8843191843972249
8,0.8843191843972249
8,0.8843191843972249
8,0.8843191843972249
8,0.8843191843972249
8,0.8843191843972249
8,0.8843191843972249
8,0.8843191843972249
8,0.8843191843972249
9,0.8843191843972249
9,0.8843191843972249
9,0.8843191843972249
9,0.8843191843972249
9,0.8843191843972249
9,0.8843191843972249
9,0.8843191843972249
9,0.8843191843972249
9,0.8843191843972249
9,0.8843191843972249
9,0.8843191843972249
9,0.8843191843972249
9,0.8843191843972249
9,0.8843191843972249
9,0.8843191843972249
9,0.8843191843972249
9,0.8843191843972249
10,0.8843191843972249
10,0.8843191843972249
10,0.8843191843972249
10,0.8843191843972249
10,0.8843191843972249
10,0.8843191843972249
10,0.8843191843972249
10,0.8843191843972249
10,0.8843191843972249
10,0.904369007048703
10,0.904369007048703
10,0.904369007048703
10,0.904369007048703
10,0.904369007048703
10,0.904369007048703
10,0.904369007048703
10,0.904369007048703
11,0.904369007048703
11,0.904369007048703
11,0.904369007048703
11,0.904369007048703
11,0.904369007048703
11,0.904369007048703
11,0.904369007048703
11,0.904369007048703
11,0.904369007048703
11,0.904369007048703
11,0.904369007048703
11,0.904369007048703
11,0.904369007048703
11,0.904369007048703
11,0.904369007048703
11,0.904369007048703
12,0.904369007048703
12,0.9096258853875906
12,0.9096258853875906
12,0.9096258853875906
12,0.9096258853875906
12,0.9096258853875906
12,0.9096258853875906
12,0.9096258853875906
12,0.9096258853875906
12,0.9096258853875906
12,0.9096258853875906
12,0.9096258853875906
12,0.9096258853875906
12,0.9096258853875906
12,0.9096258853875906
13,0.9096258853875906
13,0.9096258853875906
13,0.9096258853875906
13,0.9096258853875906
13,0.9096258853875906
13,0.9096258853875906
13,0.9096258853875906
13,0.9096258853875906
13,0.9096258853875906
13,0.9096258853875906
13,0.9096258853875906
13,0.9096258853875906
13,0.9096258853875906
13,0.9096258853875906
13,0.9096258853875906
13,0.9096258853875906
14,0.9096258853875906
14,0.9096258853875906
14,0.9096258853875906
14,0.9096258853875906
14,0.9096258853875906
14,0.9096258853875906
14,0.9096258853875906
14,0.9096258853875906
14,0.9096258853875906
14,0.9096258853875906
14,0.9096258853875906
14,0.9096258853875906
14,0.9096258853875906
14,0.9096258853875906
14,0.9096258853875906
15,0.9096258853875906
15,0.9096258853875906
15,0.9096258853875906
15,0.9096258853875906
15,0.9096258853875906
15,0.9179461965451458
15,0.9179461965451458
15,0.9179461965451458
15,0.9179461965451458
15,0.9179461965451458
15,0.9179461965451458
15,0.9179461965451458
15,0.9179461965451458
15,0.9179461965451458
15,0.9179461965451458
15,0.9179461965451458
15,0.9179461965451458
16,0.9179461965451458
16,0.9179461965451458
16,0.9179461965451458
16,0.9179461965451458
16,0.9179461965451458
16,0.9179461965451458
16,0.9179461965451458
16,0.9179461965451458
16,0.9179461965451458
16,0.9179461965451458
16,0.9179461965451458
16,0.9179461965451458
16,0.9179461965451458
16,0.9179461965451458
16,0.9179461965451458
16,0.9179461965451458
17,0.9179461965451458
17,0.9179461965451458
17,0.9179461965451458
17,0.9179461965451458
17,0.9179461965451458
17,0.9179461965451458
17,0.9179461965451458
17,0.9179461965451458
17,0.9179461965451458
17,0.9179461965451458
17,0.9179461965451458
17,0.9179461965451458
17,0.9179461965451458
17,0.9179461965451458
17,0.9179461965451458
17,0.9179461965451458
18,0.9179461965451458
18,0.9179461965451458
18,0.9179461965451458
18,0.9179461965451458
18,0.9179461965451458
18,0.9179461965451458
18,0.9230501393314576
18,0.9230501393314576
18,0.9230501393314576
18,0.9230501393314576
18,0.9230501393314576
18,0.9230501393314576
18,0.9230501393314576
18,0.9230501393314576
18,0.9230501393314576
18,0.9230501393314576
19,0.9230501393314576
19,0.9230501393314576
19,0.9230501393314576
19,0.9230501393314576
19,0.9230501393314576
19,0.9230501393314576
19,0.9230501393314576
19,0.9230501393314576
19,0.9230501393314576
19,0.9230501393314576
19,0.9230501393314576
19,0.9230501393314576
19,0.9230501393314576
19,0.9230501393314576
20,0.9230501393314576
20,0.9258109257878603
20,0.9258109257878603
20,0.9258109257878603
20,0.9258109257878603
20,0.9258109257878603
20,0.9258109257878603
20,0.9258109257878603
20,0.9258109257878603
20,0.9258109257878603
20,0.9258109257878603
20,0.9258109257878603
20,0.9258109257878603
20,0.9258109257878603
20,0.9258109257878603
20,0.9258109257878603
21,0.9258109257878603
21,0.9258109257878603
21,0.9258109257878603
21,0.9258109257878603
21,0.9258109257878603
21,0.9258109257878603
21,0.9258109257878603
21,0.9258109257878603
21,0.9258109257878603
21,0.9258109257878603
21,0.9382273185069558
21,0.9382273185069558
21,0.9382273185069558
21,0.9382273185069558
21,0.9382273185069558
21,0.9382273185069558
22,0.9382273185069558
22,0.9382273185069558
22,0.9382273185069558
22,0.9382273185069558
22,0.9382273185069558
22,0.9382273185069558
22,0.9382273185069558
22,0.9382273185069558
22,0.9382273185069558
22,0.9382273185069558
22,0.9382273185069558
22,0.9382273185069558
22,0.9382273185069558
22,0.9382273185069558
22,0.9382273185069558
22,0.9382273185069558
22,0.9382273185069558
23,0.9382273185069558
23,0.9382273185069558
23,0.9384393107493084
23,0.9384393107493084
23,0.9384393107493084
23,0.9384393107493084
23,0.9384393107493084
23,0.9384393107493084
23,0.9384393107493084
23,0.9384393107493084
23,0.9384393107493084
23,0.9384393107493084
23,0.9384393107493084
23,0.9384393107493084
23,0.9384393107493084
24,0.9384393107493084
24,0.9384393107493084
24,0.9384393107493084
24,0.9384393107493084
24,0.9384393107493084
24,0.9384393107493084
24,0.9384393107493084
24,0.9384393107493084
24,0.9384393107493084
24,0.9384393107493084
24,0.9384393107493084
24,0.9384393107493084
24,0.9497598170977701
24,0.9497598170977701
24,0.9497598170977701
24,0.9497598170977701
25,0.9497598170977701
25,0.9497598170977701
25,0.9497598170977701
25,0.9497598170977701
25,0.9497598170977701
25,0.9497598170977701
25,0.9497598170977701
25,0.9497598170977701
25,0.9497598170977701
25,0.9497598170977701
25,0.9497598170977701
25,0.9497598170977701
25,0.9497598170977701
25,0.9497598170977701
25,0.9497598170977701
25,0.9497598170977701
26,0.9497598170977701
26,0.9497598170977701
26,0.9497598170977701
26,0.9497598170977701
26,0.9497598170977701
26,0.9497598170977701
26,0.9497598170977701
26,0.9497598170977701
26,0.9497598170977701
26,0.9497598170977701
26,0.9497598170977701
26,0.9497598170977701
26,0.9497598170977701
26,0.9497598170977701
26,0.9497598170977701
26,0.9497598170977701
27,0.9497598170977701
27,0.9497598170977701
27,0.9497598170977701
27,0.9497598170977701
27,0.9497598170977701
27,0.9497598170977701
27,0.9497598170977701
27,0.9497598170977701
27,0.9497598170977701
27,0.9497598170977701
27,0.9497598170977701
27,0.9497598170977701
27,0.9497598170977701
27,0.9497598170977701
27,0.9497598170977701
27,0.9497598170977701
28,0.9497598170977701
28,0.9497598170977701
28,0.9497598170977701
28,0.9497598170977701
28,0.9497598170977701
28,0.9497598170977701
28,0.9497598170977701
28,0.9497598170977701
28,0.9497598170977701
28,0.9497598170977701
28,0.9497598170977701
28,0.9497598170977701
28,0.9497598170977701
28,0.9497598170977701
28,0.9497598170977701
28,0.9497598170977701
29,0.9497598170977701
29,0.9497598170977701
29,0.9497598170977701
29,0.9497598170977701
29,0.9497598170977701
29,0.9497598170977701
29,0.9497598170977701
29,0.9497598170977701
29,0.9497598170977701
29,0.9497598170977701
29,0.9497598170977701
29,0.9497598170977701
29,0.9497598170977701
29,0.9497598170977701
29,0.9497598170977701
29,0.9497598170977701
30,0.9497598170977701
30,0.9497598170977701
30,0.9497598170977701
30,0.9497598170977701
30,0.9497598170977701
30,0.9497598170977701
30,0.9497598170977701
30,0.9497598170977701
30,0.9497598170977701
30,0.9497598170977701
30,0.9497598170977701
30,0.9497598170977701
30,0.9497598170977701
30,0.9497598170977701
30,0.9497598170977701
30,0.9497598170977701
31,0.9497598170977701
31,0.9497598170977701
31,0.9497598170977701
31,0.9497598170977701
31,0.9497598170977701
31,0.9497598170977701
31,0.9497598170977701
31,0.9497598170977701
31,0.9497598170977701
31,0.9497598170977701
31,0.9497598170977701
31,0.9497598170977701
31,0.9497598170977701
31,0.9497598170977701
31,0.9497598170977701
31,0.9497598170977701
31,0.9497598170977701
32,0.9497598170977701
32,0.9497598170977701
32,0.9497598170977701
32,0.9497598170977701
32,0.9497598170977701
32,0.9497598170977701
32,0.9497598170977701
32,0.9497598170977701
32,0.9497598170977701
32,0.9497598170977701
32,0.9497598170977701
32,0.9497598170977701
32,0.9497598170977701
32,0.9497598170977701
32,0.9497598170977701
33,0.9497598170977701
33,0.9497598170977701
33,0.9497598170977701
33,0.9497598170977701
33,0.9497598170977701
33,0.9497598170977701
33,0.9497598170977701
33,0.9497598170977701
33,0.9497598170977701
33,0.9497598170977701
33,0.9497598170977701
33,0.9497598170977701
33,0.9497598170977701
33,0.9497598170977701
33,0.9497598170977701
34,0.9497598170977701
34,0.9497598170977701
34,0.9497598170977701
34,0.9497598170977701
34,0.9497598170977701
34,0.9497598170977701
34,0.9497598170977701
34,0.9497598170977701
34,0.9497598170977701
34,0.9497598170977701
34,0.9497598170977701
34,0.9497598170977701
34,0.9497598170977701
34,0.9497598170977701
34,0.9497598170977701
34,0.9497598170977701
34,0.9497598170977701
35,0.9497598170977701
35,0.9497598170977701
35,0.9497598170977701
35,0.9497598170977701
35,0.9497598170977701
35,0.9497598170977701
35,0.9497598170977701
35,0.9497598170977701
35,0.9497598170977701
35,0.9497598170977701
35,0.9497598170977701
35,0.951777775590641
35,0.951777775590641
35,0.951777775590641
35,0.951777775590641
36,0.951777775590641
36,0.951777775590641
36,0.951777775590641
36,0.951777775590641
36,0.951777775590641
36,0.951777775590641
36,0.951777775590641
36,0.951777775590641
36,0.951777775590641
36,0.951777775590641
36,0.951777775590641
36,0.951777775590641
36,0.951777775590641
36,0.951777775590641
36,0.951777775590641
36,0.951777775590641
37,0.951777775590641
37,0.951777775590641
37,0.951777775590641
37,0.951777775590641
37,0.951777775590641
37,0.9531250985531466
37,0.9531250985531466
37,0.9531250985531466
37,0.9531250985531466
37,0.9531250985531466
37,0.9531250985531466
37,0.9531250985531466
37,0.9531250985531466
37,0.9531250985531466
37,0.9531250985531466
37,0.9531250985531466
38,0.9531250985531466
38,0.9531250985531466
38,0.9531250985531466
38,0.9531250985531466
38,0.9531250985531466
38,0.9531250985531466
38,0.9531250985531466
38,0.9531250985531466
38,0.9531250985531466
38,0.9531250985531466
38,0.9531250985531466
38,0.9531250985531466
38,0.9531250985531466
38,0.9531250985531466
38,0.9531250985531466
38,0.9531250985531466
39,0.9531250985531466
39,0.9531250985531466
39,0.9531250985531466
39,0.9531250985531466
39,0.9531250985531466
39,0.9531250985531466
39,0.9531250985531466
39,0.9531250985531466
39,0.9531250985531466
39,0.9531250985531466
39,0.9531250985531466
39,0.9531250985531466
39,0.9531250985531466
39,0.9531250985531466
39,0.9531250985531466
39,0.9531250985531466
39,0.9531250985531466
40,0.9531250985531466
40,0.9531250985531466
40,0.9531250985531466
40,0.9531250985531466
40,0.9531250985531466
40,0.9531250985531466
40,0.9532434448563096
40,0.9532434448563096
40,0.9532434448563096
40,0.9532434448563096
40,0.9532434448563096
40,0.9532434448563096
40,0.9532434448563096
40,0.9532434448563096
40,0.9532434448563096
40,0.9532434448563096
41,0.9532434448563096
41,0.9532434448563096
41,0.9532434448563096
41,0.9532434448563096
41,0.9532434448563096
41,0.9532434448563096
41,0.9532434448563096
41,0.9532434448563096
41,0.9532434448563096
41,0.9532434448563096
41,0.9532434448563096
41,0.9532434448563096
41,0.9532434448563096
41,0.9532434448563096
41,0.9532434448563096
42,0.9547253252503837
42,0.9547253252503837
42,0.9547253252503837
42,0.9547253252503837
42,0.9547253252503837
42,0.9547253252503837
42,0.9547253252503837
42,0.9547253252503837
42,0.9547253252503837
42,0.9547253252503837
42,0.9547253252503837
42,0.9547253252503837
42,0.9547253252503837
42,0.9547253252503837
42,0.9547253252503837
43,0.9547253252503837
43,0.9547253252503837
43,0.9547253252503837
43,0.9547253252503837
43,0.9547253252503837
43,0.9547253252503837
43,0.9547253252503837
43,0.9547253252503837
43,0.9547253252503837
43,0.9547253252503837
43,0.9547253252503837
43,0.9547253252503837
43,0.9547253252503837
43,0.9547253252503837
43,0.9547253252503837
44,0.9547253252503837
44,0.9547253252503837
44,0.9547253252503837
44,0.9547253252503837
44,0.9547253252503837
44,0.9547253252503837
44,0.9547253252503837
44,0.9547253252503837
44,0.9547253252503837
44,0.9547253252503837
44,0.9547253252503837
44,0.9547253252503837
44,0.9547253252503837
44,0.9547253252503837
44,0.9547253252503837
44,0.9547253252503837
45,0.9547253252503837
45,0.9547253252503837
45,0.9547253252503837
45,0.9547253252503837
45,0.955588491933525
45,0.955588491933525
45,0.955588491933525
45,0.955588491933525
45,0.955588491933525
45,0.955588491933525
45,0.955588491933525
45,0.955588491933525
45,0.955588491933525
45,0.955588491933525
45,0.955588491933525
45,0.955588491933525
46,0.955588491933525
46,0.955588491933525
46,0.955588491933525
46,0.955588491933525
46,0.955588491933525
46,0.955588491933525
46,0.955588491933525
46,0.955588491933525
46,0.955588491933525
46,0.955588491933525
46,0.955588491933525
46,0.955588491933525
46,0.955588491933525
46,0.955588491933525
46,0.955588491933525
46,0.955588491933525
47,0.955588491933525
47,0.955588491933525
47,0.955588491933525
47,0.955588491933525
47,0.955588491933525
47,0.955588491933525
47,0.955588491933525
47,0.955588491933525
47,0.955588491933525
47,0.955588491933525
47,0.955588491933525
47,0.955588491933525
47,0.955588491933525
47,0.955588491933525
47,0.955588491933525
48,0.955588491933525
48,0.955588491933525
48,0.955588491933525
48,0.955588491933525
48,0.955588491933525
48,0.955588491933525
48,0.955588491933525
48,0.955588491933525
48,0.955588491933525
48,0.955588491933525
48,0.955588491933525
48,0.955588491933525
48,0.955588491933525
48,0.955588491933525
48,0.955588491933525
49,0.955588491933525
49,0.955588491933525
49,0.955588491933525
49,0.955588491933525
49,0.955588491933525
49,0.955588491933525
49,0.955588491933525
49,0.955588491933525
49,0.955588491933525
49,0.955588491933525
49,0.955588491933525
49,0.955588491933525
49,0.955588491933525
49,0.955588491933525
49,0.955588491933525
49,0.955588491933525
50,0.955588491933525
50,0.9556160975647149
50,0.9556160975647149
50,0.9556160975647149
50,0.9556160975647149
50,0.9556160975647149
50,0.9556160975647149
50,0.9556160975647149
50,0.9556160975647149
50,0.9556160975647149
50,0.9556160975647149
50,0.9556160975647149
50,0.9556160975647149
50,0.9556160975647149
50,0.9556160975647149
50,0.9556160975647149
51,0.9556160975647149
51,0.9556160975647149
51,0.9556160975647149
51,0.9556160975647149
51,0.9556160975647149
51,0.9556160975647149
51,0.9556160975647149
51,0.9556160975647149
51,0.9556160975647149
51,0.9556160975647149
51,0.9577181032329528
51,0.9577181032329528
51,0.9577181032329528
51,0.9577181032329528
51,0.9577181032329528
51,0.9577181032329528
52,0.9577181032329528
52,0.9577181032329528
52,0.9577181032329528
52,0.9577181032329528
52,0.9577181032329528
52,0.9577181032329528
52,0.9577181032329528
52,0.9577181032329528
52,0.9577181032329528
52,0.9577181032329528
52,0.9577181032329528
52,0.9577181032329528
52,0.9577181032329528
52,0.9577181032329528
52,0.9577181032329528
52,0.9577181032329528
53,0.9577181032329528
53,0.9577181032329528
53,0.9577181032329528
53,0.9619706945548957
53,0.9619706945548957
53,0.9619706945548957
53,0.9619706945548957
53,0.9619706945548957
53,0.9619706945548957
53,0.9619706945548957
53,0.9619706945548957
53,0.9619706945548957
53,0.9619706945548957
53,0.9619706945548957
53,0.9619706945548957
53,0.9619706945548957
54,0.9619706945548957
54,0.9619706945548957
54,0.9619706945548957
54,0.9619706945548957
54,0.9619706945548957
54,0.9619706945548957
54,0.9619706945548957
54,0.9619706945548957
54,0.9619706945548957
54,0.9619706945548957
54,0.9619706945548957
54,0.9619706945548957
54,0.9619706945548957
54,0.9619706945548957
54,0.9619706945548957
54,0.9619706945548957
55,0.9619706945548957
55,0.9619706945548957
55,0.9619706945548957
55,0.9619706945548957
55,0.9619706945548957
55,0.9619706945548957
55,0.9619706945548957
55,0.9619706945548957
55,0.9619706945548957
55,0.9619706945548957
55,0.9619706945548957
55,0.9619706945548957
55,0.9619706945548957
55,0.9619706945548957
55,0.9619706945548957
55,0.9619706945548957
56,0.9619706945548957
56,0.9619706945548957
56,0.9619706945548957
56,0.9619706945548957
56,0.9619706945548957
56,0.9626318673684592
56,0.9626318673684592
56,0.9626318673684592
56,0.9626318673684592
56,0.9626318673684592
56,0.9626318673684592
56,0.9626318673684592
56,0.9626318673684592
56,0.9626318673684592
56,0.9626318673684592
56,0.9626318673684592
57,0.9626318673684592
57,0.9626318673684592
57,0.9626318673684592
57,0.9626318673684592
57,0.9626318673684592
57,0.9626318673684592
57,0.9626318673684592
57,0.9626318673684592
57,0.9626318673684592
57,0.9626318673684592
57,0.9626318673684592
57,0.9626318673684592
57,0.9626318673684592
57,0.9626318673684592
57,0.9626318673684592
58,0.9626318673684592
58,0.9626318673684592
58,0.9626318673684592
58,0.9626318673684592
58,0.9626318673684592
58,0.9626318673684592
58,0.9626318673684592
58,0.9626318673684592
58,0.9626318673684592
58,0.9626318673684592
58,0.9626318673684592
58,0.9626318673684592
58,0.9626318673684592
58,0.9626318673684592
58,0.9626318673684592
58,0.9626318673684592
59,0.9626318673684592
59,0.9626318673684592
59,0.9626318673684592
59,0.9626318673684592
59,0.9626318673684592
59,0.9626318673684592
59,0.9626318673684592
59,0.9626318673684592
59,0.9679260420935115
59,0.9679260420935115
59,0.9679260420935115
59,0.9679260420935115
59,0.9679260420935115
59,0.9679260420935115
60,0.9679260420935115
60,0.9679260420935115
60,0.9679260420935115
60,0.9679260420935115
60,0.9679260420935115
60,0.9679260420935115
60,0.9679260420935115
60,0.9679260420935115
60,0.9679260420935115
60,0.9679260420935115
60,0.9679260420935115
60,0.9679260420935115
60,0.9679260420935115
60,0.9679260420935115
60,0.9679260420935115
60,0.9679260420935115
61,0.9679260420935115
61,0.9679260420935115
61,0.9679260420935115
61,0.9679260420935115
61,0.9679260420935115
61,0.9679260420935115
61,0.9679260420935115
61,0.9679260420935115
61,0.9679260420935115
61,0.9679260420935115
61,0.9679260420935115
61,0.9679260420935115
61,0.9679260420935115
61,0.9679260420935115
61,0.9679260420935115
61,0.9679260420935115
62,0.9679260420935115
62,0.9679260420935115
62,0.9679260420935115
62,0.9679260420935115
62,0.9679260420935115
62,0.9679260420935115
62,0.9679260420935115
62,0.9679260420935115
62,0.9679260420935115
62,0.9679260420935115
62,0.9679260420935115
62,0.9679260420935115
62,0.9681176444105924
62,0.9681176444105924
62,0.9681176444105924
62,0.9681176444105924
63,0.9681176444105924
63,0.9681176444105924
63,0.9681176444105924
63,0.9681176444105924
63,0.9681176444105924
63,0.9681176444105924
63,0.9681176444105924
63,0.9681176444105924
63,0.9681176444105924
63,0.9681176444105924
63,0.9681176444105924
63,0.9681176444105924
63,0.9681176444105924
63,0.9681176444105924
63,0.9681176444105924
63,0.9681176444105924
64,0.9681176444105924
64,0.9681176444105924
64,0.9681176444105924
64,0.9681176444105924
64,0.9681176444105924
64,0.9681176444105924
64,0.9681176444105924
64,0.9681176444105924
64,0.9681176444105924
64,0.9681176444105924
64,0.9681176444105924
64,0.9681176444105924
64,0.9681176444105924
64,0.9681176444105924
64,0.9681176444105924
64,0.9681176444105924
65,0.9681176444105924
65,0.9681176444105924
65,0.9681176444105924
65,0.9681176444105924
65,0.9681176444105924
65,0.9681176444105924
65,0.9681176444105924
65,0.9681176444105924
65,0.9681176444105924
65,0.9681176444105924
65,0.9681176444105924
65,0.9681176444105924
65,0.9681176444105924
65,0.9681176444105924
65,0.9683089473530299
66,0.9683089473530299
66,0.9683089473530299
66,0.9683089473530299
66,0.9683089473530299
66,0.9683089473530299
66,0.9683089473530299
66,0.9683089473530299
66,0.9683089473530299
66,0.9683089473530299
66,0.9683089473530299
66,0.9683089473530299
66,0.9683089473530299
66,0.9683089473530299
66,0.9683089473530299
66,0.9683089473530299
66,0.9683089473530299
67,0.9683089473530299
67,0.9683089473530299
67,0.9683089473530299
67,0.9683089473530299
67,0.9683089473530299
67,0.9683089473530299
67,0.9683089473530299
67,0.9683089473530299
67,0.9683089473530299
67,0.9683089473530299
67,0.9683089473530299
67,0.9683089473530299
67,0.9683089473530299
67,0.9683089473530299
67,0.9683089473530299
67,0.9683089473530299
68,0.9683089473530299
68,0.9683089473530299
68,0.9683089473530299
68,0.9683089473530299
68,0.9683089473530299
68,0.9683089473530299
68,0.9683089473530299
68,0.9683089473530299
68,0.9683089473530299
68,0.9683089473530299
68,0.9683089473530299
68,0.9683089473530299
68,0.9683089473530299
68,0.9683089473530299
68,0.9683089473530299
69,0.9683089473530299
69,0.9683089473530299
69,0.9712852681512282
69,0.9712852681512282
69,0.9712852681512282
69,0.9712852681512282
69,0.9712852681512282
69,0.9712852681512282
69,0.9712852681512282
69,0.9712852681512282
69,0.9712852681512282
69,0.9712852681512282
69,0.9712852681512282
69,0.9712852681512282
69,0.9712852681512282
69,0.9712852681512282
70,0.9712852681512282
70,0.9712852681512282
70,0.9712852681512282
70,0.9712852681512282
70,0.9712852681512282
70,0.9712852681512282
70,0.9712852681512282
70,0.9712852681512282
70,0.9712852681512282
70,0.9712852681512282
70,0.9712852681512282
70,0.9726026662635426
70,0.9726026662635426
70,0.9726026662635426
70,0.9726026662635426
71,0.9726026662635426
71,0.9726026662635426
71,0.9726026662635426
71,0.9726026662635426
71,0.9726026662635426
71,0.9726026662635426
71,0.9726026662635426
71,0.9726026662635426
71,0.9726026662635426
71,0.9726026662635426
71,0.9726026662635426
71,0.9726026662635426
72,0.9726026662635426
72,0.9726026662635426
72,0.9726026662635426
72,0.9726026662635426
72,0.9726026662635426
72,0.9726026662635426
72,0.9726026662635426
72,0.9726026662635426
72,0.9726026662635426
72,0.9726026662635426
72,0.9726026662635426
72,0.9726026662635426
72,0.9726026662635426
72,0.9726026662635426
72,0.9726026662635426
72,0.9726026662635426
73,0.9726026662635426
73,0.9726026662635426
73,0.9726026662635426
73,0.9726026662635426
73,0.9726026662635426
73,0.9726026662635426
73,0.9726026662635426
73,0.9726026662635426
73,0.9726026662635426
73,0.9726026662635426
73,0.9726026662635426
73,0.9726026662635426
74,0.9726026662635426
74,0.9726026662635426
74,0.9726026662635426
74,0.9726026662635426
74,0.9726026662635426
74,0.9726026662635426
74,0.9729991038710628
74,0.9729991038710628
74,0.9729991038710628
74,0.9729991038710628
74,0.9729991038710628
74,0.9729991038710628
74,0.9729991038710628
74,0.9729991038710628
74,0.9729991038710628
75,0.9729991038710628
75,0.9729991038710628
75,0.9729991038710628
75,0.9729991038710628
75,0.9729991038710628
75,0.9729991038710628
75,0.9729991038710628
75,0.9729991038710628
75,0.9729991038710628
75,0.9729991038710628
75,0.9729991038710628
75,0.9729991038710628
75,0.9729991038710628
75,0.9729991038710628
75,0.9729991038710628
75,0.9729991038710628
75,0.97369476218261
76,0.97369476218261
76,0.97369476218261
76,0.97369476218261
76,0.97369476218261
76,0.97369476218261
76,0.97369476218261
76,0.97369476218261
76,0.97369476218261
76,0.97369476218261
76,0.97369476218261
76,0.97369476218261
76,0.97369476218261
76,0.97369476218261
76,0.97369476218261
76,0.97369476218261
76,0.97369476218261
77,0.97369476218261
77,0.97369476218261
77,0.97369476218261
77,0.97369476218261
77,0.97369476218261
77,0.97369476218261
77,0.97369476218261
77,0.97369476218261
77,0.97369476218261
77,0.97369476218261
77,0.97369476218261
77,0.97369476218261
77,0.97369476218261
78,0.97369476218261
78,0.97369476218261
78,0.97369476218261
78,0.97369476218261
78,0.97369476218261
78,0.97369476218261
78,0.97369476218261
78,0.97369476218261
78,0.97369476218261
78,0.97369476218261
78,0.97369476218261
78,0.97369476218261
78,0.97369476218261
78,0.97369476218261
78,0.97369476218261
78,0.97369476218261
79,0.97369476218261
79,0.97369476218261
79,0.97369476218261
79,0.97369476218261
79,0.9740018728407663
79,0.9740018728407663
79,0.9740018728407663
79,0.9740018728407663
79,0.9740018728407663
79,0.9740018728407663
79,0.9740018728407663
79,0.9740018728407663
79,0.9740018728407663
79,0.9740018728407663
79,0.9740018728407663
79,0.9740018728407663
80,0.9740018728407663
80,0.9740018728407663
80,0.9740018728407663
80,0.9740018728407663
80,0.9740018728407663
80,0.9740018728407663
80,0.9740018728407663
80,0.9740018728407663
80,0.9740018728407663
80,0.9740018728407663
80,0.9740018728407663
80,0.9740018728407663
80,0.9740018728407663
80,0.9740018728407663
80,0.9740018728407663
80,0.9740018728407663
81,0.9740018728407663
81,0.9740018728407663
81,0.9740018728407663
81,0.9740018728407663
81,0.9740018728407663
81,0.9740018728407663
81,0.9740018728407663
81,0.9740018728407663
81,0.9740018728407663
81,0.9740018728407663
81,0.9740018728407663
81,0.9740018728407663
81,0.9740018728407663
81,0.9740018728407663
81,0.9740018728407663
81,0.9740018728407663
82,0.9740018728407663
82,0.9740018728407663
82,0.9740018728407663
82,0.9740018728407663
82,0.9740018728407663
82,0.9740018728407663
82,0.9742244863462575
82,0.9742244863462575
82,0.9742244863462575
82,0.9742244863462575
82,0.9742244863462575
82,0.9742244863462575
82,0.9742244863462575
82,0.9742244863462575
82,0.9742244863462575
82,0.9742244863462575
82,0.9742244863462575
82,0.9742244863462575
83,0.9742244863462575
83,0.9742244863462575
83,0.9742244863462575
83,0.9742244863462575
83,0.9742244863462575
83,0.9742244863462575
83,0.9742244863462575
83,0.9742244863462575
83,0.9742244863462575
83,0.9742244863462575
83,0.9742244863462575
83,0.9742244863462575
83,0.9742244863462575
83,0.9742244863462575
83,0.9742244863462575
83,0.9742244863462575
84,0.9742244863462575
84,0.9742244863462575
84,0.9742244863462575
84,0.9742244863462575
84,0.9742244863462575
84,0.9742244863462575
84,0.9742244863462575
84,0.9742244863462575
84,0.9742244863462575
84,0.9742244863462575
84,0.9742244863462575
84,0.9742244863462575
84,0.9742244863462575
84,0.9742244863462575
84,0.9742244863462575
85,0.9742244863462575
85,0.9742244863462575
85,0.9742244863462575
85,0.9742244863462575
85,0.9742244863462575
85,0.9742244863462575
85,0.9742244863462575
85,0.9763585439681125
85,0.9763585439681125
85,0.9763585439681125
85,0.9763585439681125
85,0.9763585439681125
85,0.9763585439681125
85,0.9763585439681125
85,0.9763585439681125
85,0.9763585439681125
86,0.9763585439681125
86,0.9763585439681125
86,0.9763585439681125
86,0.9763585439681125
86,0.9763585439681125
86,0.9763585439681125
86,0.9763585439681125
86,0.9763585439681125
86,0.9763585439681125
86,0.9763585439681125
86,0.9763585439681125
86,0.9763585439681125
86,0.9763585439681125
86,0.9763585439681125
86,0.9763585439681125
86,0.9763585439681125
87,0.9783926643349189
87,0.9783926643349189
87,0.9783926643349189
87,0.9783926643349189
87,0.9783926643349189
87,0.9783926643349189
87,0.9783926643349189
87,0.9783926643349189
87,0.9783926643349189
87,0.9783926643349189
87,0.9783926643349189
87,0.9783926643349189
87,0.9783926643349189
87,0.9783926643349189
87,0.9783926643349189
87,0.9783926643349189
87,0.9783926643349189
88,0.9783926643349189
88,0.9783926643349189
88,0.9783926643349189
88,0.9783926643349189
88,0.9783926643349189
88,0.9783926643349189
88,0.9783926643349189
88,0.9783926643349189
88,0.9783926643349189
88,0.9783926643349189
88,0.9783926643349189
88,0.9783926643349189
88,0.9783926643349189
88,0.9783926643349189
88,0.9783926643349189
88,0.9783926643349189
89,0.9783926643349189
89,0.9783926643349189
89,0.9783926643349189
89,0.9783926643349189
89,0.9783926643349189
89,0.9783926643349189
89,0.9783926643349189
89,0.9783926643349189
89,0.9783926643349189
89,0.9783926643349189
89,0.9783926643349189
89,0.9783926643349189
89,0.9783926643349189
89,0.9783926643349189
89,0.9783926643349189
89,0.9783926643349189
89,0.9783926643349189
90,0.9804969294406384
90,0.9804969294406384
90,0.9804969294406384
90,0.9804969294406384
90,0.9804969294406384
90,0.9804969294406384
90,0.9804969294406384
90,0.9804969294406384
90,0.9804969294406384
90,0.9804969294406384
90,0.9804969294406384
90,0.9804969294406384
90,0.9804969294406384
90,0.9804969294406384
90,0.9804969294406384
90,0.9804969294406384
91,0.9804969294406384
91,0.9804969294406384
91,0.9804969294406384
91,0.9804969294406384
91,0.9804969294406384
91,0.9804969294406384
91,0.9804969294406384
91,0.9804969294406384
91,0.9804969294406384
91,0.9812022196649032
91,0.9812022196649032
91,0.9812022196649032
91,0.9812022196649032
91,0.9812022196649032
91,0.9812022196649032
91,0.9812022196649032
91,0.9812022196649032
91,0.9812022196649032
92,0.9812022196649032
92,0.9812022196649032
92,0.9812022196649032
92,0.9812022196649032
92,0.9812022196649032
92,0.9812022196649032
92,0.9812022196649032
92,0.9812022196649032
92,0.9812022196649032
92,0.9812022196649032
92,0.9812022196649032
92,0.9812022196649032
92,0.9812022196649032
92,0.9812022196649032
92,0.9812022196649032
92,0.9812022196649032
92,0.9812022196649032
93,0.9812022196649032
93,0.9812022196649032
93,0.9812022196649032
93,0.9812022196649032
93,0.9812022196649032
93,0.9812022196649032
93,0.9812022196649032
93,0.9812022196649032
93,0.9812022196649032
93,0.9812022196649032
93,0.9812022196649032
93,0.9812022196649032
93,0.9812022196649032
93,0.9812022196649032
93,0.9812022196649032
93,0.9812022196649032
93,0.9812022196649032
94,0.9812022196649032
94,0.9812022196649032
94,0.9812022196649032
94,0.9812022196649032
94,0.9812022196649032
94,0.9812022196649032
94,0.9812022196649032
94,0.9834812813303605
94,0.9834812813303605
94,0.9834812813303605
94,0.9834812813303605
94,0.9834812813303605
94,0.9834812813303605
94,0.9834812813303605
94,0.9834812813303605
94,0.9834812813303605
94,0.9834812813303605
95,0.9834812813303605
95,0.9834812813303605
95,0.9834812813303605
95,0.9834812813303605
95,0.9834812813303605
95,0.9834812813303605
95,0.9834812813303605
95,0.9834812813303605
95,0.9834812813303605
95,0.9834812813303605
95,0.9834812813303605
95,0.9834812813303605
95,0.9834812813303605
95,0.9834812813303605
95,0.9834812813303605
95,0.9834812813303605
96,0.9834812813303605
96,0.9834812813303605
96,0.9834812813303605
96,0.9834812813303605
96,0.9834812813303605
96,0.9834812813303605
96,0.9834812813303605
96,0.9834812813303605
96,0.9834812813303605
96,0.9834812813303605
96,0.9834812813303605
96,0.9834812813303605
96,0.9834812813303605
96,0.9834812813303605
96,0.9834812813303605
96,0.9834812813303605
96,0.9834812813303605
97,0.9834812813303605
97,0.9834812813303605
97,0.9834812813303605
97,0.9834812813303605
97,0.9834812813303605
97,0.9834812813303605
97,0.9834812813303605
97,0.983896091773514
97,0.983896091773514
97,0.983896091773514
97,0.983896091773514
97,0.983896091773514
97,0.983896091773514
97,0.983896091773514
97,0.983896091773514
97,0.983896091773514
97,0.983896091773514
98,0.983896091773514
98,0.983896091773514
98,0.983896091773514
98,0.983896091773514
98,0.983896091773514
98,0.983896091773514
98,0.983896091773514
98,0.983896091773514
98,0.983896091773514
98,0.983896091773514
98,0.983896091773514
98,0.983896091773514
98,0.983896091773514
98,0.983896091773514
98,0.983896091773514
98,0.983896091773514
98,0.983896091773514
99,0.983896091773514
99,0.983896091773514
99,0.983896091773514
99,0.983896091773514
99,0.983896091773514
99,0.983896091773514
99,0.983896091773514
99,0.983896091773514
99,0.983896091773514
99,0.983896091773514
99,0.983896091773514
99,0.983896091773514
99,0.983896091773514
99,0.983896091773514
99,0.983896091773514
99,0.983896091773514
99,0.983896091773514
100,0.983896091773514
100,0.983896091773514
100,0.983896091773514
100,0.983896091773514
100,0.983896091773514
100,0.983896091773514
100,0.983896091773514
100,0.983896091773514
100,0.983896091773514
100,0.983896091773514
100,0.983896091773514
100,0.983896091773514
100,0.983896091773514
100,0.983896091773514
100,0.983896091773514
100,0.983896091773514
100,0.983896091773514
101,0.983896091773514
101,0.983896091773514
101,0.983896091773514
101,0.983896091773514
101,0.983896091773514
101,0.983896091773514
101,0.983896091773514
101,0.983896091773514
101,0.983896091773514
101,0.983896091773514
101,0.983896091773514
101,0.983896091773514
101,0.983896091773514
101,0.983896091773514
101,0.983956043670356
101,0.983956043670356
102,0.983956043670356
102,0.983956043670356
102,0.983956043670356
102,0.983956043670356
102,0.983956043670356
102,0.983956043670356
102,0.983956043670356
102,0.983956043670356
102,0.983956043670356
102,0.983956043670356
102,0.983956043670356
102,0.983956043670356
102,0.983956043670356
102,0.983956043670356
102,0.983956043670356
102,0.983956043670356
103,0.983956043670356
103,0.983956043670356
103,0.983956043670356
103,0.983956043670356
103,0.983956043670356
103,0.983956043670356
103,0.983956043670356
103,0.983956043670356
103,0.983956043670356
103,0.983956043670356
103,0.983956043670356
103,0.983956043670356
103,0.983956043670356
103,0.983956043670356
103,0.983956043670356
103,0.983956043670356
103,0.983956043670356
104,0.983956043670356
104,0.983956043670356
104,0.983956043670356
104,0.983956043670356
104,0.983956043670356
104,0.983956043670356
104,0.983956043670356
104,0.983956043670356
104,0.983956043670356
104,0.983956043670356
104,0.983956043670356
104,0.983956043670356
104,0.983956043670356
104,0.983956043670356
104,0.983956043670356
104,0.983956043670356
105,0.983956043670356
105,0.983956043670356
105,0.983956043670356
105,0.983956043670356
105,0.983956043670356
105,0.983956043670356
105,0.983956043670356
105,0.983956043670356
105,0.983956043670356
105,0.983956043670356
105,0.983956043670356
105,0.983956043670356
105,0.983956043670356
105,0.983956043670356
105,0.983956043670356
105,0.983956043670356
106,0.983956043670356
106,0.983956043670356
106,0.983956043670356
106,0.983956043670356
106,0.983956043670356
106,0.983956043670356
106,0.983956043670356
106,0.983956043670356
106,0.9847777190664808
106,0.9847777190664808
106,0.9847777190664808
106,0.9847777190664808
106,0.9847777190664808
106,0.9847777190664808
106,0.9847777190664808
107,0.9847777190664808
107,0.9847777190664808
107,0.9847777190664808
107,0.9847777190664808
107,0.9847777190664808
107,0.9847777190664808
107,0.9847777190664808
107,0.9847777190664808
107,0.9847777190664808
107,0.9847777190664808
107,0.9847777190664808
107,0.9847777190664808
107,0.9847777190664808
107,0.9847777190664808
107,0.9847777190664808
108,0.9847777190664808
108,0.9847777190664808
108,0.9847777190664808
108,0.9847777190664808
108,0.9847777190664808
108,0.9847777190664808
108,0.9847777190664808
108,0.9847777190664808
108,0.9847777190664808
108,0.9847777190664808
108,0.9847777190664808
108,0.9847777190664808
108,0.9847777190664808
108,0.9847777190664808
108,0.9847777190664808
109,0.9847777190664808
109,0.9847777190664808
109,0.9847777190664808
109,0.9847777190664808
109,0.9847777190664808
109,0.9847777190664808
109,0.9847777190664808
109,0.9847777190664808
109,0.9847777190664808
109,0.9847777190664808
109,0.9847777190664808
109,0.9847777190664808
109,0.9847777190664808
109,0.9847800415401128
109,0.9847800415401128
110,0.9847800415401128
110,0.9847800415401128
110,0.9847800415401128
110,0.9847800415401128
110,0.9847800415401128
110,0.9847800415401128
110,0.9847800415401128
110,0.9847800415401128
110,0.9847800415401128
110,0.9847800415401128
110,0.9847800415401128
110,0.9847800415401128
110,0.9847800415401128
110,0.9847800415401128
111,0.9847800415401128
111,0.9847800415401128
111,0.9847800415401128
111,0.9847800415401128
111,0.9847800415401128
111,0.9847800415401128
111,0.9847800415401128
111,0.9847800415401128
111,0.9847800415401128
111,0.985664228170231
111,0.985664228170231
111,0.985664228170231
111,0.985664228170231
111,0.985664228170231
111,0.985664228170231
111,0.985664228170231
112,0.985664228170231
112,0.985664228170231
112,0.985664228170231
112,0.985664228170231
112,0.985664228170231
112,0.985664228170231
112,0.985664228170231
112,0.985664228170231
112,0.985664228170231
112,0.985664228170231
112,0.985664228170231
112,0.985664228170231
112,0.985664228170231
112,0.985664228170231
113,0.985664228170231
113,0.985664228170231
113,0.985664228170231
113,0.985664228170231
113,0.985664228170231
113,0.985664228170231
113,0.985664228170231
113,0.985664228170231
113,0.985664228170231
113,0.985664228170231
113,0.985664228170231
113,0.985664228170231
113,0.985664228170231
113,0.985664228170231
113,0.985664228170231
113,0.985664228170231
113,0.985664228170231
114,0.985664228170231
114,0.985664228170231
114,0.985664228170231
114,0.985664228170231
114,0.985664228170231
114,0.985664228170231
114,0.985664228170231
114,0.985664228170231
114,0.985664228170231
114,0.985664228170231
114,0.985664228170231
114,0.985664228170231
114,0.985664228170231
115,0.985664228170231
115,0.985664228170231
115,0.985664228170231
115,0.985664228170231
115,0.985664228170231
115,0.985664228170231
115,0.985664228170231
115,0.985664228170231
115,0.985664228170231
115,0.985664228170231
115,0.985664228170231
115,0.985664228170231
115,0.985664228170231
116,0.985664228170231
116,0.985664228170231
116,0.985664228170231
116,0.985664228170231
116,0.985664228170231
116,0.985664228170231
116,0.985664228170231
116,0.985664228170231
116,0.985664228170231
116,0.985664228170231
116,0.985664228170231
116,0.9860223699990681
116,0.9860223699990681
116,0.9860223699990681
116,0.9860223699990681
116,0.9860223699990681
117,0.9860223699990681
117,0.9860223699990681
117,0.9860223699990681
117,0.9860223699990681
117,0.9860223699990681
117,0.9860223699990681
117,0.9860223699990681
117,0.9860223699990681
117,0.9860223699990681
117,0.9860223699990681
117,0.9860223699990681
117,0.9860223699990681
117,0.9860223699990681
117,0.9860223699990681
117,0.9860223699990681
117,0.9860223699990681
118,0.9860223699990681
118,0.9860223699990681
118,0.9860223699990681
118,0.9860223699990681
118,0.9873008137021467
118,0.9873008137021467
118,0.9873008137021467
118,0.9873008137021467
118,0.9873008137021467
118,0.9873008137021467
118,0.9873008137021467
118,0.9873008137021467
118,0.9873008137021467
118,0.9873008137021467
118,0.9873008137021467
118,0.9873008137021467
119,0.9873008137021467
119,0.9873008137021467
119,0.9873008137021467
119,0.9873008137021467
119,0.9873008137021467
119,0.9873008137021467
119,0.9873008137021467
119,0.9873008137021467
119,0.9873008137021467
119,0.9873008137021467
119,0.9873008137021467
119,0.9873008137021467
119,0.9873008137021467
119,0.9873008137021467
119,0.9873008137021467
120,0.9873008137021467
120,0.9873008137021467
120,0.9873008137021467
120,0.9873008137021467
120,0.9873008137021467
120,0.9873008137021467
120,0.9873008137021467
120,0.9873008137021467
120,0.9873008137021467
120,0.9873008137021467
120,0.9873008137021467
120,0.9873008137021467
120,0.9873008137021467
120,0.9873008137021467
120,0.9873008137021467
121,0.9873008137021467
121,0.9873008137021467
121,0.9873008137021467
121,0.9873008137021467
121,0.9873008137021467
121,0.9873008137021467
121,0.9873008137021467
121,0.9873008137021467
121,0.9873838933840182
121,0.9873838933840182
121,0.9873838933840182
121,0.9873838933840182
121,0.9873838933840182
121,0.9873838933840182
121,0.9873838933840182
121,0.9873838933840182
122,0.9873838933840182
122,0.9873838933840182
122,0.9873838933840182
122,0.9873838933840182
122,0.9873838933840182
122,0.9873838933840182
122,0.9873838933840182
122,0.9873838933840182
122,0.9873838933840182
122,0.9873838933840182
122,0.9873838933840182
122,0.9873838933840182
122,0.9873838933840182
122,0.9873838933840182
122,0.9873838933840182
123,0.9873838933840182
123,0.9873838933840182
123,0.9873838933840182
123,0.9873838933840182
123,0.9873838933840182
123,0.9873838933840182
123,0.9873838933840182
123,0.9873838933840182
123,0.9873838933840182
123,0.9873838933840182
123,0.9873838933840182
123,0.9873838933840182
123,0.9873838933840182
123,0.9873838933840182
123,0.9873838933840182
123,0.9873838933840182
124,0.9873838933840182
124,0.9873838933840182
124,0.9873838933840182
124,0.9873838933840182
124,0.9873838933840182
124,0.9873838933840182
124,0.9873838933840182
124,0.9873838933840182
124,0.9873838933840182
124,0.9873838933840182
124,0.9873838933840182
124,0.9873838933840182
124,0.9873838933840182
124,0.9873838933840182
124,0.9873838933840182
124,0.9873838933840182
125,0.9873838933840182
125,0.9873838933840182
125,0.9873838933840182
125,0.9873838933840182
125,0.9873838933840182
125,0.9873838933840182
125,0.9873838933840182
125,0.9873838933840182
125,0.9873838933840182
125,0.9873838933840182
125,0.9873838933840182
125,0.9873838933840182
125,0.9873838933840182
125,0.9873838933840182
125,0.9873838933840182
125,0.9873838933840182
125,0.9873838933840182
126,0.9873838933840182
126,0.9873838933840182
126,0.9873838933840182
126,0.9873838933840182
126,0.9873838933840182
126,0.9873838933840182
126,0.9873838933840182
126,0.9873838933840182
126,0.9873838933840182
126,0.9873838933840182
126,0.9873838933840182
126,0.9873838933840182
126,0.9873838933840182
126,0.9873838933840182
126,0.9873838933840182
127,0.9873838933840182
127,0.9873838933840182
127,0.9873838933840182
127,0.9873838933840182
127,0.9873838933840182
127,0.9873838933840182
127,0.9873838933840182
127,0.9873838933840182
127,0.9873838933840182
127,0.9873838933840182
127,0.9873838933840182
127,0.9873838933840182
127,0.9873838933840182
127,0.9873838933840182
127,0.9873838933840182
127,0.9873838933840182
127,0.9873838933840182
128,0.9873838933840182
128,0.9873838933840182
128,0.9873838933840182
128,0.9873838933840182
128,0.9873838933840182
128,0.9873838933840182
128,0.9873838933840182
128,0.9873838933840182
128,0.9873838933840182
128,0.9873838933840182
128,0.9873838933840182
128,0.9873838933840182
128,0.9873838933840182
128,0.9873838933840182
128,0.9873838933840182
128,0.9873838933840182
129,0.9873838933840182
129,0.9873838933840182
129,0.9873838933840182
129,0.9873838933840182
129,0.9873838933840182
129,0.9873838933840182
129,0.9873838933840182
129,0.9873838933840182
129,0.9873838933840182
129,0.9873838933840182
129,0.9873838933840182
129,0.9873838933840182
129,0.9873838933840182
129,0.9873838933840182
129,0.9873838933840182
130,0.9873838933840182
130,0.9873838933840182
130,0.9873838933840182
130,0.9873838933840182
130,0.9873838933840182
130,0.9873838933840182
130,0.9873838933840182
130,0.9873838933840182
130,0.9873838933840182
130,0.9873838933840182
130,0.9873838933840182
130,0.9873838933840182
130,0.9873838933840182
130,0.9873838933840182
130,0.9873838933840182
130,0.9873838933840182
131,0.9873838933840182
131,0.9873838933840182
131,0.9873838933840182
131,0.9873838933840182
131,0.9873838933840182
131,0.9873838933840182
131,0.9873838933840182
131,0.9873838933840182
131,0.9873838933840182
131,0.9873838933840182
131,0.9873838933840182
131,0.9873838933840182
131,0.9873838933840182
131,0.9873838933840182
131,0.9873838933840182
132,0.9873838933840182
132,0.9873838933840182
132,0.9873838933840182
132,0.9873838933840182
132,0.9873838933840182
132,0.9873838933840182
132,0.9873838933840182
132,0.9873838933840182
132,0.9873838933840182
132,0.9873838933840182
132,0.9873838933840182
132,0.9873838933840182
132,0.9873838933840182
132,0.9873838933840182
132,0.9873838933840182
132,0.9873838933840182
133,0.9873838933840182
133,0.9873838933840182
133,0.9873838933840182
133,0.9873838933840182
133,0.9873838933840182
133,0.9873838933840182
133,0.9873838933840182
133,0.9873838933840182
133,0.9873838933840182
133,0.9873838933840182
133,0.9873838933840182
133,0.9873838933840182
133,0.9873838933840182
133,0.9873838933840182
133,0.9873838933840182
133,0.9873838933840182
134,0.9873838933840182
134,0.9873838933840182
134,0.9873838933840182
134,0.9873838933840182
134,0.9873838933840182
134,0.9873838933840182
134,0.9873838933840182
134,0.9873838933840182
134,0.9873838933840182
134,0.9873838933840182
134,0.9873838933840182
134,0.9873838933840182
134,0.9873838933840182
134,0.9873838933840182
134,0.9873838933840182
135,0.9873838933840182
135,0.9873838933840182
135,0.9873838933840182
135,0.9873838933840182
135,0.9873838933840182
135,0.9873838933840182
135,0.9873838933840182
135,0.9873838933840182
135,0.9873838933840182
135,0.9873838933840182
135,0.9873838933840182
135,0.9873838933840182
135,0.9873838933840182
135,0.9873838933840182
135,0.9873838933840182
135,0.9873838933840182
136,0.9873838933840182
136,0.9873838933840182
136,0.9873838933840182
136,0.9873838933840182
136,0.9873838933840182
136,0.9873838933840182
136,0.9873838933840182
136,0.9873838933840182
136,0.9873838933840182
136,0.9873838933840182
136,0.9873838933840182
136,0.9873838933840182
136,0.9873838933840182
136,0.9873838933840182
136,0.9873838933840182
136,0.9873838933840182
137,0.9873838933840182
137,0.9873838933840182
137,0.9873838933840182
137,0.9873838933840182
137,0.9873838933840182
137,0.9873838933840182
137,0.9873838933840182
137,0.9873838933840182
137,0.9873838933840182
137,0.9873838933840182
137,0.9873838933840182
137,0.9873838933840182
137,0.9873838933840182
137,0.9873838933840182
137,0.9873838933840182
137,0.9873838933840182
138,0.9873838933840182
138,0.9873838933840182
138,0.9873838933840182
138,0.9873838933840182
138,0.9873838933840182
138,0.9873838933840182
138,0.9873838933840182
138,0.9873838933840182
138,0.9873838933840182
138,0.9873838933840182
138,0.9873838933840182
138,0.9873838933840182
138,0.9873838933840182
138,0.9873838933840182
138,0.9873838933840182
138,0.9873838933840182
139,0.9873838933840182
139,0.9873838933840182
139,0.9873838933840182
139,0.9873838933840182
139,0.9873838933840182
139,0.9873838933840182
139,0.9873838933840182
139,0.9873838933840182
139,0.9873838933840182
139,0.9873838933840182
139,0.9873838933840182
139,0.9873838933840182
139,0.9873838933840182
139,0.9873838933840182
139,0.9873838933840182
140,0.9873838933840182
140,0.9873838933840182
140,0.9873838933840182
140,0.9873838933840182
140,0.9873838933840182
140,0.9873838933840182
140,0.9873838933840182
140,0.9873838933840182
140,0.9876353096633017
140,0.9876353096633017
140,0.9876353096633017
140,0.9876353096633017
140,0.9876353096633017
140,0.9876353096633017
140,0.9876353096633017
140,0.9876353096633017
141,0.9876353096633017
141,0.9876353096633017
141,0.9876353096633017
141,0.9876353096633017
141,0.9876353096633017
141,0.9876353096633017
141,0.9876353096633017
141,0.9876353096633017
141,0.9876353096633017
141,0.9876353096633017
141,0.9876353096633017
141,0.9876353096633017
141,0.9876353096633017
141,0.9876353096633017
141,0.9876353096633017
142,0.9876353096633017
142,0.9876353096633017
142,0.9876353096633017
142,0.9876353096633017
142,0.9876353096633017
142,0.9876353096633017
142,0.9876353096633017
142,0.9876353096633017
142,0.9876353096633017
142,0.9876353096633017
142,0.9876353096633017
142,0.9876353096633017
142,0.9876353096633017
142,0.9876353096633017
142,0.9876353096633017
143,0.9876353096633017
143,0.9876353096633017
143,0.9876353096633017
143,0.9876353096633017
143,0.9876353096633017
143,0.9876353096633017
143,0.9876353096633017
143,0.9876353096633017
143,0.9876353096633017
143,0.9876353096633017
143,0.9876353096633017
143,0.9876353096633017
143,0.9876353096633017
143,0.9876353096633017
143,0.9876353096633017
143,0.9876353096633017
144,0.9876353096633017
144,0.9876353096633017
144,0.9876353096633017
144,0.9876353096633017
144,0.9876353096633017
144,0.9876353096633017
144,0.9876353096633017
144,0.9876353096633017
144,0.9876353096633017
144,0.9876353096633017
144,0.9876353096633017
144,0.9876353096633017
144,0.9876353096633017
144,0.9876353096633017
144,0.9876353096633017
145,0.9876353096633017
145,0.9876353096633017
145,0.9876353096633017
145,0.9876353096633017
145,0.9876353096633017
145,0.9876353096633017
145,0.9876353096633017
145,0.9876353096633017
145,0.9876353096633017
145,0.9876353096633017
145,0.9876353096633017
145,0.9876353096633017
145,0.9876353096633017
145,0.9876353096633017
145,0.9876353096633017
145,0.9876353096633017
146,0.9876353096633017
146,0.9876353096633017
146,0.9876353096633017
146,0.9876353096633017
146,0.9876353096633017
146,0.9876353096633017
146,0.9876353096633017
146,0.9876353096633017
146,0.9876353096633017
146,0.9876353096633017
146,0.9876353096633017
146,0.9876353096633017
146,0.9876353096633017
146,0.9876353096633017
146,0.9876353096633017
146,0.9876353096633017
147,0.9876353096633017
147,0.9876353096633017
147,0.9876353096633017
147,0.9876353096633017
147,0.9876353096633017
147,0.9876353096633017
147,0.9876353096633017
147,0.9876353096633017
147,0.9876353096633017
147,0.9876353096633017
147,0.9876353096633017
147,0.9876353096633017
147,0.9876353096633017
147,0.9876353096633017
147,0.9876353096633017
148,0.9876353096633017
148,0.9876353096633017
148,0.9876353096633017
148,0.9876353096633017
148,0.9876353096633017
148,0.9876353096633017
148,0.9876353096633017
148,0.9876353096633017
148,0.9876353096633017
148,0.9876692486975714
148,0.9876692486975714
148,0.9876692486975714
148,0.9876692486975714
148,0.9876692486975714
148,0.9876692486975714
148,0.9876692486975714
149,0.9876692486975714
149,0.9876692486975714
149,0.9876692486975714
149,0.9876692486975714
149,0.9876692486975714
149,0.9876692486975714
149,0.9876692486975714
149,0.9876692486975714
149,0.9876692486975714
149,0.9876692486975714
149,0.9876692486975714
149,0.9876692486975714
149,0.9876692486975714
149,0.9876692486975714
149,0.9876692486975714
149,0.9876692486975714
150,0.9876692486975714
150,0.9876692486975714
150,0.9876692486975714
150,0.9876692486975714
150,0.9876692486975714
150,0.9876692486975714
150,0.9876692486975714
150,0.9876692486975714
150,0.9876692486975714
150,0.9876692486975714
150,0.9876692486975714
150,0.9876692486975714
150,0.9876692486975714
150,0.9876692486975714
150,0.9876692486975714
151,0.9876692486975714
151,0.9876692486975714
151,0.9876692486975714
151,0.9876692486975714
151,0.9876692486975714
151,0.9876692486975714
151,0.9876692486975714
151,0.9876692486975714
151,0.9876692486975714
151,0.9876692486975714
151,0.9876692486975714
151,0.9876692486975714
151,0.9876910931549071
151,0.9876910931549071
151,0.9876910931549071
152,0.9876910931549071
152,0.9876910931549071
152,0.9876910931549071
152,0.9876910931549071
152,0.9876910931549071
152,0.9876910931549071
152,0.9876910931549071
152,0.9876910931549071
152,0.9876910931549071
152,0.9876910931549071
152,0.9876910931549071
152,0.9876910931549071
152,0.9876910931549071
152,0.9876910931549071
152,0.9876910931549071
152,0.9876910931549071
153,0.9876910931549071
153,0.9876910931549071
153,0.9876910931549071
153,0.9876910931549071
153,0.9876910931549071
153,0.9876910931549071
153,0.9876910931549071
153,0.9876910931549071
153,0.9876910931549071
153,0.9876910931549071
153,0.9876910931549071
153,0.9876910931549071
153,0.9876910931549071
153,0.9876910931549071
153,0.9876910931549071
154,0.9876910931549071
154,0.9876910931549071
154,0.9876910931549071
154,0.9876910931549071
154,0.9876910931549071
154,0.9876910931549071
154,0.9876910931549071
154,0.9876910931549071
154,0.9876910931549071
154,0.9876910931549071
154,0.9876910931549071
154,0.9876910931549071
154,0.9876910931549071
154,0.9876910931549071
154,0.9876910931549071
154,0.9876910931549071
155,0.9876910931549071
155,0.9876910931549071
155,0.9876910931549071
155,0.9876910931549071
155,0.9876910931549071
155,0.9876910931549071
155,0.9876910931549071
155,0.9876910931549071
155,0.9876910931549071
155,0.9876910931549071
155,0.9876910931549071
155,0.9876910931549071
155,0.9876910931549071
155,0.9876910931549071
155,0.9876910931549071
155,0.9876910931549071
156,0.9876910931549071
156,0.9876910931549071
156,0.9876910931549071
156,0.9876910931549071
156,0.9876910931549071
156,0.9876910931549071
156,0.9876910931549071
156,0.9876910931549071
156,0.9876910931549071
156,0.9876910931549071
156,0.9876910931549071
156,0.9876910931549071
156,0.9876910931549071
156,0.9876910931549071
156,0.9876910931549071
157,0.9876910931549071
157,0.9876910931549071
157,0.9876910931549071
157,0.9876910931549071
157,0.9876910931549071
157,0.9876910931549071
157,0.9876910931549071
157,0.9876910931549071
157,0.9876910931549071
157,0.9876910931549071
157,0.9876910931549071
157,0.9876910931549071
157,0.9876910931549071
157,0.9876910931549071
157,0.9876910931549071
157,0.9876910931549071
158,0.9876910931549071
158,0.9876910931549071
158,0.9876910931549071
158,0.9876910931549071
158,0.9876910931549071
158,0.9876910931549071
158,0.9876910931549071
158,0.9876910931549071
158,0.9876910931549071
158,0.9876910931549071
158,0.9876910931549071
158,0.9876910931549071
158,0.9876910931549071
158,0.9876910931549071
158,0.9876910931549071
158,0.9876910931549071
159,0.9876910931549071
159,0.9876910931549071
159,0.9876910931549071
159,0.9876910931549071
159,0.9876910931549071
159,0.9876910931549071
159,0.9876910931549071
159,0.9876910931549071
159,0.9876910931549071
159,0.9876910931549071
159,0.9876910931549071
159,0.9876910931549071
159,0.9885166574727215
159,0.9885166574727215
159,0.9885166574727215
159,0.9885166574727215
160,0.9885166574727215
160,0.9885166574727215
160,0.9885166574727215
160,0.9885166574727215
160,0.9885166574727215
160,0.9885166574727215
160,0.9885166574727215
160,0.9885166574727215
160,0.9885166574727215
160,0.9885166574727215
160,0.9885166574727215
160,0.9885166574727215
160,0.9885166574727215
160,0.9885166574727215
160,0.9885166574727215
160,0.9885166574727215
161,0.9885166574727215
161,0.9885166574727215
161,0.9885166574727215
161,0.9885166574727215
161,0.9885166574727215
161,0.9885166574727215
161,0.9885166574727215
161,0.9885166574727215
161,0.9885166574727215
161,0.9885166574727215
161,0.9885166574727215
161,0.9885166574727215
161,0.9885166574727215
161,0.9885166574727215
161,0.9885166574727215
162,0.9885166574727215
162,0.9885166574727215
162,0.9885166574727215
162,0.9885166574727215
162,0.9885166574727215
162,0.9885166574727215
162,0.9885166574727215
162,0.9885166574727215
162,0.9885166574727215
162,0.9885166574727215
162,0.9885166574727215
162,0.9885166574727215
162,0.9885166574727215
162,0.9885166574727215
162,0.9885166574727215
162,0.9885166574727215
163,0.9885166574727215
163,0.9885166574727215
163,0.9885166574727215
163,0.9885166574727215
163,0.9885166574727215
163,0.9885166574727215
163,0.9885166574727215
163,0.9885166574727215
163,0.9885166574727215
163,0.9885166574727215
163,0.9885166574727215
163,0.9885166574727215
163,0.9885166574727215
163,0.9885166574727215
163,0.9885166574727215
163,0.9885166574727215
164,0.9885166574727215
164,0.9885166574727215
164,0.9885166574727215
164,0.9885166574727215
164,0.9885166574727215
164,0.9885166574727215
164,0.9885166574727215
164,0.9885166574727215
164,0.9887234389342524
164,0.9887234389342524
164,0.9887234389342524
164,0.9887234389342524
164,0.9887234389342524
164,0.9887234389342524
164,0.9887234389342524
164,0.9887234389342524
165,0.9887234389342524
165,0.9887234389342524
165,0.9887234389342524
165,0.9887234389342524
165,0.9887234389342524
165,0.9887234389342524
165,0.9887234389342524
165,0.9887234389342524
165,0.9887234389342524
165,0.9887234389342524
165,0.9887234389342524
165,0.9887234389342524
165,0.9887234389342524
165,0.9887234389342524
165,0.9887234389342524
165,0.9887234389342524
166,0.9887234389342524
166,0.9902591416410786
166,0.9902591416410786
166,0.9902591416410786
166,0.9902591416410786
166,0.9902591416410786
166,0.9902591416410786
166,0.9902591416410786
166,0.9902591416410786
166,0.9902591416410786
166,0.9902591416410786
166,0.9902591416410786
166,0.9902591416410786
166,0.9902591416410786
166,0.9902591416410786
166,0.9902591416410786
167,0.9902591416410786
167,0.9902591416410786
167,0.9902591416410786
167,0.9902591416410786
167,0.9902591416410786
167,0.9902591416410786
167,0.9902591416410786
167,0.9902591416410786
167,0.9902591416410786
167,0.9902591416410786
167,0.9902591416410786
167,0.9902591416410786
167,0.9902591416410786
167,0.9902591416410786
167,0.9902591416410786
167,0.9902591416410786
168,0.9902591416410786
168,0.9902591416410786
168,0.9902591416410786
168,0.9902591416410786
168,0.9902591416410786
168,0.9902591416410786
168,0.9902591416410786
168,0.9902591416410786
168,0.9902591416410786
168,0.9902591416410786
168,0.9902591416410786
168,0.9902591416410786
168,0.9902591416410786
168,0.9902591416410786
168,0.9902591416410786
168,0.9902591416410786
169,0.9902591416410786
169,0.9902591416410786
169,0.9902591416410786
169,0.9902591416410786
169,0.9902591416410786
169,0.9902591416410786
169,0.9902591416410786
169,0.9902591416410786
169,0.9902591416410786
169,0.9902591416410786
169,0.9902591416410786
169,0.9902591416410786
169,0.9902591416410786
169,0.9902591416410786
169,0.9902591416410786
169,0.9902591416410786
170,0.9902591416410786
170,0.9902591416410786
170,0.9902591416410786
170,0.9902591416410786
170,0.9902591416410786
170,0.9902591416410786
170,0.9902591416410786
170,0.9902591416410786
170,0.9902591416410786
170,0.9902591416410786
170,0.9902591416410786
170,0.9902591416410786
170,0.9902591416410786
170,0.9902591416410786
170,0.9902591416410786
170,0.9902591416410786
171,0.9902591416410786
171,0.9902591416410786
171,0.9902591416410786
171,0.9902591416410786
171,0.9902591416410786
171,0.9902591416410786
171,0.9902591416410786
171,0.9902591416410786
171,0.9902591416410786
171,0.9902591416410786
171,0.9902591416410786
171,0.9902591416410786
171,0.9902591416410786
171,0.9902591416410786
171,0.9902591416410786
171,0.9902591416410786
172,0.9902591416410786
172,0.9902591416410786
172,0.9902591416410786
172,0.9902591416410786
172,0.9902591416410786
172,0.9902788402540301
172,0.9902788402540301
172,0.9902788402540301
172,0.9902788402540301
172,0.9902788402540301
172,0.9902788402540301
172,0.9902788402540301
172,0.9902788402540301
172,0.9902788402540301
172,0.9902788402540301
172,0.9902788402540301
173,0.9902788402540301
173,0.9902788402540301
173,0.9902788402540301
173,0.9902788402540301
173,0.9902788402540301
173,0.9902788402540301
173,0.9902788402540301
173,0.9902788402540301
173,0.9902788402540301
173,0.9902788402540301
173,0.9902788402540301
173,0.9902788402540301
173,0.9902788402540301
173,0.9902788402540301
173,0.9902788402540301
173,0.9902788402540301
173,0.9902788402540301
174,0.9902788402540301
174,0.9902788402540301
174,0.9902788402540301
174,0.9902788402540301
174,0.9902788402540301
174,0.9902788402540301
174,0.9902788402540301
174,0.9902788402540301
174,0.9902788402540301
174,0.9902788402540301
174,0.9902788402540301
174,0.9902788402540301
174,0.9902788402540301
174,0.9902788402540301
174,0.9902788402540301
174,0.9902788402540301
175,0.9902788402540301
175,0.9902788402540301
175,0.9902788402540301
175,0.9902788402540301
175,0.9902788402540301
175,0.9902788402540301
175,0.9902876605610945
175,0.9902876605610945
175,0.9902876605610945
175,0.9902876605610945
175,0.9902876605610945
175,0.9902876605610945
175,0.9902876605610945
175,0.9902876605610945
175,0.9902876605610945
175,0.9902876605610945
176,0.9902876605610945
176,0.9902876605610945
176,0.9902876605610945
176,0.9902876605610945
176,0.9902876605610945
176,0.9902876605610945
176,0.9902876605610945
176,0.9902876605610945
176,0.9902876605610945
176,0.9902876605610945
176,0.9902876605610945
176,0.9902876605610945
176,0.9902876605610945
176,0.9902876605610945
176,0.9902876605610945
176,0.9902923763719492
177,0.9902923763719492
177,0.9902923763719492
177,0.9902923763719492
177,0.9902923763719492
177,0.9902923763719492
177,0.9902923763719492
177,0.9902923763719492
177,0.9902923763719492
177,0.9902923763719492
177,0.9902923763719492
177,0.9902923763719492
177,0.9902923763719492
177,0.9902923763719492
177,0.9902923763719492
177,0.9902923763719492
177,0.9902923763719492
178,0.9902923763719492
178,0.9902923763719492
178,0.9902923763719492
178,0.9902923763719492
178,0.9902923763719492
178,0.9902923763719492
178,0.9902923763719492
178,0.9902923763719492
178,0.9949306525690815
178,0.9949306525690815
178,0.9949306525690815
178,0.9949306525690815
178,0.9949306525690815
178,0.9949306525690815
178,0.9949306525690815
178,0.9949306525690815
179,0.9949306525690815
179,0.9949306525690815
179,0.9949306525690815
179,0.9949306525690815
179,0.9949306525690815
179,0.9949306525690815
179,0.9949306525690815
179,0.9949306525690815
179,0.9949306525690815
179,0.9949306525690815
179,0.9949306525690815
179,0.9949306525690815
179,0.9949306525690815
179,0.9949306525690815
179,0.9949306525690815
179,0.9949306525690815
180,0.9949306525690815
180,0.9950129408295122
180,0.9950129408295122
180,0.9950129408295122
180,0.9950129408295122
180,0.9950129408295122
180,0.9950129408295122
180,0.9950129408295122
180,0.9950129408295122
180,0.9950129408295122
180,0.9950129408295122
180,0.9950129408295122
180,0.9950129408295122
180,0.9950129408295122
180,0.9950129408295122
180,0.9950129408295122
181,0.9950129408295122
181,0.9950129408295122
181,0.9950129408295122
181,0.9950129408295122
181,0.9950129408295122
181,0.9950129408295122
181,0.9950129408295122
181,0.9950129408295122
181,0.9950129408295122
181,0.9950129408295122
181,0.9950129408295122
181,0.9950129408295122
181,0.9950129408295122
181,0.9950129408295122
181,0.9950129408295122
181,0.9950129408295122
182,0.9950129408295122
182,0.9950129408295122
182,0.9950129408295122
182,0.9950129408295122
182,0.9950129408295122
182,0.9950129408295122
182,0.9950129408295122
182,0.9950129408295122
182,0.9950129408295122
182,0.9950129408295122
182,0.9950129408295122
182,0.9950129408295122
182,0.9950129408295122
182,0.9950129408295122
182,0.9950129408295122
182,0.9950129408295122
183,0.9950129408295122
183,0.9950129408295122
183,0.9950129408295122
183,0.9950129408295122
183,0.9950129408295122
183,0.9950129408295122
183,0.9950129408295122
183,0.9950129408295122
183,0.9950129408295122
183,0.9950129408295122
183,0.9950129408295122
183,0.9950129408295122
183,0.9950129408295122
183,0.9950129408295122
183,0.9950129408295122
183,0.9950129408295122
184,0.9950129408295122
184,0.9950129408295122
184,0.9950129408295122
184,0.9950129408295122
184,0.9950129408295122
184,0.9950129408295122
184,0.9950129408295122
184,0.9950129408295122
184,0.9950129408295122
184,0.9950129408295122
184,0.9950129408295122
184,0.9950129408295122
184,0.9951304740113709
184,0.9951304740113709
184,0.9951304740113709
185,0.9951304740113709
185,0.9951304740113709
185,0.9951304740113709
185,0.9951304740113709
185,0.9951304740113709
185,0.9951304740113709
185,0.9951304740113709
185,0.9951304740113709
185,0.9951304740113709
185,0.9951304740113709
185,0.9951304740113709
185,0.9951304740113709
185,0.9951304740113709
185,0.9951304740113709
185,0.9951304740113709
185,0.9951304740113709
186,0.9951304740113709
186,0.9951304740113709
186,0.9951304740113709
186,0.9951304740113709
186,0.9951304740113709
186,0.9951304740113709
186,0.9951304740113709
186,0.9951304740113709
186,0.9951304740113709
186,0.9951304740113709
186,0.9951304740113709
186,0.9951304740113709
186,0.9951304740113709
186,0.9951304740113709
186,0.9951304740113709
186,0.9951304740113709
187,0.9951304740113709
187,0.9951304740113709
187,0.9951304740113709
187,0.9951304740113709
187,0.9951304740113709
187,0.9951304740113709
187,0.9951304740113709
187,0.9951304740113709
187,0.9951304740113709
187,0.9951304740113709
187,0.9951304740113709
187,0.9951304740113709
187,0.9951304740113709
187,0.9951304740113709
187,0.9951304740113709
187,0.9951368419049591
188,0.9951368419049591
188,0.9951368419049591
188,0.9951368419049591
188,0.9951368419049591
188,0.9951368419049591
188,0.9951368419049591
188,0.9951368419049591
188,0.9951368419049591
188,0.9951368419049591
188,0.9951368419049591
188,0.9951368419049591
188,0.9951368419049591
188,0.9951368419049591
188,0.9951368419049591
188,0.9951368419049591
188,0.9951368419049591
189,0.9951368419049591
189,0.9951368419049591
189,0.9951368419049591
189,0.9951368419049591
189,0.9951368419049591
189,0.9951368419049591
189,0.9951368419049591
189,0.9951368419049591
189,0.9954135559238091
189,0.9954135559238091
189,0.9954135559238091
189,0.9954135559238091
189,0.9954135559238091
189,0.9954135559238091
189,0.9954135559238091
189,0.9954135559238091
190,0.9954135559238091
190,0.9954135559238091
190,0.9954135559238091
190,0.9954135559238091
190,0.9954135559238091
190,0.9954135559238091
190,0.9954135559238091
190,0.9954135559238091
190,0.9954135559238091
190,0.9954135559238091
190,0.9954135559238091
190,0.9954135559238091
190,0.9954135559238091
190,0.9954135559238091
190,0.9954135559238091
190,0.9954135559238091
191,0.9954135559238091
191,0.9954135559238091
191,0.9954135559238091
191,0.9954135559238091
191,0.9954135559238091
191,0.9954135559238091
191,0.9954135559238091
191,0.9954135559238091
191,0.9954135559238091
191,0.9954135559238091
191,0.9954135559238091
191,0.9954135559238091
191,0.9954135559238091
191,0.9954135559238091
191,0.9954135559238091
191,0.9954135559238091
192,0.9954135559238091
192,0.9954135559238091
192,0.9954135559238091
192,0.9954135559238091
192,0.9954135559238091
192,0.9954135559238091
192,0.9954135559238091
192,0.9954135559238091
192,0.9954135559238091
192,0.9954135559238091
192,0.9954343640954513
192,0.9954343640954513
192,0.9954343640954513
192,0.9954343640954513
192,0.9954343640954513
192,0.9954343640954513
193,0.9954343640954513
193,0.9954343640954513
193,0.9954343640954513
193,0.9954343640954513
193,0.9954343640954513
193,0.9954343640954513
193,0.9954343640954513
193,0.9954343640954513
193,0.9954343640954513
193,0.9954343640954513
193,0.9954343640954513
193,0.9954343640954513
193,0.9954343640954513
193,0.9954343640954513
193,0.9954343640954513
193,0.9954343640954513
194,0.9954343640954513
194,0.9954343640954513
194,0.9954343640954513
194,0.9954343640954513
194,0.9954343640954513
194,0.9954343640954513
194,0.9954343640954513
194,0.9954343640954513
194,0.9954343640954513
194,0.9954343640954513
194,0.9954343640954513
194,0.9954343640954513
194,0.9954343640954513
194,0.9954343640954513
194,0.9954343640954513
194,0.9954343640954513
195,0.9954343640954513
195,0.9954343640954513
195,0.9954343640954513
195,0.9954343640954513
195,0.9954343640954513
195,0.9954343640954513
195,0.9954343640954513
195,0.9954343640954513
195,0.9954343640954513
195,0.9954343640954513
195,0.9954343640954513
195,0.9954343640954513
195,0.9954386824479694
195,0.9954386824479694
195,0.9954386824479694
195,0.9954386824479694
196,0.9954386824479694
196,0.9954386824479694
196,0.9954386824479694
196,0.9954386824479694
196,0.9954386824479694
196,0.9954386824479694
196,0.9954386824479694
196,0.9954386824479694
196,0.9954386824479694
196,0.9954386824479694
196,0.9954386824479694
196,0.9954386824479694
196,0.9954386824479694
196,0.9954386824479694
196,0.9954386824479694
196,0.9954386824479694
196,0.9954386824479694
197,0.9954386824479694
197,0.9954386824479694
197,0.9954386824479694
197,0.9954386824479694
197,0.9954386824479694
197,0.9954386824479694
197,0.9954386824479694
197,0.9954386824479694
197,0.9954386824479694
197,0.9954386824479694
197,0.9954386824479694
197,0.9954386824479694
197,0.9954386824479694
197,0.9954386824479694
197,0.9954386824479694
197,0.9954386824479694
198,0.9954386824479694
198,0.9954386824479694
198,0.9954386824479694
198,0.9954386824479694
198,0.9954386824479694
198,0.9954386824479694
198,0.9954386824479694
198,0.9954386824479694
198,0.9954386824479694
198,0.9954386824479694
198,0.9954386824479694
198,0.9954386824479694
198,0.9954386824479694
198,0.9954386824479694
198,0.9954386824479694
198,0.9954386824479694
199,0.9954386824479694
199,0.9954386824479694
199,0.9954386824479694
199,0.9954386824479694
199,0.9954386824479694
199,0.9954386824479694
199,0.9954386824479694
199,0.9954386824479694
199,0.9954386824479694
199,0.9954386824479694
199,0.9954386824479694
199,0.9954386824479694
199,0.9954386824479694
199,0.9954386824479694
199,0.9954386824479694
199,0.9954386824479694
200,0.9954386824479694
200,0.9954386824479694
200,0.9954386824479694
200,0.9954386824479694
200,0.9954386824479694
200,0.9954386824479694
200,0.9954386824479694
200,0.9954386824479694
200,0.9954386824479694
200,0.9954386824479694
200,0.9954386824479694
200,0.9954386824479694
200,0.9954386824479694
200,0.9954386824479694
200,0.9954386824479694
200,0.9954386824479694
201,0.9954386824479694
201,0.9954386824479694
201,0.9954386824479694
201,0.9954386824479694
201,0.9954386824479694
201,0.9954386824479694
201,0.9954386824479694
201,0.9954386824479694
201,0.9954386824479694
201,0.9954386824479694
201,0.9954386824479694
201,0.9954386824479694
201,0.9954386824479694
201,0.9954386824479694
201,0.9954386824479694
201,0.9955101619091387
202,0.9955101619091387
202,0.9955101619091387
202,0.9955101619091387
202,0.9955101619091387
202,0.9955101619091387
202,0.9955101619091387
202,0.9955101619091387
202,0.9955101619091387
202,0.9955101619091387
202,0.9955101619091387
202,0.9955101619091387
202,0.9955101619091387
202,0.9955101619091387
202,0.9955101619091387
202,0.9955101619091387
202,0.9955101619091387
203,0.9955101619091387
203,0.9955101619091387
203,0.9955101619091387
203,0.9955101619091387
203,0.9955101619091387
203,0.9955101619091387
203,0.9955101619091387
203,0.9955101619091387
203,0.9955101619091387
203,0.9955101619091387
203,0.9955101619091387
203,0.9955101619091387
203,0.9955101619091387
203,0.9955101619091387
203,0.9955101619091387
203,0.9955101619091387
204,0.9955101619091387
204,0.9955101619091387
204,0.9955101619091387
204,0.9955101619091387
204,0.9955101619091387
204,0.9955101619091387
204,0.9955101619091387
204,0.9955101619091387
204,0.9955101619091387
204,0.9955101619091387
204,0.9955101619091387
204,0.9955101619091387
204,0.9955101619091387
204,0.9955101619091387
204,0.9955101619091387
204,0.9955101619091387
205,0.9955101619091387
205,0.9955101619091387
205,0.9955101619091387
205,0.9955101619091387
205,0.9955101619091387
205,0.9955101619091387
205,0.9955101619091387
205,0.9955101619091387
205,0.9955101619091387
205,0.9955101619091387
205,0.9955101619091387
205,0.9955101619091387
205,0.9955101619091387
205,0.9955101619091387
205,0.9955101619091387
205,0.9955101619091387
205,0.9955101619091387
206,0.9955101619091387
206,0.9955101619091387
206,0.9955101619091387
206,0.9955101619091387
206,0.9955101619091387
206,0.9955101619091387
206,0.9955101619091387
206,0.9955101619091387
206,0.9955101619091387
206,0.9955806538259411
206,0.9955806538259411
206,0.9955806538259411
206,0.9955806538259411
206,0.9955806538259411
206,0.9955806538259411
206,0.9955806538259411
207,0.9955806538259411
207,0.9955806538259411
207,0.9955806538259411
207,0.9955806538259411
207,0.9955806538259411
207,0.9955806538259411
207,0.9955806538259411
207,0.9955806538259411
207,0.9955806538259411
207,0.9955806538259411
207,0.9955806538259411
207,0.9955806538259411
207,0.9955806538259411
207,0.9955806538259411
207,0.9955806538259411
207,0.9955806538259411
208,0.9955806538259411
208,0.9955806538259411
208,0.9955806538259411
208,0.9955806538259411
208,0.9955806538259411
208,0.9955806538259411
208,0.9955806538259411
208,0.9955806538259411
208,0.9955806538259411
208,0.9955806538259411
208,0.9955806538259411
208,0.9955806538259411
208,0.9955806538259411
208,0.9955806538259411
208,0.9955806538259411
208,0.9955806538259411
209,0.9955806538259411
209,0.9955806538259411
209,0.9955806538259411
209,0.9955806538259411
209,0.9955806538259411
209,0.9955806538259411
209,0.9955806538259411
209,0.9955806538259411
209,0.9955806538259411
209,0.9955806538259411
209,0.9955806538259411
209,0.9955806538259411
209,0.9955806538259411
209,0.9955806538259411
209,0.9955806538259411
209,0.9955806538259411
210,0.9955806538259411
210,0.9955806538259411
210,0.9955806538259411
210,0.9955806538259411
210,0.9955806538259411
210,0.9955806538259411
210,0.9955806538259411
210,0.9955806538259411
210,0.9955806538259411
210,0.9955806538259411
210,0.9955806538259411
210,0.9955806538259411
210,0.9955806538259411
210,0.9955806538259411
210,0.9955806538259411
210,0.9955806538259411
211,0.9955806538259411
211,0.9955806538259411
211,0.9955806538259411
211,0.9955806538259411
211,0.9956014027245477
211,0.9956014027245477
211,0.9956014027245477
211,0.9956014027245477
211,0.9956014027245477
211,0.9956014027245477
211,0.9956014027245477
211,0.9956014027245477
211,0.9956014027245477
211,0.9956014027245477
211,0.9956014027245477
211,0.9956014027245477
212,0.9956014027245477
212,0.9956014027245477
212,0.9956014027245477
212,0.9956014027245477
212,0.9956014027245477
212,0.9956014027245477
212,0.9956014027245477
212,0.9956014027245477
212,0.9956014027245477
212,0.9956014027245477
212,0.9956014027245477
212,0.9956014027245477
212,0.9956014027245477
212,0.9956014027245477
212,0.9956014027245477
212,0.9956014027245477
213,0.9956014027245477
213,0.9956014027245477
213,0.9956014027245477
213,0.9956014027245477
213,0.9956014027245477
213,0.9956014027245477
213,0.9956014027245477
213,0.9956014027245477
213,0.9956014027245477
213,0.9956014027245477
213,0.9956014027245477
213,0.9956014027245477
213,0.9956014027245477
213,0.9956014027245477
213,0.9956014027245477
213,0.9956014027245477
214,0.9956014027245477
214,0.9956014027245477
214,0.9956014027245477
214,0.9956014027245477
214,0.9956014027245477
214,0.9956014027245477
214,0.9956014027245477
214,0.9956014027245477
214,0.9956014027245477
214,0.9956014027245477
214,0.9956014027245477
214,0.9956014027245477
214,0.9956014027245477
214,0.9956014027245477
214,0.9956014027245477
214,0.9956014027245477
215,0.9956014027245477
215,0.9956014027245477
215,0.9956014027245477
215,0.9956014027245477
215,0.9956014027245477
215,0.9956014027245477
215,0.9956014027245477
215,0.9956014027245477
215,0.9956014027245477
215,0.9956014027245477
215,0.9956014027245477
215,0.9956014027245477
215,0.9956014027245477
215,0.9956014027245477
215,0.9956014027245477
215,0.9956014027245477
216,0.9956014027245477
216,0.9956014027245477
216,0.9956014027245477
216,0.9956014027245477
216,0.9956014027245477
216,0.9956014027245477
216,0.9956014027245477
216,0.9956014027245477
216,0.9956014027245477
216,0.9956014027245477
216,0.9956014027245477
216,0.9956014027245477
216,0.9956014027245477
216,0.9956014027245477
216,0.9956014027245477
216,0.9956014027245477
217,0.9956014027245477
217,0.9956014027245477
217,0.9956014027245477
217,0.9956014027245477
217,0.9956014027245477
217,0.9956014027245477
217,0.9956014027245477
217,0.9956014027245477
217,0.9956014027245477
217,0.9956014027245477
217,0.9956014027245477
217,0.9956014027245477
217,0.9956014027245477
217,0.9956014027245477
217,0.9956014027245477
217,0.9956014027245477
217,0.9956014027245477
218,0.9956014027245477
218,0.9956014027245477
218,0.9956014027245477
218,0.9956014027245477
218,0.9956014027245477
218,0.9956014027245477
218,0.9956014027245477
218,0.9956014027245477
218,0.9956014027245477
218,0.9956014027245477
218,0.9956014027245477
218,0.9956014027245477
218,0.9956014027245477
218,0.9956014027245477
218,0.9956014027245477
218,0.9956014027245477
219,0.9958667333779034
219,0.9958667333779034
219,0.9958667333779034
219,0.9958667333779034
219,0.9958667333779034
219,0.9958667333779034
219,0.9958667333779034
219,0.9958667333779034
219,0.9958667333779034
219,0.9958667333779034
219,0.9958667333779034
219,0.9958667333779034
219,0.9958667333779034
219,0.9958667333779034
219,0.9958667333779034
219,0.9958667333779034
219,0.9958667333779034
220,0.9958667333779034
220,0.9958667333779034
220,0.9958667333779034
220,0.9958667333779034
220,0.9958667333779034
220,0.9958667333779034
220,0.9958667333779034
220,0.9958667333779034
220,0.9958688384362421
220,0.9958688384362421
220,0.9958688384362421
220,0.9958688384362421
220,0.9958688384362421
220,0.9958688384362421
220,0.9958688384362421
220,0.9958688384362421
221,0.9958688384362421
221,0.9958688384362421
221,0.9958688384362421
221,0.9958688384362421
221,0.9958688384362421
221,0.9958688384362421
221,0.9958688384362421
221,0.9958688384362421
221,0.9958688384362421
221,0.9958688384362421
221,0.9958688384362421
221,0.9958688384362421
221,0.9958688384362421
221,0.9958688384362421
221,0.9958688384362421
221,0.9958688384362421
222,0.9958688384362421
222,0.9958826608897731
222,0.9958826608897731
222,0.9958826608897731
222,0.9958826608897731
222,0.9958826608897731
222,0.9958826608897731
222,0.9958826608897731
222,0.9958826608897731
222,0.9958826608897731
222,0.9958826608897731
222,0.9958826608897731
222,0.9958826608897731
222,0.9958826608897731
222,0.9958826608897731
222,0.9958826608897731
223,0.9958826608897731
223,0.9958826608897731
223,0.9958826608897731
223,0.9958826608897731
223,0.9958826608897731
223,0.9958826608897731
223,0.9958826608897731
223,0.9958826608897731
223,0.9958826608897731
223,0.9958826608897731
223,0.9958826608897731
223,0.9958826608897731
223,0.9958826608897731
223,0.9958826608897731
223,0.9958826608897731
223,0.9958826608897731
223,0.9958826608897731
224,0.9958826608897731
224,0.9958826608897731
224,0.9958826608897731
224,0.9958826608897731
224,0.9958826608897731
224,0.9958826608897731
224,0.9958826608897731
224,0.9958826608897731
224,0.9958826608897731
224,0.9958826608897731
224,0.9958826608897731
224,0.9958826608897731
224,0.9958826608897731
224,0.9958826608897731
224,0.9958826608897731
224,0.9958826608897731
224,0.9958826608897731
225,0.9958826608897731
225,0.9958826608897731
225,0.9958826608897731
225,0.9958826608897731
225,0.9958826608897731
225,0.9958826608897731
225,0.9958826608897731
225,0.9958826608897731
225,0.9958826608897731
225,0.9958826608897731
225,0.9958826608897731
225,0.9958826608897731
225,0.9958826608897731
225,0.9958826608897731
225,0.9958826608897731
225,0.9958826608897731
226,0.9958826608897731
226,0.9958826608897731
226,0.9958826608897731
226,0.9958826608897731
226,0.9958826608897731
226,0.9958826608897731
226,0.9958826608897731
226,0.9958826608897731
226,0.9958826608897731
226,0.9958826608897731
226,0.9959478498149844
226,0.9959478498149844
226,0.9959478498149844
226,0.9959478498149844
226,0.9959478498149844
226,0.9959478498149844
226,0.9959478498149844
227,0.9959478498149844
227,0.9959478498149844
227,0.9959478498149844
227,0.9959478498149844
227,0.9959478498149844
227,0.9959478498149844
227,0.9959478498149844
227,0.9959478498149844
227,0.9959478498149844
227,0.9959478498149844
227,0.9959478498149844
227,0.9959478498149844
227,0.9959478498149844
227,0.9959478498149844
227,0.9959478498149844
227,0.9959478498149844
228,0.9959478498149844
228,0.9959478498149844
228,0.9959478498149844
228,0.9959478498149844
228,0.9959478498149844
228,0.9959478498149844
228,0.9959478498149844
228,0.9959478498149844
228,0.9959478498149844
228,0.9959478498149844
228,0.9959478498149844
228,0.9959478498149844
228,0.9959478498149844
228,0.9959478498149844
228,0.9959478498149844
228,0.9959478498149844
229,0.9959478498149844
229,0.9959478498149844
229,0.9959478498149844
229,0.9959478498149844
229,0.9959478498149844
229,0.9959478498149844
229,0.9959478498149844
229,0.9959478498149844
229,0.9959478498149844
229,0.9959478498149844
229,0.9959478498149844
229,0.9959729072286627
229,0.9959729072286627
229,0.9959729072286627
229,0.9959729072286627
229,0.9959729072286627
229,0.9959729072286627
230,0.9959729072286627
230,0.9959729072286627
230,0.9959729072286627
230,0.9959729072286627
230,0.9959729072286627
230,0.9959729072286627
230,0.9959729072286627
230,0.9959729072286627
230,0.9959729072286627
230,0.9959729072286627
230,0.9959729072286627
230,0.9959729072286627
230,0.9959729072286627
230,0.9959729072286627
230,0.9959729072286627
230,0.9959729072286627
230,0.9959729072286627
231,0.9959729072286627
231,0.9959729072286627
231,0.9959729072286627
231,0.9959729072286627
231,0.9959729072286627
231,0.9959729072286627
231,0.9959729072286627
231,0.9959729072286627
231,0.9959729072286627
231,0.9959729072286627
231,0.9959729072286627
231,0.9959729072286627
231,0.9959729072286627
231,0.9959729072286627
231,0.9959729072286627
231,0.9959729072286627
231,0.9959729072286627
232,0.9959729072286627
232,0.9959729072286627
232,0.9959729072286627
232,0.9959729072286627
232,0.9959729072286627
232,0.9959729072286627
232,0.9959729072286627
232,0.9959729072286627
232,0.9959729072286627
232,0.9959729072286627
232,0.9959729072286627
232,0.9959729072286627
232,0.9959729072286627
232,0.9959729072286627
232,0.9959729072286627
232,0.9959729072286627
233,0.9959729072286627
233,0.9959729072286627
233,0.9959729072286627
233,0.9959729072286627
233,0.9959729072286627
233,0.9959729072286627
233,0.9959729072286627
233,0.9959729072286627
233,0.9959729072286627
233,0.9959729072286627
233,0.9959729072286627
233,0.9959729072286627
233,0.9959729072286627
233,0.9959729072286627
233,0.9959729072286627
233,0.9959729072286627
233,0.9959729072286627
233,0.9959729072286627
234,0.9959729072286627
234,0.9959729072286627
234,0.9959729072286627
234,0.9959729072286627
234,0.9959729072286627
234,0.9959729072286627
234,0.9959729072286627
234,0.9959729072286627
234,0.9959729072286627
234,0.9959729072286627
234,0.9959729072286627
234,0.9959729072286627
234,0.9959729072286627
234,0.9959729072286627
234,0.9959729072286627
234,0.9959729072286627
235,0.9959729072286627
235,0.9959729072286627
235,0.9959729072286627
235,0.9959729072286627
235,0.9959729072286627
235,0.9959729072286627
235,0.9959729072286627
235,0.9959729072286627
235,0.9959729072286627
235,0.9959729072286627
235,0.9959756334698782
235,0.9959756334698782
235,0.9959756334698782
235,0.9959756334698782
235,0.9959756334698782
235,0.9959756334698782
235,0.9959756334698782
236,0.9959756334698782
236,0.9959756334698782
236,0.9959756334698782
236,0.9959756334698782
236,0.9959756334698782
236,0.9959756334698782
236,0.9959756334698782
236,0.9959756334698782
236,0.9959756334698782
236,0.9959756334698782
236,0.9959756334698782
236,0.9959756334698782
236,0.9959756334698782
236,0.9959756334698782
236,0.9959756334698782
236,0.9959756334698782
236,0.9959756334698782
237,0.9959756334698782
237,0.9960029115729191
237,0.9960029115729191
237,0.9960029115729191
237,0.9960029115729191
237,0.9960029115729191
237,0.9960029115729191
237,0.9960029115729191
237,0.9960029115729191
237,0.9960029115729191
237,0.9960029115729191
237,0.9960029115729191
237,0.9960029115729191
237,0.9960029115729191
237,0.9960029115729191
237,0.9960029115729191
237,0.9960029115729191
238,0.9960029115729191
238,0.9960029115729191
238,0.9960029115729191
238,0.9960029115729191
238,0.9960029115729191
238,0.9960029115729191
238,0.9960029115729191
238,0.9960029115729191
238,0.9960029115729191
238,0.9960029115729191
238,0.9960029115729191
238,0.9960029115729191
238,0.9960029115729191
238,0.9960029115729191
238,0.9960029115729191
238,0.9960029115729191
238,0.9960029115729191
239,0.9960029115729191
239,0.9960029115729191
239,0.9960029115729191
239,0.9960029115729191
239,0.9960029115729191
239,0.9960029115729191
239,0.9960029115729191
239,0.9960029115729191
239,0.9960029115729191
239,0.9960029115729191
239,0.9960029115729191
239,0.9960029115729191
239,0.9960029115729191
239,0.9960029115729191
239,0.9960029115729191
239,0.9960029115729191
240,0.9960029115729191
240,0.9960029115729191
240,0.9960029115729191
240,0.9960029115729191
240,0.9960029115729191
240,0.9960029115729191
240,0.9960029115729191
240,0.9960029115729191
240,0.9960029115729191
240,0.9960029115729191
240,0.9960029115729191
240,0.9960029115729191
240,0.9960029115729191
240,0.9960029115729191
240,0.9960029115729191
240,0.9960029115729191
240,0.9960029115729191
241,0.9960029115729191
241,0.9960029115729191
241,0.9960029115729191
241,0.9960029115729191
241,0.9960029115729191
241,0.9960029115729191
241,0.9960029115729191
241,0.9960029115729191
241,0.9960029115729191
241,0.9960029115729191
241,0.9960029115729191
241,0.9960029115729191
241,0.9960029115729191
241,0.9960029115729191
241,0.9960029115729191
241,0.9960029115729191
241,0.9960029115729191
242,0.9960029115729191
242,0.9960029115729191
242,0.9960029115729191
242,0.9960029115729191
242,0.9960029115729191
242,0.9960029115729191
242,0.9960029115729191
242,0.9960029115729191
242,0.9960029115729191
242,0.9960029115729191
242,0.9960029115729191
242,0.9960029115729191
242,0.9960029115729191
242,0.9960029115729191
242,0.9960029115729191
242,0.9960029115729191
243,0.9960029115729191
243,0.9960029115729191
243,0.9960029115729191
243,0.9960029115729191
243,0.9960029115729191
243,0.9960029115729191
243,0.9960029115729191
243,0.9960029115729191
243,0.9960029115729191
243,0.9960029115729191
243,0.9960029115729191
243,0.9960029115729191
243,0.9960029115729191
243,0.9960029115729191
243,0.9960029115729191
243,0.9960029115729191
243,0.9960029115729191
244,0.9960029115729191
244,0.9960029115729191
244,0.9960029115729191
244,0.9960029115729191
244,0.9960029115729191
244,0.9960029115729191
244,0.9960029115729191
244,0.9960029115729191
244,0.9960029115729191
244,0.9960227121196086
244,0.9960227121196086
244,0.9960227121196086
244,0.9960227121196086
244,0.9960227121196086
244,0.9960227121196086
244,0.9960227121196086
244,0.9960227121196086
245,0.9960227121196086
245,0.9960227121196086
245,0.9960227121196086
245,0.9960227121196086
245,0.9960227121196086
245,0.9960227121196086
245,0.9960227121196086
245,0.9960227121196086
245,0.9960227121196086
245,0.9960227121196086
245,0.9960227121196086
245,0.9960227121196086
245,0.9960227121196086
245,0.9960227121196086
245,0.9960227121196086
245,0.9960227121196086
245,0.9960227121196086
246,0.9961424219287592
246,0.9961424219287592
246,0.9961424219287592
246,0.9961424219287592
246,0.9961424219287592
246,0.9961424219287592
246,0.9961424219287592
246,0.9961424219287592
246,0.9961424219287592
246,0.9961424219287592
246,0.9961424219287592
246,0.9961424219287592
246,0.9961424219287592
246,0.9961424219287592
246,0.9961424219287592
246,0.9961424219287592
246,0.9961424219287592
247,0.9961424219287592
247,0.9961424219287592
247,0.9961424219287592
247,0.9961424219287592
247,0.9961424219287592
247,0.9961424219287592
247,0.9961424219287592
247,0.9961424219287592
247,0.9961424219287592
247,0.9961424219287592
247,0.9961424219287592
247,0.9961424219287592
247,0.9961424219287592
247,0.9961424219287592
247,0.9961424219287592
247,0.9961424219287592
247,0.9961424219287592
248,0.9961424219287592
248,0.9961424219287592
248,0.9961424219287592
248,0.9961424219287592
248,0.9961424219287592
248,0.9961424219287592
248,0.9961424219287592
248,0.9961424219287592
248,0.9961424219287592
248,0.9961424219287592
248,0.9961424219287592
248,0.9961424219287592
248,0.9961424219287592
248,0.9961424219287592
248,0.9961424219287592
248,0.9961424219287592
248,0.9961424219287592
248,0.9961424219287592
249,0.9961424219287592
249,0.9961424219287592
249,0.9961424219287592
249,0.9961424219287592
249,0.9961424219287592
249,0.9961424219287592
249,0.9961424219287592
249,0.9961424219287592
249,0.9961424219287592
249,0.9961424219287592
249,0.9961424219287592
249,0.9961424219287592
249,0.9961424219287592
249,0.9961424219287592
249,0.9961424219287592
249,0.9961424219287592
249,0.9961424219287592
250,0.9961424219287592
