0,0.5696649635181128
0,0.5696649635181128
0,0.5696649635181128
0,0.5696649635181128
0,0.5696649635181128
0,0.5696649635181128
0,0.5696649635181128
0,0.5696649635181128
0,0.5696649635181128
0,0.5696649635181128
0,0.5696649635181128
0,0.5696649635181128
0,0.5696649635181128
0,0.5696649635181128
0,0.5696649635181128
0,0.5696649635181128
0,0.5696649635181128
1,0.5696649635181128
1,0.5696649635181128
1,0.5696649635181128
1,0.5696649635181128
1,0.5696649635181128
1,0.5696649635181128
1,0.5696649635181128
1,0.8040363066146748
1,0.8040363066146748
1,0.8040363066146748
1,0.8040363066146748
1,0.8040363066146748
1,0.8040363066146748
1,0.8040363066146748
1,0.8040363066146748
1,0.8040363066146748
1,0.8040363066146748
1,0.8040363066146748
1,0.8040363066146748
1,0.8040363066146748
2,0.8040363066146748
2,0.8040363066146748
2,0.8040363066146748
2,0.8040363066146748
2,0.8040363066146748
2,0.8040363066146748
2,0.8040363066146748
2,0.8040363066146748
2,0.8040363066146748
2,0.8040363066146748
2,0.8040363066146748
2,0.8040363066146748
2,0.8316645397762976
2,0.8316645397762976
2,0.8316645397762976
2,0.8316645397762976
2,0.8316645397762976
2,0.8316645397762976
2,0.8316645397762976
2,0.8316645397762976
3,0.8316645397762976
3,0.8316645397762976
3,0.8316645397762976
3,0.8316645397762976
3,0.8316645397762976
3,0.8316645397762976
3,0.8316645397762976
3,0.8316645397762976
3,0.8316645397762976
3,0.8316645397762976
3,0.8316645397762976
3,0.8316645397762976
3,0.8316645397762976
3,0.8316645397762976
3,0.8316645397762976
3,0.8316645397762976
3,0.8316645397762976
3,0.8796052705711164
3,0.8796052705711164
4,0.8796052705711164
4,0.8796052705711164
4,0.8796052705711164
4,0.8796052705711164
4,0.8796052705711164
4,0.8796052705711164
4,0.8796052705711164
4,0.8796052705711164
4,0.8796052705711164
4,0.8796052705711164
4,0.8796052705711164
4,0.8796052705711164
4,0.8796052705711164
4,0.8796052705711164
4,0.8796052705711164
4,0.8796052705711164
4,0.8796052705711164
5,0.8796052705711164
5,0.8796052705711164
5,0.8796052705711164
5,0.8796052705711164
5,0.8796052705711164
5,0.8796052705711164
5,0.9049541346512396
5,0.9049541346512396
5,0.9049541346512396
5,0.9049541346512396
5,0.9049541346512396
5,0.9049541346512396
5,0.9049541346512396
5,0.9049541346512396
5,0.9049541346512396
5,0.9049541346512396
5,0.9049541346512396
6,0.9049541346512396
6,0.9049541346512396
6,0.9049541346512396
6,0.9049541346512396
6,0.9049541346512396
6,0.9049541346512396
6,0.9049541346512396
6,0.9049541346512396
6,0.9049541346512396
6,0.9049541346512396
6,0.9049541346512396
6,0.9049541346512396
6,0.9049541346512396
6,0.9049541346512396
6,0.9049541346512396
6,0.9049541346512396
7,0.9049541346512396
7,0.9049541346512396
7,0.9049541346512396
7,0.9049541346512396
7,0.9049541346512396
7,0.9049541346512396
7,0.9049541346512396
7,0.9049541346512396
7,0.9049541346512396
7,0.9049541346512396
7,0.9049541346512396
7,0.9049541346512396
7,0.9049541346512396
7,0.9049541346512396
7,0.9049541346512396
7,0.9049541346512396
8,0.9049541346512396
8,0.9049541346512396
8,0.9049541346512396
8,0.9049541346512396
8,0.9049541346512396
8,0.9049541346512396
8,0.9049541346512396
8,0.9134399381222618
8,0.9134399381222618
8,0.9134399381222618
8,0.9134399381222618
8,0.9134399381222618
8,0.9134399381222618
8,0.9134399381222618
8,0.9134399381222618
8,0.9134399381222618
8,0.9134399381222618
9,0.9134399381222618
9,0.9134399381222618
9,0.9134399381222618
9,0.9134399381222618
9,0.9134399381222618
9,0.9134399381222618
9,0.9134399381222618
9,0.9134399381222618
9,0.9134399381222618
9,0.9134399381222618
9,0.9134399381222618
9,0.9134399381222618
9,0.9134399381222618
9,0.9134399381222618
9,0.9134399381222618
10,0.9198794063333622
10,0.9198794063333622
10,0.9198794063333622
10,0.9198794063333622
10,0.9198794063333622
10,0.9198794063333622
10,0.9198794063333622
10,0.9198794063333622
10,0.9198794063333622
10,0.9198794063333622
10,0.9198794063333622
10,0.9198794063333622
10,0.9198794063333622
10,0.9198794063333622
10,0.9198794063333622
11,0.9198794063333622
11,0.9198794063333622
11,0.9198794063333622
11,0.9198794063333622
11,0.9198794063333622
11,0.9198794063333622
11,0.9198794063333622
11,0.9198794063333622
11,0.9198794063333622
11,0.9198794063333622
11,0.9202290131674702
11,0.9202290131674702
11,0.9202290131674702
11,0.9202290131674702
11,0.9202290131674702
11,0.9202290131674702
12,0.9202290131674702
12,0.9202290131674702
12,0.9202290131674702
12,0.9202290131674702
12,0.9202290131674702
12,0.9202290131674702
12,0.9202290131674702
12,0.9202290131674702
12,0.9202290131674702
12,0.9202290131674702
12,0.9202290131674702
12,0.9202290131674702
12,0.9202290131674702
12,0.9202290131674702
12,0.9202290131674702
13,0.9202290131674702
13,0.9202290131674702
13,0.9202290131674702
13,0.9202290131674702
13,0.9223112019912594
13,0.9223112019912594
13,0.9223112019912594
13,0.9223112019912594
13,0.9223112019912594
13,0.9223112019912594
13,0.9223112019912594
13,0.9223112019912594
13,0.9223112019912594
13,0.9223112019912594
13,0.9223112019912594
13,0.9223112019912594
14,0.9223112019912594
14,0.9223112019912594
14,0.9223112019912594
14,0.9223112019912594
14,0.9223112019912594
14,0.9223112019912594
14,0.9223112019912594
14,0.9223112019912594
14,0.9223112019912594
14,0.9223112019912594
14,0.9223112019912594
14,0.9223112019912594
14,0.9223112019912594
14,0.9296991762500165
14,0.9296991762500165
15,0.9296991762500165
15,0.9296991762500165
15,0.9296991762500165
15,0.9296991762500165
15,0.9296991762500165
15,0.9296991762500165
15,0.9296991762500165
15,0.9296991762500165
15,0.9296991762500165
15,0.9296991762500165
15,0.9296991762500165
15,0.9296991762500165
15,0.9296991762500165
15,0.9296991762500165
15,0.9296991762500165
16,0.9296991762500165
16,0.9296991762500165
16,0.9296991762500165
16,0.9296991762500165
16,0.9296991762500165
16,0.9296991762500165
16,0.9296991762500165
16,0.9296991762500165
16,0.930189787267607
16,0.930189787267607
16,0.930189787267607
16,0.930189787267607
16,0.930189787267607
16,0.930189787267607
16,0.930189787267607
17,0.930189787267607
17,0.930189787267607
17,0.930189787267607
17,0.930189787267607
17,0.930189787267607
17,0.930189787267607
17,0.930189787267607
17,0.930189787267607
17,0.930189787267607
17,0.930189787267607
17,0.930189787267607
17,0.930189787267607
17,0.930189787267607
17,0.930189787267607
17,0.930189787267607
17,0.930189787267607
18,0.930189787267607
18,0.930189787267607
18,0.9371991021248391
18,0.9371991021248391
18,0.9371991021248391
18,0.9371991021248391
18,0.9371991021248391
18,0.9371991021248391
18,0.9371991021248391
18,0.9371991021248391
18,0.9371991021248391
18,0.9371991021248391
18,0.9371991021248391
18,0.9371991021248391
18,0.9371991021248391
19,0.9371991021248391
19,0.9371991021248391
19,0.9371991021248391
19,0.9371991021248391
19,0.9371991021248391
19,0.9371991021248391
19,0.9371991021248391
19,0.9371991021248391
19,0.9371991021248391
19,0.9371991021248391
19,0.9371991021248391
19,0.9371991021248391
19,0.9371991021248391
19,0.9371991021248391
19,0.9371991021248391
19,0.9371991021248391
20,0.9371991021248391
20,0.9371991021248391
20,0.9371991021248391
20,0.9371991021248391
20,0.9371991021248391
20,0.9371991021248391
20,0.9371991021248391
20,0.9371991021248391
20,0.9371991021248391
20,0.9371991021248391
20,0.9371991021248391
20,0.9371991021248391
20,0.9371991021248391
20,0.9371991021248391
20,0.9371991021248391
21,0.9371991021248391
21,0.9371991021248391
21,0.9371991021248391
21,0.9371991021248391
21,0.9371991021248391
21,0.9371991021248391
21,0.9381630898465749
21,0.9381630898465749
21,0.9381630898465749
21,0.9381630898465749
21,0.9381630898465749
21,0.9381630898465749
21,0.9381630898465749
21,0.9381630898465749
21,0.9381630898465749
22,0.9381630898465749
22,0.9381630898465749
22,0.9381630898465749
22,0.9381630898465749
22,0.9381630898465749
22,0.9381630898465749
22,0.9381630898465749
22,0.9381630898465749
22,0.9381630898465749
22,0.9381630898465749
22,0.9381630898465749
22,0.9381630898465749
22,0.9381630898465749
22,0.9381630898465749
22,0.9381630898465749
22,0.9381630898465749
23,0.9383403653070749
23,0.9383403653070749
23,0.9383403653070749
23,0.9383403653070749
23,0.9383403653070749
23,0.9383403653070749
23,0.9383403653070749
23,0.9383403653070749
23,0.9383403653070749
23,0.9383403653070749
23,0.9383403653070749
23,0.9383403653070749
23,0.9383403653070749
23,0.9383403653070749
23,0.9383403653070749
24,0.9383403653070749
24,0.9383403653070749
24,0.9383403653070749
24,0.9383403653070749
24,0.9383403653070749
24,0.9383403653070749
24,0.9383403653070749
24,0.9383403653070749
24,0.9383403653070749
24,0.9383403653070749
24,0.9383403653070749
24,0.9383403653070749
24,0.9383403653070749
24,0.9383403653070749
24,0.9383403653070749
25,0.9383403653070749
25,0.9383403653070749
25,0.9383403653070749
25,0.9383403653070749
25,0.9383403653070749
25,0.9383403653070749
25,0.9383403653070749
25,0.9383403653070749
25,0.9383403653070749
25,0.9383403653070749
25,0.9383403653070749
25,0.9383403653070749
25,0.9383403653070749
25,0.9383403653070749
25,0.9383403653070749
25,0.9383403653070749
26,0.9383403653070749
26,0.9383403653070749
26,0.9383403653070749
26,0.9383403653070749
26,0.9417636184744278
26,0.9417636184744278
26,0.9417636184744278
26,0.9417636184744278
26,0.9417636184744278
26,0.9417636184744278
26,0.9417636184744278
26,0.9417636184744278
26,0.9417636184744278
26,0.9417636184744278
26,0.9417636184744278
27,0.9417636184744278
27,0.9417636184744278
27,0.9417636184744278
27,0.9417636184744278
27,0.9417636184744278
27,0.9417636184744278
27,0.9417636184744278
27,0.9417636184744278
27,0.9417636184744278
27,0.9417636184744278
27,0.9417636184744278
27,0.9417636184744278
27,0.9417636184744278
27,0.9417636184744278
27,0.9417636184744278
28,0.9417636184744278
28,0.9417636184744278
28,0.9417636184744278
28,0.9417636184744278
28,0.9417636184744278
28,0.9417636184744278
28,0.9417636184744278
28,0.9417636184744278
28,0.9417636184744278
28,0.9417636184744278
28,0.9417636184744278
28,0.9417636184744278
28,0.9417636184744278
28,0.9417636184744278
28,0.9417636184744278
28,0.9417636184744278
29,0.9417636184744278
29,0.9417636184744278
29,0.9417636184744278
29,0.9417636184744278
29,0.9417636184744278
29,0.9417636184744278
29,0.9417636184744278
29,0.9417636184744278
29,0.9440752888714893
29,0.9440752888714893
29,0.9440752888714893
29,0.9440752888714893
29,0.9440752888714893
29,0.9440752888714893
29,0.9440752888714893
29,0.9440752888714893
30,0.9440752888714893
30,0.9440752888714893
30,0.9440752888714893
30,0.9440752888714893
30,0.9440752888714893
30,0.9440752888714893
30,0.9440752888714893
30,0.9440752888714893
30,0.9440752888714893
30,0.9440752888714893
30,0.9440752888714893
30,0.9440752888714893
30,0.9440752888714893
30,0.9440752888714893
30,0.9440752888714893
30,0.9440752888714893
31,0.9440752888714893
31,0.9489041827662851
31,0.9489041827662851
31,0.9489041827662851
31,0.9489041827662851
31,0.9489041827662851
31,0.9489041827662851
31,0.9489041827662851
31,0.9489041827662851
31,0.9489041827662851
31,0.9489041827662851
31,0.9489041827662851
31,0.9489041827662851
31,0.9489041827662851
31,0.9489041827662851
31,0.9489041827662851
32,0.9489041827662851
32,0.9489041827662851
32,0.9489041827662851
32,0.9489041827662851
32,0.9489041827662851
32,0.9489041827662851
32,0.9489041827662851
32,0.9489041827662851
32,0.9489041827662851
32,0.9489041827662851
32,0.9489041827662851
32,0.9489041827662851
32,0.9489041827662851
32,0.9489041827662851
32,0.9489041827662851
33,0.9489041827662851
33,0.9489041827662851
33,0.9489041827662851
33,0.9489041827662851
33,0.9489041827662851
33,0.9489041827662851
33,0.9489041827662851
33,0.9489041827662851
33,0.9489041827662851
33,0.9489041827662851
33,0.9489041827662851
33,0.9489041827662851
33,0.9489041827662851
33,0.9489041827662851
33,0.9489041827662851
33,0.9489041827662851
33,0.9489041827662851
34,0.9489041827662851
34,0.9489041827662851
34,0.9489041827662851
34,0.9489041827662851
34,0.9489041827662851
34,0.9489041827662851
34,0.9489041827662851
34,0.9489041827662851
34,0.9489041827662851
34,0.9489041827662851
34,0.9489041827662851
34,0.9489041827662851
34,0.9489041827662851
34,0.9489041827662851
34,0.9489041827662851
34,0.9489041827662851
35,0.9489041827662851
35,0.9489041827662851
35,0.9489041827662851
35,0.9489041827662851
35,0.9489041827662851
35,0.9489041827662851
35,0.9489041827662851
35,0.9489041827662851
35,0.9489041827662851
35,0.9489041827662851
35,0.9489041827662851
35,0.9489041827662851
35,0.9489041827662851
35,0.9489041827662851
35,0.9489041827662851
35,0.9489041827662851
36,0.9489041827662851
36,0.9489041827662851
36,0.9489041827662851
36,0.9489041827662851
36,0.9489041827662851
36,0.9489041827662851
36,0.9489041827662851
36,0.9489041827662851
36,0.9489041827662851
36,0.9489041827662851
36,0.9489041827662851
36,0.9489041827662851
36,0.9489041827662851
36,0.9489041827662851
36,0.9489041827662851
37,0.9489041827662851
37,0.9489041827662851
37,0.9489041827662851
37,0.9489041827662851
37,0.9489041827662851
37,0.9489041827662851
37,0.9489041827662851
37,0.9489041827662851
37,0.9489041827662851
37,0.9489041827662851
37,0.9489041827662851
37,0.9489041827662851
37,0.9489041827662851
37,0.9489041827662851
37,0.9489041827662851
38,0.9489041827662851
38,0.9489041827662851
38,0.9489041827662851
38,0.9489041827662851
38,0.9489041827662851
38,0.9489041827662851
38,0.9489041827662851
38,0.9489041827662851
38,0.9489041827662851
38,0.9489041827662851
38,0.9489041827662851
38,0.9489041827662851
38,0.9489041827662851
38,0.9489041827662851
38,0.9489041827662851
38,0.9489041827662851
38,0.9489041827662851
39,0.9489041827662851
39,0.9489041827662851
39,0.9489041827662851
39,0.9489041827662851
39,0.9489041827662851
39,0.9489041827662851
39,0.9489041827662851
39,0.9489041827662851
39,0.9489041827662851
39,0.9489041827662851
39,0.9489041827662851
39,0.9489041827662851
39,0.9489041827662851
39,0.9489041827662851
39,0.9489041827662851
40,0.9489041827662851
40,0.9489041827662851
40,0.9489041827662851
40,0.9489041827662851
40,0.9489041827662851
40,0.9489041827662851
40,0.9489041827662851
40,0.9489041827662851
40,0.9489041827662851
40,0.9489041827662851
40,0.9489041827662851
40,0.9489041827662851
40,0.9489041827662851
40,0.9489041827662851
40,0.9489041827662851
40,0.9489041827662851
40,0.9489041827662851
41,0.9489041827662851
41,0.9489041827662851
41,0.9489041827662851
41,0.9489041827662851
41,0.9489041827662851
41,0.9489041827662851
41,0.9489041827662851
41,0.9489041827662851
41,0.9489041827662851
41,0.9489041827662851
41,0.9489041827662851
41,0.9489041827662851
41,0.9489041827662851
41,0.9489041827662851
41,0.9489041827662851
41,0.9489041827662851
42,0.9489041827662851
42,0.9498923051936232
42,0.9498923051936232
42,0.9498923051936232
42,0.9498923051936232
42,0.9498923051936232
42,0.9498923051936232
42,0.9498923051936232
42,0.9498923051936232
42,0.9498923051936232
42,0.9498923051936232
42,0.9498923051936232
42,0.9498923051936232
42,0.9498923051936232
42,0.9498923051936232
42,0.9498923051936232
43,0.9498923051936232
43,0.9498923051936232
43,0.9498923051936232
43,0.9498923051936232
43,0.9498923051936232
43,0.9498923051936232
43,0.9498923051936232
43,0.9498923051936232
43,0.9498923051936232
43,0.9498923051936232
43,0.9498923051936232
43,0.9498923051936232
43,0.9498923051936232
43,0.9498923051936232
43,0.9498923051936232
43,0.9498923051936232
44,0.9498923051936232
44,0.9498923051936232
44,0.9498923051936232
44,0.9498923051936232
44,0.9498923051936232
44,0.9498923051936232
44,0.9498923051936232
44,0.9498923051936232
44,0.9498923051936232
44,0.9498923051936232
44,0.9498923051936232
44,0.9498923051936232
44,0.9498923051936232
44,0.9498923051936232
44,0.9498923051936232
45,0.9498923051936232
45,0.9498923051936232
45,0.9498923051936232
45,0.9498923051936232
45,0.9519669124905051
45,0.9519669124905051
45,0.9519669124905051
45,0.9519669124905051
45,0.9519669124905051
45,0.9519669124905051
45,0.9519669124905051
45,0.9519669124905051
45,0.9519669124905051
45,0.9519669124905051
45,0.9519669124905051
45,0.9519669124905051
46,0.9519669124905051
46,0.9519669124905051
46,0.9519669124905051
46,0.9519669124905051
46,0.9519669124905051
46,0.9519669124905051
46,0.9519669124905051
46,0.9519669124905051
46,0.9519669124905051
46,0.9519669124905051
46,0.9519669124905051
46,0.9519669124905051
46,0.9519669124905051
46,0.9519669124905051
46,0.9519669124905051
46,0.9519669124905051
47,0.9519669124905051
47,0.9519669124905051
47,0.9519669124905051
47,0.9519669124905051
47,0.9519669124905051
47,0.9519669124905051
47,0.9519669124905051
47,0.9519669124905051
47,0.9519669124905051
47,0.9519669124905051
47,0.9519669124905051
47,0.9519669124905051
47,0.9519669124905051
47,0.9519669124905051
47,0.9519669124905051
47,0.9519669124905051
48,0.9519669124905051
48,0.9519669124905051
48,0.9519669124905051
48,0.9519669124905051
48,0.9519669124905051
48,0.9519669124905051
48,0.9536579984558983
48,0.9536579984558983
48,0.9536579984558983
48,0.9536579984558983
48,0.9536579984558983
48,0.9536579984558983
48,0.9536579984558983
48,0.9536579984558983
48,0.9536579984558983
48,0.9536579984558983
49,0.9536579984558983
49,0.9536579984558983
49,0.9536579984558983
49,0.9536579984558983
49,0.9536579984558983
49,0.9536579984558983
49,0.9536579984558983
49,0.9536579984558983
49,0.9536579984558983
49,0.9536579984558983
49,0.9536579984558983
49,0.9536579984558983
49,0.9536579984558983
49,0.9536579984558983
49,0.9536579984558983
50,0.9536579984558983
50,0.9536579984558983
50,0.9536579984558983
50,0.9536579984558983
50,0.9536579984558983
50,0.9536579984558983
50,0.9536579984558983
50,0.9536579984558983
50,0.9536579984558983
50,0.9536579984558983
50,0.9536579984558983
50,0.9536579984558983
50,0.9536579984558983
50,0.9536579984558983
50,0.9536579984558983
50,0.9536579984558983
51,0.9536579984558983
51,0.9536579984558983
51,0.9536579984558983
51,0.9536579984558983
51,0.9536579984558983
51,0.9536579984558983
51,0.9536579984558983
51,0.9536579984558983
51,0.9536579984558983
51,0.9536579984558983
51,0.9536579984558983
51,0.9536579984558983
51,0.9536579984558983
51,0.9536579984558983
51,0.9536579984558983
51,0.9536579984558983
52,0.9536579984558983
52,0.9536579984558983
52,0.9536579984558983
52,0.9536579984558983
52,0.9536579984558983
52,0.9536579984558983
52,0.9536579984558983
52,0.9536579984558983
52,0.9536579984558983
52,0.9536579984558983
52,0.9536579984558983
52,0.9536579984558983
52,0.9536579984558983
52,0.9536579984558983
52,0.9536579984558983
53,0.9536579984558983
53,0.9536579984558983
53,0.9536579984558983
53,0.9536579984558983
53,0.9536579984558983
53,0.9536579984558983
53,0.9536579984558983
53,0.9536579984558983
53,0.9536579984558983
53,0.9536579984558983
53,0.9536579984558983
53,0.9536579984558983
53,0.9536579984558983
53,0.9536579984558983
53,0.9536579984558983
53,0.9536579984558983
54,0.9536579984558983
54,0.9536579984558983
54,0.9536579984558983
54,0.9536579984558983
54,0.9536579984558983
54,0.9536579984558983
54,0.9536579984558983
54,0.9536579984558983
54,0.9536579984558983
54,0.9536579984558983
54,0.9536579984558983
54,0.9536579984558983
54,0.9536579984558983
54,0.9536579984558983
54,0.9536579984558983
54,0.9536579984558983
55,0.9536579984558983
55,0.9536579984558983
55,0.9536579984558983
55,0.9536579984558983
55,0.9536579984558983
55,0.9536579984558983
55,0.9536579984558983
55,0.9536579984558983
55,0.9536579984558983
55,0.9536579984558983
55,0.9536579984558983
55,0.9536579984558983
55,0.9536579984558983
55,0.9536579984558983
55,0.9536579984558983
55,0.9536579984558983
56,0.9536579984558983
56,0.9536579984558983
56,0.9536579984558983
56,0.9536579984558983
56,0.9536579984558983
56,0.9536579984558983
56,0.9536579984558983
56,0.9536579984558983
56,0.9536579984558983
56,0.9536579984558983
56,0.9536579984558983
56,0.9536579984558983
56,0.9536579984558983
56,0.9536579984558983
56,0.9536579984558983
57,0.9536579984558983
57,0.9536579984558983
57,0.9536579984558983
57,0.9536579984558983
57,0.9536579984558983
57,0.9536579984558983
57,0.9536579984558983
57,0.9536579984558983
57,0.9536579984558983
57,0.9536579984558983
57,0.9536579984558983
57,0.9536579984558983
57,0.9536579984558983
57,0.9536579984558983
57,0.9536579984558983
57,0.9544109867433261
57,0.9544109867433261
58,0.9544109867433261
58,0.9544109867433261
58,0.9544109867433261
58,0.9544109867433261
58,0.9544109867433261
58,0.9544109867433261
58,0.9544109867433261
58,0.9544109867433261
58,0.9544109867433261
58,0.9544109867433261
58,0.9544109867433261
58,0.9544109867433261
58,0.9544109867433261
58,0.9544109867433261
58,0.9544109867433261
58,0.9544109867433261
59,0.9544109867433261
59,0.9544109867433261
59,0.9544109867433261
59,0.9544109867433261
59,0.9544109867433261
59,0.9544109867433261
59,0.9544109867433261
59,0.9544109867433261
59,0.9544109867433261
59,0.9544109867433261
59,0.9544109867433261
59,0.9544109867433261
59,0.9544109867433261
59,0.9544109867433261
59,0.9544109867433261
59,0.9544109867433261
60,0.9544109867433261
60,0.9544109867433261
60,0.9544109867433261
60,0.9544109867433261
60,0.9544109867433261
60,0.9544109867433261
60,0.9544109867433261
60,0.9544109867433261
60,0.9544109867433261
60,0.9544109867433261
60,0.9544109867433261
60,0.9544109867433261
60,0.9544109867433261
60,0.9544109867433261
60,0.9544109867433261
60,0.9544109867433261
61,0.9544109867433261
61,0.9544109867433261
61,0.9544109867433261
61,0.9544109867433261
61,0.9544109867433261
61,0.9544109867433261
61,0.9544109867433261
61,0.9544109867433261
61,0.9544109867433261
61,0.9544109867433261
61,0.9544109867433261
61,0.9544109867433261
61,0.9544109867433261
61,0.9544109867433261
61,0.9544109867433261
61,0.9544109867433261
62,0.9544109867433261
62,0.9544109867433261
62,0.9544109867433261
62,0.9544109867433261
62,0.9544109867433261
62,0.9544109867433261
62,0.9544109867433261
62,0.9544109867433261
62,0.9544109867433261
62,0.9560090894031282
62,0.9560090894031282
62,0.9560090894031282
62,0.9560090894031282
62,0.9560090894031282
62,0.9560090894031282
62,0.9560090894031282
63,0.9560090894031282
63,0.9560090894031282
63,0.9560090894031282
63,0.9560090894031282
63,0.9560090894031282
63,0.9560090894031282
63,0.9560090894031282
63,0.9560090894031282
63,0.9560090894031282
63,0.9560090894031282
63,0.9560090894031282
63,0.9560090894031282
63,0.9560090894031282
63,0.9560090894031282
63,0.9560090894031282
63,0.9560090894031282
64,0.9560090894031282
64,0.9560090894031282
64,0.9560090894031282
64,0.9560090894031282
64,0.9560090894031282
64,0.9560090894031282
64,0.9560090894031282
64,0.9560090894031282
64,0.9560090894031282
64,0.9560090894031282
64,0.9560090894031282
64,0.9560090894031282
64,0.9560090894031282
64,0.9560090894031282
64,0.9560090894031282
64,0.9560090894031282
65,0.9560090894031282
65,0.9560090894031282
65,0.9560090894031282
65,0.9560090894031282
65,0.9560090894031282
65,0.9560090894031282
65,0.9560090894031282
65,0.9560090894031282
65,0.9560090894031282
65,0.9560090894031282
65,0.9560090894031282
65,0.9560090894031282
65,0.9560090894031282
65,0.9560090894031282
65,0.9560090894031282
65,0.9560090894031282
66,0.9560090894031282
66,0.9560090894031282
66,0.9560090894031282
66,0.9560090894031282
66,0.9560090894031282
66,0.9560090894031282
66,0.9560090894031282
66,0.9560090894031282
66,0.9560090894031282
66,0.9560090894031282
66,0.9560090894031282
66,0.9560090894031282
66,0.9560090894031282
66,0.9560090894031282
66,0.9560090894031282
66,0.9560090894031282
67,0.9560090894031282
67,0.9560090894031282
67,0.9560090894031282
67,0.9560090894031282
67,0.9560090894031282
67,0.9560090894031282
67,0.9560090894031282
67,0.9560090894031282
67,0.9560090894031282
67,0.9560090894031282
67,0.9560090894031282
67,0.9560090894031282
67,0.9560090894031282
67,0.9560090894031282
67,0.9560090894031282
67,0.9560090894031282
68,0.9560090894031282
68,0.9560090894031282
68,0.9560090894031282
68,0.9560090894031282
68,0.9560090894031282
68,0.9560090894031282
68,0.9560090894031282
68,0.9560090894031282
68,0.9560090894031282
68,0.9560090894031282
68,0.9560090894031282
68,0.9560090894031282
68,0.9560090894031282
68,0.961594225957739
68,0.961594225957739
68,0.961594225957739
69,0.961594225957739
69,0.961594225957739
69,0.961594225957739
69,0.961594225957739
69,0.961594225957739
69,0.961594225957739
69,0.961594225957739
69,0.961594225957739
69,0.961594225957739
69,0.961594225957739
69,0.961594225957739
69,0.961594225957739
69,0.961594225957739
69,0.961594225957739
69,0.961594225957739
69,0.961594225957739
70,0.961594225957739
70,0.961594225957739
70,0.961594225957739
70,0.961594225957739
70,0.961594225957739
70,0.961594225957739
70,0.9616373346109474
70,0.9616373346109474
70,0.9616373346109474
70,0.9616373346109474
70,0.9616373346109474
70,0.9616373346109474
70,0.9616373346109474
70,0.9616373346109474
70,0.9616373346109474
70,0.9616373346109474
70,0.9616373346109474
71,0.9616373346109474
71,0.9616373346109474
71,0.9616373346109474
71,0.9616373346109474
71,0.9616373346109474
71,0.9616373346109474
71,0.9616373346109474
71,0.9616373346109474
71,0.9616373346109474
71,0.9616373346109474
71,0.9616373346109474
71,0.9616373346109474
71,0.9616373346109474
71,0.9616373346109474
71,0.9616373346109474
71,0.9616373346109474
72,0.9616373346109474
72,0.9616373346109474
72,0.9616373346109474
72,0.9616373346109474
72,0.9616373346109474
72,0.9616373346109474
72,0.9616373346109474
72,0.9616373346109474
72,0.9616373346109474
72,0.9616373346109474
72,0.9616373346109474
72,0.9616373346109474
72,0.9616373346109474
72,0.9616373346109474
72,0.9616373346109474
72,0.9616373346109474
73,0.9616373346109474
73,0.9616373346109474
73,0.9616373346109474
73,0.9616373346109474
73,0.9616373346109474
73,0.9616373346109474
73,0.9616373346109474
73,0.963777889230384
73,0.963777889230384
73,0.963777889230384
73,0.963777889230384
73,0.963777889230384
73,0.963777889230384
73,0.963777889230384
73,0.963777889230384
73,0.963777889230384
73,0.963777889230384
74,0.963777889230384
74,0.963777889230384
74,0.963777889230384
74,0.963777889230384
74,0.963777889230384
74,0.963777889230384
74,0.963777889230384
74,0.963777889230384
74,0.963777889230384
74,0.963777889230384
74,0.963777889230384
74,0.963777889230384
74,0.963777889230384
74,0.963777889230384
74,0.963777889230384
74,0.967717609742623
75,0.967717609742623
75,0.967717609742623
75,0.967717609742623
75,0.967717609742623
75,0.967717609742623
75,0.967717609742623
75,0.967717609742623
75,0.967717609742623
75,0.967717609742623
75,0.967717609742623
75,0.967717609742623
75,0.967717609742623
75,0.967717609742623
75,0.967717609742623
75,0.967717609742623
75,0.967717609742623
75,0.967717609742623
76,0.967717609742623
76,0.967717609742623
76,0.967717609742623
76,0.967717609742623
76,0.967717609742623
76,0.967717609742623
76,0.967717609742623
76,0.9683040232524754
76,0.9683040232524754
76,0.9683040232524754
76,0.9683040232524754
76,0.9683040232524754
76,0.9683040232524754
76,0.9683040232524754
76,0.9683040232524754
76,0.9683040232524754
76,0.9683040232524754
77,0.9683040232524754
77,0.9683040232524754
77,0.9683040232524754
77,0.9683040232524754
77,0.9683040232524754
77,0.9683040232524754
77,0.9683040232524754
77,0.9683040232524754
77,0.9683040232524754
77,0.9683040232524754
77,0.9683040232524754
77,0.9683040232524754
77,0.9683040232524754
77,0.9683040232524754
77,0.9683040232524754
77,0.9707468329148584
78,0.9707468329148584
78,0.9707468329148584
78,0.9707468329148584
78,0.9707468329148584
78,0.9707468329148584
78,0.9707468329148584
78,0.9707468329148584
78,0.9707468329148584
78,0.9707468329148584
78,0.9707468329148584
78,0.9707468329148584
78,0.9707468329148584
78,0.9707468329148584
78,0.9707468329148584
78,0.9707468329148584
78,0.9707468329148584
78,0.9707468329148584
79,0.9707468329148584
79,0.9707468329148584
79,0.9707468329148584
79,0.9707468329148584
79,0.9707468329148584
79,0.9707468329148584
79,0.9707468329148584
79,0.9707468329148584
79,0.9707468329148584
79,0.9707468329148584
79,0.9707468329148584
79,0.9707468329148584
79,0.9707468329148584
79,0.9707468329148584
79,0.9707468329148584
79,0.9707468329148584
80,0.9707468329148584
80,0.9707468329148584
80,0.9707468329148584
80,0.9707468329148584
80,0.9707468329148584
80,0.9707468329148584
80,0.9707468329148584
80,0.9707468329148584
80,0.9707468329148584
80,0.9707468329148584
80,0.9707468329148584
80,0.9707468329148584
80,0.9707468329148584
80,0.9707468329148584
80,0.9707468329148584
80,0.9707468329148584
80,0.9707468329148584
81,0.9707468329148584
81,0.9707468329148584
81,0.9707468329148584
81,0.9707468329148584
81,0.9707468329148584
81,0.9707468329148584
81,0.9707468329148584
81,0.9707468329148584
81,0.9707468329148584
81,0.9707468329148584
81,0.9707468329148584
81,0.9707468329148584
81,0.9707468329148584
81,0.9707468329148584
81,0.9707468329148584
81,0.9707468329148584
82,0.9707468329148584
82,0.9707468329148584
82,0.9707468329148584
82,0.9707468329148584
82,0.9707468329148584
82,0.9707468329148584
82,0.9707468329148584
82,0.9707468329148584
82,0.9751412104421893
82,0.9751412104421893
82,0.9751412104421893
82,0.9751412104421893
82,0.9751412104421893
82,0.9751412104421893
82,0.9751412104421893
82,0.9751412104421893
82,0.9751412104421893
83,0.9751412104421893
83,0.9751412104421893
83,0.9751412104421893
83,0.9751412104421893
83,0.9751412104421893
83,0.9751412104421893
83,0.9751412104421893
83,0.9751412104421893
83,0.9751412104421893
83,0.9751412104421893
83,0.9751412104421893
83,0.9751412104421893
83,0.9751412104421893
83,0.9751412104421893
83,0.9751412104421893
83,0.9751412104421893
84,0.97740490787425
84,0.97740490787425
84,0.97740490787425
84,0.97740490787425
84,0.97740490787425
84,0.97740490787425
84,0.97740490787425
84,0.97740490787425
84,0.97740490787425
84,0.97740490787425
84,0.97740490787425
84,0.97740490787425
84,0.97740490787425
84,0.97740490787425
84,0.97740490787425
84,0.97740490787425
84,0.97740490787425
85,0.97740490787425
85,0.97740490787425
85,0.97740490787425
85,0.97740490787425
85,0.97740490787425
85,0.97740490787425
85,0.97740490787425
85,0.97740490787425
85,0.9836313508574126
85,0.9836313508574126
85,0.9836313508574126
85,0.9836313508574126
85,0.9836313508574126
85,0.9836313508574126
85,0.9836313508574126
85,0.9836313508574126
86,0.9836313508574126
86,0.9836313508574126
86,0.9836313508574126
86,0.9836313508574126
86,0.9836313508574126
86,0.9836313508574126
86,0.9836313508574126
86,0.9836313508574126
86,0.9836313508574126
86,0.9836313508574126
86,0.9836313508574126
86,0.9836313508574126
86,0.9836313508574126
86,0.9836313508574126
86,0.9836313508574126
86,0.9836313508574126
86,0.9836313508574126
87,0.9836313508574126
87,0.9836313508574126
87,0.9836313508574126
87,0.9836313508574126
87,0.9836313508574126
87,0.9836313508574126
87,0.9836313508574126
87,0.9836313508574126
87,0.9836313508574126
87,0.9836313508574126
87,0.9836313508574126
87,0.9836313508574126
87,0.9836313508574126
87,0.9836313508574126
87,0.9836313508574126
87,0.9836313508574126
88,0.9836313508574126
88,0.9836313508574126
88,0.9836313508574126
88,0.9836313508574126
88,0.9836313508574126
88,0.9836313508574126
88,0.9836313508574126
88,0.9836313508574126
88,0.9836313508574126
88,0.9836313508574126
88,0.9836313508574126
88,0.9836313508574126
88,0.9836313508574126
88,0.9836313508574126
88,0.9836313508574126
88,0.9836313508574126
89,0.9836313508574126
89,0.9836313508574126
89,0.9836313508574126
89,0.9836313508574126
89,0.9836313508574126
89,0.9836313508574126
89,0.9836313508574126
89,0.9836313508574126
89,0.9836313508574126
89,0.9836313508574126
89,0.9836313508574126
89,0.9836313508574126
89,0.9836313508574126
89,0.9836313508574126
89,0.9836313508574126
89,0.9836313508574126
89,0.9836313508574126
90,0.9836313508574126
90,0.9836313508574126
90,0.9836313508574126
90,0.9836313508574126
90,0.9836313508574126
90,0.9836313508574126
90,0.9836313508574126
90,0.9836313508574126
90,0.9836313508574126
90,0.9836313508574126
90,0.9836313508574126
90,0.9836313508574126
90,0.9836313508574126
90,0.9836313508574126
90,0.9836313508574126
90,0.9836313508574126
91,0.9836313508574126
91,0.9836313508574126
91,0.9836313508574126
91,0.9836313508574126
91,0.9836313508574126
91,0.9836313508574126
91,0.9836313508574126
91,0.9836313508574126
91,0.9836313508574126
91,0.9836313508574126
91,0.9840012239916069
91,0.9840012239916069
91,0.9840012239916069
91,0.9840012239916069
91,0.9840012239916069
91,0.9840012239916069
92,0.9840012239916069
92,0.9840012239916069
92,0.9840012239916069
92,0.9840012239916069
92,0.9840012239916069
92,0.9840012239916069
92,0.9840012239916069
92,0.9840012239916069
92,0.9840012239916069
92,0.9840012239916069
92,0.9840012239916069
92,0.9840012239916069
92,0.9840012239916069
92,0.9840012239916069
92,0.9840012239916069
92,0.9840012239916069
92,0.9840012239916069
93,0.9840012239916069
93,0.9840012239916069
93,0.9840012239916069
93,0.9840012239916069
93,0.9840012239916069
93,0.9840012239916069
93,0.9840012239916069
93,0.9840012239916069
93,0.9840012239916069
93,0.9840012239916069
93,0.9840012239916069
93,0.9840012239916069
93,0.9840012239916069
93,0.9840012239916069
93,0.9840012239916069
93,0.9840012239916069
94,0.9840012239916069
94,0.9840012239916069
94,0.9840012239916069
94,0.9840012239916069
94,0.9840012239916069
94,0.9840012239916069
94,0.9840012239916069
94,0.9840012239916069
94,0.9840012239916069
94,0.9840012239916069
94,0.9840012239916069
94,0.9856763148574923
94,0.9856763148574923
94,0.9856763148574923
94,0.9856763148574923
94,0.9856763148574923
95,0.9856763148574923
95,0.9856763148574923
95,0.9856763148574923
95,0.9856763148574923
95,0.9856763148574923
95,0.9856763148574923
95,0.9856763148574923
95,0.9856763148574923
95,0.9856763148574923
95,0.9856763148574923
95,0.9856763148574923
95,0.9856763148574923
95,0.9856763148574923
95,0.9856763148574923
95,0.9856763148574923
95,0.9856763148574923
96,0.9856763148574923
96,0.9856763148574923
96,0.9856763148574923
96,0.9856763148574923
96,0.9859962720332979
96,0.9859962720332979
96,0.9859962720332979
96,0.9859962720332979
96,0.9859962720332979
96,0.9859962720332979
96,0.9859962720332979
96,0.9859962720332979
96,0.9859962720332979
96,0.9859962720332979
96,0.9859962720332979
96,0.9859962720332979
96,0.9859962720332979
97,0.9859962720332979
97,0.9859962720332979
97,0.9859962720332979
97,0.9859962720332979
97,0.9859962720332979
97,0.9859962720332979
97,0.9859962720332979
97,0.9859962720332979
97,0.9859962720332979
97,0.9859962720332979
97,0.9859962720332979
97,0.9859962720332979
97,0.9859962720332979
97,0.9859962720332979
97,0.9859962720332979
97,0.9859962720332979
98,0.9859962720332979
98,0.9859962720332979
98,0.9859962720332979
98,0.9859962720332979
98,0.9859962720332979
98,0.9859962720332979
98,0.9859962720332979
98,0.9859962720332979
98,0.9859962720332979
98,0.9859962720332979
98,0.9859962720332979
98,0.9859962720332979
98,0.9859962720332979
98,0.9859962720332979
98,0.9859962720332979
98,0.9859962720332979
99,0.9859962720332979
99,0.9859962720332979
99,0.9859962720332979
99,0.9859962720332979
99,0.9859962720332979
99,0.9860182548527832
99,0.9860182548527832
99,0.9860182548527832
99,0.9860182548527832
99,0.9860182548527832
99,0.9860182548527832
99,0.9860182548527832
99,0.9860182548527832
99,0.9860182548527832
99,0.9860182548527832
99,0.9860182548527832
100,0.9860182548527832
100,0.9860182548527832
100,0.9860182548527832
100,0.9860182548527832
100,0.9860182548527832
100,0.9860182548527832
100,0.9860182548527832
100,0.9860182548527832
100,0.9860182548527832
100,0.9860182548527832
100,0.9860182548527832
100,0.9860182548527832
100,0.9860182548527832
100,0.9860182548527832
100,0.9861097570734007
100,0.9861097570734007
100,0.9861097570734007
101,0.9861097570734007
101,0.9861097570734007
101,0.9861097570734007
101,0.9861097570734007
101,0.9861097570734007
101,0.9861097570734007
101,0.9861097570734007
101,0.9861097570734007
101,0.9861097570734007
101,0.9861097570734007
101,0.9861097570734007
101,0.9861097570734007
101,0.9861097570734007
101,0.9861097570734007
101,0.9861097570734007
101,0.9861097570734007
101,0.9861097570734007
102,0.9861097570734007
102,0.9861097570734007
102,0.9861097570734007
102,0.9861097570734007
102,0.9861097570734007
102,0.9861097570734007
102,0.9861097570734007
102,0.9861097570734007
102,0.9861097570734007
102,0.9861097570734007
102,0.9861097570734007
102,0.9861097570734007
102,0.9861097570734007
102,0.9861097570734007
102,0.9861097570734007
102,0.9861097570734007
103,0.9861097570734007
103,0.9861097570734007
103,0.9861097570734007
103,0.9861097570734007
103,0.9861097570734007
103,0.9861097570734007
103,0.9861097570734007
103,0.9861097570734007
103,0.9861097570734007
103,0.9861097570734007
103,0.9861097570734007
103,0.9861097570734007
103,0.9861097570734007
103,0.9861097570734007
103,0.9861097570734007
103,0.9861097570734007
104,0.9861097570734007
104,0.9861097570734007
104,0.9861097570734007
104,0.9861097570734007
104,0.9861097570734007
104,0.9861097570734007
104,0.9861097570734007
104,0.9861097570734007
104,0.9861097570734007
104,0.9861097570734007
104,0.9861097570734007
104,0.9861097570734007
104,0.9861097570734007
104,0.9861097570734007
104,0.9861097570734007
104,0.9861097570734007
104,0.9861097570734007
105,0.9861097570734007
105,0.9861097570734007
105,0.9861097570734007
105,0.9861097570734007
105,0.9861097570734007
105,0.9861097570734007
105,0.9861097570734007
105,0.9861097570734007
105,0.9861097570734007
105,0.9861097570734007
105,0.9861097570734007
105,0.9861097570734007
105,0.9861097570734007
105,0.9861097570734007
105,0.9861097570734007
105,0.9861097570734007
106,0.9861097570734007
106,0.9861097570734007
106,0.9861097570734007
106,0.9861097570734007
106,0.9861097570734007
106,0.9861097570734007
106,0.9861097570734007
106,0.9861097570734007
106,0.9861097570734007
106,0.9861097570734007
106,0.9861097570734007
106,0.9861097570734007
106,0.9861097570734007
106,0.9861097570734007
106,0.9861097570734007
106,0.9861339851170504
106,0.9861339851170504
107,0.9861339851170504
107,0.9861339851170504
107,0.9861339851170504
107,0.9861339851170504
107,0.9861339851170504
107,0.9861339851170504
107,0.9861339851170504
107,0.9861339851170504
107,0.9861339851170504
107,0.9861339851170504
107,0.9861339851170504
107,0.9861339851170504
107,0.9861339851170504
107,0.9861339851170504
107,0.9861339851170504
107,0.9861339851170504
108,0.9861339851170504
108,0.9861339851170504
108,0.9861339851170504
108,0.9861339851170504
108,0.9861339851170504
108,0.9861339851170504
108,0.9861339851170504
108,0.9861339851170504
108,0.9861339851170504
108,0.9861339851170504
108,0.9861339851170504
108,0.9861339851170504
108,0.9861339851170504
108,0.9861339851170504
108,0.9861339851170504
108,0.9861339851170504
108,0.9861339851170504
109,0.9861339851170504
109,0.9861339851170504
109,0.9861339851170504
109,0.9861339851170504
109,0.9861339851170504
109,0.9861339851170504
109,0.9861339851170504
109,0.9861339851170504
109,0.9861339851170504
109,0.9861339851170504
109,0.9861339851170504
109,0.9861339851170504
109,0.9861339851170504
109,0.9861339851170504
109,0.9861339851170504
109,0.9861339851170504
110,0.9861339851170504
110,0.9861339851170504
110,0.9861339851170504
110,0.9861339851170504
110,0.9861339851170504
110,0.9861339851170504
110,0.9861339851170504
110,0.9861339851170504
110,0.9861339851170504
110,0.9861339851170504
110,0.9861339851170504
110,0.9861339851170504
110,0.9861339851170504
110,0.9861339851170504
110,0.9861339851170504
110,0.9861339851170504
110,0.9861339851170504
111,0.9861339851170504
111,0.9861339851170504
111,0.9861339851170504
111,0.9861339851170504
111,0.9861339851170504
111,0.9861339851170504
111,0.9861339851170504
111,0.9861339851170504
111,0.9861339851170504
111,0.9861339851170504
111,0.9861339851170504
111,0.9861339851170504
111,0.9861339851170504
111,0.9861339851170504
111,0.9861339851170504
111,0.9861339851170504
112,0.9861339851170504
112,0.9861339851170504
112,0.9861339851170504
112,0.9861339851170504
112,0.9861339851170504
112,0.9861339851170504
112,0.9861339851170504
112,0.9861339851170504
112,0.9861339851170504
112,0.9861339851170504
112,0.9861339851170504
112,0.9861339851170504
112,0.9861339851170504
112,0.9861339851170504
112,0.9861339851170504
112,0.9861339851170504
113,0.9862498056157467
113,0.9862498056157467
113,0.9862498056157467
113,0.9862498056157467
113,0.9862498056157467
113,0.9862498056157467
113,0.9862498056157467
113,0.9862498056157467
113,0.9862498056157467
113,0.9862498056157467
113,0.9862498056157467
113,0.9862498056157467
113,0.9862498056157467
113,0.9862498056157467
113,0.9862498056157467
113,0.9862498056157467
113,0.9862498056157467
114,0.9862498056157467
114,0.9862498056157467
114,0.9862498056157467
114,0.9862498056157467
114,0.9862498056157467
114,0.9862498056157467
114,0.9862498056157467
114,0.9862498056157467
114,0.9862498056157467
114,0.9862498056157467
114,0.9862498056157467
114,0.9862498056157467
114,0.9862498056157467
114,0.9862498056157467
114,0.9862498056157467
114,0.9862498056157467
115,0.9862498056157467
115,0.9862498056157467
115,0.9862498056157467
115,0.9862498056157467
115,0.9862498056157467
115,0.9862498056157467
115,0.9862498056157467
115,0.9862498056157467
115,0.9862498056157467
115,0.9862498056157467
115,0.9862498056157467
115,0.9862498056157467
115,0.9862498056157467
115,0.9862498056157467
115,0.9862498056157467
115,0.9862498056157467
116,0.9862498056157467
116,0.9862498056157467
116,0.9862498056157467
116,0.9862498056157467
116,0.9862498056157467
116,0.9862498056157467
116,0.9862498056157467
116,0.9862498056157467
116,0.9862498056157467
116,0.9862498056157467
116,0.9862498056157467
116,0.9862498056157467
116,0.9862498056157467
116,0.9862498056157467
116,0.9862498056157467
116,0.9862498056157467
116,0.9862498056157467
117,0.9862498056157467
117,0.9862498056157467
117,0.9862498056157467
117,0.9862498056157467
117,0.9862498056157467
117,0.9862498056157467
117,0.9862498056157467
117,0.9862498056157467
117,0.9862498056157467
117,0.9862498056157467
117,0.9862498056157467
117,0.9862498056157467
117,0.9862498056157467
117,0.9862498056157467
117,0.9862498056157467
117,0.9862498056157467
118,0.9862498056157467
118,0.9862498056157467
118,0.9862498056157467
118,0.9862498056157467
118,0.9862498056157467
118,0.9862498056157467
118,0.9862498056157467
118,0.9862498056157467
118,0.9862498056157467
118,0.9862498056157467
118,0.9862498056157467
118,0.9862498056157467
118,0.9862498056157467
118,0.9862498056157467
118,0.9862498056157467
118,0.9862498056157467
118,0.9862498056157467
119,0.9862498056157467
119,0.9862498056157467
119,0.9862498056157467
119,0.9862498056157467
119,0.9862498056157467
119,0.9862498056157467
119,0.9862498056157467
119,0.9862498056157467
119,0.9862498056157467
119,0.9862498056157467
119,0.9862498056157467
119,0.9862498056157467
119,0.9862498056157467
119,0.9862498056157467
119,0.9862498056157467
119,0.9862498056157467
120,0.9862498056157467
120,0.9862498056157467
120,0.9862498056157467
120,0.9862498056157467
120,0.9862498056157467
120,0.9862498056157467
120,0.9862498056157467
120,0.9862498056157467
120,0.9862498056157467
120,0.9862498056157467
120,0.9862498056157467
120,0.9862498056157467
120,0.9862498056157467
120,0.9862498056157467
120,0.9862498056157467
120,0.9862498056157467
121,0.9862498056157467
121,0.9862498056157467
121,0.9862498056157467
121,0.9862498056157467
121,0.9862498056157467
121,0.9862498056157467
121,0.9862498056157467
121,0.9862498056157467
121,0.9862498056157467
121,0.9862498056157467
121,0.9862498056157467
121,0.9862498056157467
121,0.9862498056157467
121,0.9862498056157467
121,0.9862498056157467
121,0.9862498056157467
121,0.9862498056157467
122,0.9862498056157467
122,0.9862498056157467
122,0.986299775401133
122,0.986299775401133
122,0.986299775401133
122,0.986299775401133
122,0.986299775401133
122,0.986299775401133
122,0.986299775401133
122,0.986299775401133
122,0.986299775401133
122,0.986299775401133
122,0.986299775401133
122,0.986299775401133
122,0.986299775401133
122,0.986299775401133
123,0.986299775401133
123,0.986299775401133
123,0.986299775401133
123,0.986299775401133
123,0.986299775401133
123,0.986299775401133
123,0.986299775401133
123,0.986299775401133
123,0.986299775401133
123,0.986299775401133
123,0.986299775401133
123,0.986299775401133
123,0.986299775401133
123,0.986299775401133
123,0.986299775401133
123,0.986299775401133
123,0.986299775401133
123,0.986299775401133
124,0.986299775401133
124,0.986299775401133
124,0.986299775401133
124,0.986299775401133
124,0.986299775401133
124,0.986299775401133
124,0.986299775401133
124,0.986299775401133
124,0.986299775401133
124,0.986299775401133
124,0.986299775401133
124,0.986299775401133
124,0.986299775401133
124,0.986299775401133
124,0.986299775401133
124,0.986299775401133
125,0.986299775401133
125,0.986299775401133
125,0.986299775401133
125,0.986299775401133
125,0.986299775401133
125,0.986299775401133
125,0.986299775401133
125,0.986299775401133
125,0.986299775401133
125,0.986299775401133
125,0.986299775401133
125,0.986299775401133
125,0.986299775401133
125,0.986299775401133
125,0.986299775401133
125,0.986299775401133
125,0.986299775401133
126,0.986299775401133
126,0.986299775401133
126,0.986299775401133
126,0.986299775401133
126,0.986299775401133
126,0.986299775401133
126,0.986299775401133
126,0.986299775401133
126,0.986299775401133
126,0.986299775401133
126,0.986299775401133
126,0.986299775401133
126,0.986299775401133
126,0.986299775401133
126,0.986299775401133
126,0.986299775401133
126,0.986299775401133
127,0.986299775401133
127,0.986299775401133
127,0.986299775401133
127,0.986299775401133
127,0.986299775401133
127,0.986299775401133
127,0.986299775401133
127,0.986299775401133
127,0.986299775401133
127,0.986299775401133
127,0.986299775401133
127,0.986299775401133
127,0.986299775401133
127,0.986299775401133
127,0.986299775401133
127,0.986299775401133
128,0.986299775401133
128,0.986299775401133
128,0.986299775401133
128,0.986299775401133
128,0.986299775401133
128,0.986299775401133
128,0.986299775401133
128,0.986299775401133
128,0.986299775401133
128,0.986299775401133
128,0.986299775401133
128,0.986299775401133
128,0.986299775401133
128,0.986299775401133
128,0.986299775401133
128,0.986299775401133
128,0.986299775401133
129,0.986299775401133
129,0.986299775401133
129,0.986299775401133
129,0.986299775401133
129,0.986299775401133
129,0.986299775401133
129,0.986299775401133
129,0.986299775401133
129,0.986299775401133
129,0.986299775401133
129,0.990991845724735
129,0.990991845724735
129,0.990991845724735
129,0.990991845724735
129,0.990991845724735
129,0.990991845724735
129,0.990991845724735
130,0.990991845724735
130,0.990991845724735
130,0.990991845724735
130,0.990991845724735
130,0.990991845724735
130,0.990991845724735
130,0.990991845724735
130,0.990991845724735
130,0.990991845724735
130,0.990991845724735
130,0.990991845724735
130,0.990991845724735
130,0.990991845724735
130,0.990991845724735
130,0.990991845724735
130,0.990991845724735
130,0.990991845724735
131,0.990991845724735
131,0.990991845724735
131,0.990991845724735
131,0.990991845724735
131,0.990991845724735
131,0.990991845724735
131,0.990991845724735
131,0.990991845724735
131,0.990991845724735
131,0.990991845724735
131,0.990991845724735
131,0.990991845724735
131,0.990991845724735
131,0.990991845724735
131,0.990991845724735
131,0.990991845724735
132,0.990991845724735
132,0.990991845724735
132,0.990991845724735
132,0.990991845724735
132,0.990991845724735
132,0.990991845724735
132,0.990991845724735
132,0.990991845724735
132,0.990991845724735
132,0.990991845724735
132,0.9911105504517853
132,0.9911105504517853
132,0.9911105504517853
132,0.9911105504517853
132,0.9911105504517853
132,0.9911105504517853
133,0.9911105504517853
133,0.9911105504517853
133,0.9911105504517853
133,0.9911105504517853
133,0.9911105504517853
133,0.9911105504517853
133,0.9911105504517853
133,0.9911105504517853
133,0.9911105504517853
133,0.9911105504517853
133,0.9911105504517853
133,0.9911105504517853
133,0.9911105504517853
133,0.9911105504517853
133,0.9911105504517853
133,0.9911105504517853
133,0.9911105504517853
134,0.9911105504517853
134,0.9911105504517853
134,0.9911105504517853
134,0.9911105504517853
134,0.9911105504517853
134,0.9911105504517853
134,0.9911105504517853
134,0.9911105504517853
134,0.9911105504517853
134,0.9911105504517853
134,0.9911105504517853
134,0.9911105504517853
134,0.9911105504517853
134,0.9911105504517853
134,0.9911105504517853
134,0.9911105504517853
134,0.9911105504517853
135,0.9911105504517853
135,0.9911105504517853
135,0.9911105504517853
135,0.9911105504517853
135,0.9911105504517853
135,0.9911105504517853
135,0.9911105504517853
135,0.9911105504517853
135,0.9911105504517853
135,0.9911105504517853
135,0.9911105504517853
135,0.9911105504517853
135,0.9911105504517853
135,0.9911105504517853
135,0.9911105504517853
135,0.9911105504517853
135,0.9911105504517853
136,0.9911105504517853
136,0.9911105504517853
136,0.9911105504517853
136,0.9911105504517853
136,0.9911105504517853
136,0.9911105504517853
136,0.9911105504517853
136,0.9911105504517853
136,0.9911105504517853
136,0.9911105504517853
136,0.9911105504517853
136,0.9911105504517853
136,0.9911105504517853
136,0.9911105504517853
136,0.9911105504517853
136,0.9911105504517853
137,0.9911105504517853
137,0.9911105504517853
137,0.9911105504517853
137,0.9911105504517853
137,0.9911105504517853
137,0.9911105504517853
137,0.9911105504517853
137,0.9911105504517853
137,0.9911105504517853
137,0.9911105504517853
137,0.9911105504517853
137,0.9911105504517853
137,0.9911105504517853
137,0.9911105504517853
137,0.9911105504517853
137,0.9911105504517853
137,0.9911105504517853
138,0.9911105504517853
138,0.9911105504517853
138,0.9911105504517853
138,0.9911105504517853
138,0.9911105504517853
138,0.9911105504517853
138,0.9911105504517853
138,0.9911105504517853
138,0.9911105504517853
138,0.9911105504517853
138,0.9911105504517853
138,0.9911105504517853
138,0.9911105504517853
138,0.9911105504517853
138,0.9911105504517853
138,0.9911105504517853
139,0.9911105504517853
139,0.9911105504517853
139,0.9911105504517853
139,0.9911105504517853
139,0.9911105504517853
139,0.9911105504517853
139,0.9911105504517853
139,0.9911105504517853
139,0.9911105504517853
139,0.9911105504517853
139,0.9911105504517853
139,0.9911105504517853
139,0.9911105504517853
139,0.9911105504517853
139,0.9911105504517853
139,0.9911105504517853
139,0.9911105504517853
140,0.9911105504517853
140,0.9911105504517853
140,0.9920176047476849
140,0.9920176047476849
140,0.9920176047476849
140,0.9920176047476849
140,0.9920176047476849
140,0.9920176047476849
140,0.9920176047476849
140,0.9920176047476849
140,0.9920176047476849
140,0.9920176047476849
140,0.9920176047476849
140,0.9920176047476849
140,0.9920176047476849
140,0.9920176047476849
141,0.9920176047476849
141,0.9920176047476849
141,0.9920176047476849
141,0.9920176047476849
141,0.9920176047476849
141,0.9920176047476849
141,0.9920176047476849
141,0.9920176047476849
141,0.9920176047476849
141,0.9920176047476849
141,0.9920176047476849
141,0.9937440766483553
141,0.9937440766483553
141,0.9937440766483553
141,0.9937440766483553
141,0.9937440766483553
141,0.9937440766483553
142,0.9937440766483553
142,0.9937440766483553
142,0.9937440766483553
142,0.9937440766483553
142,0.9937440766483553
142,0.9937440766483553
142,0.9937440766483553
142,0.9937440766483553
142,0.9937440766483553
142,0.9937440766483553
142,0.9937440766483553
142,0.9937440766483553
142,0.9937440766483553
142,0.9937440766483553
142,0.9937440766483553
142,0.9937440766483553
143,0.9937440766483553
143,0.9937440766483553
143,0.9937440766483553
143,0.9938112182051475
143,0.9938112182051475
143,0.9938112182051475
143,0.9938112182051475
143,0.9938112182051475
143,0.9938112182051475
143,0.9938112182051475
143,0.9938112182051475
143,0.9938112182051475
143,0.9938112182051475
143,0.9938112182051475
143,0.9938112182051475
143,0.9938112182051475
143,0.9938112182051475
144,0.9938112182051475
144,0.9938112182051475
144,0.9938112182051475
144,0.9938112182051475
144,0.9938112182051475
144,0.9938112182051475
144,0.9938112182051475
144,0.9938112182051475
144,0.9938112182051475
144,0.9938112182051475
144,0.9938112182051475
144,0.9961021265358303
144,0.9961021265358303
144,0.9961021265358303
144,0.9961021265358303
144,0.9961021265358303
144,0.9961021265358303
145,0.9961021265358303
145,0.9961021265358303
145,0.9961021265358303
145,0.9961021265358303
145,0.9961021265358303
145,0.9961021265358303
145,0.9961021265358303
145,0.9961021265358303
145,0.9961021265358303
145,0.9961021265358303
145,0.9961021265358303
145,0.9961021265358303
145,0.9961021265358303
145,0.9961021265358303
145,0.9961021265358303
145,0.9961021265358303
145,0.9961021265358303
146,0.9961021265358303
146,0.9961021265358303
146,0.9961021265358303
146,0.9961021265358303
146,0.9961021265358303
146,0.9961021265358303
146,0.9961021265358303
146,0.9961021265358303
146,0.9961021265358303
146,0.9961021265358303
146,0.9961021265358303
146,0.9961021265358303
146,0.9961021265358303
146,0.9961021265358303
146,0.9961021265358303
146,0.9961021265358303
146,0.9961021265358303
147,0.9961021265358303
147,0.9961021265358303
147,0.9961021265358303
147,0.9961021265358303
147,0.9961021265358303
147,0.9961021265358303
147,0.9961021265358303
147,0.9961021265358303
147,0.9961021265358303
147,0.9961021265358303
147,0.9961021265358303
147,0.9961021265358303
147,0.9961021265358303
147,0.9961021265358303
147,0.9961021265358303
147,0.9961021265358303
147,0.9961021265358303
148,0.9961021265358303
148,0.9961021265358303
148,0.9961021265358303
148,0.9961021265358303
148,0.9961021265358303
148,0.9961021265358303
148,0.9961021265358303
148,0.9961021265358303
148,0.9961021265358303
148,0.9961021265358303
148,0.9961021265358303
148,0.9961021265358303
148,0.9961021265358303
148,0.9961021265358303
148,0.9961021265358303
148,0.9961021265358303
148,0.9961021265358303
149,0.9961021265358303
149,0.9961021265358303
149,0.9961021265358303
149,0.9961021265358303
149,0.9961021265358303
149,0.9961021265358303
149,0.9961021265358303
149,0.9961021265358303
149,0.9961021265358303
149,0.9961021265358303
149,0.9961021265358303
149,0.9961021265358303
149,0.9961021265358303
149,0.9961021265358303
149,0.9961021265358303
149,0.9961021265358303
150,0.9961021265358303
150,0.9961021265358303
150,0.9961021265358303
150,0.9961021265358303
150,0.9961021265358303
150,0.9961021265358303
150,0.9961021265358303
150,0.9961021265358303
150,0.9961021265358303
150,0.9961021265358303
150,0.996429681987078
150,0.996429681987078
150,0.996429681987078
150,0.996429681987078
150,0.996429681987078
150,0.996429681987078
150,0.996429681987078
151,0.996429681987078
151,0.996429681987078
151,0.996429681987078
151,0.996429681987078
151,0.996429681987078
151,0.996429681987078
151,0.996429681987078
151,0.996429681987078
151,0.996429681987078
151,0.996429681987078
151,0.996429681987078
151,0.996429681987078
151,0.996429681987078
151,0.996429681987078
151,0.996429681987078
151,0.996429681987078
151,0.996429681987078
152,0.996429681987078
152,0.996429681987078
152,0.996429681987078
152,0.996429681987078
152,0.996429681987078
152,0.996429681987078
152,0.996429681987078
152,0.996429681987078
152,0.996429681987078
152,0.996429681987078
152,0.996429681987078
152,0.996429681987078
152,0.996429681987078
152,0.996429681987078
152,0.996429681987078
152,0.996429681987078
152,0.996429681987078
153,0.996429681987078
153,0.996429681987078
153,0.996429681987078
153,0.996429681987078
153,0.996429681987078
153,0.996429681987078
153,0.996429681987078
153,0.996429681987078
153,0.996429681987078
153,0.996429681987078
153,0.996429681987078
153,0.996429681987078
153,0.996429681987078
153,0.996429681987078
153,0.996429681987078
153,0.996429681987078
153,0.996429681987078
154,0.996429681987078
154,0.996429681987078
154,0.996429681987078
154,0.996429681987078
154,0.996429681987078
154,0.996429681987078
154,0.996429681987078
154,0.996429681987078
154,0.996429681987078
154,0.996429681987078
154,0.996429681987078
154,0.996429681987078
154,0.996429681987078
154,0.996429681987078
154,0.996429681987078
154,0.996429681987078
154,0.996429681987078
155,0.9966996034811954
155,0.9966996034811954
155,0.9966996034811954
155,0.9966996034811954
155,0.9966996034811954
155,0.9966996034811954
155,0.9966996034811954
155,0.9966996034811954
155,0.9966996034811954
155,0.9966996034811954
155,0.9966996034811954
155,0.9966996034811954
155,0.9966996034811954
155,0.9966996034811954
155,0.9966996034811954
155,0.9966996034811954
155,0.9966996034811954
156,0.9966996034811954
156,0.9966996034811954
156,0.9966996034811954
156,0.9966996034811954
156,0.9966996034811954
156,0.9966996034811954
156,0.9966996034811954
156,0.9966996034811954
156,0.9979502098973995
156,0.9979502098973995
156,0.9979502098973995
156,0.9979502098973995
156,0.9979502098973995
156,0.9979502098973995
156,0.9979502098973995
156,0.9979502098973995
156,0.9979502098973995
157,0.9979502098973995
157,0.9979502098973995
157,0.9979502098973995
157,0.9979502098973995
157,0.9979502098973995
157,0.9979502098973995
157,0.9979502098973995
157,0.9979502098973995
157,0.9979502098973995
157,0.9979502098973995
157,0.9979502098973995
157,0.9979502098973995
157,0.9979502098973995
157,0.9979502098973995
157,0.9979502098973995
157,0.9979502098973995
157,0.9979502098973995
158,0.9979502098973995
158,0.9979502098973995
158,0.9979502098973995
158,0.9979502098973995
158,0.9979502098973995
158,0.9979502098973995
158,0.9979502098973995
158,0.9979502098973995
158,0.9979502098973995
158,0.9979502098973995
158,0.9979502098973995
158,0.9979502098973995
158,0.9979502098973995
158,0.9979502098973995
158,0.9979502098973995
158,0.9979502098973995
158,0.9979502098973995
159,0.9979502098973995
159,0.9979502098973995
159,0.9979502098973995
159,0.9979502098973995
159,0.9979502098973995
159,0.9979502098973995
159,0.9979502098973995
159,0.9979528421267733
159,0.9979528421267733
159,0.9979528421267733
159,0.9979528421267733
159,0.9979528421267733
159,0.9979528421267733
159,0.9979528421267733
159,0.9979528421267733
159,0.9979528421267733
159,0.9979528421267733
159,0.9979528421267733
160,0.9979528421267733
160,0.9979528421267733
160,0.9979528421267733
160,0.9979528421267733
160,0.9979528421267733
160,0.9979528421267733
160,0.9979528421267733
160,0.9979528421267733
160,0.9979528421267733
160,0.9979528421267733
160,0.9979528421267733
160,0.9979528421267733
160,0.9979528421267733
160,0.9979528421267733
160,0.9979528421267733
160,0.9979528421267733
160,0.9979528421267733
161,0.9979528421267733
161,0.9979528421267733
161,0.9979528421267733
161,0.9979528421267733
161,0.9979528421267733
161,0.9979528421267733
161,0.9979528421267733
161,0.9979528421267733
161,0.9979528421267733
161,0.9979528421267733
161,0.9979528421267733
161,0.9979528421267733
161,0.9979528421267733
161,0.9979528421267733
161,0.9979528421267733
161,0.9979528421267733
161,0.9979528421267733
162,0.9979528421267733
162,0.9979528421267733
162,0.9979528421267733
162,0.9979528421267733
162,0.9979528421267733
162,0.9979528421267733
162,0.9979528421267733
162,0.9979528421267733
162,0.9979528421267733
162,0.9979528421267733
162,0.9979528421267733
162,0.9979528421267733
162,0.9979528421267733
162,0.9979528421267733
162,0.9979528421267733
162,0.9979528421267733
162,0.9979528421267733
163,0.9979528421267733
163,0.9979528421267733
163,0.9979528421267733
163,0.9979528421267733
163,0.9979528421267733
163,0.9979528421267733
163,0.9979528421267733
163,0.9979528421267733
163,0.9979528421267733
163,0.9979528421267733
163,0.9979528421267733
163,0.9979528421267733
163,0.9979528421267733
163,0.9979864556957834
163,0.9979864556957834
163,0.9979864556957834
163,0.9979864556957834
164,0.9979864556957834
164,0.9979864556957834
164,0.9979864556957834
164,0.9979864556957834
164,0.9979864556957834
164,0.9979864556957834
164,0.9979864556957834
164,0.9979864556957834
164,0.9979864556957834
164,0.9979864556957834
164,0.9979864556957834
164,0.9979864556957834
164,0.9979864556957834
164,0.9979864556957834
164,0.9979864556957834
164,0.9979864556957834
164,0.9979864556957834
165,0.9979864556957834
165,0.9979864556957834
165,0.9979864556957834
165,0.9979864556957834
165,0.9983653191718348
165,0.9983653191718348
165,0.9983653191718348
165,0.9983653191718348
165,0.9983653191718348
165,0.9983653191718348
165,0.9983653191718348
165,0.9983653191718348
165,0.9983653191718348
165,0.9983653191718348
165,0.9983653191718348
165,0.9983653191718348
165,0.9983653191718348
166,0.9983653191718348
166,0.9983653191718348
166,0.9983653191718348
166,0.9983653191718348
166,0.9983653191718348
166,0.9983653191718348
166,0.9983653191718348
166,0.9983653191718348
166,0.9983653191718348
166,0.9983653191718348
166,0.9983653191718348
166,0.9983653191718348
166,0.9983653191718348
166,0.9983653191718348
166,0.9983653191718348
166,0.9983653191718348
166,0.9983653191718348
167,0.9983653191718348
167,0.9983653191718348
167,0.9983653191718348
167,0.9983653191718348
167,0.9983653191718348
167,0.9983653191718348
167,0.9983653191718348
167,0.9983653191718348
167,0.9983653191718348
167,0.9983653191718348
167,0.9983653191718348
167,0.9983653191718348
167,0.9983653191718348
167,0.9983653191718348
167,0.9983653191718348
167,0.9983653191718348
167,0.9983653191718348
168,0.9983653191718348
168,0.9983653191718348
168,0.9983653191718348
168,0.9983653191718348
168,0.9983653191718348
168,0.9983653191718348
168,0.9983653191718348
168,0.9983653191718348
168,0.9983653191718348
168,0.9983653191718348
168,0.9983653191718348
168,0.9983653191718348
168,0.9983653191718348
168,0.9983653191718348
168,0.9983653191718348
168,0.9983653191718348
168,0.9983653191718348
168,0.9983653191718348
169,0.9983653191718348
169,0.9983653191718348
169,0.9983653191718348
169,0.9983653191718348
169,0.9983653191718348
169,0.9983653191718348
169,0.9983653191718348
169,0.9983653191718348
169,0.9983653191718348
169,0.9983653191718348
169,0.9983653191718348
169,0.9983653191718348
169,0.9983653191718348
169,0.9983653191718348
169,0.9983653191718348
169,0.9983653191718348
169,0.9983653191718348
170,0.9983653191718348
170,0.9983653191718348
170,0.9983653191718348
170,0.9983653191718348
170,0.9983653191718348
170,0.9983653191718348
170,0.9983653191718348
170,0.9983653191718348
170,0.9983653191718348
170,0.9983653191718348
170,0.9983653191718348
170,0.9983653191718348
170,0.9983653191718348
170,0.9983653191718348
170,0.9983653191718348
170,0.9983653191718348
170,0.9983653191718348
171,0.9983653191718348
171,0.9983866088484684
171,0.9983866088484684
171,0.9983866088484684
171,0.9983866088484684
171,0.9983866088484684
171,0.9983866088484684
171,0.9983866088484684
171,0.9983866088484684
171,0.9983866088484684
171,0.9983866088484684
171,0.9983866088484684
171,0.9983866088484684
171,0.9983866088484684
171,0.9983866088484684
171,0.9983866088484684
171,0.9983866088484684
172,0.9983866088484684
172,0.9983866088484684
172,0.9983866088484684
172,0.9983866088484684
172,0.9983866088484684
172,0.9983866088484684
172,0.9983866088484684
172,0.9983866088484684
172,0.9983866088484684
172,0.9983866088484684
172,0.9983866088484684
172,0.9983866088484684
172,0.9983866088484684
172,0.9983866088484684
172,0.9983866088484684
172,0.9983866088484684
172,0.9983866088484684
172,0.9983866088484684
173,0.9983866088484684
173,0.9983866088484684
173,0.9983866088484684
173,0.9983866088484684
173,0.9983866088484684
173,0.9983866088484684
173,0.9983866088484684
173,0.9983866088484684
173,0.9983866088484684
173,0.9983866088484684
173,0.9983866088484684
173,0.9983866088484684
173,0.9983866088484684
173,0.9983866088484684
173,0.9983866088484684
173,0.9983866088484684
173,0.9983866088484684
174,0.9983866088484684
174,0.9983866088484684
174,0.9983866088484684
174,0.9983866088484684
174,0.9983866088484684
174,0.9983866088484684
174,0.9983866088484684
174,0.9983866088484684
174,0.9983866088484684
174,0.9983866088484684
174,0.9983866088484684
174,0.9983866088484684
174,0.9983866088484684
174,0.9983866088484684
174,0.9983866088484684
174,0.9983866088484684
174,0.9983866088484684
175,0.9983866088484684
175,0.9983866088484684
175,0.9983866088484684
175,0.9983866088484684
175,0.9983866088484684
175,0.9983866088484684
175,0.9983866088484684
175,0.9983866088484684
175,0.9983866088484684
175,0.9983866088484684
175,0.9983866088484684
175,0.9983866088484684
175,0.9983866088484684
175,0.9983866088484684
175,0.9983866088484684
175,0.9983866088484684
175,0.9983866088484684
176,0.9983866088484684
176,0.9983866088484684
176,0.9983866088484684
176,0.9983866088484684
176,0.9983866088484684
176,0.9983866088484684
176,0.9983866088484684
176,0.9983866088484684
176,0.9983866088484684
176,0.9983866088484684
176,0.9983866088484684
176,0.9983866088484684
176,0.9983866088484684
176,0.9983866088484684
176,0.9983866088484684
176,0.9983866088484684
176,0.9983866088484684
177,0.9983866088484684
177,0.9983866088484684
177,0.9983866088484684
177,0.9983866088484684
177,0.9983866088484684
177,0.9983866088484684
177,0.9983866088484684
177,0.9983866088484684
177,0.9983866088484684
177,0.9983866088484684
177,0.9983866088484684
177,0.9983866088484684
177,0.9983866088484684
177,0.9983866088484684
177,0.9983866088484684
177,0.9983866088484684
177,0.9983866088484684
177,0.9983866088484684
178,0.9983866088484684
178,0.9983866088484684
178,0.9983866088484684
178,0.9983866088484684
178,0.9983866088484684
178,0.9983866088484684
178,0.9983866088484684
178,0.9983866088484684
178,0.9983866088484684
178,0.9983866088484684
178,0.9983866088484684
178,0.9983866088484684
178,0.9983866088484684
178,0.9983866088484684
178,0.9983866088484684
178,0.9983866088484684
178,0.9983866088484684
179,0.9983866088484684
179,0.9983866088484684
179,0.9983866088484684
179,0.9983866088484684
179,0.9983866088484684
179,0.9983866088484684
179,0.9983866088484684
179,0.9983866088484684
179,0.9983866088484684
179,0.9983866088484684
179,0.9983866088484684
179,0.9983866088484684
179,0.9983866088484684
179,0.9983866088484684
179,0.9983866088484684
179,0.9983866088484684
179,0.9983866088484684
180,0.9983866088484684
180,0.9983866088484684
180,0.9983866088484684
180,0.9983866088484684
180,0.9983866088484684
180,0.9983866088484684
180,0.9983866088484684
180,0.9983866088484684
180,0.9983866088484684
180,0.9983866088484684
180,0.9983866088484684
180,0.9983866088484684
180,0.9983866088484684
180,0.9983866088484684
180,0.9983866088484684
180,0.9983866088484684
180,0.9983866088484684
181,0.9983866088484684
181,0.9983866088484684
181,0.9983866088484684
181,0.9983866088484684
181,0.9983866088484684
181,0.9983866088484684
181,0.9983866088484684
181,0.9983866088484684
181,0.9983866088484684
181,0.9983866088484684
181,0.9983866088484684
181,0.9983866088484684
181,0.9983866088484684
181,0.9983866088484684
181,0.9983866088484684
181,0.9983866088484684
181,0.9983866088484684
182,0.9983866088484684
182,0.9983866088484684
182,0.9983866088484684
182,0.9983866088484684
182,0.9983866088484684
182,0.9983866088484684
182,0.9983866088484684
182,0.9983866088484684
182,0.9983866088484684
182,0.9983866088484684
182,0.9983866088484684
182,0.9983866088484684
182,0.9984897879829682
182,0.9984897879829682
182,0.9984897879829682
182,0.9984897879829682
182,0.9984897879829682
182,0.9984897879829682
183,0.9984897879829682
183,0.9984897879829682
183,0.9984897879829682
183,0.9984897879829682
183,0.9984897879829682
183,0.9984897879829682
183,0.9984897879829682
183,0.9984897879829682
183,0.9984897879829682
183,0.9984897879829682
183,0.9984897879829682
183,0.9984897879829682
183,0.9984897879829682
183,0.9984897879829682
183,0.9984897879829682
183,0.9984897879829682
183,0.9984897879829682
184,0.9984897879829682
184,0.9984897879829682
184,0.9984897879829682
184,0.9984897879829682
184,0.9984897879829682
184,0.9984897879829682
184,0.9984897879829682
184,0.9984897879829682
184,0.9984897879829682
184,0.9984897879829682
184,0.9984897879829682
184,0.9984897879829682
184,0.9984897879829682
184,0.9984897879829682
184,0.9984897879829682
184,0.9984897879829682
184,0.9984897879829682
185,0.9984897879829682
185,0.9984897879829682
185,0.9984897879829682
185,0.9984897879829682
185,0.9984897879829682
185,0.9984897879829682
185,0.9984897879829682
185,0.9984897879829682
185,0.9984897879829682
185,0.9984897879829682
185,0.9984897879829682
185,0.9984897879829682
185,0.9984897879829682
185,0.9984897879829682
185,0.9984897879829682
185,0.9984897879829682
185,0.9984897879829682
186,0.9984897879829682
186,0.9984897879829682
186,0.9984897879829682
186,0.9984897879829682
186,0.9984897879829682
186,0.9984897879829682
186,0.9984897879829682
186,0.9984897879829682
186,0.9984897879829682
186,0.9984897879829682
186,0.9984897879829682
186,0.9984897879829682
186,0.9984897879829682
186,0.9984897879829682
186,0.9984897879829682
186,0.9984897879829682
186,0.9984897879829682
186,0.9984897879829682
187,0.9984897879829682
187,0.9984897879829682
187,0.9984897879829682
187,0.9984897879829682
187,0.9984897879829682
187,0.9984897879829682
187,0.9984897879829682
187,0.9984897879829682
187,0.9984897879829682
187,0.9984897879829682
187,0.9984897879829682
187,0.9984897879829682
187,0.9984897879829682
187,0.9984897879829682
187,0.9984897879829682
187,0.9984897879829682
187,0.9984897879829682
188,0.9984897879829682
188,0.9984897879829682
188,0.9984897879829682
188,0.9984897879829682
188,0.9984897879829682
188,0.9984897879829682
188,0.9984897879829682
188,0.9984897879829682
188,0.9984897879829682
188,0.9984897879829682
188,0.9984897879829682
188,0.9984897879829682
188,0.9984897879829682
188,0.9984897879829682
188,0.9984897879829682
188,0.9984897879829682
188,0.9984897879829682
189,0.9984897879829682
189,0.9984897879829682
189,0.9984897879829682
189,0.9984897879829682
189,0.9984897879829682
189,0.9984897879829682
189,0.9984897879829682
189,0.9984897879829682
189,0.9984897879829682
189,0.9984897879829682
189,0.9984897879829682
189,0.9984897879829682
189,0.9984897879829682
189,0.9984897879829682
189,0.9984897879829682
189,0.9984897879829682
189,0.9984897879829682
189,0.9984897879829682
190,0.9984897879829682
190,0.9984897879829682
190,0.9984897879829682
190,0.9984897879829682
190,0.9984897879829682
190,0.9984897879829682
190,0.9984897879829682
190,0.9984897879829682
190,0.9984897879829682
190,0.9984897879829682
190,0.9984897879829682
190,0.9984897879829682
190,0.9984897879829682
190,0.9984897879829682
190,0.9984897879829682
190,0.9984897879829682
190,0.9984897879829682
191,0.9984897879829682
191,0.9984897879829682
191,0.9984897879829682
191,0.9984897879829682
191,0.9984897879829682
191,0.9984897879829682
191,0.9984897879829682
191,0.9984897879829682
191,0.9984897879829682
191,0.9984897879829682
191,0.9984897879829682
191,0.9984897879829682
191,0.9984897879829682
191,0.9984897879829682
191,0.9984897879829682
191,0.9984897879829682
191,0.9984897879829682
192,0.9984897879829682
192,0.9984897879829682
192,0.9984897879829682
192,0.9984897879829682
192,0.9984897879829682
192,0.9984897879829682
192,0.9984897879829682
192,0.9984897879829682
192,0.9984897879829682
192,0.9984897879829682
192,0.9984897879829682
192,0.9984897879829682
192,0.9984897879829682
192,0.9984897879829682
192,0.9984897879829682
192,0.9984897879829682
192,0.9984897879829682
192,0.9984897879829682
193,0.9984897879829682
193,0.9984897879829682
193,0.9984897879829682
193,0.9984897879829682
193,0.9984897879829682
193,0.9984897879829682
193,0.9984897879829682
193,0.9984897879829682
193,0.9984897879829682
193,0.9984897879829682
193,0.9984897879829682
193,0.9984897879829682
193,0.9984897879829682
193,0.9984897879829682
193,0.9984897879829682
193,0.9984897879829682
193,0.9984897879829682
194,0.9984897879829682
194,0.9984897879829682
194,0.9984897879829682
194,0.9984897879829682
194,0.9984897879829682
194,0.9984897879829682
194,0.9984897879829682
194,0.9984897879829682
194,0.9984897879829682
194,0.9984897879829682
194,0.9984897879829682
194,0.9984897879829682
194,0.9984897879829682
194,0.9984897879829682
194,0.9984897879829682
194,0.9984897879829682
194,0.9984897879829682
195,0.9984897879829682
195,0.9984897879829682
195,0.9984897879829682
195,0.9984897879829682
195,0.9984897879829682
195,0.9984897879829682
195,0.9984897879829682
195,0.9984897879829682
195,0.9984897879829682
195,0.9984897879829682
195,0.9984897879829682
195,0.9984897879829682
195,0.9984897879829682
195,0.9984897879829682
195,0.9984897879829682
195,0.9984897879829682
195,0.9984897879829682
196,0.9984897879829682
196,0.9984897879829682
196,0.9984897879829682
196,0.9984897879829682
196,0.9984897879829682
196,0.9984897879829682
196,0.9984897879829682
196,0.9984897879829682
196,0.9984897879829682
196,0.9984897879829682
196,0.9984897879829682
196,0.9984897879829682
196,0.9984897879829682
196,0.9984897879829682
196,0.9984897879829682
196,0.9984897879829682
196,0.9984897879829682
196,0.9984897879829682
197,0.9984897879829682
197,0.9984897879829682
197,0.9984897879829682
197,0.9984897879829682
197,0.9984897879829682
197,0.9984897879829682
197,0.9984897879829682
197,0.9984897879829682
197,0.9984897879829682
197,0.9984897879829682
197,0.9984897879829682
197,0.9984897879829682
197,0.9984897879829682
197,0.9984897879829682
197,0.9984897879829682
197,0.9984897879829682
197,0.9984897879829682
198,0.9984897879829682
198,0.9984897879829682
198,0.9984897879829682
198,0.9984897879829682
198,0.9984897879829682
198,0.9984897879829682
198,0.9984897879829682
198,0.9984897879829682
198,0.9984897879829682
198,0.9984897879829682
198,0.9984897879829682
198,0.9984897879829682
198,0.9984897879829682
198,0.9984897879829682
198,0.9984897879829682
198,0.9984897879829682
198,0.9984897879829682
198,0.9984897879829682
199,0.9984897879829682
199,0.9984897879829682
199,0.9984897879829682
199,0.9984897879829682
199,0.9984897879829682
199,0.9984897879829682
199,0.9984897879829682
199,0.9984897879829682
199,0.9984897879829682
199,0.9984897879829682
199,0.9984897879829682
199,0.9984897879829682
199,0.9984897879829682
199,0.9984897879829682
199,0.9984897879829682
199,0.9984897879829682
199,0.9984897879829682
200,0.9984897879829682
200,0.9984897879829682
200,0.9984897879829682
200,0.9984897879829682
200,0.9984897879829682
200,0.9984897879829682
200,0.9984897879829682
200,0.9984897879829682
200,0.9984897879829682
200,0.9984897879829682
200,0.9984897879829682
200,0.9984897879829682
200,0.9984897879829682
200,0.9984897879829682
200,0.9984897879829682
200,0.9984897879829682
200,0.9984897879829682
201,0.9984897879829682
201,0.9984897879829682
201,0.9984897879829682
201,0.9984897879829682
201,0.9984897879829682
201,0.9984897879829682
201,0.9984897879829682
201,0.9984897879829682
201,0.9985050619497641
201,0.9985050619497641
201,0.9985050619497641
201,0.9985050619497641
201,0.9985050619497641
201,0.9985050619497641
201,0.9985050619497641
201,0.9985050619497641
201,0.9985050619497641
202,0.9985050619497641
202,0.9985050619497641
202,0.9985050619497641
202,0.9985050619497641
202,0.9985050619497641
202,0.9985050619497641
202,0.9985050619497641
202,0.9985050619497641
202,0.9985050619497641
202,0.9985050619497641
202,0.9985050619497641
202,0.9985050619497641
202,0.9985050619497641
202,0.9985050619497641
202,0.9985050619497641
202,0.9985050619497641
202,0.9985050619497641
202,0.9985050619497641
203,0.9985050619497641
203,0.9985050619497641
203,0.9985050619497641
203,0.9985050619497641
203,0.9985050619497641
203,0.9985050619497641
203,0.9985050619497641
203,0.9985050619497641
203,0.9985050619497641
203,0.9985050619497641
203,0.9985050619497641
203,0.9985050619497641
203,0.9985050619497641
203,0.9985050619497641
203,0.9985050619497641
203,0.9985050619497641
203,0.9985050619497641
203,0.9985050619497641
204,0.9985050619497641
204,0.9985050619497641
204,0.9985050619497641
204,0.9985050619497641
204,0.9985050619497641
204,0.9985050619497641
204,0.9985050619497641
204,0.9985050619497641
204,0.9985050619497641
204,0.9985050619497641
204,0.9985050619497641
204,0.9985050619497641
204,0.9985050619497641
204,0.9985050619497641
204,0.9985050619497641
204,0.9985050619497641
204,0.9985050619497641
205,0.9985050619497641
205,0.9985050619497641
205,0.9985050619497641
205,0.9985050619497641
205,0.9985050619497641
205,0.9985050619497641
205,0.9985050619497641
205,0.9985050619497641
205,0.9985050619497641
205,0.9985050619497641
205,0.9985050619497641
205,0.9985050619497641
205,0.9985050619497641
205,0.9985050619497641
205,0.9985050619497641
205,0.9985050619497641
205,0.9985050619497641
205,0.9985050619497641
206,0.9985050619497641
206,0.9985050619497641
206,0.9985050619497641
206,0.9985050619497641
206,0.9985050619497641
206,0.9985050619497641
206,0.9985050619497641
206,0.9985050619497641
206,0.9985050619497641
206,0.9985050619497641
206,0.9985050619497641
206,0.9985050619497641
206,0.9985050619497641
206,0.9985050619497641
206,0.9985050619497641
206,0.9985050619497641
206,0.9985050619497641
207,0.9985050619497641
207,0.9985050619497641
207,0.9985050619497641
207,0.9985050619497641
207,0.9985050619497641
207,0.9985050619497641
207,0.9985050619497641
207,0.9985050619497641
207,0.9985050619497641
207,0.9985050619497641
207,0.9985050619497641
207,0.9985050619497641
207,0.9985050619497641
207,0.9985050619497641
207,0.9985050619497641
207,0.9985050619497641
207,0.9985050619497641
208,0.9985050619497641
208,0.9985050619497641
208,0.9985050619497641
208,0.9985050619497641
208,0.9985050619497641
208,0.9985050619497641
208,0.9985050619497641
208,0.9985050619497641
208,0.9985050619497641
208,0.9985050619497641
208,0.9985050619497641
208,0.9985050619497641
208,0.9985050619497641
208,0.9985050619497641
208,0.9985050619497641
208,0.9985050619497641
208,0.9985050619497641
208,0.9985050619497641
209,0.9985050619497641
209,0.9985050619497641
209,0.9985050619497641
209,0.9985050619497641
209,0.9985050619497641
209,0.9985050619497641
209,0.9985050619497641
209,0.9985050619497641
209,0.9985050619497641
209,0.9985050619497641
209,0.9985050619497641
209,0.9985050619497641
209,0.9985050619497641
209,0.9985050619497641
209,0.9985050619497641
209,0.9985050619497641
209,0.9985050619497641
210,0.9985050619497641
210,0.9985050619497641
210,0.9985050619497641
210,0.9985050619497641
210,0.9985050619497641
210,0.9985050619497641
210,0.9985050619497641
210,0.9985050619497641
210,0.9985050619497641
210,0.9985050619497641
210,0.9985050619497641
210,0.9985050619497641
210,0.9985050619497641
210,0.9985050619497641
210,0.9985050619497641
210,0.9985050619497641
210,0.9985050619497641
211,0.9985050619497641
211,0.9985050619497641
211,0.9985050619497641
211,0.9985050619497641
211,0.9985050619497641
211,0.9985050619497641
211,0.9985050619497641
211,0.9985050619497641
211,0.9985050619497641
211,0.9985050619497641
211,0.9985050619497641
211,0.9985050619497641
211,0.9985050619497641
211,0.9985050619497641
211,0.9985050619497641
211,0.9985050619497641
211,0.9985050619497641
211,0.9985050619497641
212,0.9985050619497641
212,0.9985050619497641
212,0.9985050619497641
212,0.9985050619497641
212,0.9985050619497641
212,0.9985050619497641
212,0.9985050619497641
212,0.9985050619497641
212,0.9985050619497641
212,0.9985050619497641
212,0.9985050619497641
212,0.9985050619497641
212,0.9985050619497641
212,0.9985050619497641
212,0.9985050619497641
212,0.9985050619497641
212,0.9985050619497641
213,0.9985050619497641
213,0.9985050619497641
213,0.9985050619497641
213,0.9985050619497641
213,0.9985050619497641
213,0.9985050619497641
213,0.9985050619497641
213,0.9985050619497641
213,0.9985050619497641
213,0.9985050619497641
213,0.9985050619497641
213,0.9985050619497641
213,0.9985050619497641
213,0.9985050619497641
213,0.9985050619497641
213,0.9985050619497641
213,0.9985050619497641
214,0.9985050619497641
214,0.9985050619497641
214,0.9985050619497641
214,0.9985050619497641
214,0.9985050619497641
214,0.9985050619497641
214,0.9985050619497641
214,0.9985576886886849
214,0.9985576886886849
214,0.9985576886886849
214,0.9985576886886849
214,0.9985576886886849
214,0.9985576886886849
214,0.9985576886886849
214,0.9985576886886849
214,0.9985576886886849
214,0.9985576886886849
214,0.9985576886886849
215,0.9985576886886849
215,0.9985576886886849
215,0.9985576886886849
215,0.9985576886886849
215,0.9985576886886849
215,0.9985576886886849
215,0.9985576886886849
215,0.9985576886886849
215,0.9985576886886849
215,0.9985576886886849
215,0.9985576886886849
215,0.9985576886886849
215,0.9985576886886849
215,0.9985576886886849
215,0.9985576886886849
215,0.9985576886886849
215,0.9985576886886849
216,0.9985576886886849
216,0.9985576886886849
216,0.9985576886886849
216,0.9985576886886849
216,0.9985576886886849
216,0.9985576886886849
216,0.9985576886886849
216,0.9985576886886849
216,0.9985576886886849
216,0.9985576886886849
216,0.9985576886886849
216,0.9985576886886849
216,0.9985576886886849
216,0.9985576886886849
216,0.9985576886886849
216,0.9985576886886849
216,0.9985576886886849
217,0.9985576886886849
217,0.9985576886886849
217,0.9985576886886849
217,0.9985576886886849
217,0.9985576886886849
217,0.9985576886886849
217,0.9985576886886849
217,0.9985576886886849
217,0.9985576886886849
217,0.9985576886886849
217,0.9985576886886849
217,0.9985576886886849
217,0.9985576886886849
217,0.9985576886886849
217,0.9985576886886849
217,0.9985576886886849
217,0.9985576886886849
218,0.9985576886886849
218,0.9985576886886849
218,0.9985576886886849
218,0.9985576886886849
218,0.9985576886886849
218,0.9985576886886849
218,0.9985576886886849
218,0.9985576886886849
218,0.9985576886886849
218,0.9985576886886849
218,0.9985576886886849
218,0.9985576886886849
218,0.9985576886886849
218,0.9985697845147473
218,0.9985697845147473
218,0.9985697845147473
218,0.9985697845147473
219,0.9985697845147473
219,0.9985697845147473
219,0.9985697845147473
219,0.9985697845147473
219,0.9985697845147473
219,0.9985697845147473
219,0.9985697845147473
219,0.9985697845147473
219,0.9985697845147473
219,0.9985697845147473
219,0.9985697845147473
219,0.9985697845147473
219,0.9985697845147473
219,0.9985697845147473
219,0.9985697845147473
219,0.9985697845147473
219,0.9985697845147473
220,0.9985697845147473
220,0.9985697845147473
220,0.9985697845147473
220,0.9985697845147473
220,0.9985697845147473
220,0.9985697845147473
220,0.9985697845147473
220,0.9985697845147473
220,0.9985697845147473
220,0.9985697845147473
220,0.9985697845147473
220,0.9985697845147473
220,0.9985697845147473
220,0.9985697845147473
220,0.9985697845147473
220,0.9985697845147473
220,0.9985697845147473
221,0.9985697845147473
221,0.9985697845147473
221,0.9985697845147473
221,0.9985697845147473
221,0.9985697845147473
221,0.9985697845147473
221,0.9985697845147473
221,0.9985697845147473
221,0.9985697845147473
221,0.9985697845147473
221,0.9985697845147473
221,0.9985697845147473
221,0.9985697845147473
221,0.9985697845147473
221,0.9985697845147473
221,0.9985697845147473
221,0.9985697845147473
222,0.9985697845147473
222,0.9985697845147473
222,0.9985697845147473
222,0.9985697845147473
222,0.9985697845147473
222,0.9985697845147473
222,0.9985697845147473
222,0.9985697845147473
222,0.9985697845147473
222,0.9985697845147473
222,0.9985697845147473
222,0.9985697845147473
222,0.9985697845147473
222,0.9985697845147473
222,0.9985697845147473
222,0.9985697845147473
222,0.9985697845147473
222,0.9985697845147473
223,0.9985697845147473
223,0.9985697845147473
223,0.998715667008768
223,0.998715667008768
223,0.998715667008768
223,0.998715667008768
223,0.998715667008768
223,0.998715667008768
223,0.998715667008768
223,0.998715667008768
223,0.998715667008768
223,0.998715667008768
223,0.998715667008768
223,0.998715667008768
223,0.998715667008768
223,0.998715667008768
223,0.998715667008768
224,0.998715667008768
224,0.998715667008768
224,0.998715667008768
224,0.998715667008768
224,0.998715667008768
224,0.998715667008768
224,0.998715667008768
224,0.998715667008768
224,0.998715667008768
224,0.998715667008768
224,0.998715667008768
224,0.998715667008768
224,0.998715667008768
224,0.998715667008768
224,0.998715667008768
224,0.998715667008768
224,0.998715667008768
224,0.998715667008768
225,0.998715667008768
225,0.998715667008768
225,0.998715667008768
225,0.998715667008768
225,0.998715667008768
225,0.998715667008768
225,0.998715667008768
225,0.998715667008768
225,0.998715667008768
225,0.998715667008768
225,0.998715667008768
225,0.998715667008768
225,0.998715667008768
225,0.998715667008768
225,0.998715667008768
225,0.998715667008768
225,0.998715667008768
226,0.998715667008768
226,0.998715667008768
226,0.998715667008768
226,0.998715667008768
226,0.998715667008768
226,0.998715667008768
226,0.998715667008768
226,0.998715667008768
226,0.998715667008768
226,0.998715667008768
226,0.998715667008768
226,0.998715667008768
226,0.998715667008768
226,0.998715667008768
226,0.998715667008768
226,0.998715667008768
226,0.998715667008768
227,0.998715667008768
227,0.998715667008768
227,0.998715667008768
227,0.998715667008768
227,0.998715667008768
227,0.998715667008768
227,0.998715667008768
227,0.998715667008768
227,0.998715667008768
227,0.998715667008768
227,0.998715667008768
227,0.998715667008768
227,0.998715667008768
227,0.998715667008768
227,0.998715667008768
227,0.998715667008768
227,0.998715667008768
227,0.998715667008768
228,0.998715667008768
228,0.998715667008768
228,0.998715667008768
228,0.998715667008768
228,0.998715667008768
228,0.998715667008768
228,0.998715667008768
228,0.998715667008768
228,0.998715667008768
228,0.998715667008768
228,0.998715667008768
228,0.998715667008768
228,0.998715667008768
228,0.998715667008768
228,0.998715667008768
228,0.998715667008768
228,0.998715667008768
228,0.998715667008768
229,0.998715667008768
229,0.998715667008768
229,0.998715667008768
229,0.998715667008768
229,0.998715667008768
229,0.998715667008768
229,0.998715667008768
229,0.998715667008768
229,0.998715667008768
229,0.998715667008768
229,0.998715667008768
229,0.998715667008768
229,0.998715667008768
229,0.998715667008768
229,0.998715667008768
229,0.998715667008768
229,0.998715667008768
230,0.998715667008768
230,0.998715667008768
230,0.998715667008768
230,0.998715667008768
230,0.998715667008768
230,0.998715667008768
230,0.998715667008768
230,0.998715667008768
230,0.998715667008768
230,0.998715667008768
230,0.998715667008768
230,0.998715667008768
230,0.998715667008768
230,0.998715667008768
230,0.998715667008768
230,0.998715667008768
230,0.998715667008768
231,0.998715667008768
231,0.998715667008768
231,0.998715667008768
231,0.998715667008768
231,0.998715667008768
231,0.998715667008768
231,0.998715667008768
231,0.998715667008768
231,0.998715667008768
231,0.998715667008768
231,0.998715667008768
231,0.998715667008768
231,0.998715667008768
231,0.998715667008768
231,0.998715667008768
231,0.998715667008768
231,0.998715667008768
231,0.998715667008768
232,0.998715667008768
232,0.998715667008768
232,0.998715667008768
232,0.998715667008768
232,0.998715667008768
232,0.998715667008768
232,0.998715667008768
232,0.998715667008768
232,0.998715667008768
232,0.998715667008768
232,0.998715667008768
232,0.998715667008768
232,0.998715667008768
232,0.998715667008768
232,0.998715667008768
232,0.998715667008768
232,0.998715667008768
233,0.998715667008768
233,0.998715667008768
233,0.998715667008768
233,0.998715667008768
233,0.998715667008768
233,0.998715667008768
233,0.998715667008768
233,0.998715667008768
233,0.998715667008768
233,0.998715667008768
233,0.998715667008768
233,0.998715667008768
233,0.998715667008768
233,0.998715667008768
233,0.998715667008768
233,0.998715667008768
233,0.998715667008768
234,0.998715667008768
234,0.998715667008768
234,0.998715667008768
234,0.998715667008768
234,0.998715667008768
234,0.998715667008768
234,0.998715667008768
234,0.998715667008768
234,0.998715667008768
234,0.998715667008768
234,0.998715667008768
234,0.998715667008768
234,0.998715667008768
234,0.998715667008768
234,0.998715667008768
234,0.998715667008768
234,0.998715667008768
234,0.998715667008768
235,0.998715667008768
235,0.998715667008768
235,0.998715667008768
235,0.998715667008768
235,0.998715667008768
235,0.998715667008768
235,0.998715667008768
235,0.998715667008768
235,0.998715667008768
235,0.998715667008768
235,0.998715667008768
235,0.998715667008768
235,0.998715667008768
235,0.998715667008768
235,0.998715667008768
235,0.998715667008768
235,0.998715667008768
236,0.998715667008768
236,0.9987383398238122
236,0.9987383398238122
236,0.9987383398238122
236,0.9987383398238122
236,0.9987383398238122
236,0.9987383398238122
236,0.9987383398238122
236,0.9987383398238122
236,0.9987383398238122
236,0.9987383398238122
236,0.9987383398238122
236,0.9987383398238122
236,0.9987383398238122
236,0.9987383398238122
236,0.9987383398238122
236,0.9987383398238122
237,0.9987383398238122
237,0.9987383398238122
237,0.9987383398238122
237,0.9987383398238122
237,0.9987383398238122
237,0.9987383398238122
237,0.9987383398238122
237,0.9987383398238122
237,0.9987383398238122
237,0.9987383398238122
237,0.9987383398238122
237,0.9987383398238122
237,0.9987383398238122
237,0.9987383398238122
237,0.9987383398238122
237,0.9987383398238122
237,0.9987383398238122
238,0.9987383398238122
238,0.9987383398238122
238,0.9987383398238122
238,0.9987383398238122
238,0.9987383398238122
238,0.9987383398238122
238,0.9987383398238122
238,0.9987383398238122
238,0.9987383398238122
238,0.9987383398238122
238,0.9987383398238122
238,0.9987383398238122
238,0.9987383398238122
238,0.9987383398238122
238,0.9987383398238122
238,0.9987383398238122
238,0.9987383398238122
239,0.9987383398238122
239,0.9987383398238122
239,0.9987383398238122
239,0.9987383398238122
239,0.9987383398238122
239,0.9987383398238122
239,0.9987383398238122
239,0.9987383398238122
239,0.9987383398238122
239,0.9987383398238122
239,0.9987383398238122
239,0.9987383398238122
239,0.9987383398238122
239,0.9987383398238122
239,0.9987383398238122
239,0.9987383398238122
239,0.9987383398238122
240,0.9987383398238122
240,0.9987383398238122
240,0.9987383398238122
240,0.9987383398238122
240,0.9987383398238122
240,0.9987383398238122
240,0.9987383398238122
240,0.9987383398238122
240,0.9987383398238122
240,0.9987383398238122
240,0.9987383398238122
240,0.9987383398238122
240,0.9987383398238122
240,0.9987383398238122
240,0.9987383398238122
240,0.9987383398238122
240,0.9987383398238122
241,0.9987383398238122
241,0.9987383398238122
241,0.9987383398238122
241,0.9987383398238122
241,0.9987383398238122
241,0.9987383398238122
241,0.9987383398238122
241,0.9987383398238122
241,0.9987383398238122
241,0.9987383398238122
241,0.9987383398238122
241,0.9987383398238122
241,0.9987383398238122
241,0.9987383398238122
241,0.9987383398238122
241,0.9987383398238122
241,0.9987383398238122
241,0.9987383398238122
242,0.9987383398238122
242,0.9987383398238122
242,0.9987383398238122
242,0.9987383398238122
242,0.9987383398238122
242,0.9987383398238122
242,0.9987383398238122
242,0.9987383398238122
242,0.9987383398238122
242,0.9987383398238122
242,0.9987383398238122
242,0.9987383398238122
242,0.9987383398238122
242,0.9987383398238122
242,0.9987383398238122
242,0.9987383398238122
243,0.9987383398238122
243,0.9987383398238122
243,0.9987383398238122
243,0.9987383398238122
243,0.9987383398238122
243,0.9987383398238122
243,0.9987383398238122
243,0.9987383398238122
243,0.9987383398238122
243,0.9987383398238122
243,0.9987383398238122
243,0.9987383398238122
243,0.9987383398238122
243,0.9987383398238122
243,0.9987383398238122
243,0.9987383398238122
243,0.9987383398238122
243,0.9987383398238122
244,0.9987383398238122
244,0.9987383398238122
244,0.9987383398238122
244,0.9987383398238122
244,0.9987383398238122
244,0.9987383398238122
244,0.9987383398238122
244,0.9987383398238122
244,0.9987383398238122
244,0.9987383398238122
244,0.9987383398238122
244,0.9987383398238122
244,0.9987383398238122
244,0.9987383398238122
244,0.9987383398238122
244,0.9987383398238122
244,0.9987383398238122
245,0.9987383398238122
245,0.9987383398238122
245,0.9987383398238122
245,0.9987383398238122
245,0.9987383398238122
245,0.9987383398238122
245,0.9987383398238122
245,0.9987383398238122
245,0.9987383398238122
245,0.9987383398238122
245,0.9987383398238122
245,0.9987383398238122
245,0.9987383398238122
245,0.9987383398238122
245,0.9987383398238122
245,0.9987383398238122
245,0.9987383398238122
246,0.9987383398238122
246,0.9987383398238122
246,0.9987383398238122
246,0.9987383398238122
246,0.9987383398238122
246,0.9987705286286727
246,0.9987705286286727
246,0.9987705286286727
246,0.9987705286286727
246,0.9987705286286727
246,0.9987705286286727
246,0.9987705286286727
246,0.9987705286286727
246,0.9987705286286727
247,0.9987705286286727
247,0.9987705286286727
247,0.9987705286286727
247,0.9987705286286727
247,0.9987705286286727
247,0.9987705286286727
247,0.9987705286286727
247,0.9987705286286727
247,0.9987705286286727
247,0.9987705286286727
247,0.9987705286286727
247,0.9987705286286727
247,0.9987705286286727
247,0.9987705286286727
247,0.9987705286286727
247,0.9987705286286727
247,0.9990183392085759
247,0.9990183392085759
248,0.9990183392085759
248,0.9990183392085759
248,0.9990183392085759
248,0.9990183392085759
248,0.9990183392085759
248,0.9990183392085759
248,0.9990183392085759
248,0.9990183392085759
248,0.9990183392085759
248,0.9990183392085759
248,0.9990183392085759
248,0.9990183392085759
248,0.9990183392085759
248,0.9990183392085759
248,0.9990183392085759
248,0.9990183392085759
248,0.9990183392085759
249,0.9990183392085759
249,0.9990183392085759
249,0.9990183392085759
249,0.9990183392085759
249,0.9990183392085759
249,0.9990183392085759
249,0.9990183392085759
249,0.9990183392085759
249,0.9990183392085759
249,0.9990183392085759
249,0.9990183392085759
249,0.9990183392085759
249,0.9990183392085759
249,0.9990183392085759
249,0.9990183392085759
249,0.9990183392085759
249,0.9990183392085759
249,0.9990183392085759
250,0.9990183392085759
