0,0.4841916739587104
0,0.4841916739587104
0,0.4841916739587104
0,0.4841916739587104
0,0.4841916739587104
0,0.4841916739587104
0,0.4841916739587104
0,0.4841916739587104
0,0.4841916739587104
0,0.4841916739587104
0,0.4841916739587104
0,0.4841916739587104
1,0.4841916739587104
1,0.4841916739587104
1,0.4841916739587104
1,0.4841916739587104
1,0.4841916739587104
1,0.4841916739587104
1,0.4841916739587104
1,0.4841916739587104
1,0.4841916739587104
1,0.4841916739587104
1,0.4841916739587104
1,0.4841916739587104
2,0.7395835657948331
2,0.7395835657948331
2,0.7395835657948331
2,0.7395835657948331
2,0.7395835657948331
2,0.7395835657948331
2,0.7395835657948331
2,0.7395835657948331
2,0.7395835657948331
2,0.7395835657948331
2,0.7395835657948331
3,0.7395835657948331
3,0.7395835657948331
3,0.7395835657948331
3,0.7395835657948331
3,0.7395835657948331
3,0.7395835657948331
3,0.7395835657948331
3,0.7395835657948331
3,0.7395835657948331
3,0.7395835657948331
3,0.7395835657948331
4,0.7395835657948331
4,0.7395835657948331
4,0.7395835657948331
4,0.7899218251442033
4,0.7899218251442033
4,0.7899218251442033
4,0.7899218251442033
4,0.7899218251442033
4,0.7899218251442033
4,0.7899218251442033
4,0.7899218251442033
4,0.7899218251442033
5,0.7899218251442033
5,0.7899218251442033
5,0.7899218251442033
5,0.7899218251442033
5,0.7899218251442033
5,0.7899218251442033
5,0.7899218251442033
5,0.7899218251442033
5,0.7899218251442033
5,0.7899218251442033
6,0.7899218251442033
6,0.7899218251442033
6,0.7899218251442033
6,0.7899218251442033
6,0.7899218251442033
6,0.7899218251442033
6,0.8255227216494964
6,0.8255227216494964
6,0.8255227216494964
6,0.8255227216494964
7,0.8255227216494964
7,0.8255227216494964
7,0.8255227216494964
7,0.8255227216494964
7,0.8255227216494964
7,0.8255227216494964
7,0.8255227216494964
7,0.8255227216494964
7,0.8255227216494964
7,0.8255227216494964
8,0.8255227216494964
8,0.8255227216494964
8,0.8255227216494964
8,0.8255227216494964
8,0.8255227216494964
8,0.8255227216494964
8,0.8255227216494964
8,0.8255227216494964
8,0.8255227216494964
8,0.8255227216494964
9,0.8255227216494964
9,0.8510409980284186
9,0.8510409980284186
9,0.8510409980284186
9,0.8510409980284186
9,0.8510409980284186
9,0.8510409980284186
9,0.8510409980284186
9,0.8510409980284186
9,0.8510409980284186
10,0.8510409980284186
10,0.8510409980284186
10,0.8510409980284186
10,0.8510409980284186
10,0.8510409980284186
10,0.8510409980284186
10,0.8510409980284186
10,0.8510409980284186
10,0.8510409980284186
11,0.8510409980284186
11,0.8510409980284186
11,0.8510409980284186
11,0.8510409980284186
11,0.8510409980284186
11,0.8510409980284186
11,0.8510409980284186
12,0.8706495168992829
12,0.8706495168992829
12,0.8706495168992829
12,0.8706495168992829
12,0.8706495168992829
12,0.8706495168992829
12,0.8706495168992829
12,0.8706495168992829
12,0.8706495168992829
13,0.8706495168992829
13,0.8706495168992829
13,0.8706495168992829
13,0.8706495168992829
13,0.8706495168992829
13,0.8706495168992829
13,0.8706495168992829
13,0.8706495168992829
13,0.8706495168992829
14,0.8706495168992829
14,0.8706495168992829
14,0.8706495168992829
14,0.8706495168992829
14,0.8706495168992829
14,0.8706495168992829
14,0.8706495168992829
14,0.8803080645785466
15,0.8803080645785466
15,0.8803080645785466
15,0.8803080645785466
15,0.8803080645785466
15,0.8803080645785466
15,0.8803080645785466
15,0.8803080645785466
15,0.8803080645785466
15,0.8803080645785466
16,0.8803080645785466
16,0.8803080645785466
16,0.8803080645785466
16,0.8803080645785466
16,0.8803080645785466
16,0.8803080645785466
16,0.8803080645785466
16,0.8803080645785466
16,0.8803080645785466
17,0.8803080645785466
17,0.8803080645785466
17,0.8803080645785466
17,0.8803080645785466
17,0.8803080645785466
17,0.8803080645785466
17,0.8855557926291607
17,0.8855557926291607
17,0.8855557926291607
17,0.8855557926291607
18,0.8855557926291607
18,0.8855557926291607
18,0.8855557926291607
18,0.8855557926291607
18,0.8855557926291607
18,0.8855557926291607
18,0.8855557926291607
18,0.8855557926291607
18,0.8855557926291607
19,0.8855557926291607
19,0.8855557926291607
19,0.8855557926291607
19,0.8855557926291607
19,0.8855557926291607
19,0.8855557926291607
19,0.8855557926291607
19,0.8855557926291607
19,0.8855557926291607
20,0.8855557926291607
20,0.8855557926291607
20,0.8855557926291607
20,0.8947077830684399
20,0.8947077830684399
20,0.8947077830684399
20,0.8947077830684399
20,0.8947077830684399
20,0.8947077830684399
21,0.8947077830684399
21,0.8947077830684399
21,0.8947077830684399
21,0.8947077830684399
21,0.8947077830684399
21,0.8947077830684399
21,0.8947077830684399
21,0.8947077830684399
21,0.8947077830684399
22,0.8947077830684399
22,0.8947077830684399
22,0.8947077830684399
22,0.8947077830684399
22,0.8947077830684399
22,0.8947077830684399
22,0.8947077830684399
22,0.8947077830684399
22,0.8947077830684399
22,0.8947077830684399
23,0.9039084968172337
23,0.9039084968172337
23,0.9039084968172337
23,0.9039084968172337
23,0.9039084968172337
23,0.9039084968172337
23,0.9039084968172337
23,0.9039084968172337
23,0.9039084968172337
24,0.9039084968172337
24,0.9039084968172337
24,0.9039084968172337
24,0.9039084968172337
24,0.9039084968172337
24,0.9039084968172337
24,0.9039084968172337
24,0.9039084968172337
24,0.9039084968172337
25,0.9039084968172337
25,0.9039084968172337
25,0.9039084968172337
25,0.9039084968172337
25,0.9039084968172337
25,0.9039084968172337
25,0.9039084968172337
25,0.9080774984952406
25,0.9080774984952406
26,0.9080774984952406
26,0.9080774984952406
26,0.9080774984952406
26,0.9080774984952406
26,0.9080774984952406
26,0.9080774984952406
26,0.9080774984952406
26,0.9080774984952406
26,0.9080774984952406
27,0.9080774984952406
27,0.9080774984952406
27,0.9080774984952406
27,0.9080774984952406
27,0.9080774984952406
27,0.9080774984952406
27,0.9080774984952406
27,0.9080774984952406
27,0.9080774984952406
28,0.9080774984952406
28,0.9080774984952406
28,0.9080774984952406
28,0.9080774984952406
28,0.9080774984952406
28,0.9098756376188094
28,0.9098756376188094
28,0.9098756376188094
28,0.9098756376188094
29,0.9098756376188094
29,0.9098756376188094
29,0.9098756376188094
29,0.9098756376188094
29,0.9098756376188094
29,0.9098756376188094
29,0.9098756376188094
29,0.9098756376188094
29,0.9098756376188094
30,0.9098756376188094
30,0.9098756376188094
30,0.9098756376188094
30,0.9098756376188094
30,0.9098756376188094
30,0.9098756376188094
30,0.9098756376188094
30,0.9098756376188094
31,0.9098756376188094
31,0.9098756376188094
31,0.9098756376188094
31,0.9098756376188094
31,0.9152004272298309
31,0.9152004272298309
31,0.9152004272298309
31,0.9152004272298309
31,0.9152004272298309
32,0.9152004272298309
32,0.9152004272298309
32,0.9152004272298309
32,0.9152004272298309
32,0.9152004272298309
32,0.9152004272298309
32,0.9152004272298309
32,0.9152004272298309
32,0.9152004272298309
33,0.9152004272298309
33,0.9152004272298309
33,0.9152004272298309
33,0.9152004272298309
33,0.9152004272298309
33,0.9152004272298309
33,0.9152004272298309
33,0.9152004272298309
33,0.9152004272298309
34,0.9152004272298309
34,0.9152004272298309
34,0.9216952672840788
34,0.9216952672840788
34,0.9216952672840788
34,0.9216952672840788
34,0.9216952672840788
34,0.9216952672840788
34,0.9216952672840788
35,0.9216952672840788
35,0.9216952672840788
35,0.9216952672840788
35,0.9216952672840788
35,0.9216952672840788
35,0.9216952672840788
35,0.9216952672840788
35,0.9216952672840788
35,0.9216952672840788
36,0.9216952672840788
36,0.9216952672840788
36,0.9216952672840788
36,0.9216952672840788
36,0.9216952672840788
36,0.9216952672840788
36,0.9216952672840788
36,0.9216952672840788
37,0.9216952672840788
37,0.9226162282879636
37,0.9226162282879636
37,0.9226162282879636
37,0.9226162282879636
37,0.9226162282879636
37,0.9226162282879636
37,0.9226162282879636
37,0.9226162282879636
38,0.9226162282879636
38,0.9226162282879636
38,0.9226162282879636
38,0.9226162282879636
38,0.9226162282879636
38,0.9226162282879636
38,0.9226162282879636
38,0.9226162282879636
39,0.9226162282879636
39,0.9226162282879636
39,0.9226162282879636
39,0.9226162282879636
39,0.9226162282879636
39,0.9226162282879636
39,0.9226162282879636
39,0.9226162282879636
39,0.9226162282879636
40,0.9261776535447664
40,0.9261776535447664
40,0.9261776535447664
40,0.9261776535447664
40,0.9261776535447664
40,0.9261776535447664
40,0.9261776535447664
40,0.9261776535447664
40,0.9261776535447664
41,0.9261776535447664
41,0.9261776535447664
41,0.9261776535447664
41,0.9261776535447664
41,0.9261776535447664
41,0.9261776535447664
41,0.9261776535447664
41,0.9261776535447664
41,0.9261776535447664
42,0.9261776535447664
42,0.9261776535447664
42,0.9261776535447664
42,0.9261776535447664
42,0.9261776535447664
42,0.9261776535447664
42,0.9261776535447664
42,0.9279333124954525
43,0.9279333124954525
43,0.9279333124954525
43,0.9279333124954525
43,0.9279333124954525
43,0.9279333124954525
43,0.9279333124954525
43,0.9279333124954525
43,0.9279333124954525
43,0.9279333124954525
44,0.9279333124954525
44,0.9279333124954525
44,0.9279333124954525
44,0.9279333124954525
44,0.9279333124954525
44,0.9279333124954525
44,0.9279333124954525
44,0.9279333124954525
45,0.9279333124954525
45,0.9279333124954525
45,0.9279333124954525
45,0.9279333124954525
45,0.9279333124954525
45,0.9279333124954525
45,0.9279333124954525
45,0.9293232116588286
45,0.9293232116588286
46,0.9293232116588286
46,0.9293232116588286
46,0.9293232116588286
46,0.9293232116588286
46,0.9293232116588286
46,0.9293232116588286
46,0.9293232116588286
46,0.9293232116588286
46,0.9293232116588286
47,0.9293232116588286
47,0.9293232116588286
47,0.9293232116588286
47,0.9293232116588286
47,0.9293232116588286
47,0.9293232116588286
47,0.9293232116588286
47,0.9293232116588286
48,0.9293232116588286
48,0.9293232116588286
48,0.9293232116588286
48,0.9293232116588286
48,0.9293232116588286
48,0.9293232116588286
48,0.9341841430114254
48,0.9341841430114254
48,0.9341841430114254
49,0.9341841430114254
49,0.9341841430114254
49,0.9341841430114254
49,0.9341841430114254
49,0.9341841430114254
49,0.9341841430114254
49,0.9341841430114254
49,0.9341841430114254
50,0.9341841430114254
50,0.9341841430114254
50,0.9341841430114254
50,0.9341841430114254
50,0.9341841430114254
50,0.9341841430114254
50,0.9341841430114254
50,0.9341841430114254
51,0.9341841430114254
51,0.9341841430114254
51,0.9341841430114254
51,0.9341841430114254
51,0.9341841430114254
51,0.9341841430114254
51,0.935211693714482
51,0.935211693714482
51,0.935211693714482
52,0.935211693714482
52,0.935211693714482
52,0.935211693714482
52,0.935211693714482
52,0.935211693714482
52,0.935211693714482
52,0.935211693714482
52,0.935211693714482
52,0.935211693714482
53,0.935211693714482
53,0.935211693714482
53,0.935211693714482
53,0.935211693714482
53,0.935211693714482
53,0.935211693714482
53,0.935211693714482
53,0.935211693714482
54,0.935211693714482
54,0.935211693714482
54,0.935211693714482
54,0.935211693714482
54,0.935211693714482
54,0.9380575829272549
54,0.9380575829272549
54,0.9380575829272549
54,0.9380575829272549
55,0.9380575829272549
55,0.9380575829272549
55,0.9380575829272549
55,0.9380575829272549
55,0.9380575829272549
55,0.9380575829272549
55,0.9380575829272549
55,0.9380575829272549
56,0.9380575829272549
56,0.9380575829272549
56,0.9380575829272549
56,0.9380575829272549
56,0.9380575829272549
56,0.9380575829272549
56,0.9380575829272549
56,0.9380575829272549
56,0.9380575829272549
57,0.9380575829272549
57,0.9380575829272549
57,0.9380575829272549
57,0.9380575829272549
57,0.9412813391222994
57,0.9412813391222994
57,0.9412813391222994
57,0.9412813391222994
58,0.9412813391222994
58,0.9412813391222994
58,0.9412813391222994
58,0.9412813391222994
58,0.9412813391222994
58,0.9412813391222994
58,0.9412813391222994
58,0.9412813391222994
58,0.9412813391222994
59,0.9412813391222994
59,0.9412813391222994
59,0.9412813391222994
59,0.9412813391222994
59,0.9412813391222994
59,0.9412813391222994
59,0.9412813391222994
59,0.9412813391222994
59,0.9412813391222994
60,0.9412813391222994
60,0.9412813391222994
60,0.9412813391222994
60,0.9417010820189098
60,0.9417010820189098
60,0.9417010820189098
60,0.9417010820189098
60,0.9417010820189098
61,0.9417010820189098
61,0.9417010820189098
61,0.9417010820189098
61,0.9417010820189098
61,0.9417010820189098
61,0.9417010820189098
61,0.9417010820189098
61,0.9417010820189098
61,0.9417010820189098
62,0.9417010820189098
62,0.9417010820189098
62,0.9417010820189098
62,0.9417010820189098
62,0.9417010820189098
62,0.9417010820189098
62,0.9417010820189098
62,0.9417010820189098
63,0.9417010820189098
63,0.9417010820189098
63,0.9417010820189098
63,0.9427653029503258
63,0.9427653029503258
63,0.9427653029503258
63,0.9427653029503258
63,0.9427653029503258
63,0.9427653029503258
64,0.9427653029503258
64,0.9427653029503258
64,0.9427653029503258
64,0.9427653029503258
64,0.9427653029503258
64,0.9427653029503258
64,0.9427653029503258
64,0.9427653029503258
64,0.9427653029503258
65,0.9427653029503258
65,0.9427653029503258
65,0.9427653029503258
65,0.9427653029503258
65,0.9427653029503258
65,0.9427653029503258
65,0.9427653029503258
65,0.9427653029503258
66,0.9427653029503258
66,0.9427653029503258
66,0.943347585437647
66,0.943347585437647
66,0.943347585437647
66,0.943347585437647
66,0.943347585437647
66,0.943347585437647
66,0.943347585437647
67,0.943347585437647
67,0.943347585437647
67,0.943347585437647
67,0.943347585437647
67,0.943347585437647
67,0.943347585437647
67,0.943347585437647
67,0.943347585437647
67,0.943347585437647
68,0.943347585437647
68,0.943347585437647
68,0.943347585437647
68,0.943347585437647
68,0.943347585437647
68,0.943347585437647
68,0.943347585437647
68,0.943347585437647
68,0.943347585437647
69,0.9439940889219979
69,0.9439940889219979
69,0.9439940889219979
69,0.9439940889219979
69,0.9439940889219979
69,0.9439940889219979
69,0.9439940889219979
69,0.9439940889219979
70,0.9439940889219979
70,0.9439940889219979
70,0.9439940889219979
70,0.9439940889219979
70,0.9439940889219979
70,0.9439940889219979
70,0.9439940889219979
70,0.9439940889219979
70,0.9439940889219979
71,0.9439940889219979
71,0.9439940889219979
71,0.9439940889219979
71,0.9439940889219979
71,0.9439940889219979
71,0.9439940889219979
71,0.9439940889219979
71,0.9439940889219979
72,0.9459676555298028
72,0.9459676555298028
72,0.9459676555298028
72,0.9459676555298028
72,0.9459676555298028
72,0.9459676555298028
72,0.9459676555298028
72,0.9459676555298028
72,0.9459676555298028
73,0.9459676555298028
73,0.9459676555298028
73,0.9459676555298028
73,0.9459676555298028
73,0.9459676555298028
73,0.9459676555298028
73,0.9459676555298028
73,0.9459676555298028
73,0.9459676555298028
74,0.9459676555298028
74,0.9459676555298028
74,0.9459676555298028
74,0.9459676555298028
74,0.9459676555298028
74,0.9459676555298028
74,0.9459676555298028
74,0.9472416119284024
75,0.9472416119284024
75,0.9472416119284024
75,0.9472416119284024
75,0.9472416119284024
75,0.9472416119284024
75,0.9472416119284024
75,0.9472416119284024
75,0.9472416119284024
75,0.9472416119284024
76,0.9472416119284024
76,0.9472416119284024
76,0.9472416119284024
76,0.9472416119284024
76,0.9472416119284024
76,0.9472416119284024
76,0.9472416119284024
76,0.9472416119284024
77,0.9472416119284024
77,0.9472416119284024
77,0.9472416119284024
77,0.9472416119284024
77,0.9472416119284024
77,0.9472416119284024
77,0.9472416119284024
77,0.9498871482070115
78,0.9498871482070115
78,0.9498871482070115
78,0.9498871482070115
78,0.9498871482070115
78,0.9498871482070115
78,0.9498871482070115
78,0.9498871482070115
78,0.9498871482070115
78,0.9498871482070115
79,0.9498871482070115
79,0.9498871482070115
79,0.9498871482070115
79,0.9498871482070115
79,0.9498871482070115
79,0.9498871482070115
79,0.9498871482070115
79,0.9498871482070115
79,0.9498871482070115
80,0.9498871482070115
80,0.9498871482070115
80,0.9498871482070115
80,0.9498871482070115
80,0.9498871482070115
80,0.9498871482070115
80,0.9514005672919404
80,0.9514005672919404
81,0.9514005672919404
81,0.9514005672919404
81,0.9514005672919404
81,0.9514005672919404
81,0.9514005672919404
81,0.9514005672919404
81,0.9514005672919404
81,0.9514005672919404
81,0.9514005672919404
82,0.9514005672919404
82,0.9514005672919404
82,0.9514005672919404
82,0.9514005672919404
82,0.9514005672919404
82,0.9514005672919404
82,0.9514005672919404
82,0.9514005672919404
82,0.9514005672919404
83,0.9514005672919404
83,0.9514005672919404
83,0.9514005672919404
83,0.9514005672919404
83,0.9514005672919404
83,0.9518006196778382
83,0.9518006196778382
83,0.9518006196778382
84,0.9518006196778382
84,0.9518006196778382
84,0.9518006196778382
84,0.9518006196778382
84,0.9518006196778382
84,0.9518006196778382
84,0.9518006196778382
84,0.9518006196778382
84,0.9518006196778382
85,0.9518006196778382
85,0.9518006196778382
85,0.9518006196778382
85,0.9518006196778382
85,0.9518006196778382
85,0.9518006196778382
85,0.9518006196778382
85,0.9518006196778382
85,0.9518006196778382
86,0.9518006196778382
86,0.9518006196778382
86,0.9518006196778382
86,0.9518006196778382
86,0.9533486852752396
86,0.9533486852752396
86,0.9533486852752396
86,0.9533486852752396
86,0.9533486852752396
87,0.9533486852752396
87,0.9533486852752396
87,0.9533486852752396
87,0.9533486852752396
87,0.9533486852752396
87,0.9533486852752396
87,0.9533486852752396
87,0.9533486852752396
87,0.9533486852752396
88,0.9533486852752396
88,0.9533486852752396
88,0.9533486852752396
88,0.9533486852752396
88,0.9533486852752396
88,0.9533486852752396
88,0.9533486852752396
88,0.9533486852752396
88,0.9533486852752396
89,0.9533486852752396
89,0.9533486852752396
89,0.9538537814631071
89,0.9538537814631071
89,0.9538537814631071
89,0.9538537814631071
89,0.9538537814631071
89,0.9538537814631071
89,0.9538537814631071
90,0.9538537814631071
90,0.9538537814631071
90,0.9538537814631071
90,0.9538537814631071
90,0.9538537814631071
90,0.9538537814631071
90,0.9538537814631071
90,0.9538537814631071
91,0.9538537814631071
91,0.9538537814631071
91,0.9538537814631071
91,0.9538537814631071
91,0.9538537814631071
91,0.9538537814631071
91,0.9538537814631071
91,0.9538537814631071
92,0.9538537814631071
92,0.9538537814631071
92,0.9547770642629344
92,0.9547770642629344
92,0.9547770642629344
92,0.9547770642629344
92,0.9547770642629344
92,0.9547770642629344
92,0.9547770642629344
93,0.9547770642629344
93,0.9547770642629344
93,0.9547770642629344
93,0.9547770642629344
93,0.9547770642629344
93,0.9547770642629344
93,0.9547770642629344
93,0.9547770642629344
94,0.9547770642629344
94,0.9547770642629344
94,0.9547770642629344
94,0.9547770642629344
94,0.9547770642629344
94,0.9547770642629344
94,0.9547770642629344
94,0.9547770642629344
94,0.9547770642629344
95,0.9547770642629344
95,0.9551302456617068
95,0.9551302456617068
95,0.9551302456617068
95,0.9551302456617068
95,0.9551302456617068
95,0.9551302456617068
95,0.9551302456617068
95,0.9551302456617068
96,0.9551302456617068
96,0.9551302456617068
96,0.9551302456617068
96,0.9551302456617068
96,0.9551302456617068
96,0.9551302456617068
96,0.9551302456617068
96,0.9551302456617068
96,0.9551302456617068
97,0.9551302456617068
97,0.9551302456617068
97,0.9551302456617068
97,0.9551302456617068
97,0.9551302456617068
97,0.9551302456617068
97,0.9551302456617068
97,0.9551302456617068
97,0.9555807886549788
98,0.9555807886549788
98,0.9555807886549788
98,0.9555807886549788
98,0.9555807886549788
98,0.9555807886549788
98,0.9555807886549788
98,0.9555807886549788
98,0.9555807886549788
99,0.9555807886549788
99,0.9555807886549788
99,0.9555807886549788
99,0.9555807886549788
99,0.9555807886549788
99,0.9555807886549788
99,0.9555807886549788
99,0.9555807886549788
99,0.9555807886549788
100,0.9555807886549788
100,0.9555807886549788
100,0.9555807886549788
100,0.9555807886549788
100,0.9555807886549788
100,0.9555807886549788
100,0.9555807886549788
100,0.9568084921999365
100,0.9568084921999365
101,0.9568084921999365
101,0.9568084921999365
101,0.9568084921999365
101,0.9568084921999365
101,0.9568084921999365
101,0.9568084921999365
101,0.9568084921999365
101,0.9568084921999365
101,0.9568084921999365
102,0.9568084921999365
102,0.9568084921999365
102,0.9568084921999365
102,0.9568084921999365
102,0.9568084921999365
102,0.9568084921999365
102,0.9568084921999365
102,0.9568084921999365
103,0.9568084921999365
103,0.9568084921999365
103,0.9568084921999365
103,0.9568084921999365
103,0.9568084921999365
103,0.9568084921999365
103,0.9575737840967077
103,0.9575737840967077
103,0.9575737840967077
104,0.9575737840967077
104,0.9575737840967077
104,0.9575737840967077
104,0.9575737840967077
104,0.9575737840967077
104,0.9575737840967077
104,0.9575737840967077
104,0.9575737840967077
105,0.9575737840967077
105,0.9575737840967077
105,0.9575737840967077
105,0.9575737840967077
105,0.9575737840967077
105,0.9575737840967077
105,0.9575737840967077
105,0.9575737840967077
106,0.9575737840967077
106,0.9575737840967077
106,0.9575737840967077
106,0.9575737840967077
106,0.9575737840967077
106,0.9575737840967077
106,0.9584295966895682
106,0.9584295966895682
106,0.9584295966895682
107,0.9584295966895682
107,0.9584295966895682
107,0.9584295966895682
107,0.9584295966895682
107,0.9584295966895682
107,0.9584295966895682
107,0.9584295966895682
107,0.9584295966895682
107,0.9584295966895682
108,0.9584295966895682
108,0.9584295966895682
108,0.9584295966895682
108,0.9584295966895682
108,0.9584295966895682
108,0.9584295966895682
108,0.9584295966895682
108,0.9584295966895682
108,0.9584295966895682
109,0.9584295966895682
109,0.9584295966895682
109,0.9584295966895682
109,0.9584295966895682
109,0.9589363924045292
109,0.9589363924045292
109,0.9589363924045292
109,0.9589363924045292
110,0.9589363924045292
110,0.9589363924045292
110,0.9589363924045292
110,0.9589363924045292
110,0.9589363924045292
110,0.9589363924045292
110,0.9589363924045292
110,0.9589363924045292
110,0.9589363924045292
111,0.9589363924045292
111,0.9589363924045292
111,0.9589363924045292
111,0.9589363924045292
111,0.9589363924045292
111,0.9589363924045292
111,0.9589363924045292
111,0.9589363924045292
111,0.9589363924045292
112,0.9589363924045292
112,0.9589363924045292
112,0.9589363924045292
112,0.9604140397983992
112,0.9604140397983992
112,0.9604140397983992
112,0.9604140397983992
112,0.9604140397983992
112,0.9604140397983992
113,0.9604140397983992
113,0.9604140397983992
113,0.9604140397983992
113,0.9604140397983992
113,0.9604140397983992
113,0.9604140397983992
113,0.9604140397983992
113,0.9604140397983992
113,0.9604140397983992
114,0.9604140397983992
114,0.9604140397983992
114,0.9604140397983992
114,0.9604140397983992
114,0.9604140397983992
114,0.9604140397983992
114,0.9604140397983992
114,0.9604140397983992
114,0.9604140397983992
115,0.9604140397983992
115,0.9607557242032471
115,0.9607557242032471
115,0.9607557242032471
115,0.9607557242032471
115,0.9607557242032471
115,0.9607557242032471
115,0.9607557242032471
115,0.9607557242032471
116,0.9607557242032471
116,0.9607557242032471
116,0.9607557242032471
116,0.9607557242032471
116,0.9607557242032471
116,0.9607557242032471
116,0.9607557242032471
116,0.9607557242032471
117,0.9607557242032471
117,0.9607557242032471
117,0.9607557242032471
117,0.9607557242032471
117,0.9607557242032471
117,0.9607557242032471
117,0.9607557242032471
117,0.9607557242032471
117,0.9607557242032471
118,0.9624274484089066
118,0.9624274484089066
118,0.9624274484089066
118,0.9624274484089066
118,0.9624274484089066
118,0.9624274484089066
118,0.9624274484089066
118,0.9624274484089066
119,0.9624274484089066
119,0.9624274484089066
119,0.9624274484089066
119,0.9624274484089066
119,0.9624274484089066
119,0.9624274484089066
119,0.9624274484089066
119,0.9624274484089066
120,0.9624274484089066
120,0.9624274484089066
120,0.9624274484089066
120,0.9624274484089066
120,0.9624274484089066
120,0.9624274484089066
120,0.9624274484089066
120,0.9624274484089066
121,0.9624274484089066
121,0.9635499120000779
121,0.9635499120000779
121,0.9635499120000779
121,0.9635499120000779
121,0.9635499120000779
121,0.9635499120000779
121,0.9635499120000779
121,0.9635499120000779
122,0.9635499120000779
122,0.9635499120000779
122,0.9635499120000779
122,0.9635499120000779
122,0.9635499120000779
122,0.9635499120000779
122,0.9635499120000779
122,0.9635499120000779
123,0.9635499120000779
123,0.9635499120000779
123,0.9635499120000779
123,0.9635499120000779
123,0.9635499120000779
123,0.9635499120000779
123,0.9635499120000779
123,0.9635499120000779
124,0.9635499120000779
124,0.9649470185042295
124,0.9649470185042295
124,0.9649470185042295
124,0.9649470185042295
124,0.9649470185042295
124,0.9649470185042295
124,0.9649470185042295
124,0.9649470185042295
125,0.9649470185042295
125,0.9649470185042295
125,0.9649470185042295
125,0.9649470185042295
125,0.9649470185042295
125,0.9649470185042295
125,0.9649470185042295
125,0.9649470185042295
125,0.9649470185042295
126,0.9649470185042295
126,0.9649470185042295
126,0.9649470185042295
126,0.9649470185042295
126,0.9649470185042295
126,0.9649470185042295
126,0.9649470185042295
126,0.9649470185042295
126,0.9659506295118044
127,0.9659506295118044
127,0.9659506295118044
127,0.9659506295118044
127,0.9659506295118044
127,0.9659506295118044
127,0.9659506295118044
127,0.9659506295118044
127,0.9659506295118044
127,0.9659506295118044
128,0.9659506295118044
128,0.9659506295118044
128,0.9659506295118044
128,0.9659506295118044
128,0.9659506295118044
128,0.9659506295118044
128,0.9659506295118044
128,0.9659506295118044
128,0.9659506295118044
129,0.9659506295118044
129,0.9659506295118044
129,0.9659506295118044
129,0.9659506295118044
129,0.9659506295118044
129,0.9659506295118044
129,0.9660744607917929
129,0.9660744607917929
129,0.9660744607917929
130,0.9660744607917929
130,0.9660744607917929
130,0.9660744607917929
130,0.9660744607917929
130,0.9660744607917929
130,0.9660744607917929
130,0.9660744607917929
130,0.9660744607917929
131,0.9660744607917929
131,0.9660744607917929
131,0.9660744607917929
131,0.9660744607917929
131,0.9660744607917929
131,0.9660744607917929
131,0.9660744607917929
131,0.9660744607917929
132,0.9660744607917929
132,0.9660744607917929
132,0.9660744607917929
132,0.9660744607917929
132,0.9660744607917929
132,0.9660744607917929
132,0.9662182525189307
132,0.9662182525189307
132,0.9662182525189307
133,0.9662182525189307
133,0.9662182525189307
133,0.9662182525189307
133,0.9662182525189307
133,0.9662182525189307
133,0.9662182525189307
133,0.9662182525189307
133,0.9662182525189307
134,0.9662182525189307
134,0.9662182525189307
134,0.9662182525189307
134,0.9662182525189307
134,0.9662182525189307
134,0.9662182525189307
134,0.9662182525189307
134,0.9662182525189307
134,0.9662182525189307
135,0.9662182525189307
135,0.9662182525189307
135,0.9662182525189307
135,0.9662182525189307
135,0.9662182525189307
135,0.9670731977894136
135,0.9670731977894136
135,0.9670731977894136
136,0.9670731977894136
136,0.9670731977894136
136,0.9670731977894136
136,0.9670731977894136
136,0.9670731977894136
136,0.9670731977894136
136,0.9670731977894136
136,0.9670731977894136
136,0.9670731977894136
137,0.9670731977894136
137,0.9670731977894136
137,0.9670731977894136
137,0.9670731977894136
137,0.9670731977894136
137,0.9670731977894136
137,0.9670731977894136
137,0.9670731977894136
138,0.9670731977894136
138,0.9670731977894136
138,0.9670731977894136
138,0.9670731977894136
138,0.9670731977894136
138,0.968830753080895
138,0.968830753080895
138,0.968830753080895
138,0.968830753080895
139,0.968830753080895
139,0.968830753080895
139,0.968830753080895
139,0.968830753080895
139,0.968830753080895
139,0.968830753080895
139,0.968830753080895
139,0.968830753080895
140,0.968830753080895
140,0.968830753080895
140,0.968830753080895
140,0.968830753080895
140,0.968830753080895
140,0.968830753080895
140,0.968830753080895
140,0.968830753080895
140,0.968830753080895
141,0.968830753080895
141,0.968830753080895
141,0.968830753080895
141,0.968830753080895
141,0.9688861768228323
141,0.9688861768228323
141,0.9688861768228323
141,0.9688861768228323
142,0.9688861768228323
142,0.9688861768228323
142,0.9688861768228323
142,0.9688861768228323
142,0.9688861768228323
142,0.9688861768228323
142,0.9688861768228323
142,0.9688861768228323
142,0.9688861768228323
143,0.9688861768228323
143,0.9688861768228323
143,0.9688861768228323
143,0.9688861768228323
143,0.9688861768228323
143,0.9688861768228323
143,0.9688861768228323
143,0.9688861768228323
144,0.9688861768228323
144,0.9688861768228323
144,0.9688861768228323
144,0.9688861768228323
144,0.9696783025398371
144,0.9696783025398371
144,0.9696783025398371
144,0.9696783025398371
145,0.9696783025398371
145,0.9696783025398371
145,0.9696783025398371
145,0.9696783025398371
145,0.9696783025398371
145,0.9696783025398371
145,0.9696783025398371
145,0.9696783025398371
145,0.9696783025398371
146,0.9696783025398371
146,0.9696783025398371
146,0.9696783025398371
146,0.9696783025398371
146,0.9696783025398371
146,0.9696783025398371
146,0.9696783025398371
146,0.9696783025398371
146,0.9696783025398371
147,0.9696783025398371
147,0.9696783025398371
147,0.9696783025398371
147,0.9697537771995273
147,0.9697537771995273
147,0.9697537771995273
147,0.9697537771995273
147,0.9697537771995273
148,0.9697537771995273
148,0.9697537771995273
148,0.9697537771995273
148,0.9697537771995273
148,0.9697537771995273
148,0.9697537771995273
148,0.9697537771995273
148,0.9697537771995273
148,0.9697537771995273
149,0.9697537771995273
149,0.9697537771995273
149,0.9697537771995273
149,0.9697537771995273
149,0.9697537771995273
149,0.9697537771995273
149,0.9697537771995273
149,0.9697537771995273
150,0.9697537771995273
150,0.9697537771995273
150,0.9697537771995273
150,0.9701197284432138
150,0.9701197284432138
150,0.9701197284432138
150,0.9701197284432138
150,0.9701197284432138
150,0.9701197284432138
151,0.9701197284432138
151,0.9701197284432138
151,0.9701197284432138
151,0.9701197284432138
151,0.9701197284432138
151,0.9701197284432138
151,0.9701197284432138
151,0.9701197284432138
151,0.9701197284432138
152,0.9701197284432138
152,0.9701197284432138
152,0.9701197284432138
152,0.9701197284432138
152,0.9701197284432138
152,0.9701197284432138
152,0.9701197284432138
152,0.9701197284432138
152,0.9701197284432138
153,0.9701197284432138
153,0.9703029167059035
153,0.9703029167059035
153,0.9703029167059035
153,0.9703029167059035
153,0.9703029167059035
153,0.9703029167059035
153,0.9703029167059035
153,0.9703029167059035
154,0.9703029167059035
154,0.9703029167059035
154,0.9703029167059035
154,0.9703029167059035
154,0.9703029167059035
154,0.9703029167059035
154,0.9703029167059035
154,0.9703029167059035
154,0.9703029167059035
155,0.9703029167059035
155,0.9703029167059035
155,0.9703029167059035
155,0.9703029167059035
155,0.9703029167059035
155,0.9703029167059035
155,0.9703029167059035
155,0.9703029167059035
156,0.9715918516224628
156,0.9715918516224628
156,0.9715918516224628
156,0.9715918516224628
156,0.9715918516224628
156,0.9715918516224628
156,0.9715918516224628
156,0.9715918516224628
157,0.9715918516224628
157,0.9715918516224628
157,0.9715918516224628
157,0.9715918516224628
157,0.9715918516224628
157,0.9715918516224628
157,0.9715918516224628
157,0.9715918516224628
157,0.9715918516224628
158,0.9715918516224628
158,0.9715918516224628
158,0.9715918516224628
158,0.9715918516224628
158,0.9715918516224628
158,0.9715918516224628
158,0.9715918516224628
158,0.9715918516224628
159,0.9717156506627757
159,0.9717156506627757
159,0.9717156506627757
159,0.9717156506627757
159,0.9717156506627757
159,0.9717156506627757
159,0.9717156506627757
159,0.9717156506627757
160,0.9717156506627757
160,0.9717156506627757
160,0.9717156506627757
160,0.9717156506627757
160,0.9717156506627757
160,0.9717156506627757
160,0.9717156506627757
160,0.9717156506627757
161,0.9717156506627757
161,0.9717156506627757
161,0.9717156506627757
161,0.9717156506627757
161,0.9717156506627757
161,0.9717156506627757
161,0.9717156506627757
161,0.9717156506627757
161,0.9717156506627757
162,0.972935982739649
162,0.972935982739649
162,0.972935982739649
162,0.972935982739649
162,0.972935982739649
162,0.972935982739649
162,0.972935982739649
162,0.972935982739649
163,0.972935982739649
163,0.972935982739649
163,0.972935982739649
163,0.972935982739649
163,0.972935982739649
163,0.972935982739649
163,0.972935982739649
163,0.972935982739649
163,0.972935982739649
164,0.972935982739649
164,0.972935982739649
164,0.972935982739649
164,0.972935982739649
164,0.972935982739649
164,0.972935982739649
164,0.972935982739649
164,0.972935982739649
165,0.9734633421204335
165,0.9734633421204335
165,0.9734633421204335
165,0.9734633421204335
165,0.9734633421204335
165,0.9734633421204335
165,0.9734633421204335
165,0.9734633421204335
165,0.9734633421204335
166,0.9734633421204335
166,0.9734633421204335
166,0.9734633421204335
166,0.9734633421204335
166,0.9734633421204335
166,0.9734633421204335
166,0.9734633421204335
166,0.9734633421204335
167,0.9734633421204335
167,0.9734633421204335
167,0.9734633421204335
167,0.9734633421204335
167,0.9734633421204335
167,0.9734633421204335
167,0.9734633421204335
167,0.9734633421204335
167,0.9738215438924708
168,0.9738215438924708
168,0.9738215438924708
168,0.9738215438924708
168,0.9738215438924708
168,0.9738215438924708
168,0.9738215438924708
168,0.9738215438924708
168,0.9738215438924708
168,0.9738215438924708
169,0.9738215438924708
169,0.9738215438924708
169,0.9738215438924708
169,0.9738215438924708
169,0.9738215438924708
169,0.9738215438924708
169,0.9738215438924708
169,0.9738215438924708
170,0.9738215438924708
170,0.9738215438924708
170,0.9738215438924708
170,0.9738215438924708
170,0.9738215438924708
170,0.9738215438924708
170,0.9738215438924708
170,0.9739519708746374
170,0.9739519708746374
171,0.9739519708746374
171,0.9739519708746374
171,0.9739519708746374
171,0.9739519708746374
171,0.9739519708746374
171,0.9739519708746374
171,0.9739519708746374
171,0.9739519708746374
172,0.9739519708746374
172,0.9739519708746374
172,0.9739519708746374
172,0.9739519708746374
172,0.9739519708746374
172,0.9739519708746374
172,0.9739519708746374
172,0.9739519708746374
172,0.9739519708746374
173,0.9739519708746374
173,0.9739519708746374
173,0.9739519708746374
173,0.9739519708746374
173,0.9739519708746374
173,0.9739519708746374
173,0.9740899408629856
173,0.9740899408629856
173,0.9740899408629856
174,0.9740899408629856
174,0.9740899408629856
174,0.9740899408629856
174,0.9740899408629856
174,0.9740899408629856
174,0.9740899408629856
174,0.9740899408629856
174,0.9740899408629856
175,0.9740899408629856
175,0.9740899408629856
175,0.9740899408629856
175,0.9740899408629856
175,0.9740899408629856
175,0.9740899408629856
175,0.9740899408629856
175,0.9740899408629856
175,0.9740899408629856
176,0.9740899408629856
176,0.9740899408629856
176,0.9740899408629856
176,0.9740899408629856
176,0.9740899408629856
176,0.9749892258177292
176,0.9749892258177292
176,0.9749892258177292
176,0.9749892258177292
177,0.9749892258177292
177,0.9749892258177292
177,0.9749892258177292
177,0.9749892258177292
177,0.9749892258177292
177,0.9749892258177292
177,0.9749892258177292
177,0.9749892258177292
178,0.9749892258177292
178,0.9749892258177292
178,0.9749892258177292
178,0.9749892258177292
178,0.9749892258177292
178,0.9749892258177292
178,0.9749892258177292
178,0.9749892258177292
178,0.9749892258177292
179,0.9749892258177292
179,0.9749892258177292
179,0.9749892258177292
179,0.9749892258177292
179,0.9753812617273483
179,0.9753812617273483
179,0.9753812617273483
179,0.9753812617273483
179,0.9753812617273483
180,0.9753812617273483
180,0.9753812617273483
180,0.9753812617273483
180,0.9753812617273483
180,0.9753812617273483
180,0.9753812617273483
180,0.9753812617273483
180,0.9753812617273483
180,0.9753812617273483
181,0.9753812617273483
181,0.9753812617273483
181,0.9753812617273483
181,0.9753812617273483
181,0.9753812617273483
181,0.9753812617273483
181,0.9753812617273483
181,0.9753812617273483
182,0.9753812617273483
182,0.9753812617273483
182,0.9753812617273483
182,0.9754048798214514
182,0.9754048798214514
182,0.9754048798214514
182,0.9754048798214514
182,0.9754048798214514
182,0.9754048798214514
183,0.9754048798214514
183,0.9754048798214514
183,0.9754048798214514
183,0.9754048798214514
183,0.9754048798214514
183,0.9754048798214514
183,0.9754048798214514
183,0.9754048798214514
184,0.9754048798214514
184,0.9754048798214514
184,0.9754048798214514
184,0.9754048798214514
184,0.9754048798214514
184,0.9754048798214514
184,0.9754048798214514
184,0.9754048798214514
184,0.9754048798214514
185,0.9754048798214514
185,0.9754048798214514
185,0.9756847159085477
185,0.9756847159085477
185,0.9756847159085477
185,0.9756847159085477
185,0.9756847159085477
185,0.9756847159085477
185,0.9756847159085477
186,0.9756847159085477
186,0.9756847159085477
186,0.9756847159085477
186,0.9756847159085477
186,0.9756847159085477
186,0.9756847159085477
186,0.9756847159085477
186,0.9756847159085477
186,0.9756847159085477
187,0.9756847159085477
187,0.9756847159085477
187,0.9756847159085477
187,0.9756847159085477
187,0.9756847159085477
187,0.9756847159085477
187,0.9756847159085477
187,0.9756847159085477
188,0.9756847159085477
188,0.975864653018492
188,0.975864653018492
188,0.975864653018492
188,0.975864653018492
188,0.975864653018492
188,0.975864653018492
188,0.975864653018492
188,0.975864653018492
189,0.975864653018492
189,0.975864653018492
189,0.975864653018492
189,0.975864653018492
189,0.975864653018492
189,0.975864653018492
189,0.975864653018492
189,0.975864653018492
190,0.975864653018492
190,0.975864653018492
190,0.975864653018492
190,0.975864653018492
190,0.975864653018492
190,0.975864653018492
190,0.975864653018492
190,0.975864653018492
190,0.975864653018492
191,0.97591898166704
191,0.97591898166704
191,0.97591898166704
191,0.97591898166704
191,0.97591898166704
191,0.97591898166704
191,0.97591898166704
191,0.97591898166704
192,0.97591898166704
192,0.97591898166704
192,0.97591898166704
192,0.97591898166704
192,0.97591898166704
192,0.97591898166704
192,0.97591898166704
192,0.97591898166704
192,0.97591898166704
193,0.97591898166704
193,0.97591898166704
193,0.97591898166704
193,0.97591898166704
193,0.97591898166704
193,0.97591898166704
193,0.97591898166704
193,0.97591898166704
193,0.9764260061250551
194,0.9764260061250551
194,0.9764260061250551
194,0.9764260061250551
194,0.9764260061250551
194,0.9764260061250551
194,0.9764260061250551
194,0.9764260061250551
194,0.9764260061250551
195,0.9764260061250551
195,0.9764260061250551
195,0.9764260061250551
195,0.9764260061250551
195,0.9764260061250551
195,0.9764260061250551
195,0.9764260061250551
195,0.9764260061250551
196,0.9764260061250551
196,0.9764260061250551
196,0.9764260061250551
196,0.9764260061250551
196,0.9764260061250551
196,0.9764260061250551
196,0.9764260061250551
196,0.9764260061250551
197,0.976619062522938
197,0.976619062522938
197,0.976619062522938
197,0.976619062522938
197,0.976619062522938
197,0.976619062522938
197,0.976619062522938
198,0.976619062522938
198,0.976619062522938
198,0.976619062522938
198,0.976619062522938
198,0.976619062522938
198,0.976619062522938
198,0.976619062522938
198,0.976619062522938
199,0.976619062522938
199,0.976619062522938
199,0.976619062522938
199,0.976619062522938
199,0.976619062522938
199,0.976619062522938
199,0.976619062522938
199,0.976619062522938
200,0.976619062522938
200,0.976619062522938
200,0.9767723321250233
200,0.9767723321250233
200,0.9767723321250233
200,0.9767723321250233
200,0.9767723321250233
200,0.9767723321250233
200,0.9767723321250233
201,0.9767723321250233
201,0.9767723321250233
201,0.9767723321250233
201,0.9767723321250233
201,0.9767723321250233
201,0.9767723321250233
201,0.9767723321250233
201,0.9767723321250233
202,0.9767723321250233
202,0.9767723321250233
202,0.9767723321250233
202,0.9767723321250233
202,0.9767723321250233
202,0.9767723321250233
202,0.9767723321250233
202,0.9767723321250233
202,0.9767723321250233
203,0.9767723321250233
203,0.9768824732689761
203,0.9768824732689761
203,0.9768824732689761
203,0.9768824732689761
203,0.9768824732689761
203,0.9768824732689761
203,0.9768824732689761
204,0.9768824732689761
204,0.9768824732689761
204,0.9768824732689761
204,0.9768824732689761
204,0.9768824732689761
204,0.9768824732689761
204,0.9768824732689761
204,0.9768824732689761
204,0.9768824732689761
205,0.9768824732689761
205,0.9768824732689761
205,0.9768824732689761
205,0.9768824732689761
205,0.9768824732689761
205,0.9768824732689761
205,0.9768824732689761
205,0.9768824732689761
205,0.9768824732689761
206,0.9771699366188562
206,0.9771699366188562
206,0.9771699366188562
206,0.9771699366188562
206,0.9771699366188562
206,0.9771699366188562
206,0.9771699366188562
206,0.9771699366188562
207,0.9771699366188562
207,0.9771699366188562
207,0.9771699366188562
207,0.9771699366188562
207,0.9771699366188562
207,0.9771699366188562
207,0.9771699366188562
207,0.9771699366188562
207,0.9771699366188562
208,0.9771699366188562
208,0.9771699366188562
208,0.9771699366188562
208,0.9771699366188562
208,0.9771699366188562
208,0.9771699366188562
208,0.9771699366188562
208,0.9771699366188562
208,0.9773766600033746
209,0.9773766600033746
209,0.9773766600033746
209,0.9773766600033746
209,0.9773766600033746
209,0.9773766600033746
209,0.9773766600033746
209,0.9773766600033746
209,0.9773766600033746
210,0.9773766600033746
210,0.9773766600033746
210,0.9773766600033746
210,0.9773766600033746
210,0.9773766600033746
210,0.9773766600033746
210,0.9773766600033746
210,0.9773766600033746
210,0.9773766600033746
211,0.9773766600033746
211,0.9773766600033746
211,0.9773766600033746
211,0.9773766600033746
211,0.9773766600033746
211,0.9773766600033746
211,0.9773766600033746
211,0.9774090998065428
211,0.9774090998065428
212,0.9774090998065428
212,0.9774090998065428
212,0.9774090998065428
212,0.9774090998065428
212,0.9774090998065428
212,0.9774090998065428
212,0.9774090998065428
212,0.9774090998065428
213,0.9774090998065428
213,0.9774090998065428
213,0.9774090998065428
213,0.9774090998065428
213,0.9774090998065428
213,0.9774090998065428
213,0.9774090998065428
213,0.9774090998065428
213,0.9774090998065428
214,0.9774090998065428
214,0.9774090998065428
214,0.9774090998065428
214,0.9774090998065428
214,0.9774090998065428
214,0.9774090998065428
214,0.9776170987281105
214,0.9776170987281105
214,0.9776170987281105
215,0.9776170987281105
215,0.9776170987281105
215,0.9776170987281105
215,0.9776170987281105
215,0.9776170987281105
215,0.9776170987281105
215,0.9776170987281105
215,0.9776170987281105
215,0.9776170987281105
216,0.9776170987281105
216,0.9776170987281105
216,0.9776170987281105
216,0.9776170987281105
216,0.9776170987281105
216,0.9776170987281105
216,0.9776170987281105
216,0.9776170987281105
216,0.9776170987281105
217,0.9776170987281105
217,0.9776170987281105
217,0.9776170987281105
217,0.9776170987281105
217,0.9778047683160849
217,0.9778047683160849
217,0.9778047683160849
217,0.9778047683160849
218,0.9778047683160849
218,0.9778047683160849
218,0.9778047683160849
218,0.9778047683160849
218,0.9778047683160849
218,0.9778047683160849
218,0.9778047683160849
218,0.9778047683160849
218,0.9778047683160849
219,0.9778047683160849
219,0.9778047683160849
219,0.9778047683160849
219,0.9778047683160849
219,0.9778047683160849
219,0.9778047683160849
219,0.9778047683160849
219,0.9778047683160849
220,0.9778047683160849
220,0.9778047683160849
220,0.9778047683160849
220,0.9778047683160849
220,0.9781854424049162
220,0.9781854424049162
220,0.9781854424049162
220,0.9781854424049162
221,0.9781854424049162
221,0.9781854424049162
221,0.9781854424049162
221,0.9781854424049162
221,0.9781854424049162
221,0.9781854424049162
221,0.9781854424049162
221,0.9781854424049162
221,0.9781854424049162
222,0.9781854424049162
222,0.9781854424049162
222,0.9781854424049162
222,0.9781854424049162
222,0.9781854424049162
222,0.9781854424049162
222,0.9781854424049162
222,0.9781854424049162
222,0.9781854424049162
223,0.9781854424049162
223,0.9781854424049162
223,0.9781854424049162
223,0.9781927369617166
223,0.9781927369617166
223,0.9781927369617166
223,0.9781927369617166
223,0.9781927369617166
224,0.9781927369617166
224,0.9781927369617166
224,0.9781927369617166
224,0.9781927369617166
224,0.9781927369617166
224,0.9781927369617166
224,0.9781927369617166
224,0.9781927369617166
224,0.9781927369617166
225,0.9781927369617166
225,0.9781927369617166
225,0.9781927369617166
225,0.9781927369617166
225,0.9781927369617166
225,0.9781927369617166
225,0.9781927369617166
225,0.9781927369617166
225,0.9781927369617166
226,0.9781927369617166
226,0.9781927369617166
226,0.9782505280788628
226,0.9782505280788628
226,0.9782505280788628
226,0.9782505280788628
226,0.9782505280788628
226,0.9782505280788628
226,0.9782505280788628
227,0.9782505280788628
227,0.9782505280788628
227,0.9782505280788628
227,0.9782505280788628
227,0.9782505280788628
227,0.9782505280788628
227,0.9782505280788628
227,0.9782505280788628
228,0.9782505280788628
228,0.9782505280788628
228,0.9782505280788628
228,0.9782505280788628
228,0.9782505280788628
228,0.9782505280788628
228,0.9782505280788628
228,0.9782505280788628
228,0.9782505280788628
229,0.9782505280788628
229,0.9787584916244199
229,0.9787584916244199
229,0.9787584916244199
229,0.9787584916244199
229,0.9787584916244199
229,0.9787584916244199
229,0.9787584916244199
229,0.9787584916244199
230,0.9787584916244199
230,0.9787584916244199
230,0.9787584916244199
230,0.9787584916244199
230,0.9787584916244199
230,0.9787584916244199
230,0.9787584916244199
230,0.9787584916244199
231,0.9787584916244199
231,0.9787584916244199
231,0.9787584916244199
231,0.9787584916244199
231,0.9787584916244199
231,0.9787584916244199
231,0.9787584916244199
231,0.9787584916244199
231,0.9787584916244199
232,0.9789318190026184
232,0.9789318190026184
232,0.9789318190026184
232,0.9789318190026184
232,0.9789318190026184
232,0.9789318190026184
232,0.9789318190026184
232,0.9789318190026184
232,0.9789318190026184
233,0.9789318190026184
233,0.9789318190026184
233,0.9789318190026184
233,0.9789318190026184
233,0.9789318190026184
233,0.9789318190026184
233,0.9789318190026184
233,0.9789318190026184
234,0.9789318190026184
234,0.9789318190026184
234,0.9789318190026184
234,0.9789318190026184
234,0.9789318190026184
234,0.9789318190026184
234,0.9789318190026184
234,0.9789318190026184
234,0.9790059159177197
235,0.9790059159177197
235,0.9790059159177197
235,0.9790059159177197
235,0.9790059159177197
235,0.9790059159177197
235,0.9790059159177197
235,0.9790059159177197
235,0.9790059159177197
235,0.9790059159177197
236,0.9790059159177197
236,0.9790059159177197
236,0.9790059159177197
236,0.9790059159177197
236,0.9790059159177197
236,0.9790059159177197
236,0.9790059159177197
236,0.9790059159177197
237,0.9790059159177197
237,0.9790059159177197
237,0.9790059159177197
237,0.9790059159177197
237,0.9790059159177197
237,0.9790059159177197
237,0.9790059159177197
237,0.9790814175225897
237,0.9790814175225897
238,0.9790814175225897
238,0.9790814175225897
238,0.9790814175225897
238,0.9790814175225897
238,0.9790814175225897
238,0.9790814175225897
238,0.9790814175225897
238,0.9790814175225897
239,0.9790814175225897
239,0.9790814175225897
239,0.9790814175225897
239,0.9790814175225897
239,0.9790814175225897
239,0.9790814175225897
239,0.9790814175225897
239,0.9790814175225897
239,0.9790814175225897
240,0.9790814175225897
240,0.9790814175225897
240,0.9790814175225897
240,0.9790814175225897
240,0.9790814175225897
240,0.9790814175225897
240,0.9795336658326121
240,0.9795336658326121
240,0.9795336658326121
241,0.9795336658326121
241,0.9795336658326121
241,0.9795336658326121
241,0.9795336658326121
241,0.9795336658326121
241,0.9795336658326121
241,0.9795336658326121
241,0.9795336658326121
241,0.9795336658326121
242,0.9795336658326121
242,0.9795336658326121
242,0.9795336658326121
242,0.9795336658326121
242,0.9795336658326121
242,0.9795336658326121
242,0.9795336658326121
242,0.9795336658326121
242,0.9795336658326121
242,0.9795336658326121
243,0.9795336658326121
243,0.9795336658326121
243,0.9795336658326121
243,0.9795532498424514
243,0.9795532498424514
243,0.9795532498424514
243,0.9795532498424514
243,0.9795532498424514
243,0.9795532498424514
243,0.9795532498424514
243,0.9795532498424514
243,0.9795532498424514
244,0.9795532498424514
244,0.9795532498424514
244,0.9795532498424514
244,0.9795532498424514
244,0.9795532498424514
244,0.9795532498424514
244,0.9795532498424514
244,0.9795532498424514
244,0.9795532498424514
244,0.9795532498424514
244,0.9795532498424514
244,0.9795532498424514
244,0.9795532498424514
244,0.9795532498424514
244,0.9795532498424514
245,0.9795532498424514
245,0.9796551209179553
245,0.9796551209179553
245,0.9796551209179553
245,0.9796551209179553
245,0.9796551209179553
245,0.9796551209179553
245,0.9796551209179553
245,0.9796551209179553
245,0.9796551209179553
245,0.9796551209179553
245,0.9796551209179553
245,0.9796551209179553
245,0.9796551209179553
245,0.9796551209179553
245,0.9796551209179553
245,0.9796551209179553
245,0.9796551209179553
246,0.9796551209179553
246,0.9796551209179553
246,0.9796551209179553
246,0.9796551209179553
246,0.9796551209179553
246,0.9796551209179553
246,0.9796551209179553
246,0.9796551209179553
246,0.9799131731316427
246,0.9799131731316427
246,0.9799131731316427
246,0.9799131731316427
246,0.9799131731316427
246,0.9799131731316427
246,0.9799131731316427
246,0.9799131731316427
246,0.9799131731316427
246,0.9799131731316427
247,0.9799131731316427
247,0.9799131731316427
247,0.9799131731316427
247,0.9799131731316427
247,0.9799131731316427
247,0.9799131731316427
247,0.9799131731316427
247,0.9799131731316427
247,0.9799131731316427
247,0.9799131731316427
247,0.9799131731316427
247,0.9799131731316427
247,0.9799131731316427
247,0.9799131731316427
247,0.9799131731316427
247,0.9799131731316427
247,0.9799131731316427
247,0.9799131731316427
248,0.9799131731316427
248,0.9799131731316427
248,0.9799131731316427
248,0.9799131731316427
248,0.9799131731316427
248,0.9799131731316427
248,0.9799131731316427
248,0.9799131731316427
248,0.9799131731316427
248,0.9799131731316427
248,0.9799131731316427
248,0.9799131731316427
248,0.9799131731316427
248,0.9799131731316427
248,0.9799131731316427
248,0.9799131731316427
248,0.9799131731316427
248,0.9799131731316427
249,0.9799131731316427
249,0.9799131731316427
249,0.9799131731316427
249,0.9799131731316427
249,0.9804707354737546
249,0.9804707354737546
249,0.9804707354737546
249,0.9804707354737546
249,0.9804707354737546
249,0.9804707354737546
249,0.9804707354737546
249,0.9804707354737546
249,0.9804707354737546
249,0.9804707354737546
249,0.9804707354737546
249,0.9804707354737546
249,0.9804707354737546
249,0.9804707354737546
249,0.9804707354737546
249,0.9804707354737546
249,0.9804707354737546
249,0.9804707354737546
249,0.9804707354737546
249,0.9804707354737546
250,0.9804707354737546
