0,0.18780487499508852
0,0.18780487499508852
0,0.18780487499508852
0,0.18780487499508852
0,0.18780487499508852
0,0.18780487499508852
0,0.18780487499508852
1,0.18780487499508852
1,0.18780487499508852
1,0.18780487499508852
1,0.18780487499508852
1,0.18780487499508852
1,0.18780487499508852
1,0.18780487499508852
1,0.18780487499508852
1,0.18780487499508852
1,0.18780487499508852
1,0.18780487499508852
1,0.18780487499508852
1,0.18780487499508852
1,0.18780487499508852
1,0.18780487499508852
1,0.18780487499508852
1,0.18780487499508852
1,0.6120595011261544
1,0.6120595011261544
1,0.6120595011261544
1,0.6120595011261544
1,0.6120595011261544
1,0.6120595011261544
1,0.6120595011261544
1,0.6120595011261544
1,0.6120595011261544
1,0.6120595011261544
1,0.6120595011261544
1,0.6120595011261544
1,0.6120595011261544
1,0.6120595011261544
1,0.6120595011261544
1,0.6120595011261544
1,0.6120595011261544
1,0.6120595011261544
1,0.6120595011261544
1,0.6120595011261544
1,0.6120595011261544
1,0.6120595011261544
1,0.6120595011261544
1,0.6120595011261544
1,0.6120595011261544
1,0.7068623455326138
1,0.7068623455326138
2,0.7068623455326138
2,0.7068623455326138
2,0.7068623455326138
2,0.7068623455326138
2,0.7068623455326138
2,0.7068623455326138
2,0.7068623455326138
2,0.7068623455326138
2,0.7068623455326138
2,0.7068623455326138
2,0.7068623455326138
2,0.7068623455326138
2,0.7068623455326138
2,0.7068623455326138
2,0.7068623455326138
2,0.7068623455326138
2,0.7068623455326138
2,0.7068623455326138
2,0.7068623455326138
2,0.7068623455326138
2,0.7068623455326138
2,0.7068623455326138
2,0.7068623455326138
2,0.7920501709540765
2,0.7920501709540765
2,0.7920501709540765
2,0.7920501709540765
2,0.7920501709540765
2,0.7920501709540765
2,0.7920501709540765
2,0.7920501709540765
2,0.7920501709540765
2,0.7920501709540765
2,0.7920501709540765
2,0.7920501709540765
2,0.7920501709540765
2,0.7920501709540765
2,0.7920501709540765
2,0.7920501709540765
2,0.7920501709540765
2,0.7920501709540765
2,0.7920501709540765
2,0.7920501709540765
3,0.7920501709540765
3,0.7920501709540765
3,0.7920501709540765
3,0.7920501709540765
3,0.7920501709540765
3,0.8637838961104813
3,0.8637838961104813
3,0.8637838961104813
3,0.8637838961104813
3,0.8637838961104813
3,0.8637838961104813
3,0.8637838961104813
3,0.8637838961104813
3,0.8637838961104813
3,0.8637838961104813
3,0.8637838961104813
3,0.8637838961104813
3,0.8637838961104813
3,0.8637838961104813
3,0.8637838961104813
3,0.8637838961104813
3,0.8637838961104813
3,0.8637838961104813
3,0.8637838961104813
3,0.8637838961104813
3,0.8637838961104813
3,0.8637838961104813
3,0.8637838961104813
3,0.8637838961104813
3,0.8637838961104813
3,0.885955103848037
3,0.885955103848037
3,0.885955103848037
3,0.885955103848037
3,0.885955103848037
3,0.885955103848037
3,0.885955103848037
3,0.885955103848037
3,0.885955103848037
3,0.885955103848037
3,0.885955103848037
3,0.885955103848037
4,0.885955103848037
4,0.885955103848037
4,0.885955103848037
4,0.885955103848037
4,0.885955103848037
4,0.885955103848037
4,0.885955103848037
4,0.885955103848037
4,0.885955103848037
4,0.885955103848037
4,0.885955103848037
4,0.885955103848037
4,0.885955103848037
4,0.885955103848037
4,0.885955103848037
4,0.885955103848037
4,0.885955103848037
4,0.885955103848037
4,0.885955103848037
4,0.885955103848037
4,0.885955103848037
4,0.885955103848037
4,0.885955103848037
4,0.885955103848037
4,0.885955103848037
4,0.885955103848037
4,0.885955103848037
4,0.885955103848037
4,0.885955103848037
4,0.885955103848037
4,0.885955103848037
4,0.885955103848037
4,0.885955103848037
4,0.885955103848037
4,0.885955103848037
4,0.885955103848037
4,0.885955103848037
4,0.885955103848037
4,0.8995372897899786
4,0.8995372897899786
5,0.8995372897899786
5,0.8995372897899786
5,0.8995372897899786
5,0.8995372897899786
5,0.8995372897899786
5,0.8995372897899786
5,0.8995372897899786
5,0.8995372897899786
5,0.8995372897899786
5,0.8995372897899786
5,0.8995372897899786
5,0.8995372897899786
5,0.8995372897899786
5,0.8995372897899786
5,0.8995372897899786
5,0.8995372897899786
5,0.8995372897899786
5,0.8995372897899786
5,0.8995372897899786
5,0.8995372897899786
5,0.8995372897899786
5,0.8995372897899786
5,0.8995372897899786
5,0.9169615487338046
5,0.9169615487338046
5,0.9169615487338046
5,0.9169615487338046
5,0.9169615487338046
5,0.9169615487338046
5,0.9169615487338046
5,0.9169615487338046
5,0.9169615487338046
6,0.9169615487338046
6,0.9169615487338046
6,0.9169615487338046
6,0.9169615487338046
6,0.9169615487338046
6,0.9169615487338046
6,0.9169615487338046
6,0.9169615487338046
6,0.9169615487338046
6,0.9169615487338046
6,0.9169615487338046
6,0.9169615487338046
6,0.9169615487338046
6,0.9169615487338046
6,0.9169615487338046
6,0.9169615487338046
6,0.928763139799426
6,0.928763139799426
6,0.928763139799426
6,0.928763139799426
6,0.928763139799426
6,0.928763139799426
6,0.928763139799426
6,0.928763139799426
6,0.928763139799426
6,0.928763139799426
6,0.928763139799426
6,0.928763139799426
6,0.928763139799426
6,0.928763139799426
6,0.928763139799426
6,0.928763139799426
6,0.928763139799426
6,0.928763139799426
6,0.928763139799426
6,0.928763139799426
7,0.928763139799426
7,0.928763139799426
7,0.928763139799426
7,0.928763139799426
7,0.928763139799426
7,0.93769851527729
7,0.93769851527729
7,0.93769851527729
7,0.93769851527729
7,0.93769851527729
7,0.93769851527729
7,0.93769851527729
7,0.93769851527729
7,0.93769851527729
7,0.93769851527729
7,0.93769851527729
7,0.93769851527729
7,0.93769851527729
7,0.93769851527729
7,0.93769851527729
7,0.93769851527729
7,0.93769851527729
7,0.93769851527729
7,0.93769851527729
7,0.93769851527729
7,0.93769851527729
7,0.93769851527729
7,0.93769851527729
7,0.93769851527729
7,0.93769851527729
7,0.9409719574309425
7,0.9409719574309425
8,0.9409719574309425
8,0.9409719574309425
8,0.9409719574309425
8,0.9409719574309425
8,0.9409719574309425
8,0.9409719574309425
8,0.9409719574309425
8,0.9409719574309425
8,0.9409719574309425
8,0.9409719574309425
8,0.9409719574309425
8,0.9409719574309425
8,0.9409719574309425
8,0.9409719574309425
8,0.9409719574309425
8,0.9409719574309425
8,0.9409719574309425
8,0.9409719574309425
8,0.9409719574309425
8,0.9409719574309425
8,0.9409719574309425
8,0.9409719574309425
8,0.9409719574309425
8,0.9514630811053152
8,0.9514630811053152
8,0.9514630811053152
8,0.9514630811053152
8,0.9514630811053152
8,0.9514630811053152
8,0.9514630811053152
9,0.9514630811053152
9,0.9514630811053152
9,0.9514630811053152
9,0.9514630811053152
9,0.9514630811053152
9,0.9514630811053152
9,0.9514630811053152
9,0.9514630811053152
9,0.9514630811053152
9,0.9514630811053152
9,0.9514630811053152
9,0.9514630811053152
9,0.9514630811053152
9,0.9514630811053152
9,0.9514630811053152
9,0.9514630811053152
9,0.9514630811053152
9,0.9514630811053152
9,0.9591491796675371
9,0.9591491796675371
9,0.9591491796675371
9,0.9591491796675371
9,0.9591491796675371
9,0.9591491796675371
9,0.9591491796675371
9,0.9591491796675371
9,0.9591491796675371
9,0.9591491796675371
9,0.9591491796675371
9,0.9591491796675371
9,0.9591491796675371
9,0.9591491796675371
9,0.9591491796675371
10,0.9591491796675371
10,0.9591491796675371
10,0.9591491796675371
10,0.9591491796675371
10,0.9591491796675371
10,0.9591491796675371
10,0.9591491796675371
10,0.9591491796675371
10,0.9591491796675371
10,0.9591491796675371
10,0.9680028075713837
10,0.9680028075713837
10,0.9680028075713837
10,0.9680028075713837
10,0.9680028075713837
10,0.9680028075713837
10,0.9680028075713837
10,0.9680028075713837
10,0.9680028075713837
10,0.9680028075713837
10,0.9680028075713837
10,0.9680028075713837
10,0.9680028075713837
10,0.9680028075713837
10,0.9680028075713837
10,0.9680028075713837
10,0.9680028075713837
10,0.9680028075713837
10,0.9680028075713837
10,0.9680028075713837
10,0.9680028075713837
10,0.9680028075713837
10,0.9680028075713837
10,0.9680028075713837
11,0.9680028075713837
11,0.9916925209727615
11,0.9916925209727615
11,0.9916925209727615
11,0.9916925209727615
11,0.9916925209727615
11,0.9916925209727615
11,0.9916925209727615
11,0.9916925209727615
11,0.9916925209727615
11,0.9916925209727615
11,0.9916925209727615
11,0.9916925209727615
11,0.9916925209727615
11,0.9916925209727615
11,0.9916925209727615
11,0.9916925209727615
11,0.9916925209727615
11,0.9916925209727615
11,0.9916925209727615
11,0.9916925209727615
11,0.9916925209727615
11,0.9916925209727615
11,0.9916925209727615
11,0.9916925209727615
11,0.9916925209727615
11,0.9974257006410436
11,0.9974257006410436
11,0.9974257006410436
11,0.9974257006410436
11,0.9974257006410436
11,0.9974257006410436
11,0.9974257006410436
12,0.9974257006410436
12,0.9974257006410436
12,0.9974257006410436
12,0.9974257006410436
12,0.9974257006410436
12,0.9974257006410436
12,0.9974257006410436
12,0.9974257006410436
12,0.9974257006410436
12,0.9974257006410436
12,0.9974257006410436
12,0.9974257006410436
12,0.9974257006410436
12,0.9974257006410436
12,0.9974257006410436
12,0.9974257006410436
12,0.9974257006410436
12,0.9974257006410436
12,0.9986364838617579
12,0.9986364838617579
12,0.9986364838617579
12,0.9986364838617579
12,0.9986364838617579
12,0.9986364838617579
12,0.9986364838617579
12,0.9986364838617579
12,0.9986364838617579
12,0.9986364838617579
12,0.9986364838617579
12,0.9986364838617579
12,0.9986364838617579
12,0.9986364838617579
12,0.9986364838617579
12,0.9986364838617579
13,0.9986364838617579
13,0.9986364838617579
13,0.9986364838617579
13,0.9986364838617579
13,0.9986364838617579
13,0.9986364838617579
13,0.9986364838617579
13,0.9986364838617579
13,0.9986364838617579
13,0.9998406154973396
13,0.9998406154973396
13,0.9998406154973396
13,0.9998406154973396
13,0.9998406154973396
13,0.9998406154973396
13,0.9998406154973396
13,0.9998406154973396
13,0.9998406154973396
13,0.9998406154973396
13,0.9998406154973396
13,0.9998406154973396
13,0.9998406154973396
13,0.9998406154973396
13,0.9998406154973396
13,0.9998406154973396
13,0.9998406154973396
13,0.9998406154973396
13,0.9998406154973396
13,0.9998406154973396
13,0.9998406154973396
13,0.9998406154973396
13,0.9998406154973396
13,0.9998406154973396
14,0.9998406154973396
14,0.9999344690929678
14,0.9999344690929678
14,0.9999344690929678
14,0.9999344690929678
14,0.9999344690929678
14,0.9999344690929678
14,0.9999344690929678
14,0.9999344690929678
14,0.9999344690929678
14,0.9999344690929678
14,0.9999344690929678
14,0.9999344690929678
14,0.9999344690929678
14,0.9999344690929678
14,0.9999344690929678
14,0.9999344690929678
14,0.9999344690929678
14,0.9999344690929678
14,0.9999344690929678
14,0.9999344690929678
14,0.9999344690929678
14,0.9999344690929678
14,0.9999344690929678
14,0.9999344690929678
14,0.9999344690929678
14,0.9999344690929681
