1,0.408127779635784
3,0.42716464756581746
4,0.42716464756581746
6,0.43161480670782004
7,0.43161480670782004
8,0.43161480670782004
10,0.43161480670782004
11,0.43161480670782004
12,0.43161480670782004
13,0.43161480670782004
15,0.43161480670782004
16,0.43161480670782004
17,0.43161480670782004
18,0.43161480670782004
19,0.43161480670782004
21,0.43161480670782004
22,0.43161480670782004
23,0.43161480670782004
24,0.43161480670782004
25,0.43161480670782004
27,0.43161480670782004
28,0.43161480670782004
29,0.43161480670782004
30,0.43161480670782004
31,0.43161480670782004
33,0.43161480670782004
34,0.43161480670782004
35,0.43161480670782004
36,0.43161480670782004
38,0.43161480670782004
39,0.43161480670782004
40,0.43161480670782004
41,0.43161480670782004
43,0.43161480670782004
44,0.43161480670782004
45,0.43161480670782004
46,0.43161480670782004
48,0.43161480670782004
49,0.43161480670782004
50,0.43161480670782004
51,0.43161480670782004
53,0.43161480670782004
54,0.43161480670782004
55,0.43161480670782004
56,0.43161480670782004
58,0.43161480670782004
59,0.43161480670782004
60,0.43161480670782004
61,0.43161480670782004
62,0.43161480670782004
64,0.43161480670782004
65,0.43161480670782004
66,0.43161480670782004
67,0.43161480670782004
69,0.43161480670782004
70,0.43161480670782004
71,0.43161480670782004
72,0.43161480670782004
74,0.43161480670782004
75,0.43161480670782004
76,0.43161480670782004
77,0.43161480670782004
78,0.43161480670782004
80,0.43161480670782004
81,0.43161480670782004
82,0.43161480670782004
83,0.43161480670782004
84,0.43161480670782004
86,0.43161480670782004
87,0.43161480670782004
88,0.43161480670782004
89,0.43161480670782004
90,0.43161480670782004
91,0.43161480670782004
92,0.43161480670782004
94,0.43161480670782004
95,0.43161480670782004
96,0.43161480670782004
97,0.43161480670782004
99,0.43161480670782004
100,0.43161480670782004
101,0.43161480670782004
102,0.43161480670782004
103,0.43161480670782004
105,0.43161480670782004
106,0.43161480670782004
107,0.43161480670782004
108,0.43161480670782004
110,0.43161480670782004
111,0.43161480670782004
112,0.43161480670782004
113,0.43161480670782004
114,0.43161480670782004
116,0.43161480670782004
117,0.43161480670782004
118,0.43161480670782004
119,0.43161480670782004
120,0.43161480670782004
122,0.43161480670782004
123,0.43161480670782004
124,0.43161480670782004
125,0.43161480670782004
127,0.43161480670782004
128,0.43161480670782004
129,0.43161480670782004
130,0.43161480670782004
131,0.43161480670782004
133,0.43161480670782004
134,0.43161480670782004
135,0.43161480670782004
136,0.43161480670782004
137,0.43161480670782004
138,0.43161480670782004
140,0.43161480670782004
141,0.43161480670782004
142,0.43161480670782004
143,0.43161480670782004
144,0.43161480670782004
145,0.43161480670782004
146,0.43161480670782004
148,0.43161480670782004
149,0.43161480670782004
150,0.43161480670782004
