2,0.396106871086737
3,0.41496167493625
4,0.41496167493625
6,0.41496167493625
7,0.41496167493625
8,0.41496167493625
9,0.41496167493625
11,0.41496167493625
12,0.41496167493625
13,0.41496167493625
15,0.41496167493625
16,0.41496167493625
17,0.41496167493625
18,0.44957784909285353
20,0.44957784909285353
21,0.44957784909285353
23,0.44957784909285353
24,0.44957784909285353
25,0.44957784909285353
27,0.44957784909285353
28,0.44957784909285353
29,0.44957784909285353
30,0.44957784909285353
32,0.44957784909285353
33,0.44957784909285353
34,0.44957784909285353
35,0.44957784909285353
37,0.44957784909285353
38,0.44957784909285353
39,0.44957784909285353
40,0.44957784909285353
42,0.44957784909285353
43,0.44957784909285353
44,0.44957784909285353
45,0.44957784909285353
46,0.44957784909285353
48,0.44957784909285353
49,0.44957784909285353
50,0.44957784909285353
51,0.44957784909285353
52,0.44957784909285353
54,0.44957784909285353
55,0.44957784909285353
56,0.44957784909285353
57,0.44957784909285353
58,0.44957784909285353
59,0.44957784909285353
61,0.44957784909285353
62,0.44957784909285353
63,0.44957784909285353
64,0.44957784909285353
65,0.44957784909285353
66,0.44957784909285353
68,0.44957784909285353
69,0.44957784909285353
70,0.44957784909285353
71,0.44957784909285353
72,0.44957784909285353
73,0.44957784909285353
74,0.44957784909285353
76,0.44957784909285353
77,0.44957784909285353
78,0.44957784909285353
79,0.44957784909285353
81,0.44957784909285353
82,0.44957784909285353
83,0.44957784909285353
84,0.44957784909285353
85,0.44957784909285353
87,0.44957784909285353
88,0.44957784909285353
89,0.44957784909285353
90,0.44957784909285353
91,0.44957784909285353
92,0.44957784909285353
93,0.44957784909285353
94,0.44957784909285353
96,0.44957784909285353
97,0.44957784909285353
98,0.44957784909285353
99,0.44957784909285353
100,0.44957784909285353
101,0.44957784909285353
102,0.44957784909285353
103,0.44957784909285353
104,0.44957784909285353
105,0.44957784909285353
107,0.44957784909285353
108,0.44957784909285353
109,0.44957784909285353
110,0.44957784909285353
111,0.44957784909285353
113,0.44957784909285353
114,0.44957784909285353
115,0.44957784909285353
116,0.44957784909285353
117,0.44957784909285353
119,0.44957784909285353
120,0.44957784909285353
121,0.44957784909285353
122,0.44957784909285353
123,0.44957784909285353
124,0.44957784909285353
126,0.44957784909285353
127,0.44957784909285353
128,0.44957784909285353
129,0.44957784909285353
130,0.44957784909285353
131,0.44957784909285353
132,0.44957784909285353
133,0.44957784909285353
135,0.44957784909285353
136,0.44957784909285353
137,0.44957784909285353
138,0.44957784909285353
139,0.44957784909285353
141,0.44957784909285353
142,0.44957784909285353
143,0.44957784909285353
144,0.44957784909285353
145,0.44957784909285353
147,0.44957784909285353
148,0.44957784909285353
149,0.44957784909285353
150,0.44957784909285353
